,0,1,2,3,4,5,6,7,8,9,10,11,12,13,14,15,16,17,18,19,20,21,22,23,24,25,26,27,28,29,30,31,32,33,34,35,36,37,38,39,40,41,42,43,44,45,46,47,48,49,50,51,52,53,54,55,56,57,58,59,60,61,62,63,64,65,66,67,68,69,70,71,72,73,74,75,76,77,78,79,80,81,82,83,84,85,86,87,88,89,90,91,92,93,94,95
0,ลำดับ,รหัส SMIS,โรงเรียน,อ.3 ขวบ ชาย,อ.3 ขวบ หญิง,รวมอ.3 ขวบ,อ.3 ขวบ ห้อง,อ.1 ชาย,อ.1 หญิง,รวมอ.1,อ.1 ห้อง,อ.2 ชาย,อ.2 หญิง,รวมอ.2,อ.2 ห้อง,รวมก่อนประถม ชาย,รวมก่อนประถม หญิง,รวมก่อนประถม,รวมห้องก่อนประถม,ป.1 ชาย,ป.1 หญิง,รวมป.1,ป.1 ห้อง,ป.2 ชาย,ป.2 หญิง,รวมป.2,ป.2 ห้อง,ป.3 ชาย,ป.3 หญิง,รวมป.3,ป.3 ห้อง,ป.4 ชาย,ป.4 หญิง,รวมป.4,ป.4 ห้อง,ป.5 ชาย,ป.5 หญิง,รวมป.5,ป.5 ห้อง,ป.6 ชาย,ป.6 หญิง,รวมป.6,ป.6 ห้อง,รวมประถม ชาย,รวมประถม หญิง,รวมประถม,รวมห้องประถม,ม.1 ชาย,ม.1 หญิง,รวมม.1,ม.1 ห้อง,ม.2 ชาย,ม.2 หญิง,รวมม.2,ม.2 ห้อง,ม.3 ชาย,ม.3 หญิง,รวมม.3,ม.3 ห้อง,รวมม.ต้น ชาย,รวมม.ต้น หญิง,รวมม.ต้น,รวมห้องม.ต้น,ม.4 ชาย,ม.4 หญิง,รวมม.4,ม.4 ห้อง,ม.5 ชาย,ม.5 หญิง,รวมม.5,ม.5 ห้อง,ม.6 ชาย,ม.6 หญิง,รวมม.6,ม.6 ห้อง,ปวช.1 ชาย,ปวช.1 หญิง,รวมปวช.1,ปวช.1 ห้อง,ปวช.2 ชาย,ปวช.2 หญิง,รวมปวช.2,ปวช.2 ห้อง,ปวช.3 ชาย,ปวช.3 หญิง,รวมปวช.3,ปวช.3 ห้อง,รวมม.ปลายและเทียบเท่า ชาย,รวมม.ปลายและเทียบเท่า หญิง,รวมม.ปลายและเทียบเท่า,รวมห้องม.ปลายและเทียบเท่า,รวมทั้งหมด ชาย,รวมทั้งหมด หญิง,รวมทั้งหมด,รวมห้องทั้งหมด,ข้อมูล ณ วันที่
1,1,12010001,วัดลานนาบุญ (น้อม หงสะเดชอุปถัมภ์),14,16,30,1,29,22,51,2,35,27,62,3,78,65,143,6,67,61,128,4,62,46,108,4,57,46,103,4,59,48,107,4,62,54,116,4,58,63,121,4,365,318,683,24,0,0,0,0,0,0,0,0,0,0,0,0,0,0,0,0,0,0,0,0,0,0,0,0,0,0,0,0,0,0,0,0,0,0,0,0,0,0,0,0,0,0,0,0,443,383,826,30,10 มิถุนายน 2561
2,2,12010002,วัดบัวขวัญ(มีทับราษฎร์บำรุง),0,0,0,0,33,28,61,2,34,22,56,2,67,50,117,4,32,32,64,2,17,31,48,2,35,35,70,2,34,29,63,2,29,30,59,2,29,31,60,2,176,188,364,12,0,0,0,0,0,0,0,0,0,0,0,0,0,0,0,0,0,0,0,0,0,0,0,0,0,0,0,0,0,0,0,0,0,0,0,0,0,0,0,0,0,0,0,0,243,238,481,16,10 มิถุนายน 2561
3,3,12010003,ท่าทรายประชาอุปถัมภ์,0,0,0,0,17,21,38,1,19,14,33,1,36,35,71,2,15,10,25,1,24,15,39,2,22,11,33,2,21,17,38,2,15,9,24,1,13,19,32,2,110,81,191,10,0,0,0,0,0,0,0,0,0,0,0,0,0,0,0,0,0,0,0,0,0,0,0,0,0,0,0,0,0,0,0,0,0,0,0,0,0,0,0,0,0,0,0,0,146,116,262,12,10 มิถุนายน 2561
4,4,12010004,วัดตำหนักใต้(วิลาศโอสถานนท์นุเคราะห์),10,14,24,1,19,18,37,2,16,12,28,2,45,44,89,5,26,20,46,2,22,21,43,2,28,17,45,2,26,26,52,2,20,26,46,2,22,19,41,2,144,129,273,12,29,31,60,2,26,20,46,2,22,24,46,2,77,75,152,6,0,0,0,0,0,0,0,0,0,0,0,0,0,0,0,0,0,0,0,0,0,0,0,0,0,0,0,0,266,248,514,23,10 มิถุนายน 2561
5,5,12010005,ทานสัมฤทธิ์วิทยา,0,0,0,0,38,34,72,3,37,32,69,3,75,66,141,6,62,42,104,4,48,58,106,4,56,39,95,4,46,63,109,3,59,51,110,3,53,39,92,3,324,292,616,21,0,0,0,0,0,0,0,0,0,0,0,0,0,0,0,0,0,0,0,0,0,0,0,0,0,0,0,0,0,0,0,0,0,0,0,0,0,0,0,0,0,0,0,0,399,358,757,27,10 มิถุนายน 2561
6,6,12010006,ประชาอุปถัมภ์,31,24,55,2,38,42,80,4,57,55,112,4,126,121,247,10,87,97,184,7,95,98,193,6,91,81,172,5,102,99,201,6,86,92,178,5,80,82,162,5,541,549,1090,34,0,0,0,0,0,0,0,0,0,0,0,0,0,0,0,0,0,0,0,0,0,0,0,0,0,0,0,0,0,0,0,0,0,0,0,0,0,0,0,0,0,0,0,0,667,670,1337,44,10 มิถุนายน 2561
7,7,12010008,ชุมชนวัดไทรม้า,0,0,0,0,9,12,21,1,13,12,25,1,22,24,46,2,17,14,31,2,21,20,41,2,26,17,43,2,25,10,35,1,10,24,34,1,27,28,55,2,126,113,239,10,29,17,46,1,12,17,29,1,9,15,24,1,50,49,99,3,0,0,0,0,0,0,0,0,0,0,0,0,0,0,0,0,0,0,0,0,0,0,0,0,0,0,0,0,198,186,384,15,10 มิถุนายน 2561
8,8,12010010,วัดแจ้งศิริสัมพันธ์(สโมสรสากลอุทิศ),14,8,22,1,10,19,29,2,28,23,51,2,52,50,102,5,20,23,43,2,14,29,43,2,28,19,47,2,22,28,50,2,29,27,56,3,36,30,66,3,149,156,305,14,0,0,0,0,0,0,0,0,0,0,0,0,0,0,0,0,0,0,0,0,0,0,0,0,0,0,0,0,0,0,0,0,0,0,0,0,0,0,0,0,0,0,0,0,201,206,407,19,10 มิถุนายน 2561
9,9,12010011,ชุมชนวัดสมรโกฏิ(อยู่พูนราษฎร์บำรุง),0,0,0,0,17,13,30,2,29,31,60,2,46,44,90,4,32,32,64,3,30,23,53,3,48,36,84,3,34,36,70,3,45,28,73,3,30,36,66,3,219,191,410,18,0,0,0,0,0,0,0,0,0,0,0,0,0,0,0,0,0,0,0,0,0,0,0,0,0,0,0,0,0,0,0,0,0,0,0,0,0,0,0,0,0,0,0,0,265,235,500,22,10 มิถุนายน 2561
10,10,12010012,อนุราชประสิทธิ์,0,0,0,0,133,124,257,9,145,151,296,9,278,275,553,18,180,163,343,9,170,177,347,10,186,182,368,10,165,165,330,10,183,166,349,10,179,183,362,10,1063,1036,2099,59,138,115,253,6,130,118,248,6,131,90,221,6,399,323,722,18,47,68,115,3,46,42,88,3,50,56,106,3,0,0,0,0,0,0,0,0,0,0,0,0,143,166,309,9,1883,1800,3683,104,10 มิถุนายน 2561
11,11,12010013,วัดบางระโหง(ภิรมย์ศิริ),0,0,0,0,14,7,21,1,12,14,26,1,26,21,47,2,13,10,23,1,9,9,18,1,16,6,22,1,13,12,25,1,14,8,22,1,17,12,29,1,82,57,139,6,22,16,38,1,15,22,37,1,24,7,31,1,61,45,106,3,0,0,0,0,0,0,0,0,0,0,0,0,0,0,0,0,0,0,0,0,0,0,0,0,0,0,0,0,169,123,292,11,10 มิถุนายน 2561
12,12,12010015,วัดปราสาท,0,0,0,0,6,9,15,1,10,5,15,1,16,14,30,2,9,7,16,1,8,7,15,1,6,8,14,1,4,3,7,1,7,3,10,1,8,6,14,1,42,34,76,6,0,0,0,0,0,0,0,0,0,0,0,0,0,0,0,0,0,0,0,0,0,0,0,0,0,0,0,0,0,0,0,0,0,0,0,0,0,0,0,0,0,0,0,0,58,48,106,8,10 มิถุนายน 2561
13,13,12010017,ไทยรัฐวิทยา ๕๕ (วัดโบสถ์ดอนพรหม),0,0,0,0,21,22,43,3,32,26,58,3,53,48,101,6,35,31,66,3,37,42,79,3,47,35,82,3,43,36,79,3,38,52,90,3,49,54,103,3,249,250,499,18,0,0,0,0,0,0,0,0,0,0,0,0,0,0,0,0,0,0,0,0,0,0,0,0,0,0,0,0,0,0,0,0,0,0,0,0,0,0,0,0,0,0,0,0,302,298,600,24,10 มิถุนายน 2561
14,14,12010019,วัดฝาง,0,0,0,0,7,5,12,1,13,7,20,1,20,12,32,2,5,8,13,1,10,12,22,1,9,5,14,1,8,7,15,1,8,2,10,1,11,6,17,1,51,40,91,6,0,0,0,0,0,0,0,0,0,0,0,0,0,0,0,0,0,0,0,0,0,0,0,0,0,0,0,0,0,0,0,0,0,0,0,0,0,0,0,0,0,0,0,0,71,52,123,8,10 มิถุนายน 2561
15,15,12010020,วัดทางหลวงโพธิ์ทอง,0,0,0,0,9,16,25,2,21,25,46,2,30,41,71,4,33,23,56,2,19,24,43,2,25,27,52,2,28,22,50,2,25,19,44,2,23,18,41,2,153,133,286,12,0,0,0,0,0,0,0,0,0,0,0,0,0,0,0,0,0,0,0,0,0,0,0,0,0,0,0,0,0,0,0,0,0,0,0,0,0,0,0,0,0,0,0,0,183,174,357,16,10 มิถุนายน 2561
16,16,12010021,วัดโชติการาม,0,0,0,0,5,8,13,1,3,3,6,1,8,11,19,2,7,7,14,1,7,4,11,1,9,10,19,1,6,9,15,1,5,10,15,1,13,8,21,1,47,48,95,6,10,8,18,1,17,5,22,1,12,10,22,1,39,23,62,3,0,0,0,0,0,0,0,0,0,0,0,0,0,0,0,0,0,0,0,0,0,0,0,0,0,0,0,0,94,82,176,11,10 มิถุนายน 2561
17,17,12010024,ป่าไม้อุทิศ 9,0,0,0,0,19,14,33,1,23,20,43,2,42,34,76,3,16,9,25,1,11,8,19,1,16,16,32,1,17,14,31,1,12,10,22,1,10,14,24,1,82,71,153,6,0,0,0,0,0,0,0,0,0,0,0,0,0,0,0,0,0,0,0,0,0,0,0,0,0,0,0,0,0,0,0,0,0,0,0,0,0,0,0,0,0,0,0,0,124,105,229,9,10 มิถุนายน 2561
18,18,12010025,วัดพุฒิปรางค์ปราโมทย์,10,11,21,1,14,10,24,1,13,14,27,1,37,35,72,3,37,22,59,2,19,24,43,2,24,27,51,2,16,13,29,1,28,20,48,2,12,23,35,1,136,129,265,10,0,0,0,0,0,0,0,0,0,0,0,0,0,0,0,0,0,0,0,0,0,0,0,0,0,0,0,0,0,0,0,0,0,0,0,0,0,0,0,0,0,0,0,0,173,164,337,13,10 มิถุนายน 2561
19,19,12010026,วัดเฉลิมพระเกียรติ(พิบูลบำรุง),15,12,27,1,60,49,109,4,54,56,110,4,129,117,246,9,61,50,111,4,44,44,88,4,42,45,87,4,47,48,95,4,46,44,90,3,51,52,103,4,291,283,574,23,0,0,0,0,0,0,0,0,0,0,0,0,0,0,0,0,0,0,0,0,0,0,0,0,0,0,0,0,0,0,0,0,0,0,0,0,0,0,0,0,0,0,0,0,420,400,820,32,10 มิถุนายน 2561
20,20,12010027,อนุบาลนนทบุรี,0,0,0,0,72,67,139,5,85,81,166,6,157,148,305,11,135,129,264,7,114,128,242,7,103,142,245,7,123,101,224,7,119,114,233,7,111,123,234,7,705,737,1442,42,0,0,0,0,0,0,0,0,0,0,0,0,0,0,0,0,0,0,0,0,0,0,0,0,0,0,0,0,0,0,0,0,0,0,0,0,0,0,0,0,0,0,0,0,862,885,1747,53,10 มิถุนายน 2561
21,21,12010028,กลาโหมอุทิศ,0,0,0,0,33,27,60,2,36,19,55,2,69,46,115,4,28,25,53,2,18,23,41,2,30,32,62,2,21,30,51,2,37,38,75,2,32,35,67,2,166,183,349,12,0,0,0,0,0,0,0,0,0,0,0,0,0,0,0,0,0,0,0,0,0,0,0,0,0,0,0,0,0,0,0,0,0,0,0,0,0,0,0,0,0,0,0,0,235,229,464,16,10 มิถุนายน 2561
22,22,12010029,วัดปากน้ำ(พิบูลสงคราม),0,0,0,0,10,7,17,2,23,13,36,2,33,20,53,4,12,14,26,2,18,16,34,2,17,16,33,2,18,18,36,2,18,21,39,2,24,14,38,2,107,99,206,12,0,0,0,0,0,0,0,0,0,0,0,0,0,0,0,0,0,0,0,0,0,0,0,0,0,0,0,0,0,0,0,0,0,0,0,0,0,0,0,0,0,0,0,0,140,119,259,16,10 มิถุนายน 2561
23,23,12010030,วัดจันทร์(ผาดไสวประชาอุทิศ),0,0,0,0,13,12,25,1,10,18,28,1,23,30,53,2,21,11,32,1,17,11,28,1,15,9,24,1,11,14,25,1,9,6,15,1,12,9,21,1,85,60,145,6,0,0,0,0,0,0,0,0,0,0,0,0,0,0,0,0,0,0,0,0,0,0,0,0,0,0,0,0,0,0,0,0,0,0,0,0,0,0,0,0,0,0,0,0,108,90,198,8,10 มิถุนายน 2561
24,24,12010032,วัดเชิงกระบือ,0,0,0,0,15,11,26,1,7,20,27,1,22,31,53,2,20,11,31,1,12,10,22,1,13,18,31,1,17,10,27,1,16,13,29,1,15,16,31,1,93,78,171,6,0,0,0,0,0,0,0,0,0,0,0,0,0,0,0,0,0,0,0,0,0,0,0,0,0,0,0,0,0,0,0,0,0,0,0,0,0,0,0,0,0,0,0,0,115,109,224,8,10 มิถุนายน 2561
25,25,12010033,วัดสำโรง(หิรัญราษฎร์ภักดีวิทยา),0,0,0,0,20,29,49,2,24,24,48,2,44,53,97,4,29,24,53,2,25,21,46,2,19,28,47,2,16,23,39,2,19,20,39,1,14,15,29,1,122,131,253,10,0,0,0,0,0,0,0,0,0,0,0,0,0,0,0,0,0,0,0,0,0,0,0,0,0,0,0,0,0,0,0,0,0,0,0,0,0,0,0,0,0,0,0,0,166,184,350,14,10 มิถุนายน 2561
26,26,12010037,วัดบางไกรนอก(แย้มพร้อมอุปถัมภ์),0,0,0,0,15,11,26,1,14,9,23,1,29,20,49,2,14,9,23,1,18,11,29,1,11,10,21,1,13,25,38,1,15,17,32,1,15,16,31,1,86,88,174,6,0,0,0,0,0,0,0,0,0,0,0,0,0,0,0,0,0,0,0,0,0,0,0,0,0,0,0,0,0,0,0,0,0,0,0,0,0,0,0,0,0,0,0,0,115,108,223,8,10 มิถุนายน 2561
27,27,12010038,ชุมชนวัดบางไกรใน(ศีลพิบูลย์วิทยา),0,0,0,0,5,14,19,1,13,9,22,1,18,23,41,2,10,10,20,1,11,12,23,1,12,9,21,1,7,12,19,1,12,11,23,1,6,14,20,1,58,68,126,6,0,0,0,0,0,0,0,0,0,0,0,0,0,0,0,0,0,0,0,0,0,0,0,0,0,0,0,0,0,0,0,0,0,0,0,0,0,0,0,0,0,0,0,0,76,91,167,8,10 มิถุนายน 2561
28,28,12010039,วัดซองพลู(วิฑิตราชประชานุสรณ์),0,0,0,0,7,11,18,1,12,9,21,1,19,20,39,2,9,8,17,1,3,10,13,1,11,12,23,1,11,7,18,1,4,10,14,1,5,10,15,1,43,57,100,6,0,0,0,0,0,0,0,0,0,0,0,0,0,0,0,0,0,0,0,0,0,0,0,0,0,0,0,0,0,0,0,0,0,0,0,0,0,0,0,0,0,0,0,0,62,77,139,8,10 มิถุนายน 2561
29,29,12010048,อนุบาลบางกรวย,22,19,41,2,19,25,44,2,26,32,58,2,67,76,143,6,39,41,80,2,27,21,48,2,49,26,75,2,38,41,79,2,26,38,64,2,45,37,82,2,224,204,428,12,0,0,0,0,0,0,0,0,0,0,0,0,0,0,0,0,0,0,0,0,0,0,0,0,0,0,0,0,0,0,0,0,0,0,0,0,0,0,0,0,0,0,0,0,291,280,571,18,10 มิถุนายน 2561
30,30,12010049,มหาสวัสดิ์(ราษฎร์บำรุง),0,0,0,0,22,14,36,2,21,19,40,2,43,33,76,4,20,17,37,2,24,12,36,2,30,12,42,2,21,17,38,2,17,26,43,2,25,19,44,2,137,103,240,12,25,17,42,1,22,11,33,1,18,8,26,1,65,36,101,3,0,0,0,0,0,0,0,0,0,0,0,0,0,0,0,0,0,0,0,0,0,0,0,0,0,0,0,0,245,172,417,19,10 มิถุนายน 2561
31,31,12010053,วัดใหม่ผดุงเขต,0,0,0,0,28,22,50,2,23,27,50,2,51,49,100,4,17,21,38,1,23,21,44,2,19,16,35,1,20,22,42,2,19,31,50,2,18,25,43,2,116,136,252,10,27,16,43,2,26,7,33,1,19,17,36,1,72,40,112,4,0,0,0,0,0,0,0,0,0,0,0,0,0,0,0,0,0,0,0,0,0,0,0,0,0,0,0,0,239,225,464,18,10 มิถุนายน 2561
32,32,12010054,นุ่มประสงค์วิทยา,0,0,0,0,7,7,14,1,5,6,11,1,12,13,25,2,13,4,17,1,9,8,17,1,8,5,13,1,10,8,18,1,9,6,15,1,5,3,8,1,54,34,88,6,9,7,16,1,7,7,14,1,5,9,14,1,21,23,44,3,0,0,0,0,0,0,0,0,0,0,0,0,0,0,0,0,0,0,0,0,0,0,0,0,0,0,0,0,87,70,157,11,10 มิถุนายน 2561
