,0,1,2,3,4,5,6,7,8,9,10,11,12,13,14,15,16,17,18,19,20,21,22,23,24,25,26,27,28,29,30,31,32,33,34,35,36,37,38,39,40,41,42,43,44,45,46,47,48,49,50,51,52,53,54,55,56,57,58,59,60,61,62,63,64,65,66,67,68,69,70,71,72,73,74,75,76,77,78,79,80,81,82,83,84,85,86,87,88,89,90,91,92,93,94,95
0,ลำดับ,รหัส SMIS,โรงเรียน,อ.3 ขวบ ชาย,อ.3 ขวบ หญิง,รวมอ.3 ขวบ,อ.3 ขวบ ห้อง,อ.1 ชาย,อ.1 หญิง,รวมอ.1,อ.1 ห้อง,อ.2 ชาย,อ.2 หญิง,รวมอ.2,อ.2 ห้อง,รวมก่อนประถม ชาย,รวมก่อนประถม หญิง,รวมก่อนประถม,รวมห้องก่อนประถม,ป.1 ชาย,ป.1 หญิง,รวมป.1,ป.1 ห้อง,ป.2 ชาย,ป.2 หญิง,รวมป.2,ป.2 ห้อง,ป.3 ชาย,ป.3 หญิง,รวมป.3,ป.3 ห้อง,ป.4 ชาย,ป.4 หญิง,รวมป.4,ป.4 ห้อง,ป.5 ชาย,ป.5 หญิง,รวมป.5,ป.5 ห้อง,ป.6 ชาย,ป.6 หญิง,รวมป.6,ป.6 ห้อง,รวมประถม ชาย,รวมประถม หญิง,รวมประถม,รวมห้องประถม,ม.1 ชาย,ม.1 หญิง,รวมม.1,ม.1 ห้อง,ม.2 ชาย,ม.2 หญิง,รวมม.2,ม.2 ห้อง,ม.3 ชาย,ม.3 หญิง,รวมม.3,ม.3 ห้อง,รวมม.ต้น ชาย,รวมม.ต้น หญิง,รวมม.ต้น,รวมห้องม.ต้น,ม.4 ชาย,ม.4 หญิง,รวมม.4,ม.4 ห้อง,ม.5 ชาย,ม.5 หญิง,รวมม.5,ม.5 ห้อง,ม.6 ชาย,ม.6 หญิง,รวมม.6,ม.6 ห้อง,ปวช.1 ชาย,ปวช.1 หญิง,รวมปวช.1,ปวช.1 ห้อง,ปวช.2 ชาย,ปวช.2 หญิง,รวมปวช.2,ปวช.2 ห้อง,ปวช.3 ชาย,ปวช.3 หญิง,รวมปวช.3,ปวช.3 ห้อง,รวมม.ปลายและเทียบเท่า ชาย,รวมม.ปลายและเทียบเท่า หญิง,รวมม.ปลายและเทียบเท่า,รวมห้องม.ปลายและเทียบเท่า,รวมทั้งหมด ชาย,รวมทั้งหมด หญิง,รวมทั้งหมด,รวมห้องทั้งหมด,ข้อมูล ณ วันที่
1,1,21010001,วัดแกลงบน,4,3,7,1,9,5,14,1,12,7,19,1,25,15,40,3,2,13,15,1,10,6,16,1,10,4,14,1,8,2,10,1,9,9,18,1,6,9,15,1,45,43,88,6,19,12,31,1,18,10,28,1,12,4,16,1,49,26,75,3,0,0,0,0,0,0,0,0,0,0,0,0,0,0,0,0,0,0,0,0,0,0,0,0,0,0,0,0,119,84,203,12,10 มิถุนายน 2561
2,2,21010002,วัดธงหงส์,0,0,0,0,6,3,9,1,9,11,20,1,15,14,29,2,7,10,17,1,8,7,15,1,2,6,8,1,6,4,10,1,4,5,9,1,2,3,5,1,29,35,64,6,0,0,0,0,0,0,0,0,0,0,0,0,0,0,0,0,0,0,0,0,0,0,0,0,0,0,0,0,0,0,0,0,0,0,0,0,0,0,0,0,0,0,0,0,44,49,93,8,10 มิถุนายน 2561
3,3,21010003,บ้านสมานมิตร,0,0,0,0,4,4,8,1,3,5,8,1,7,9,16,2,8,7,15,1,4,4,8,1,6,6,12,1,9,1,10,1,6,2,8,1,2,5,7,1,35,25,60,6,0,0,0,0,0,0,0,0,0,0,0,0,0,0,0,0,0,0,0,0,0,0,0,0,0,0,0,0,0,0,0,0,0,0,0,0,0,0,0,0,0,0,0,0,42,34,76,8,10 มิถุนายน 2561
4,4,21010004,บ้านตะพุนทอง,1,3,4,1,0,1,1,1,1,3,4,1,2,7,9,3,5,3,8,1,2,5,7,1,5,2,7,1,2,0,2,1,3,2,5,1,2,0,2,1,19,12,31,6,0,0,0,0,0,0,0,0,0,0,0,0,0,0,0,0,0,0,0,0,0,0,0,0,0,0,0,0,0,0,0,0,0,0,0,0,0,0,0,0,0,0,0,0,21,19,40,9,10 มิถุนายน 2561
5,5,21010005,บ้านไร่จันดี,0,0,0,0,21,23,44,2,16,29,45,2,37,52,89,4,31,26,57,2,20,19,39,2,15,17,32,1,25,22,47,2,13,20,33,1,16,10,26,1,120,114,234,9,0,0,0,0,0,0,0,0,0,0,0,0,0,0,0,0,0,0,0,0,0,0,0,0,0,0,0,0,0,0,0,0,0,0,0,0,0,0,0,0,0,0,0,0,157,166,323,13,10 มิถุนายน 2561
6,6,21010006,บ้านเขายายชุม,1,2,3,1,5,1,6,1,4,6,10,1,10,9,19,3,12,9,21,1,7,4,11,1,6,8,14,1,4,5,9,1,4,6,10,1,4,8,12,1,37,40,77,6,0,0,0,0,0,0,0,0,0,0,0,0,0,0,0,0,0,0,0,0,0,0,0,0,0,0,0,0,0,0,0,0,0,0,0,0,0,0,0,0,0,0,0,0,47,49,96,9,10 มิถุนายน 2561
7,7,21010007,สามัคคีราษฎร์บำรุง,0,0,0,0,2,4,6,1,17,18,35,2,19,22,41,3,19,14,33,2,12,10,22,1,11,10,21,1,19,13,32,2,8,16,24,1,16,13,29,2,85,76,161,9,0,0,0,0,0,0,0,0,0,0,0,0,0,0,0,0,0,0,0,0,0,0,0,0,0,0,0,0,0,0,0,0,0,0,0,0,0,0,0,0,0,0,0,0,104,98,202,12,10 มิถุนายน 2561
8,8,21010008,วัดท่าเรือ,0,0,0,0,7,13,20,1,29,27,56,2,36,40,76,3,38,26,64,2,36,30,66,2,32,37,69,2,25,25,50,2,28,30,58,2,27,19,46,2,186,167,353,12,38,39,77,3,41,43,84,3,36,47,83,3,115,129,244,9,0,0,0,0,0,0,0,0,0,0,0,0,0,0,0,0,0,0,0,0,0,0,0,0,0,0,0,0,337,336,673,24,10 มิถุนายน 2561
9,9,21010009,วัดตะเคียนทอง,5,4,9,1,7,7,14,1,8,4,12,1,20,15,35,3,17,11,28,1,11,11,22,1,15,9,24,1,19,13,32,1,15,12,27,1,11,11,22,1,88,67,155,6,0,0,0,0,0,0,0,0,0,0,0,0,0,0,0,0,0,0,0,0,0,0,0,0,0,0,0,0,0,0,0,0,0,0,0,0,0,0,0,0,0,0,0,0,108,82,190,9,10 มิถุนายน 2561
10,10,21010010,วัดบ้านดอน,7,4,11,1,9,11,20,1,16,19,35,1,32,34,66,3,66,50,116,4,46,44,90,3,51,36,87,3,37,35,72,3,54,41,95,3,40,35,75,2,294,241,535,18,0,0,0,0,0,0,0,0,0,0,0,0,0,0,0,0,0,0,0,0,0,0,0,0,0,0,0,0,0,0,0,0,0,0,0,0,0,0,0,0,0,0,0,0,326,275,601,21,10 มิถุนายน 2561
11,11,21010011,บ้านหนองจอก,0,0,0,0,15,14,29,2,23,16,39,2,38,30,68,4,22,29,51,2,20,22,42,2,16,28,44,2,24,35,59,2,27,24,51,2,24,25,49,2,133,163,296,12,0,0,0,0,0,0,0,0,0,0,0,0,0,0,0,0,0,0,0,0,0,0,0,0,0,0,0,0,0,0,0,0,0,0,0,0,0,0,0,0,0,0,0,0,171,193,364,16,10 มิถุนายน 2561
12,12,21010012,วัดเกาะกลอย,0,0,0,0,10,9,19,1,16,14,30,1,26,23,49,2,25,11,36,1,14,12,26,1,18,11,29,1,10,13,23,1,20,13,33,1,17,12,29,1,104,72,176,6,0,0,0,0,0,0,0,0,0,0,0,0,0,0,0,0,0,0,0,0,0,0,0,0,0,0,0,0,0,0,0,0,0,0,0,0,0,0,0,0,0,0,0,0,130,95,225,8,10 มิถุนายน 2561
13,13,21010013,วัดปลวกเกตุ,5,12,17,1,10,8,18,1,14,6,20,1,29,26,55,3,14,14,28,1,10,8,18,1,10,8,18,1,11,8,19,1,9,6,15,1,9,1,10,1,63,45,108,6,0,0,0,0,0,0,0,0,0,0,0,0,0,0,0,0,0,0,0,0,0,0,0,0,0,0,0,0,0,0,0,0,0,0,0,0,0,0,0,0,0,0,0,0,92,71,163,9,10 มิถุนายน 2561
14,14,21010014,วัดช้างชนศิริราษฎร์บำรุง,0,0,0,0,9,8,17,1,12,6,18,1,21,14,35,2,9,9,18,1,7,6,13,1,8,6,14,1,9,7,16,1,9,3,12,1,9,6,15,1,51,37,88,6,0,0,0,0,0,0,0,0,0,0,0,0,0,0,0,0,0,0,0,0,0,0,0,0,0,0,0,0,0,0,0,0,0,0,0,0,0,0,0,0,0,0,0,0,72,51,123,8,10 มิถุนายน 2561
15,15,21010015,วัดตะพงนอก,10,7,17,1,0,0,0,0,0,0,0,0,10,7,17,1,51,61,112,3,56,42,98,3,57,41,98,3,63,69,132,4,52,50,102,3,51,50,101,3,330,313,643,19,74,75,149,5,88,76,164,5,70,61,131,4,232,212,444,14,0,0,0,0,0,0,0,0,0,0,0,0,0,0,0,0,0,0,0,0,0,0,0,0,0,0,0,0,572,532,1104,34,10 มิถุนายน 2561
16,16,21010017,วัดยายดา,0,0,0,0,13,14,27,1,10,13,23,1,23,27,50,2,21,11,32,1,11,17,28,1,15,18,33,1,17,14,31,1,18,13,31,1,11,9,20,1,93,82,175,6,0,0,0,0,0,0,0,0,0,0,0,0,0,0,0,0,0,0,0,0,0,0,0,0,0,0,0,0,0,0,0,0,0,0,0,0,0,0,0,0,0,0,0,0,116,109,225,8,10 มิถุนายน 2561
17,17,21010018,บ้านเนินเสาธง,0,0,0,0,3,11,14,1,11,9,20,1,14,20,34,2,11,9,20,1,14,15,29,1,14,12,26,1,12,6,18,1,7,2,9,1,7,8,15,1,65,52,117,6,0,0,0,0,0,0,0,0,0,0,0,0,0,0,0,0,0,0,0,0,0,0,0,0,0,0,0,0,0,0,0,0,0,0,0,0,0,0,0,0,0,0,0,0,79,72,151,8,10 มิถุนายน 2561
18,18,21010019,ชุมชนวัดทับมา,0,0,0,0,0,0,0,0,0,0,0,0,0,0,0,0,51,40,91,3,40,44,84,3,42,40,82,3,40,37,77,2,50,45,95,3,56,50,106,3,279,256,535,17,65,58,123,3,67,47,114,3,51,42,93,2,183,147,330,8,0,0,0,0,0,0,0,0,0,0,0,0,0,0,0,0,0,0,0,0,0,0,0,0,0,0,0,0,462,403,865,25,10 มิถุนายน 2561
19,19,21010020,อนุบาลระยอง,0,0,0,0,177,138,315,11,225,186,411,11,402,324,726,22,198,211,409,11,216,204,420,11,217,205,422,11,226,241,467,11,268,244,512,11,262,248,510,11,1387,1353,2740,66,0,0,0,0,0,0,0,0,0,0,0,0,0,0,0,0,0,0,0,0,0,0,0,0,0,0,0,0,0,0,0,0,0,0,0,0,0,0,0,0,0,0,0,0,1789,1677,3466,88,10 มิถุนายน 2561
20,20,21010021,วัดนาตาขวัญ,6,4,10,1,14,5,19,1,10,9,19,1,30,18,48,3,11,4,15,1,6,8,14,1,5,12,17,1,6,9,15,1,7,8,15,1,15,6,21,1,50,47,97,6,0,0,0,0,0,0,0,0,0,0,0,0,0,0,0,0,0,0,0,0,0,0,0,0,0,0,0,0,0,0,0,0,0,0,0,0,0,0,0,0,0,0,0,0,80,65,145,9,10 มิถุนายน 2561
21,21,21010022,บ้านชะวึก,0,0,0,0,4,9,13,1,14,6,20,1,18,15,33,2,6,10,16,1,11,7,18,1,10,5,15,1,12,8,20,1,10,5,15,1,13,14,27,1,62,49,111,6,0,0,0,0,0,0,0,0,0,0,0,0,0,0,0,0,0,0,0,0,0,0,0,0,0,0,0,0,0,0,0,0,0,0,0,0,0,0,0,0,0,0,0,0,80,64,144,8,10 มิถุนายน 2561
22,22,21010023,บ้านเขาวังม่าน,4,2,6,1,4,9,13,1,5,9,14,1,13,20,33,3,14,9,23,1,10,4,14,1,8,11,19,1,9,11,20,1,7,9,16,1,7,6,13,1,55,50,105,6,0,0,0,0,0,0,0,0,0,0,0,0,0,0,0,0,0,0,0,0,0,0,0,0,0,0,0,0,0,0,0,0,0,0,0,0,0,0,0,0,0,0,0,0,68,70,138,9,10 มิถุนายน 2561
23,23,21010024,วัดน้ำคอก,0,0,0,0,19,24,43,2,19,14,33,2,38,38,76,4,25,26,51,2,36,23,59,2,30,27,57,2,26,30,56,2,22,18,40,1,24,8,32,1,163,132,295,10,0,0,0,0,0,0,0,0,0,0,0,0,0,0,0,0,0,0,0,0,0,0,0,0,0,0,0,0,0,0,0,0,0,0,0,0,0,0,0,0,0,0,0,0,201,170,371,14,10 มิถุนายน 2561
24,24,21010025,วัดเนินพระ,0,0,0,0,44,54,98,3,61,57,118,3,105,111,216,6,57,60,117,3,55,47,102,3,66,57,123,3,57,54,111,3,63,50,113,3,64,60,124,3,362,328,690,18,0,0,0,0,0,0,0,0,0,0,0,0,0,0,0,0,0,0,0,0,0,0,0,0,0,0,0,0,0,0,0,0,0,0,0,0,0,0,0,0,0,0,0,0,467,439,906,24,10 มิถุนายน 2561
25,25,21010026,อนุบาลระยองวัดหนองสนม,0,0,0,0,23,22,45,2,32,35,67,2,55,57,112,4,44,34,78,3,33,21,54,2,30,40,70,2,37,20,57,2,31,25,56,2,40,28,68,2,215,168,383,13,0,0,0,0,0,0,0,0,0,0,0,0,0,0,0,0,0,0,0,0,0,0,0,0,0,0,0,0,0,0,0,0,0,0,0,0,0,0,0,0,0,0,0,0,270,225,495,17,10 มิถุนายน 2561
26,26,21010027,วัดกรอกยายชา,0,0,0,0,31,26,57,2,24,33,57,2,55,59,114,4,23,24,47,2,36,39,75,2,50,19,69,2,38,33,71,2,29,28,57,2,34,26,60,2,210,169,379,12,0,0,0,0,0,0,0,0,0,0,0,0,0,0,0,0,0,0,0,0,0,0,0,0,0,0,0,0,0,0,0,0,0,0,0,0,0,0,0,0,0,0,0,0,265,228,493,16,10 มิถุนายน 2561
27,27,21010028,วัดโขดหินมิตรภาพที่ 42,0,0,0,0,35,19,54,2,26,27,53,2,61,46,107,4,36,26,62,2,31,31,62,2,29,27,56,2,32,34,66,2,29,35,64,3,36,23,59,2,193,176,369,13,0,0,0,0,0,0,0,0,0,0,0,0,0,0,0,0,0,0,0,0,0,0,0,0,0,0,0,0,0,0,0,0,0,0,0,0,0,0,0,0,0,0,0,0,254,222,476,17,10 มิถุนายน 2561
28,28,21010029,ชุมชนวัดบ้านแลง,0,0,0,0,7,18,25,1,22,18,40,1,29,36,65,2,26,16,42,1,21,8,29,1,31,13,44,1,20,14,34,1,20,19,39,1,20,22,42,1,138,92,230,6,60,53,113,3,40,36,76,2,47,26,73,2,147,115,262,7,0,0,0,0,0,0,0,0,0,0,0,0,0,0,0,0,0,0,0,0,0,0,0,0,0,0,0,0,314,243,557,15,10 มิถุนายน 2561
29,29,21010031,บ้านตะเกราทอง,0,0,0,0,10,7,17,1,7,4,11,1,17,11,28,2,9,10,19,1,6,5,11,1,8,7,15,1,6,10,16,1,2,7,9,1,10,7,17,1,41,46,87,6,0,0,0,0,0,0,0,0,0,0,0,0,0,0,0,0,0,0,0,0,0,0,0,0,0,0,0,0,0,0,0,0,0,0,0,0,0,0,0,0,0,0,0,0,58,57,115,8,10 มิถุนายน 2561
30,30,21010032,วัดเภตราสุขารมย์,0,0,0,0,23,20,43,2,24,22,46,2,47,42,89,4,46,38,84,3,30,35,65,2,25,31,56,2,34,29,63,2,47,30,77,2,44,24,68,3,226,187,413,14,0,0,0,0,0,0,0,0,0,0,0,0,0,0,0,0,0,0,0,0,0,0,0,0,0,0,0,0,0,0,0,0,0,0,0,0,0,0,0,0,0,0,0,0,273,229,502,18,10 มิถุนายน 2561
31,31,21010033,วัดในไร่,9,13,22,1,9,16,25,1,16,13,29,1,34,42,76,3,36,18,54,2,16,17,33,1,21,12,33,1,15,16,31,1,22,15,37,1,18,21,39,1,128,99,227,7,50,35,85,2,30,30,60,2,31,27,58,2,111,92,203,6,0,0,0,0,0,0,0,0,0,0,0,0,0,0,0,0,0,0,0,0,0,0,0,0,0,0,0,0,273,233,506,16,10 มิถุนายน 2561
32,32,21010034,วัดเขาสำเภาทอง,0,0,0,0,0,0,0,0,0,0,0,0,0,0,0,0,8,15,23,1,19,14,33,1,19,12,31,1,12,10,22,1,14,11,25,1,12,8,20,1,84,70,154,6,0,0,0,0,0,0,0,0,0,0,0,0,0,0,0,0,0,0,0,0,0,0,0,0,0,0,0,0,0,0,0,0,0,0,0,0,0,0,0,0,0,0,0,0,84,70,154,6,10 มิถุนายน 2561
33,33,21010035,เกาะแก้วพิศดาร,0,0,0,0,12,6,18,1,21,10,31,1,33,16,49,2,6,12,18,1,14,8,22,1,8,6,14,1,7,5,12,1,5,6,11,1,5,5,10,1,45,42,87,6,0,0,0,0,0,0,0,0,0,0,0,0,0,0,0,0,0,0,0,0,0,0,0,0,0,0,0,0,0,0,0,0,0,0,0,0,0,0,0,0,0,0,0,0,78,58,136,8,10 มิถุนายน 2561
34,34,21010036,บ้านหนองแฟบ,0,0,0,0,11,10,21,1,11,17,28,1,22,27,49,2,14,16,30,1,25,14,39,1,21,9,30,1,17,10,27,1,13,13,26,1,7,9,16,1,97,71,168,6,0,0,0,0,0,0,0,0,0,0,0,0,0,0,0,0,0,0,0,0,0,0,0,0,0,0,0,0,0,0,0,0,0,0,0,0,0,0,0,0,0,0,0,0,119,98,217,8,10 มิถุนายน 2561
35,35,21010037,บ้านมาบตาพุด,0,0,0,0,94,92,186,5,104,120,224,5,198,212,410,10,110,132,242,6,115,118,233,6,148,110,258,6,133,130,263,6,131,132,263,6,131,140,271,6,768,762,1530,36,0,0,0,0,0,0,0,0,0,0,0,0,0,0,0,0,0,0,0,0,0,0,0,0,0,0,0,0,0,0,0,0,0,0,0,0,0,0,0,0,0,0,0,0,966,974,1940,46,10 มิถุนายน 2561
36,36,21010038,วัดตากวน,0,0,0,0,39,30,69,2,36,37,73,2,75,67,142,4,32,27,59,2,38,28,66,2,31,34,65,2,34,30,64,2,46,22,68,2,33,32,65,2,214,173,387,12,0,0,0,0,0,0,0,0,0,0,0,0,0,0,0,0,0,0,0,0,0,0,0,0,0,0,0,0,0,0,0,0,0,0,0,0,0,0,0,0,0,0,0,0,289,240,529,16,10 มิถุนายน 2561
37,37,21010039,บ้านสำนักทอง,0,0,0,0,19,26,45,2,20,25,45,2,39,51,90,4,13,17,30,1,15,13,28,1,18,17,35,2,14,20,34,2,16,21,37,2,17,15,32,1,93,103,196,9,19,22,41,2,35,29,64,2,22,29,51,2,76,80,156,6,0,0,0,0,0,0,0,0,0,0,0,0,0,0,0,0,0,0,0,0,0,0,0,0,0,0,0,0,208,234,442,19,10 มิถุนายน 2561
38,38,21010040,บ้านยายจั่น,0,0,0,0,17,20,37,2,25,21,46,2,42,41,83,4,20,17,37,1,24,19,43,2,30,20,50,2,20,16,36,1,12,13,25,1,14,14,28,1,120,99,219,8,0,0,0,0,0,0,0,0,0,0,0,0,0,0,0,0,0,0,0,0,0,0,0,0,0,0,0,0,0,0,0,0,0,0,0,0,0,0,0,0,0,0,0,0,162,140,302,12,10 มิถุนายน 2561
39,39,21010041,วัดธรรมสถิต,2,10,12,1,7,11,18,1,6,8,14,1,15,29,44,3,8,7,15,1,3,3,6,1,8,4,12,1,11,10,21,1,6,2,8,1,5,1,6,1,41,27,68,6,0,0,0,0,0,0,0,0,0,0,0,0,0,0,0,0,0,0,0,0,0,0,0,0,0,0,0,0,0,0,0,0,0,0,0,0,0,0,0,0,0,0,0,0,56,56,112,9,10 มิถุนายน 2561
40,40,21010042,วัดห้วยโป่ง,0,0,0,0,79,61,140,4,68,80,148,4,147,141,288,8,80,73,153,4,81,69,150,4,64,85,149,4,88,69,157,4,79,88,167,4,71,75,146,4,463,459,922,24,101,70,171,4,83,82,165,4,85,72,157,4,269,224,493,12,0,0,0,0,0,0,0,0,0,0,0,0,0,0,0,0,0,0,0,0,0,0,0,0,0,0,0,0,879,824,1703,44,10 มิถุนายน 2561
41,41,21010043,วัดชากลูกหญ้า,33,39,72,3,45,37,82,3,62,41,103,4,140,117,257,10,53,38,91,3,53,37,90,3,47,46,93,3,61,33,94,3,55,49,104,3,52,34,86,2,321,237,558,17,45,38,83,2,36,42,78,2,0,0,0,0,81,80,161,4,0,0,0,0,0,0,0,0,0,0,0,0,0,0,0,0,0,0,0,0,0,0,0,0,0,0,0,0,542,434,976,31,10 มิถุนายน 2561
42,42,21010044,วัดมาบชลูด,0,0,0,0,29,29,58,2,26,27,53,2,55,56,111,4,32,16,48,2,30,37,67,2,37,24,61,2,21,18,39,2,26,23,49,2,35,25,60,2,181,143,324,12,0,0,0,0,0,0,0,0,0,0,0,0,0,0,0,0,0,0,0,0,0,0,0,0,0,0,0,0,0,0,0,0,0,0,0,0,0,0,0,0,0,0,0,0,236,199,435,16,10 มิถุนายน 2561
43,43,21010045,บ้านพยูน,0,0,0,0,15,15,30,1,11,13,24,1,26,28,54,2,13,11,24,1,12,3,15,1,2,10,12,1,9,5,14,1,5,5,10,1,9,9,18,1,50,43,93,6,0,0,0,0,0,0,0,0,0,0,0,0,0,0,0,0,0,0,0,0,0,0,0,0,0,0,0,0,0,0,0,0,0,0,0,0,0,0,0,0,0,0,0,0,76,71,147,8,10 มิถุนายน 2561
44,44,21010046,วัดบ้านฉาง,0,0,0,0,64,70,134,4,78,82,160,4,142,152,294,8,137,135,272,7,138,150,288,7,155,148,303,7,175,135,310,7,152,152,304,7,157,156,313,7,914,876,1790,42,0,0,0,0,0,0,0,0,0,0,0,0,0,0,0,0,0,0,0,0,0,0,0,0,0,0,0,0,0,0,0,0,0,0,0,0,0,0,0,0,0,0,0,0,1056,1028,2084,50,10 มิถุนายน 2561
45,45,21010047,วัดประชุมมิตรบำรุง,17,14,31,1,17,7,24,1,16,17,33,1,50,38,88,3,19,18,37,1,19,20,39,1,18,18,36,1,21,17,38,1,21,16,37,1,17,19,36,1,115,108,223,6,0,0,0,0,0,0,0,0,0,0,0,0,0,0,0,0,0,0,0,0,0,0,0,0,0,0,0,0,0,0,0,0,0,0,0,0,0,0,0,0,0,0,0,0,165,146,311,9,10 มิถุนายน 2561
46,46,21010048,วัดเนินกระปรอก,0,0,0,0,29,28,57,2,24,29,53,2,53,57,110,4,28,24,52,2,22,25,47,2,18,23,41,2,16,22,38,2,19,14,33,1,13,15,28,1,116,123,239,10,0,0,0,0,0,0,0,0,0,0,0,0,0,0,0,0,0,0,0,0,0,0,0,0,0,0,0,0,0,0,0,0,0,0,0,0,0,0,0,0,0,0,0,0,169,180,349,14,10 มิถุนายน 2561
47,47,21010049,บ้านเขาห้วยมะหาด,0,0,0,0,8,8,16,1,10,8,18,1,18,16,34,2,6,5,11,1,12,10,22,1,9,9,18,1,14,9,23,1,6,14,20,1,11,8,19,1,58,55,113,6,0,0,0,0,0,0,0,0,0,0,0,0,0,0,0,0,0,0,0,0,0,0,0,0,0,0,0,0,0,0,0,0,0,0,0,0,0,0,0,0,0,0,0,0,76,71,147,8,10 มิถุนายน 2561
48,48,21010050,วัดพลา,0,0,0,0,15,13,28,1,27,25,52,1,42,38,80,2,32,15,47,2,22,24,46,2,28,23,51,2,24,22,46,2,20,27,47,2,20,22,42,2,146,133,279,12,41,19,60,2,48,14,62,2,28,19,47,2,117,52,169,6,0,0,0,0,0,0,0,0,0,0,0,0,0,0,0,0,0,0,0,0,0,0,0,0,0,0,0,0,305,223,528,20,10 มิถุนายน 2561
49,49,21010051,บ้านคลองทราย,0,0,0,0,12,12,24,1,11,10,21,1,23,22,45,2,8,10,18,1,10,10,20,1,10,9,19,1,12,6,18,1,13,10,23,1,8,13,21,1,61,58,119,6,0,0,0,0,0,0,0,0,0,0,0,0,0,0,0,0,0,0,0,0,0,0,0,0,0,0,0,0,0,0,0,0,0,0,0,0,0,0,0,0,0,0,0,0,84,80,164,8,10 มิถุนายน 2561
50,50,21010052,วัดคีรีภาวนาราม,0,0,0,0,7,3,10,1,11,7,18,1,18,10,28,2,19,11,30,1,12,12,24,1,4,13,17,1,12,8,20,1,14,12,26,1,7,10,17,1,68,66,134,6,0,0,0,0,0,0,0,0,0,0,0,0,0,0,0,0,0,0,0,0,0,0,0,0,0,0,0,0,0,0,0,0,0,0,0,0,0,0,0,0,0,0,0,0,86,76,162,8,10 มิถุนายน 2561
51,51,21010053,ชุมชนวัดสุวรรณรังสรรค์,0,0,0,0,7,5,12,1,10,11,21,1,17,16,33,2,46,30,76,2,32,24,56,2,29,27,56,2,39,17,56,2,27,22,49,2,26,29,55,2,199,149,348,12,21,26,47,2,30,19,49,2,19,13,32,2,70,58,128,6,0,0,0,0,0,0,0,0,0,0,0,0,0,0,0,0,0,0,0,0,0,0,0,0,0,0,0,0,286,223,509,20,10 มิถุนายน 2561
52,52,21010054,บ้านคลองบางไผ่,0,0,0,0,13,9,22,1,12,19,31,1,25,28,53,2,11,9,20,1,10,6,16,1,14,8,22,1,8,9,17,1,7,6,13,1,10,10,20,1,60,48,108,6,0,0,0,0,0,0,0,0,0,0,0,0,0,0,0,0,0,0,0,0,0,0,0,0,0,0,0,0,0,0,0,0,0,0,0,0,0,0,0,0,0,0,0,0,85,76,161,8,10 มิถุนายน 2561
53,53,21010055,วัดสระแก้ว,0,0,0,0,33,19,52,2,22,25,47,2,55,44,99,4,23,24,47,2,19,20,39,1,30,19,49,2,19,22,41,1,15,15,30,1,26,13,39,1,132,113,245,8,30,21,51,2,21,27,48,2,19,19,38,1,70,67,137,5,0,0,0,0,0,0,0,0,0,0,0,0,0,0,0,0,0,0,0,0,0,0,0,0,0,0,0,0,257,224,481,17,10 มิถุนายน 2561
54,54,21010056,วัดสมบูรณาราม,0,0,0,0,13,7,20,1,20,12,32,1,33,19,52,2,19,15,34,1,12,15,27,1,21,10,31,1,9,10,19,1,19,10,29,1,16,11,27,1,96,71,167,6,0,0,0,0,0,0,0,0,0,0,0,0,0,0,0,0,0,0,0,0,0,0,0,0,0,0,0,0,0,0,0,0,0,0,0,0,0,0,0,0,0,0,0,0,129,90,219,8,10 มิถุนายน 2561
55,55,21010057,วัดสำนักกะท้อน,0,0,0,0,10,14,24,1,16,7,23,1,26,21,47,2,12,9,21,1,7,9,16,1,12,11,23,1,14,10,24,1,13,9,22,1,13,4,17,1,71,52,123,6,0,0,0,0,0,0,0,0,0,0,0,0,0,0,0,0,0,0,0,0,0,0,0,0,0,0,0,0,0,0,0,0,0,0,0,0,0,0,0,0,0,0,0,0,97,73,170,8,10 มิถุนายน 2561
56,56,21010058,วัดชากหมาก,0,0,0,0,35,22,57,2,31,20,51,2,66,42,108,4,29,23,52,2,32,26,58,2,23,28,51,2,31,20,51,2,26,27,53,2,31,26,57,2,172,150,322,12,24,18,42,2,20,28,48,2,22,27,49,2,66,73,139,6,0,0,0,0,0,0,0,0,0,0,0,0,0,0,0,0,0,0,0,0,0,0,0,0,0,0,0,0,304,265,569,22,10 มิถุนายน 2561
57,57,21010059,วัดห้วงหิน,0,0,0,0,0,0,0,0,0,0,0,0,0,0,0,0,22,19,41,2,15,15,30,1,12,13,25,1,17,13,30,1,22,10,32,1,17,10,27,1,105,80,185,7,7,8,15,1,10,11,21,1,12,9,21,1,29,28,57,3,0,0,0,0,0,0,0,0,0,0,0,0,0,0,0,0,0,0,0,0,0,0,0,0,0,0,0,0,134,108,242,10,10 มิถุนายน 2561
58,58,21010060,บ้านบึงต้นชัน,0,0,0,0,0,0,0,0,0,0,0,0,0,0,0,0,13,9,22,1,9,12,21,1,12,7,19,1,11,5,16,1,8,8,16,1,6,9,15,1,59,50,109,6,13,9,22,1,11,2,13,1,9,6,15,1,33,17,50,3,0,0,0,0,0,0,0,0,0,0,0,0,0,0,0,0,0,0,0,0,0,0,0,0,0,0,0,0,92,67,159,9,10 มิถุนายน 2561
59,59,21010061,วัดห้วงหิน สาขาโรงเรียนวัดชากกอไผ่,0,0,0,0,0,0,0,0,0,0,0,0,0,0,0,0,4,4,8,1,4,3,7,1,9,2,11,1,4,6,10,1,2,4,6,1,4,2,6,1,27,21,48,6,0,0,0,0,0,0,0,0,0,0,0,0,0,0,0,0,0,0,0,0,0,0,0,0,0,0,0,0,0,0,0,0,0,0,0,0,0,0,0,0,0,0,0,0,27,21,48,6,10 มิถุนายน 2561
60,60,21010062,บ้านเขาลอย,10,4,14,1,3,0,3,1,3,2,5,1,16,6,22,3,5,5,10,1,4,7,11,1,6,2,8,1,5,5,10,1,4,3,7,1,5,1,6,1,29,23,52,6,0,0,0,0,0,0,0,0,0,0,0,0,0,0,0,0,0,0,0,0,0,0,0,0,0,0,0,0,0,0,0,0,0,0,0,0,0,0,0,0,0,0,0,0,45,29,74,9,10 มิถุนายน 2561
61,61,21010063,วัดหนองตะแบก,7,6,13,1,5,4,9,1,5,3,8,1,17,13,30,3,8,6,14,1,7,4,11,1,5,9,14,1,9,6,15,1,11,9,20,1,3,3,6,1,43,37,80,6,0,0,0,0,0,0,0,0,0,0,0,0,0,0,0,0,0,0,0,0,0,0,0,0,0,0,0,0,0,0,0,0,0,0,0,0,0,0,0,0,0,0,0,0,60,50,110,9,10 มิถุนายน 2561
62,62,21010064,ชุมชนวัดหนองคอกหมู,0,0,0,0,8,9,17,1,9,19,28,1,17,28,45,2,41,31,72,2,29,29,58,2,34,31,65,2,31,30,61,2,23,24,47,2,35,36,71,2,193,181,374,12,28,18,46,2,25,19,44,2,21,25,46,2,74,62,136,6,0,0,0,0,0,0,0,0,0,0,0,0,0,0,0,0,0,0,0,0,0,0,0,0,0,0,0,0,284,271,555,20,10 มิถุนายน 2561
63,63,21010065,วัดบ้านเก่า,3,2,5,1,5,5,10,1,6,5,11,1,14,12,26,3,7,4,11,1,3,5,8,1,6,8,14,1,4,4,8,1,4,3,7,1,1,6,7,1,25,30,55,6,0,0,0,0,0,0,0,0,0,0,0,0,0,0,0,0,0,0,0,0,0,0,0,0,0,0,0,0,0,0,0,0,0,0,0,0,0,0,0,0,0,0,0,0,39,42,81,9,10 มิถุนายน 2561
64,64,21010066,วัดตาขัน,5,8,13,1,14,13,27,1,10,14,24,1,29,35,64,3,10,8,18,1,9,16,25,1,15,7,22,1,8,13,21,1,18,8,26,1,10,13,23,1,70,65,135,6,0,0,0,0,0,0,0,0,0,0,0,0,0,0,0,0,0,0,0,0,0,0,0,0,0,0,0,0,0,0,0,0,0,0,0,0,0,0,0,0,0,0,0,0,99,100,199,9,10 มิถุนายน 2561
65,65,21010067,บ้านหลังเขา,0,0,0,0,6,1,7,1,5,2,7,1,11,3,14,2,5,4,9,1,3,3,6,1,3,3,6,1,3,4,7,1,2,0,2,1,0,1,1,1,16,15,31,6,0,0,0,0,0,0,0,0,0,0,0,0,0,0,0,0,0,0,0,0,0,0,0,0,0,0,0,0,0,0,0,0,0,0,0,0,0,0,0,0,0,0,0,0,27,18,45,8,10 มิถุนายน 2561
66,66,21010068,วัดหนองพะวา,0,0,0,0,11,13,24,1,11,15,26,1,22,28,50,2,32,30,62,2,26,24,50,2,28,25,53,2,31,21,52,2,25,32,57,2,44,25,69,2,186,157,343,12,27,27,54,2,26,31,57,2,24,16,40,2,77,74,151,6,0,0,0,0,0,0,0,0,0,0,0,0,0,0,0,0,0,0,0,0,0,0,0,0,0,0,0,0,285,259,544,20,10 มิถุนายน 2561
67,67,21010069,บ้านคลองยายเมือง,0,0,0,0,7,18,25,1,15,8,23,1,22,26,48,2,8,9,17,1,6,9,15,1,11,8,19,1,2,5,7,1,5,6,11,1,4,4,8,1,36,41,77,6,0,0,0,0,0,0,0,0,0,0,0,0,0,0,0,0,0,0,0,0,0,0,0,0,0,0,0,0,0,0,0,0,0,0,0,0,0,0,0,0,0,0,0,0,58,67,125,8,10 มิถุนายน 2561
68,68,21010070,บ้านเขาหวาย,0,0,0,0,1,6,7,1,3,5,8,1,4,11,15,2,3,5,8,1,2,3,5,1,3,2,5,1,3,6,9,1,3,7,10,1,5,8,13,1,19,31,50,6,0,0,0,0,0,0,0,0,0,0,0,0,0,0,0,0,0,0,0,0,0,0,0,0,0,0,0,0,0,0,0,0,0,0,0,0,0,0,0,0,0,0,0,0,23,42,65,8,10 มิถุนายน 2561
69,69,21010071,บ้านชากมะหาด,0,0,0,0,12,8,20,1,9,6,15,1,21,14,35,2,5,5,10,1,4,4,8,1,4,5,9,1,8,5,13,1,5,1,6,1,1,2,3,1,27,22,49,6,0,0,0,0,0,0,0,0,0,0,0,0,0,0,0,0,0,0,0,0,0,0,0,0,0,0,0,0,0,0,0,0,0,0,0,0,0,0,0,0,0,0,0,0,48,36,84,8,10 มิถุนายน 2561
70,70,21010073,วัดบ้านค่าย,0,0,0,0,5,6,11,1,9,14,23,1,14,20,34,2,16,22,38,1,9,6,15,1,8,9,17,1,10,5,15,1,14,6,20,1,16,18,34,1,73,66,139,6,0,0,0,0,0,0,0,0,0,0,0,0,0,0,0,0,0,0,0,0,0,0,0,0,0,0,0,0,0,0,0,0,0,0,0,0,0,0,0,0,0,0,0,0,87,86,173,8,10 มิถุนายน 2561
71,71,21010074,วัดไผ่ล้อม,7,13,20,1,17,19,36,1,17,12,29,1,41,44,85,3,31,24,55,2,20,19,39,1,30,30,60,2,27,24,51,2,19,34,53,2,18,18,36,1,145,149,294,10,0,0,0,0,0,0,0,0,0,0,0,0,0,0,0,0,0,0,0,0,0,0,0,0,0,0,0,0,0,0,0,0,0,0,0,0,0,0,0,0,0,0,0,0,186,193,379,13,10 มิถุนายน 2561
72,72,21010075,บ้านหนองสะพาน,0,0,0,0,3,4,7,1,4,2,6,1,7,6,13,2,4,3,7,1,3,3,6,1,7,3,10,1,5,4,9,1,6,4,10,1,13,2,15,1,38,19,57,6,0,0,0,0,0,0,0,0,0,0,0,0,0,0,0,0,0,0,0,0,0,0,0,0,0,0,0,0,0,0,0,0,0,0,0,0,0,0,0,0,0,0,0,0,45,25,70,8,10 มิถุนายน 2561
73,73,21010076,วัดเกาะ,0,0,0,0,11,9,20,1,6,5,11,1,17,14,31,2,15,9,24,1,14,11,25,1,15,12,27,1,13,11,24,1,8,13,21,1,17,7,24,1,82,63,145,6,0,0,0,0,0,0,0,0,0,0,0,0,0,0,0,0,0,0,0,0,0,0,0,0,0,0,0,0,0,0,0,0,0,0,0,0,0,0,0,0,0,0,0,0,99,77,176,8,10 มิถุนายน 2561
74,74,21010077,วัดปทุมาวาส,0,0,0,0,17,13,30,1,19,17,36,2,36,30,66,3,13,15,28,1,16,12,28,1,21,18,39,1,18,11,29,1,17,10,27,1,10,13,23,1,95,79,174,6,20,17,37,1,11,17,28,1,20,16,36,1,51,50,101,3,0,0,0,0,0,0,0,0,0,0,0,0,0,0,0,0,0,0,0,0,0,0,0,0,0,0,0,0,182,159,341,12,10 มิถุนายน 2561
75,75,21010078,บ้านหินโค่งประชานุเคราะห์,0,0,0,0,10,13,23,1,5,13,18,1,15,26,41,2,7,10,17,1,4,0,4,1,7,8,15,1,5,6,11,1,5,3,8,1,8,5,13,1,36,32,68,6,0,0,0,0,0,0,0,0,0,0,0,0,0,0,0,0,0,0,0,0,0,0,0,0,0,0,0,0,0,0,0,0,0,0,0,0,0,0,0,0,0,0,0,0,51,58,109,8,10 มิถุนายน 2561
76,76,21010079,บ้านมาบป่าหวาย,0,0,0,0,21,18,39,1,11,16,27,1,32,34,66,2,15,19,34,1,19,11,30,1,17,18,35,1,7,7,14,1,11,8,19,1,11,10,21,1,80,73,153,6,0,0,0,0,0,0,0,0,0,0,0,0,0,0,0,0,0,0,0,0,0,0,0,0,0,0,0,0,0,0,0,0,0,0,0,0,0,0,0,0,0,0,0,0,112,107,219,8,10 มิถุนายน 2561
77,77,21010080,วัดหนองกรับ,0,0,0,0,17,10,27,1,8,10,18,1,25,20,45,2,12,18,30,1,13,15,28,1,11,5,16,1,9,16,25,1,10,17,27,1,9,14,23,1,64,85,149,6,8,13,21,1,13,6,19,1,13,11,24,1,34,30,64,3,0,0,0,0,0,0,0,0,0,0,0,0,0,0,0,0,0,0,0,0,0,0,0,0,0,0,0,0,123,135,258,11,10 มิถุนายน 2561
78,78,21010081,บ้านคลองขนุน,0,0,0,0,5,8,13,1,10,18,28,1,15,26,41,2,11,12,23,1,20,14,34,1,11,11,22,1,15,2,17,1,15,12,27,1,12,10,22,1,84,61,145,6,12,17,29,1,14,19,33,1,10,16,26,1,36,52,88,3,0,0,0,0,0,0,0,0,0,0,0,0,0,0,0,0,0,0,0,0,0,0,0,0,0,0,0,0,135,139,274,11,10 มิถุนายน 2561
79,79,21010082,บ้านหนองฆ้อ,0,0,0,0,9,12,21,1,20,12,32,1,29,24,53,2,15,17,32,1,7,7,14,1,15,12,27,1,9,4,13,1,9,13,22,1,7,9,16,1,62,62,124,6,10,10,20,1,8,6,14,1,12,3,15,1,30,19,49,3,0,0,0,0,0,0,0,0,0,0,0,0,0,0,0,0,0,0,0,0,0,0,0,0,0,0,0,0,121,105,226,11,10 มิถุนายน 2561
80,80,21010083,บ้านท่าเสา,0,0,0,0,8,8,16,1,12,6,18,1,20,14,34,2,16,9,25,1,9,10,19,1,6,11,17,1,7,6,13,1,10,5,15,1,6,6,12,1,54,47,101,6,0,0,0,0,0,0,0,0,0,0,0,0,0,0,0,0,0,0,0,0,0,0,0,0,0,0,0,0,0,0,0,0,0,0,0,0,0,0,0,0,0,0,0,0,74,61,135,8,10 มิถุนายน 2561
81,81,21010084,วัดดอนจันทน์,0,0,0,0,10,7,17,1,7,8,15,1,17,15,32,2,6,13,19,1,6,5,11,1,5,3,8,1,9,6,15,1,5,3,8,1,8,4,12,1,39,34,73,6,0,0,0,0,0,0,0,0,0,0,0,0,0,0,0,0,0,0,0,0,0,0,0,0,0,0,0,0,0,0,0,0,0,0,0,0,0,0,0,0,0,0,0,0,56,49,105,8,10 มิถุนายน 2561
82,82,21010085,วัดละหารไร่,0,0,0,0,7,8,15,1,9,12,21,1,16,20,36,2,9,11,20,1,12,7,19,1,8,9,17,1,5,12,17,1,8,12,20,1,2,7,9,1,44,58,102,6,0,0,0,0,0,0,0,0,0,0,0,0,0,0,0,0,0,0,0,0,0,0,0,0,0,0,0,0,0,0,0,0,0,0,0,0,0,0,0,0,0,0,0,0,60,78,138,8,10 มิถุนายน 2561
83,83,21010086,บ้านหนองละลอก,4,5,9,1,7,12,19,1,11,4,15,1,22,21,43,3,13,12,25,1,14,11,25,1,7,6,13,1,6,8,14,1,8,11,19,1,10,8,18,1,58,56,114,6,0,0,0,0,0,0,0,0,0,0,0,0,0,0,0,0,0,0,0,0,0,0,0,0,0,0,0,0,0,0,0,0,0,0,0,0,0,0,0,0,0,0,0,0,80,77,157,9,10 มิถุนายน 2561
84,84,21010088,วัดหนองกระบอก,0,0,0,0,14,11,25,1,23,20,43,2,37,31,68,3,22,25,47,2,12,25,37,1,19,19,38,1,21,23,44,2,31,25,56,2,14,13,27,1,119,130,249,9,0,0,0,0,0,0,0,0,0,0,0,0,0,0,0,0,0,0,0,0,0,0,0,0,0,0,0,0,0,0,0,0,0,0,0,0,0,0,0,0,0,0,0,0,156,161,317,12,10 มิถุนายน 2561
85,85,21010089,บ้านมาบตอง,5,6,11,1,14,9,23,1,13,15,28,1,32,30,62,3,17,10,27,1,15,12,27,1,8,14,22,1,12,10,22,1,13,8,21,1,9,13,22,1,74,67,141,6,0,0,0,0,0,0,0,0,0,0,0,0,0,0,0,0,0,0,0,0,0,0,0,0,0,0,0,0,0,0,0,0,0,0,0,0,0,0,0,0,0,0,0,0,106,97,203,9,10 มิถุนายน 2561
86,86,21010090,บ้านคลองกรำ,0,0,0,0,16,14,30,1,19,15,34,1,35,29,64,2,23,21,44,1,15,13,28,1,24,21,45,1,17,23,40,1,13,15,28,1,16,18,34,1,108,111,219,6,0,0,0,0,0,0,0,0,0,0,0,0,0,0,0,0,0,0,0,0,0,0,0,0,0,0,0,0,0,0,0,0,0,0,0,0,0,0,0,0,0,0,0,0,143,140,283,8,10 มิถุนายน 2561
87,87,21010091,ชุมชนบริษัทน้ำตาลตะวันออก,0,0,0,0,20,17,37,1,20,26,46,2,40,43,83,3,22,20,42,1,15,13,28,1,17,24,41,1,14,15,29,1,18,10,28,1,21,18,39,1,107,100,207,6,34,25,59,2,37,16,53,2,22,16,38,1,93,57,150,5,0,0,0,0,0,0,0,0,0,0,0,0,0,0,0,0,0,0,0,0,0,0,0,0,0,0,0,0,240,200,440,14,10 มิถุนายน 2561
88,88,21010092,บ้านหนองบอน,0,0,0,0,8,19,27,1,22,27,49,2,30,46,76,3,21,16,37,2,17,12,29,1,10,18,28,1,12,10,22,1,15,18,33,1,17,8,25,1,92,82,174,7,0,0,0,0,0,0,0,0,0,0,0,0,0,0,0,0,0,0,0,0,0,0,0,0,0,0,0,0,0,0,0,0,0,0,0,0,0,0,0,0,0,0,0,0,122,128,250,10,10 มิถุนายน 2561
89,89,21010093,บ้านปลวกแดง,0,0,0,0,47,43,90,3,66,61,127,3,113,104,217,6,82,79,161,5,88,75,163,4,88,85,173,4,81,79,160,4,91,92,183,4,110,74,184,4,540,484,1024,25,0,0,0,0,0,0,0,0,0,0,0,0,0,0,0,0,0,0,0,0,0,0,0,0,0,0,0,0,0,0,0,0,0,0,0,0,0,0,0,0,0,0,0,0,653,588,1241,31,10 มิถุนายน 2561
90,90,21010094,บ้านมาบเตย,11,7,18,1,18,25,43,1,14,14,28,1,43,46,89,3,24,15,39,1,21,14,35,1,16,11,27,1,18,11,29,1,11,10,21,1,15,8,23,1,105,69,174,6,0,0,0,0,0,0,0,0,0,0,0,0,0,0,0,0,0,0,0,0,0,0,0,0,0,0,0,0,0,0,0,0,0,0,0,0,0,0,0,0,0,0,0,0,148,115,263,9,10 มิถุนายน 2561
91,91,21010095,บ้านมาบยางพร,0,0,0,0,82,74,156,6,100,80,180,5,182,154,336,11,98,104,202,6,83,73,156,5,98,78,176,5,99,66,165,5,89,78,167,5,77,69,146,5,544,468,1012,31,0,0,0,0,0,0,0,0,0,0,0,0,0,0,0,0,0,0,0,0,0,0,0,0,0,0,0,0,0,0,0,0,0,0,0,0,0,0,0,0,0,0,0,0,726,622,1348,42,10 มิถุนายน 2561
92,92,21010096,มาบยางพรวิทยาคม,0,0,0,0,0,0,0,0,0,0,0,0,0,0,0,0,0,0,0,0,0,0,0,0,0,0,0,0,0,0,0,0,0,0,0,0,0,0,0,0,0,0,0,0,113,75,188,5,104,71,175,5,74,52,126,4,291,198,489,14,0,0,0,0,0,0,0,0,0,0,0,0,0,0,0,0,0,0,0,0,0,0,0,0,0,0,0,0,291,198,489,14,10 มิถุนายน 2561
93,93,21010097,บ้านห้วยปราบ,0,0,0,0,48,45,93,3,67,54,121,4,115,99,214,7,75,69,144,4,70,74,144,4,78,75,153,4,63,77,140,4,74,63,137,4,70,64,134,4,430,422,852,24,0,0,0,0,0,0,0,0,0,0,0,0,0,0,0,0,0,0,0,0,0,0,0,0,0,0,0,0,0,0,0,0,0,0,0,0,0,0,0,0,0,0,0,0,545,521,1066,31,10 มิถุนายน 2561
94,94,21010099,บ้านแม่น้ำคู้,2,3,5,1,7,5,12,1,9,5,14,1,18,13,31,3,10,12,22,1,8,9,17,1,11,10,21,1,11,10,21,1,7,7,14,1,13,5,18,1,60,53,113,6,0,0,0,0,0,0,0,0,0,0,0,0,0,0,0,0,0,0,0,0,0,0,0,0,0,0,0,0,0,0,0,0,0,0,0,0,0,0,0,0,0,0,0,0,78,66,144,9,10 มิถุนายน 2561
95,95,21010100,นิคมสร้างตนเอง จ.ระยอง 8,0,0,0,0,10,5,15,1,28,19,47,2,38,24,62,3,44,33,77,3,39,28,67,2,51,34,85,3,43,54,97,3,41,38,79,2,39,37,76,2,257,224,481,15,45,38,83,3,50,52,102,3,37,32,69,2,132,122,254,8,0,0,0,0,0,0,0,0,0,0,0,0,0,0,0,0,0,0,0,0,0,0,0,0,0,0,0,0,427,370,797,26,10 มิถุนายน 2561
96,96,21010101,นิคมสร้างตนเอง จ.ระยอง 10,0,0,0,0,13,9,22,1,6,10,16,1,19,19,38,2,22,16,38,1,17,11,28,1,12,10,22,1,10,8,18,1,9,4,13,1,7,4,11,1,77,53,130,6,0,0,0,0,0,0,0,0,0,0,0,0,0,0,0,0,0,0,0,0,0,0,0,0,0,0,0,0,0,0,0,0,0,0,0,0,0,0,0,0,0,0,0,0,96,72,168,8,10 มิถุนายน 2561
97,97,21010102,นิคมสร้างตนเอง จ.ระยอง 13,0,0,0,0,2,1,3,1,3,6,9,1,5,7,12,2,4,6,10,1,5,3,8,1,1,0,1,1,1,3,4,1,0,4,4,1,3,3,6,1,14,19,33,6,0,0,0,0,0,0,0,0,0,0,0,0,0,0,0,0,0,0,0,0,0,0,0,0,0,0,0,0,0,0,0,0,0,0,0,0,0,0,0,0,0,0,0,0,19,26,45,8,10 มิถุนายน 2561
98,98,21010104,บ้านหมอมุ่ย,1,2,3,1,7,6,13,1,6,5,11,1,14,13,27,3,7,6,13,1,14,9,23,1,10,10,20,1,3,9,12,1,8,9,17,1,7,5,12,1,49,48,97,6,0,0,0,0,0,0,0,0,0,0,0,0,0,0,0,0,0,0,0,0,0,0,0,0,0,0,0,0,0,0,0,0,0,0,0,0,0,0,0,0,0,0,0,0,63,61,124,9,10 มิถุนายน 2561
99,99,21010105,บ้านปากแพรก,0,0,0,0,18,14,32,1,20,15,35,1,38,29,67,2,20,12,32,1,18,15,33,1,23,14,37,1,17,14,31,1,14,22,36,1,19,22,41,2,111,99,210,7,23,24,47,2,22,24,46,2,16,21,37,2,61,69,130,6,0,0,0,0,0,0,0,0,0,0,0,0,0,0,0,0,0,0,0,0,0,0,0,0,0,0,0,0,210,197,407,15,10 มิถุนายน 2561
100,100,21010108,บ้านคลองน้ำแดง,6,4,10,1,14,4,18,1,7,6,13,1,27,14,41,3,5,5,10,1,6,3,9,1,12,3,15,1,9,8,17,1,12,7,19,1,9,4,13,1,53,30,83,6,0,0,0,0,0,0,0,0,0,0,0,0,0,0,0,0,0,0,0,0,0,0,0,0,0,0,0,0,0,0,0,0,0,0,0,0,0,0,0,0,0,0,0,0,80,44,124,9,10 มิถุนายน 2561
101,101,21010109,บ้านเขาคลองซอง,1,1,2,1,7,1,8,1,4,7,11,1,12,9,21,3,6,2,8,1,1,6,7,1,1,2,3,1,7,3,10,1,4,0,4,1,5,3,8,1,24,16,40,6,0,0,0,0,0,0,0,0,0,0,0,0,0,0,0,0,0,0,0,0,0,0,0,0,0,0,0,0,0,0,0,0,0,0,0,0,0,0,0,0,0,0,0,0,36,25,61,9,10 มิถุนายน 2561
102,102,21010110,บ้านบึงตาต้า,9,3,12,1,9,1,10,1,8,12,20,1,26,16,42,3,9,10,19,1,16,11,27,1,7,18,25,1,8,11,19,1,14,10,24,1,12,8,20,1,66,68,134,6,17,16,33,1,12,9,21,1,14,13,27,1,43,38,81,3,0,0,0,0,0,0,0,0,0,0,0,0,0,0,0,0,0,0,0,0,0,0,0,0,0,0,0,0,135,122,257,12,10 มิถุนายน 2561
103,103,21010111,บ้านหนองไร่,0,2,2,1,4,5,9,1,8,3,11,1,12,10,22,3,16,7,23,1,9,10,19,1,9,11,20,1,10,7,17,1,5,14,19,1,6,12,18,1,55,61,116,6,0,0,0,0,0,0,0,0,0,0,0,0,0,0,0,0,0,0,0,0,0,0,0,0,0,0,0,0,0,0,0,0,0,0,0,0,0,0,0,0,0,0,0,0,67,71,138,9,10 มิถุนายน 2561
104,104,21010112,นิคมสร้างตนเอง จ.ระยอง 1,0,0,0,0,52,65,117,4,73,75,148,5,125,140,265,9,94,98,192,5,92,78,170,5,95,81,176,5,97,81,178,5,93,90,183,5,84,84,168,5,555,512,1067,30,0,0,0,0,0,0,0,0,0,0,0,0,0,0,0,0,0,0,0,0,0,0,0,0,0,0,0,0,0,0,0,0,0,0,0,0,0,0,0,0,0,0,0,0,680,652,1332,39,10 มิถุนายน 2561
105,105,21010113,นิคมสร้างตนเอง จ.ระยอง 2,0,0,0,0,11,10,21,1,10,12,22,1,21,22,43,2,13,9,22,1,14,15,29,1,7,11,18,1,14,8,22,1,14,9,23,1,19,15,34,1,81,67,148,6,0,0,0,0,0,0,0,0,0,0,0,0,0,0,0,0,0,0,0,0,0,0,0,0,0,0,0,0,0,0,0,0,0,0,0,0,0,0,0,0,0,0,0,0,102,89,191,8,10 มิถุนายน 2561
106,106,21010114,นิคมสร้างตนเองจังหวัดระยอง 5,13,18,31,1,23,15,38,1,27,24,51,1,63,57,120,3,27,23,50,2,23,20,43,2,24,21,45,2,31,25,56,2,28,24,52,2,34,31,65,2,167,144,311,12,35,29,64,2,36,25,61,2,19,25,44,2,90,79,169,6,0,0,0,0,0,0,0,0,0,0,0,0,0,0,0,0,0,0,0,0,0,0,0,0,0,0,0,0,320,280,600,21,10 มิถุนายน 2561
107,107,21010115,วัดชากผักกูด,0,0,0,0,12,8,20,1,5,8,13,1,17,16,33,2,10,4,14,1,11,10,21,1,9,10,19,1,19,12,31,1,8,7,15,1,11,12,23,1,68,55,123,6,0,0,0,0,0,0,0,0,0,0,0,0,0,0,0,0,0,0,0,0,0,0,0,0,0,0,0,0,0,0,0,0,0,0,0,0,0,0,0,0,0,0,0,0,85,71,156,8,10 มิถุนายน 2561
108,108,21010116,นิคมสร้างตนเองจังหวัดระยอง 4,0,0,0,0,41,39,80,3,35,49,84,3,76,88,164,6,46,41,87,3,38,38,76,2,42,40,82,3,38,46,84,3,46,28,74,2,45,36,81,3,255,229,484,16,35,31,66,2,37,27,64,2,44,31,75,2,116,89,205,6,0,0,0,0,0,0,0,0,0,0,0,0,0,0,0,0,0,0,0,0,0,0,0,0,0,0,0,0,447,406,853,28,10 มิถุนายน 2561
109,109,21010117,นิคมสร้างตนเอง จ.ระยอง 6,0,0,0,0,5,11,16,1,8,19,27,1,13,30,43,2,12,7,19,1,12,4,16,1,10,9,19,1,11,9,20,1,11,10,21,1,6,8,14,1,62,47,109,6,0,0,0,0,0,0,0,0,0,0,0,0,0,0,0,0,0,0,0,0,0,0,0,0,0,0,0,0,0,0,0,0,0,0,0,0,0,0,0,0,0,0,0,0,75,77,152,8,10 มิถุนายน 2561
110,110,21010118,นิคมสร้างตนเองจังหวัดระยอง 9,0,0,0,0,14,11,25,1,19,18,37,1,33,29,62,2,22,21,43,1,9,15,24,1,20,9,29,1,16,11,27,1,12,19,31,1,6,4,10,1,85,79,164,6,0,0,0,0,0,0,0,0,0,0,0,0,0,0,0,0,0,0,0,0,0,0,0,0,0,0,0,0,0,0,0,0,0,0,0,0,0,0,0,0,0,0,0,0,118,108,226,8,10 มิถุนายน 2561
111,111,21010119,บ้านหนองระกำ,0,0,0,0,12,4,16,1,8,9,17,1,20,13,33,2,11,11,22,1,5,5,10,1,3,3,6,1,5,6,11,1,9,5,14,1,4,6,10,1,37,36,73,6,0,0,0,0,0,0,0,0,0,0,0,0,0,0,0,0,0,0,0,0,0,0,0,0,0,0,0,0,0,0,0,0,0,0,0,0,0,0,0,0,0,0,0,0,57,49,106,8,10 มิถุนายน 2561
112,112,21010120,ชุมชนนิคมสร้างตนเอง จ.ระยอง 7,0,0,0,0,57,44,101,3,47,41,88,3,104,85,189,6,38,30,68,3,45,32,77,3,48,35,83,3,45,47,92,3,41,57,98,3,61,39,100,3,278,240,518,18,47,34,81,2,35,32,67,2,30,29,59,2,112,95,207,6,0,0,0,0,0,0,0,0,0,0,0,0,0,0,0,0,0,0,0,0,0,0,0,0,0,0,0,0,494,420,914,30,10 มิถุนายน 2561
113,113,21010121,นิคมสร้างตนเองจังหวัดระยอง 3,0,0,0,0,22,17,39,2,31,31,62,2,53,48,101,4,31,25,56,2,37,26,63,2,31,26,57,2,35,28,63,2,23,31,54,2,24,32,56,2,181,168,349,12,36,23,59,2,23,25,48,2,27,27,54,2,86,75,161,6,0,0,0,0,0,0,0,0,0,0,0,0,0,0,0,0,0,0,0,0,0,0,0,0,0,0,0,0,320,291,611,22,10 มิถุนายน 2561
114,114,21010122,วัดมาบข่า,0,0,0,0,0,0,0,0,0,0,0,0,0,0,0,0,51,77,128,3,67,46,113,3,58,56,114,3,68,51,119,3,64,61,125,3,58,65,123,4,366,356,722,19,78,57,135,4,66,70,136,4,56,46,102,3,200,173,373,11,0,0,0,0,0,0,0,0,0,0,0,0,0,0,0,0,0,0,0,0,0,0,0,0,0,0,0,0,566,529,1095,30,10 มิถุนายน 2561
115,115,21010123,วัดกระเฉท,20,10,30,1,8,22,30,1,11,17,28,1,39,49,88,3,23,13,36,1,21,14,35,1,15,9,24,1,10,17,27,1,18,8,26,1,13,7,20,1,100,68,168,6,0,0,0,0,0,0,0,0,0,0,0,0,0,0,0,0,0,0,0,0,0,0,0,0,0,0,0,0,0,0,0,0,0,0,0,0,0,0,0,0,0,0,0,0,139,117,256,9,10 มิถุนายน 2561
