,0,1,2,3,4,5,6,7,8,9,10,11,12,13,14,15,16,17,18,19,20,21,22,23,24,25,26,27,28,29,30,31,32,33,34,35,36,37,38,39,40,41,42,43,44,45,46,47,48,49,50,51,52,53,54,55,56,57,58,59,60,61,62,63,64,65,66,67,68,69,70,71,72,73,74,75,76,77,78,79,80,81,82,83,84,85,86,87,88,89,90,91,92,93,94,95
0,ลำดับ,รหัส SMIS,โรงเรียน,อ.3 ขวบ ชาย,อ.3 ขวบ หญิง,รวมอ.3 ขวบ,อ.3 ขวบ ห้อง,อ.1 ชาย,อ.1 หญิง,รวมอ.1,อ.1 ห้อง,อ.2 ชาย,อ.2 หญิง,รวมอ.2,อ.2 ห้อง,รวมก่อนประถม ชาย,รวมก่อนประถม หญิง,รวมก่อนประถม,รวมห้องก่อนประถม,ป.1 ชาย,ป.1 หญิง,รวมป.1,ป.1 ห้อง,ป.2 ชาย,ป.2 หญิง,รวมป.2,ป.2 ห้อง,ป.3 ชาย,ป.3 หญิง,รวมป.3,ป.3 ห้อง,ป.4 ชาย,ป.4 หญิง,รวมป.4,ป.4 ห้อง,ป.5 ชาย,ป.5 หญิง,รวมป.5,ป.5 ห้อง,ป.6 ชาย,ป.6 หญิง,รวมป.6,ป.6 ห้อง,รวมประถม ชาย,รวมประถม หญิง,รวมประถม,รวมห้องประถม,ม.1 ชาย,ม.1 หญิง,รวมม.1,ม.1 ห้อง,ม.2 ชาย,ม.2 หญิง,รวมม.2,ม.2 ห้อง,ม.3 ชาย,ม.3 หญิง,รวมม.3,ม.3 ห้อง,รวมม.ต้น ชาย,รวมม.ต้น หญิง,รวมม.ต้น,รวมห้องม.ต้น,ม.4 ชาย,ม.4 หญิง,รวมม.4,ม.4 ห้อง,ม.5 ชาย,ม.5 หญิง,รวมม.5,ม.5 ห้อง,ม.6 ชาย,ม.6 หญิง,รวมม.6,ม.6 ห้อง,ปวช.1 ชาย,ปวช.1 หญิง,รวมปวช.1,ปวช.1 ห้อง,ปวช.2 ชาย,ปวช.2 หญิง,รวมปวช.2,ปวช.2 ห้อง,ปวช.3 ชาย,ปวช.3 หญิง,รวมปวช.3,ปวช.3 ห้อง,รวมม.ปลายและเทียบเท่า ชาย,รวมม.ปลายและเทียบเท่า หญิง,รวมม.ปลายและเทียบเท่า,รวมห้องม.ปลายและเทียบเท่า,รวมทั้งหมด ชาย,รวมทั้งหมด หญิง,รวมทั้งหมด,รวมห้องทั้งหมด,ข้อมูล ณ วันที่
1,1,25010001,วัดท้าวอู่ทอง,0,0,0,0,4,2,6,1,9,6,15,1,13,8,21,2,5,6,11,1,5,11,16,1,6,11,17,1,8,1,9,1,8,4,12,1,2,7,9,1,34,40,74,6,0,0,0,0,0,0,0,0,0,0,0,0,0,0,0,0,0,0,0,0,0,0,0,0,0,0,0,0,0,0,0,0,0,0,0,0,0,0,0,0,0,0,0,0,47,48,95,8,10 มิถุนายน 2561
2,2,25010003,บ้านหนองชะอม,4,5,9,1,4,1,5,1,2,2,4,1,10,8,18,3,4,2,6,1,5,1,6,1,5,1,6,1,1,2,3,1,2,1,3,1,1,1,2,1,18,8,26,6,0,0,0,0,0,0,0,0,0,0,0,0,0,0,0,0,0,0,0,0,0,0,0,0,0,0,0,0,0,0,0,0,0,0,0,0,0,0,0,0,0,0,0,0,28,16,44,9,10 มิถุนายน 2561
3,3,25010004,บ้านแหลมหิน,7,8,15,1,29,28,57,2,32,31,63,2,68,67,135,5,27,29,56,2,26,40,66,2,25,27,52,2,39,34,73,2,29,28,57,2,23,31,54,2,169,189,358,12,46,18,64,2,38,33,71,2,22,27,49,2,106,78,184,6,0,0,0,0,0,0,0,0,0,0,0,0,0,0,0,0,0,0,0,0,0,0,0,0,0,0,0,0,343,334,677,23,10 มิถุนายน 2561
4,4,25010006,ชุมชนบ้านขอนขว้าง,10,7,17,1,15,15,30,1,15,9,24,1,40,31,71,3,20,14,34,2,14,16,30,1,16,18,34,1,25,24,49,2,23,25,48,2,15,18,33,1,113,115,228,9,0,0,0,0,0,0,0,0,0,0,0,0,0,0,0,0,0,0,0,0,0,0,0,0,0,0,0,0,0,0,0,0,0,0,0,0,0,0,0,0,0,0,0,0,153,146,299,12,10 มิถุนายน 2561
5,5,25010008,บ้านดงบัง,0,0,0,0,14,21,35,1,14,16,30,1,28,37,65,2,12,10,22,1,12,15,27,1,11,11,22,1,13,2,15,1,9,8,17,1,4,6,10,1,61,52,113,6,0,0,0,0,0,0,0,0,0,0,0,0,0,0,0,0,0,0,0,0,0,0,0,0,0,0,0,0,0,0,0,0,0,0,0,0,0,0,0,0,0,0,0,0,89,89,178,8,10 มิถุนายน 2561
6,6,25010010,ชุมชนวัดหนองจวง,0,0,0,0,14,19,33,1,9,12,21,1,23,31,54,2,12,10,22,1,8,15,23,1,14,8,22,1,9,12,21,1,11,9,20,1,9,10,19,1,63,64,127,6,8,12,20,1,2,6,8,1,8,7,15,1,18,25,43,3,0,0,0,0,0,0,0,0,0,0,0,0,0,0,0,0,0,0,0,0,0,0,0,0,0,0,0,0,104,120,224,11,10 มิถุนายน 2561
7,7,25010012,วัดลำดวน,0,0,0,0,9,9,18,1,16,8,24,1,25,17,42,2,10,17,27,1,10,13,23,1,10,11,21,1,7,7,14,1,15,8,23,1,10,9,19,1,62,65,127,6,14,7,21,1,9,7,16,1,15,9,24,1,38,23,61,3,0,0,0,0,0,0,0,0,0,0,0,0,0,0,0,0,0,0,0,0,0,0,0,0,0,0,0,0,125,105,230,11,10 มิถุนายน 2561
8,8,25010013,วัดหาดสะแก,0,0,0,0,4,2,6,1,6,7,13,1,10,9,19,2,7,7,14,1,8,4,12,1,5,4,9,1,1,7,8,1,5,5,10,1,7,9,16,1,33,36,69,6,0,0,0,0,0,0,0,0,0,0,0,0,0,0,0,0,0,0,0,0,0,0,0,0,0,0,0,0,0,0,0,0,0,0,0,0,0,0,0,0,0,0,0,0,43,45,88,8,10 มิถุนายน 2561
9,9,25010014,วัดเลียบ(หร่ำวิทยานุกูล),0,0,0,0,0,0,0,0,1,2,3,1,1,2,3,1,0,1,1,1,0,2,2,1,2,0,2,1,1,1,2,1,2,0,2,1,4,1,5,1,9,5,14,6,0,0,0,0,0,0,0,0,0,0,0,0,0,0,0,0,0,0,0,0,0,0,0,0,0,0,0,0,0,0,0,0,0,0,0,0,0,0,0,0,0,0,0,0,10,7,17,7,10 มิถุนายน 2561
10,10,25010016,บ้านห้วยเกษียร,0,0,0,0,7,12,19,1,3,14,17,1,10,26,36,2,7,8,15,1,9,4,13,1,9,4,13,1,7,6,13,1,3,7,10,1,5,5,10,1,40,34,74,6,0,0,0,0,0,0,0,0,0,0,0,0,0,0,0,0,0,0,0,0,0,0,0,0,0,0,0,0,0,0,0,0,0,0,0,0,0,0,0,0,0,0,0,0,50,60,110,8,10 มิถุนายน 2561
11,11,25010017,วัดเนินไม้หอม,0,1,1,1,2,2,4,1,1,2,3,1,3,5,8,3,4,0,4,1,3,1,4,1,2,0,2,1,2,2,4,1,3,1,4,1,2,3,5,1,16,7,23,6,0,0,0,0,0,0,0,0,0,0,0,0,0,0,0,0,0,0,0,0,0,0,0,0,0,0,0,0,0,0,0,0,0,0,0,0,0,0,0,0,0,0,0,0,19,12,31,9,10 มิถุนายน 2561
12,12,25010018,บ่อแร่-ธารเลา,0,0,0,0,3,3,6,1,8,4,12,1,11,7,18,2,2,1,3,1,4,6,10,1,5,3,8,1,1,3,4,1,2,3,5,1,3,3,6,1,17,19,36,6,0,0,0,0,0,0,0,0,0,0,0,0,0,0,0,0,0,0,0,0,0,0,0,0,0,0,0,0,0,0,0,0,0,0,0,0,0,0,0,0,0,0,0,0,28,26,54,8,10 มิถุนายน 2561
13,13,25010019,บ้านเนินหอม,0,0,0,0,14,3,17,1,7,4,11,1,21,7,28,2,4,15,19,1,2,13,15,1,11,6,17,1,13,2,15,1,8,6,14,1,10,11,21,1,48,53,101,6,4,6,10,1,8,9,17,1,11,7,18,1,23,22,45,3,0,0,0,0,0,0,0,0,0,0,0,0,0,0,0,0,0,0,0,0,0,0,0,0,0,0,0,0,92,82,174,11,10 มิถุนายน 2561
14,14,25010020,วัดเนินสูง,0,0,0,0,4,5,9,1,3,4,7,1,7,9,16,2,5,0,5,1,4,4,8,1,4,2,6,1,7,7,14,1,2,5,7,1,3,3,6,1,25,21,46,6,0,0,0,0,0,0,0,0,0,0,0,0,0,0,0,0,0,0,0,0,0,0,0,0,0,0,0,0,0,0,0,0,0,0,0,0,0,0,0,0,0,0,0,0,32,30,62,8,10 มิถุนายน 2561
15,15,25010022,วัดประสาธน์รังสรรค์,6,5,11,1,9,9,18,1,18,7,25,1,33,21,54,3,7,10,17,1,12,11,23,1,20,13,33,1,17,11,28,1,14,10,24,1,11,7,18,1,81,62,143,6,11,14,25,1,11,11,22,1,14,4,18,1,36,29,65,3,0,0,0,0,0,0,0,0,0,0,0,0,0,0,0,0,0,0,0,0,0,0,0,0,0,0,0,0,150,112,262,12,10 มิถุนายน 2561
16,16,25010024,วัดทุ่งตะลุมพุก,6,4,10,1,9,4,13,1,9,2,11,1,24,10,34,3,6,2,8,1,4,11,15,1,6,5,11,1,5,3,8,1,3,6,9,1,6,5,11,1,30,32,62,6,0,0,0,0,0,0,0,0,0,0,0,0,0,0,0,0,0,0,0,0,0,0,0,0,0,0,0,0,0,0,0,0,0,0,0,0,0,0,0,0,0,0,0,0,54,42,96,9,10 มิถุนายน 2561
17,17,25010025,วัดประชาวาส,0,0,0,0,8,4,12,1,2,2,4,1,10,6,16,2,2,4,6,1,2,2,4,1,1,0,1,1,2,2,4,1,3,1,4,1,2,2,4,1,12,11,23,6,0,0,0,0,0,0,0,0,0,0,0,0,0,0,0,0,0,0,0,0,0,0,0,0,0,0,0,0,0,0,0,0,0,0,0,0,0,0,0,0,0,0,0,0,22,17,39,8,10 มิถุนายน 2561
18,18,25010026,วัดหัวกรด,0,0,0,0,8,5,13,1,6,4,10,1,14,9,23,2,6,6,12,1,3,1,4,1,6,5,11,1,7,4,11,1,7,6,13,1,7,5,12,1,36,27,63,6,7,9,16,1,8,5,13,1,8,4,12,1,23,18,41,3,0,0,0,0,0,0,0,0,0,0,0,0,0,0,0,0,0,0,0,0,0,0,0,0,0,0,0,0,73,54,127,11,10 มิถุนายน 2561
19,19,25010028,วัดสง่างาม(สุทธิเกียรติวิทยา),0,0,0,0,2,1,3,1,2,0,2,1,4,1,5,2,0,3,3,1,6,2,8,1,1,0,1,1,0,5,5,1,2,2,4,1,0,6,6,1,9,18,27,6,0,0,0,0,0,0,0,0,0,0,0,0,0,0,0,0,0,0,0,0,0,0,0,0,0,0,0,0,0,0,0,0,0,0,0,0,0,0,0,0,0,0,0,0,13,19,32,8,10 มิถุนายน 2561
20,20,25010029,วัดบ้านพระ,1,2,3,1,6,4,10,1,6,3,9,1,13,9,22,3,1,3,4,1,4,1,5,1,3,4,7,1,6,2,8,1,2,4,6,1,2,1,3,1,18,15,33,6,0,0,0,0,0,0,0,0,0,0,0,0,0,0,0,0,0,0,0,0,0,0,0,0,0,0,0,0,0,0,0,0,0,0,0,0,0,0,0,0,0,0,0,0,31,24,55,9,10 มิถุนายน 2561
21,21,25010031,อนุบาลเมืองปราจีนบุรี,7,11,18,1,22,22,44,2,29,16,45,2,58,49,107,5,32,19,51,2,21,17,38,2,16,27,43,2,18,15,33,2,18,16,34,2,20,17,37,2,125,111,236,12,23,23,46,2,24,23,47,2,12,28,40,1,59,74,133,5,0,0,0,0,0,0,0,0,0,0,0,0,0,0,0,0,0,0,0,0,0,0,0,0,0,0,0,0,242,234,476,22,10 มิถุนายน 2561
22,22,25010034,บ้านแหลมไผ่,0,0,0,0,9,4,13,1,8,3,11,1,17,7,24,2,8,6,14,1,7,5,12,1,7,3,10,1,6,3,9,1,6,4,10,1,4,5,9,1,38,26,64,6,0,0,0,0,0,0,0,0,0,0,0,0,0,0,0,0,0,0,0,0,0,0,0,0,0,0,0,0,0,0,0,0,0,0,0,0,0,0,0,0,0,0,0,0,55,33,88,8,10 มิถุนายน 2561
23,23,25010035,บ้านหนองเต่า,0,0,0,0,7,5,12,1,1,6,7,1,8,11,19,2,3,6,9,1,5,7,12,1,5,2,7,1,2,2,4,1,5,3,8,1,3,2,5,1,23,22,45,6,0,0,0,0,0,0,0,0,0,0,0,0,0,0,0,0,0,0,0,0,0,0,0,0,0,0,0,0,0,0,0,0,0,0,0,0,0,0,0,0,0,0,0,0,31,33,64,8,10 มิถุนายน 2561
24,24,25010037,วัดบางคาง,0,0,0,0,2,1,3,1,1,1,2,1,3,2,5,2,2,1,3,1,1,0,1,1,1,3,4,1,0,2,2,1,3,1,4,1,0,0,0,0,7,7,14,5,0,0,0,0,0,0,0,0,0,0,0,0,0,0,0,0,0,0,0,0,0,0,0,0,0,0,0,0,0,0,0,0,0,0,0,0,0,0,0,0,0,0,0,0,10,9,19,7,10 มิถุนายน 2561
25,25,25010038,วัดโบสถ์วิทยา,0,0,0,0,2,2,4,1,0,2,2,1,2,4,6,2,0,2,2,1,3,1,4,1,0,1,1,1,1,0,1,1,0,3,3,1,6,3,9,1,10,10,20,6,0,0,0,0,0,0,0,0,0,0,0,0,0,0,0,0,0,0,0,0,0,0,0,0,0,0,0,0,0,0,0,0,0,0,0,0,0,0,0,0,0,0,0,0,12,14,26,8,10 มิถุนายน 2561
26,26,25010039,เมืองปราจีนบุรี,4,3,7,1,2,3,5,1,3,4,7,1,9,10,19,3,6,2,8,1,8,5,13,1,6,7,13,1,11,6,17,1,14,8,22,1,14,7,21,1,59,35,94,6,9,7,16,1,18,6,24,1,14,6,20,1,41,19,60,3,0,0,0,0,0,0,0,0,0,0,0,0,0,0,0,0,0,0,0,0,0,0,0,0,0,0,0,0,109,64,173,12,10 มิถุนายน 2561
27,27,25010040,อนุบาลปราจีนบุรี,33,27,60,2,79,71,150,5,82,86,168,5,194,184,378,12,116,114,230,6,117,119,236,6,122,108,230,6,107,115,222,6,102,123,225,6,107,121,228,6,671,700,1371,36,0,0,0,0,0,0,0,0,0,0,0,0,0,0,0,0,0,0,0,0,0,0,0,0,0,0,0,0,0,0,0,0,0,0,0,0,0,0,0,0,0,0,0,0,865,884,1749,48,10 มิถุนายน 2561
28,28,25010155,วัดกระทุ่มแพ้ว,0,0,0,0,10,5,15,1,8,11,19,1,18,16,34,2,17,3,20,1,7,12,19,1,9,4,13,1,12,15,27,1,10,8,18,1,13,12,25,1,68,54,122,6,0,0,0,0,0,0,0,0,0,0,0,0,0,0,0,0,0,0,0,0,0,0,0,0,0,0,0,0,0,0,0,0,0,0,0,0,0,0,0,0,0,0,0,0,86,70,156,8,10 มิถุนายน 2561
29,29,25010156,วัดบางกระเบา(สิทธิสารานุกูล),0,0,0,0,14,11,25,1,13,9,22,1,27,20,47,2,11,7,18,1,16,9,25,1,11,6,17,1,11,5,16,1,9,11,20,1,14,12,26,1,72,50,122,6,0,0,0,0,0,0,0,0,0,0,0,0,0,0,0,0,0,0,0,0,0,0,0,0,0,0,0,0,0,0,0,0,0,0,0,0,0,0,0,0,0,0,0,0,99,70,169,8,10 มิถุนายน 2561
30,30,25010157,ไผ่แถวอนุสรณ์,2,4,6,1,2,6,8,1,1,3,4,1,5,13,18,3,2,4,6,1,4,2,6,1,0,2,2,1,2,3,5,1,1,3,4,1,4,2,6,1,13,16,29,6,0,0,0,0,0,0,0,0,0,0,0,0,0,0,0,0,0,0,0,0,0,0,0,0,0,0,0,0,0,0,0,0,0,0,0,0,0,0,0,0,0,0,0,0,18,29,47,9,10 มิถุนายน 2561
31,31,25010158,บ้านบางขาม,6,2,8,1,8,9,17,1,4,5,9,1,18,16,34,3,6,4,10,1,4,9,13,1,6,1,7,1,4,5,9,1,3,4,7,1,3,7,10,1,26,30,56,6,0,0,0,0,0,0,0,0,0,0,0,0,0,0,0,0,0,0,0,0,0,0,0,0,0,0,0,0,0,0,0,0,0,0,0,0,0,0,0,0,0,0,0,0,44,46,90,9,10 มิถุนายน 2561
32,32,25010160,วัดบางเตย,0,0,0,0,5,6,11,1,6,12,18,1,11,18,29,2,17,18,35,1,11,7,18,1,13,8,21,1,9,11,20,1,7,6,13,1,8,14,22,1,65,64,129,6,0,0,0,0,0,0,0,0,0,0,0,0,0,0,0,0,0,0,0,0,0,0,0,0,0,0,0,0,0,0,0,0,0,0,0,0,0,0,0,0,0,0,0,0,76,82,158,8,10 มิถุนายน 2561
33,33,25010161,ชุมชนวัดบางแตน,0,0,0,0,21,21,42,2,19,26,45,2,40,47,87,4,18,15,33,2,12,20,32,1,19,17,36,1,20,15,35,1,17,19,36,1,12,19,31,1,98,105,203,7,0,0,0,0,0,0,0,0,0,0,0,0,0,0,0,0,0,0,0,0,0,0,0,0,0,0,0,0,0,0,0,0,0,0,0,0,0,0,0,0,0,0,0,0,138,152,290,11,10 มิถุนายน 2561
34,34,25010162,บ้านปากคลองบางกระดาน,0,0,0,0,4,3,7,1,4,5,9,1,8,8,16,2,5,9,14,1,4,1,5,1,3,4,7,1,2,4,6,1,5,5,10,1,4,5,9,1,23,28,51,6,0,0,0,0,0,0,0,0,0,0,0,0,0,0,0,0,0,0,0,0,0,0,0,0,0,0,0,0,0,0,0,0,0,0,0,0,0,0,0,0,0,0,0,0,31,36,67,8,10 มิถุนายน 2561
35,35,25010163,บ้านบางปลาร้า (กมลราษฎร์นุกูล),3,0,3,1,2,3,5,1,5,3,8,1,10,6,16,3,2,4,6,1,5,6,11,1,2,2,4,1,3,3,6,1,2,2,4,1,7,4,11,1,21,21,42,6,0,0,0,0,0,0,0,0,0,0,0,0,0,0,0,0,0,0,0,0,0,0,0,0,0,0,0,0,0,0,0,0,0,0,0,0,0,0,0,0,0,0,0,0,31,27,58,9,10 มิถุนายน 2561
36,36,25010164,นิคมพัฒนา,2,3,5,1,5,2,7,1,2,2,4,1,9,7,16,3,1,1,2,1,3,1,4,1,0,2,2,1,4,2,6,1,2,0,2,1,1,2,3,1,11,8,19,6,0,0,0,0,0,0,0,0,0,0,0,0,0,0,0,0,0,0,0,0,0,0,0,0,0,0,0,0,0,0,0,0,0,0,0,0,0,0,0,0,0,0,0,0,20,15,35,9,10 มิถุนายน 2561
37,37,25010165,อนุบาลวัดบ้านสร้าง,0,0,0,0,18,14,32,2,20,28,48,2,38,42,80,4,29,28,57,2,26,19,45,2,24,18,42,2,24,28,52,2,36,16,52,2,34,29,63,2,173,138,311,12,15,14,29,1,7,7,14,1,22,12,34,1,44,33,77,3,0,0,0,0,0,0,0,0,0,0,0,0,0,0,0,0,0,0,0,0,0,0,0,0,0,0,0,0,255,213,468,19,10 มิถุนายน 2561
38,38,25010166,วัดหัวไผ่,0,5,5,1,6,4,10,1,2,1,3,1,8,10,18,3,6,1,7,1,0,3,3,1,1,3,4,1,4,4,8,1,2,3,5,1,2,7,9,1,15,21,36,6,0,0,0,0,0,0,0,0,0,0,0,0,0,0,0,0,0,0,0,0,0,0,0,0,0,0,0,0,0,0,0,0,0,0,0,0,0,0,0,0,0,0,0,0,23,31,54,9,10 มิถุนายน 2561
39,39,25010167,วัดพิกุลวนาราม,3,3,6,1,4,3,7,1,4,3,7,1,11,9,20,3,4,4,8,1,2,2,4,1,5,3,8,1,3,3,6,1,2,3,5,1,5,2,7,1,21,17,38,6,0,0,0,0,0,0,0,0,0,0,0,0,0,0,0,0,0,0,0,0,0,0,0,0,0,0,0,0,0,0,0,0,0,0,0,0,0,0,0,0,0,0,0,0,32,26,58,9,10 มิถุนายน 2561
40,40,25010168,บ้านคลองบางไซ,0,0,0,0,1,0,1,1,1,1,2,1,2,1,3,2,4,1,5,1,0,1,1,1,1,0,1,1,0,0,0,0,0,0,0,0,3,0,3,1,8,2,10,4,0,0,0,0,0,0,0,0,0,0,0,0,0,0,0,0,0,0,0,0,0,0,0,0,0,0,0,0,0,0,0,0,0,0,0,0,0,0,0,0,0,0,0,0,10,3,13,6,10 มิถุนายน 2561
41,41,25010170,บ้านหนองงูเหลือม,0,4,4,1,13,12,25,1,13,7,20,1,26,23,49,3,6,8,14,1,14,9,23,1,3,13,16,1,12,6,18,1,10,7,17,1,7,7,14,1,52,50,102,6,16,10,26,1,10,10,20,1,7,5,12,1,33,25,58,3,0,0,0,0,0,0,0,0,0,0,0,0,0,0,0,0,0,0,0,0,0,0,0,0,0,0,0,0,111,98,209,12,10 มิถุนายน 2561
42,42,25010172,วัดอินทาราม,0,0,0,0,5,6,11,1,8,1,9,1,13,7,20,2,8,6,14,1,13,3,16,1,7,12,19,1,2,10,12,1,4,7,11,1,4,7,11,1,38,45,83,6,5,0,5,1,5,2,7,1,6,3,9,1,16,5,21,3,0,0,0,0,0,0,0,0,0,0,0,0,0,0,0,0,0,0,0,0,0,0,0,0,0,0,0,0,67,57,124,11,10 มิถุนายน 2561
43,43,25010173,บ้านบางรุ่งโรจน์,0,0,0,0,7,2,9,1,6,2,8,1,13,4,17,2,0,0,0,0,2,4,6,1,5,3,8,1,0,2,2,1,1,3,4,1,1,3,4,1,9,15,24,5,0,0,0,0,0,0,0,0,0,0,0,0,0,0,0,0,0,0,0,0,0,0,0,0,0,0,0,0,0,0,0,0,0,0,0,0,0,0,0,0,0,0,0,0,22,19,41,7,10 มิถุนายน 2561
44,44,25010174,วัดใหม่โพธิ์เย็น,0,0,0,0,1,2,3,1,3,2,5,1,4,4,8,2,5,2,7,1,0,1,1,1,4,1,5,1,0,3,3,1,2,4,6,1,3,1,4,1,14,12,26,6,0,0,0,0,0,0,0,0,0,0,0,0,0,0,0,0,0,0,0,0,0,0,0,0,0,0,0,0,0,0,0,0,0,0,0,0,0,0,0,0,0,0,0,0,18,16,34,8,10 มิถุนายน 2561
45,45,25010175,วัดคลองเฆ่,0,0,0,0,3,0,3,1,2,5,7,1,5,5,10,2,4,2,6,1,7,4,11,1,5,6,11,1,5,4,9,1,10,9,19,1,6,5,11,1,37,30,67,6,0,0,0,0,0,0,0,0,0,0,0,0,0,0,0,0,0,0,0,0,0,0,0,0,0,0,0,0,0,0,0,0,0,0,0,0,0,0,0,0,0,0,0,0,42,35,77,8,10 มิถุนายน 2561
46,46,25010176,วัดเทพพิทักษ์บุญญาราม,0,0,0,0,0,0,0,0,0,0,0,0,0,0,0,0,0,0,0,0,1,0,1,1,0,1,1,1,0,0,0,0,1,1,2,1,1,0,1,1,3,2,5,4,0,0,0,0,0,0,0,0,0,0,0,0,0,0,0,0,0,0,0,0,0,0,0,0,0,0,0,0,0,0,0,0,0,0,0,0,0,0,0,0,0,0,0,0,3,2,5,4,10 มิถุนายน 2561
47,47,25010177,ประชุมเขตศึกษา,0,0,0,0,1,7,8,1,7,4,11,1,8,11,19,2,4,4,8,1,4,6,10,1,2,3,5,1,1,3,4,1,4,5,9,1,4,0,4,1,19,21,40,6,0,0,0,0,0,0,0,0,0,0,0,0,0,0,0,0,0,0,0,0,0,0,0,0,0,0,0,0,0,0,0,0,0,0,0,0,0,0,0,0,0,0,0,0,27,32,59,8,10 มิถุนายน 2561
48,48,25010178,วัดมูลเหล็ก,0,0,0,0,6,2,8,1,3,7,10,1,9,9,18,2,11,4,15,1,3,8,11,1,6,3,9,1,7,2,9,1,6,4,10,1,5,4,9,1,38,25,63,6,0,0,0,0,0,0,0,0,0,0,0,0,0,0,0,0,0,0,0,0,0,0,0,0,0,0,0,0,0,0,0,0,0,0,0,0,0,0,0,0,0,0,0,0,47,34,81,8,10 มิถุนายน 2561
49,49,25010179,บ้านคลองสอง (ราษฎร์บำรุง),0,0,0,0,0,3,3,1,0,1,1,1,0,4,4,2,4,2,6,1,0,0,0,0,0,1,1,1,0,2,2,1,1,3,4,1,0,1,1,1,5,9,14,5,0,0,0,0,0,0,0,0,0,0,0,0,0,0,0,0,0,0,0,0,0,0,0,0,0,0,0,0,0,0,0,0,0,0,0,0,0,0,0,0,0,0,0,0,5,13,18,7,10 มิถุนายน 2561
50,50,25010180,วัดไชยมงคล,7,4,11,1,7,7,14,1,4,7,11,1,18,18,36,3,2,3,5,1,2,12,14,1,7,8,15,1,5,5,10,1,3,3,6,1,8,4,12,1,27,35,62,6,0,0,0,0,0,0,0,0,0,0,0,0,0,0,0,0,0,0,0,0,0,0,0,0,0,0,0,0,0,0,0,0,0,0,0,0,0,0,0,0,0,0,0,0,45,53,98,9,10 มิถุนายน 2561
51,51,25010181,บ้านด่าน,4,3,7,1,6,4,10,1,2,2,4,1,12,9,21,3,3,4,7,1,0,1,1,1,1,2,3,1,10,2,12,1,5,5,10,1,8,0,8,1,27,14,41,6,0,0,0,0,0,0,0,0,0,0,0,0,0,0,0,0,0,0,0,0,0,0,0,0,0,0,0,0,0,0,0,0,0,0,0,0,0,0,0,0,0,0,0,0,39,23,62,9,10 มิถุนายน 2561
52,52,25010182,วัดเกาะลอย,0,0,0,0,1,3,4,1,1,1,2,1,2,4,6,2,2,1,3,1,1,1,2,1,0,1,1,1,6,0,6,1,5,1,6,1,2,2,4,1,16,6,22,6,0,0,0,0,0,0,0,0,0,0,0,0,0,0,0,0,0,0,0,0,0,0,0,0,0,0,0,0,0,0,0,0,0,0,0,0,0,0,0,0,0,0,0,0,18,10,28,8,10 มิถุนายน 2561
53,53,25010183,วัดศรีสุทธาวาส,0,0,0,0,1,0,1,1,3,1,4,1,4,1,5,2,1,1,2,1,3,0,3,1,1,2,3,1,0,1,1,1,1,0,1,1,1,2,3,1,7,6,13,6,0,0,0,0,0,0,0,0,0,0,0,0,0,0,0,0,0,0,0,0,0,0,0,0,0,0,0,0,0,0,0,0,0,0,0,0,0,0,0,0,0,0,0,0,11,7,18,8,10 มิถุนายน 2561
54,54,25010184,วัดหนองคุ้ม,2,4,6,1,10,8,18,1,9,7,16,1,21,19,40,3,7,6,13,1,5,6,11,1,5,2,7,1,7,4,11,1,7,7,14,1,7,7,14,1,38,32,70,6,5,5,10,1,5,5,10,1,5,7,12,1,15,17,32,3,0,0,0,0,0,0,0,0,0,0,0,0,0,0,0,0,0,0,0,0,0,0,0,0,0,0,0,0,74,68,142,12,10 มิถุนายน 2561
55,55,25010185,วัดทุ่งสบก,0,0,0,0,2,5,7,1,3,7,10,1,5,12,17,2,9,4,13,1,3,5,8,1,4,5,9,1,6,6,12,1,6,3,9,1,9,7,16,1,37,30,67,6,0,0,0,0,0,0,0,0,0,0,0,0,0,0,0,0,0,0,0,0,0,0,0,0,0,0,0,0,0,0,0,0,0,0,0,0,0,0,0,0,0,0,0,0,42,42,84,8,10 มิถุนายน 2561
56,56,25010187,วัดใหม่กวางทอง,0,0,0,0,3,1,4,1,2,0,2,1,5,1,6,2,2,4,6,1,1,1,2,1,2,4,6,1,3,3,6,1,3,3,6,1,2,3,5,1,13,18,31,6,0,0,0,0,0,0,0,0,0,0,0,0,0,0,0,0,0,0,0,0,0,0,0,0,0,0,0,0,0,0,0,0,0,0,0,0,0,0,0,0,0,0,0,0,18,19,37,8,10 มิถุนายน 2561
57,57,25010188,วัดตะเคียนทอง,2,3,5,1,6,2,8,1,0,1,1,1,8,6,14,3,3,1,4,1,3,3,6,1,1,1,2,1,1,0,1,1,4,1,5,1,1,0,1,1,13,6,19,6,0,0,0,0,0,0,0,0,0,0,0,0,0,0,0,0,0,0,0,0,0,0,0,0,0,0,0,0,0,0,0,0,0,0,0,0,0,0,0,0,0,0,0,0,21,12,33,9,10 มิถุนายน 2561
58,58,25010192,วัดศรีมงคล,0,0,0,0,11,10,21,1,9,7,16,1,20,17,37,2,7,12,19,1,6,9,15,1,9,8,17,1,8,10,18,1,9,9,18,1,9,7,16,1,48,55,103,6,0,0,0,0,0,0,0,0,0,0,0,0,0,0,0,0,0,0,0,0,0,0,0,0,0,0,0,0,0,0,0,0,0,0,0,0,0,0,0,0,0,0,0,0,68,72,140,8,10 มิถุนายน 2561
59,59,25010193,วัดดงบัง (ดงบังบำรุงวิทย์),4,3,7,1,0,5,5,1,3,3,6,1,7,11,18,3,4,6,10,1,2,5,7,1,2,3,5,1,5,4,9,1,5,7,12,1,6,3,9,1,24,28,52,6,8,5,13,1,4,7,11,1,5,4,9,1,17,16,33,3,0,0,0,0,0,0,0,0,0,0,0,0,0,0,0,0,0,0,0,0,0,0,0,0,0,0,0,0,48,55,103,12,10 มิถุนายน 2561
60,60,25010194,วัดบ้านโนน,0,0,0,0,5,4,9,1,6,4,10,1,11,8,19,2,8,4,12,1,5,8,13,1,3,8,11,1,7,3,10,1,6,6,12,1,10,5,15,1,39,34,73,6,10,4,14,1,10,7,17,1,10,8,18,1,30,19,49,3,0,0,0,0,0,0,0,0,0,0,0,0,0,0,0,0,0,0,0,0,0,0,0,0,0,0,0,0,80,61,141,11,10 มิถุนายน 2561
61,61,25010195,บ้านหอย(เติมเอนยิเนียริ่งอุปถัมภ์),0,0,0,0,0,0,0,0,5,7,12,1,5,7,12,1,9,7,16,1,4,2,6,1,10,4,14,1,7,9,16,1,9,4,13,1,8,8,16,1,47,34,81,6,11,14,25,1,16,7,23,1,15,11,26,1,42,32,74,3,0,0,0,0,0,0,0,0,0,0,0,0,0,0,0,0,0,0,0,0,0,0,0,0,0,0,0,0,94,73,167,10,10 มิถุนายน 2561
62,62,25010196,วัดเกาะมะไฟ,0,0,0,0,2,0,2,1,1,0,1,1,3,0,3,2,11,14,25,1,13,7,20,1,11,9,20,1,8,17,25,1,11,10,21,1,8,9,17,1,62,66,128,6,0,0,0,0,0,0,0,0,0,0,0,0,0,0,0,0,0,0,0,0,0,0,0,0,0,0,0,0,0,0,0,0,0,0,0,0,0,0,0,0,0,0,0,0,65,66,131,8,10 มิถุนายน 2561
63,63,25010197,วัดบุฝ้าย,8,1,9,1,5,6,11,1,8,4,12,1,21,11,32,3,4,5,9,1,6,6,12,1,5,3,8,1,8,2,10,1,3,3,6,1,5,5,10,1,31,24,55,6,0,0,0,0,0,0,0,0,0,0,0,0,0,0,0,0,0,0,0,0,0,0,0,0,0,0,0,0,0,0,0,0,0,0,0,0,0,0,0,0,0,0,0,0,52,35,87,9,10 มิถุนายน 2561
64,64,25010198,บ้านว่านบ้านด่าน,0,0,0,0,11,11,22,1,11,6,17,1,22,17,39,2,10,9,19,1,12,6,18,1,5,10,15,1,9,7,16,1,11,4,15,1,6,9,15,1,53,45,98,6,5,7,12,1,6,4,10,1,8,12,20,1,19,23,42,3,0,0,0,0,0,0,0,0,0,0,0,0,0,0,0,0,0,0,0,0,0,0,0,0,0,0,0,0,94,85,179,11,10 มิถุนายน 2561
65,65,25010199,บ้านโคกสว่าง,0,0,0,0,4,2,6,1,5,2,7,1,9,4,13,2,2,4,6,1,7,5,12,1,5,4,9,1,7,2,9,1,2,8,10,1,3,2,5,1,26,25,51,6,9,6,15,1,4,3,7,1,2,6,8,1,15,15,30,3,0,0,0,0,0,0,0,0,0,0,0,0,0,0,0,0,0,0,0,0,0,0,0,0,0,0,0,0,50,44,94,11,10 มิถุนายน 2561
66,66,25010200,วัดขิงกระชาย,0,0,0,0,5,5,10,1,11,11,22,1,16,16,32,2,7,11,18,1,7,2,9,1,5,8,13,1,3,5,8,1,3,4,7,1,2,6,8,1,27,36,63,6,0,0,0,0,0,0,0,0,0,0,0,0,0,0,0,0,0,0,0,0,0,0,0,0,0,0,0,0,0,0,0,0,0,0,0,0,0,0,0,0,0,0,0,0,43,52,95,8,10 มิถุนายน 2561
67,67,25010201,อนุบาลประจันตคาม,0,0,0,0,22,30,52,2,25,28,53,2,47,58,105,4,27,26,53,2,20,25,45,2,30,25,55,2,29,24,53,2,24,23,47,2,24,26,50,2,154,149,303,12,29,23,52,2,24,32,56,2,33,18,51,2,86,73,159,6,0,0,0,0,0,0,0,0,0,0,0,0,0,0,0,0,0,0,0,0,0,0,0,0,0,0,0,0,287,280,567,22,10 มิถุนายน 2561
68,68,25010202,วัดดงไชยมัน,0,0,0,0,0,0,0,0,0,1,1,1,0,1,1,1,4,3,7,1,1,1,2,1,0,0,0,0,1,0,1,1,3,2,5,1,0,0,0,0,9,6,15,4,0,0,0,0,0,0,0,0,0,0,0,0,0,0,0,0,0,0,0,0,0,0,0,0,0,0,0,0,0,0,0,0,0,0,0,0,0,0,0,0,0,0,0,0,9,7,16,5,10 มิถุนายน 2561
69,69,25010203,ชุมชนวัดศรีประจันตคาม,0,0,0,0,35,33,68,3,47,30,77,3,82,63,145,6,56,40,96,4,37,40,77,3,45,39,84,3,42,30,72,3,45,37,82,3,42,35,77,3,267,221,488,19,0,0,0,0,0,0,0,0,0,0,0,0,0,0,0,0,0,0,0,0,0,0,0,0,0,0,0,0,0,0,0,0,0,0,0,0,0,0,0,0,0,0,0,0,349,284,633,25,10 มิถุนายน 2561
70,70,25010204,ชุมชนวัดบ้านโง้ง,0,0,0,0,11,9,20,1,3,5,8,1,14,14,28,2,10,9,19,1,4,4,8,1,5,0,5,1,8,3,11,1,5,10,15,1,9,10,19,1,41,36,77,6,12,8,20,1,9,7,16,1,10,9,19,1,31,24,55,3,0,0,0,0,0,0,0,0,0,0,0,0,0,0,0,0,0,0,0,0,0,0,0,0,0,0,0,0,86,74,160,11,10 มิถุนายน 2561
71,71,25010205,วัดโพธิ์งาม,0,0,0,0,1,1,2,1,0,1,1,1,1,2,3,2,1,1,2,1,1,1,2,1,0,1,1,1,0,2,2,1,0,1,1,1,2,0,2,1,4,6,10,6,0,0,0,0,0,0,0,0,0,0,0,0,0,0,0,0,0,0,0,0,0,0,0,0,0,0,0,0,0,0,0,0,0,0,0,0,0,0,0,0,0,0,0,0,5,8,13,8,10 มิถุนายน 2561
72,72,25010206,วัดพรหมรังษีมิตรภาพที่ 1,0,0,0,0,15,7,22,1,17,14,31,1,32,21,53,2,19,14,33,1,24,17,41,1,9,8,17,1,14,13,27,1,6,13,19,1,9,10,19,1,81,75,156,6,15,14,29,1,22,9,31,1,14,11,25,1,51,34,85,3,0,0,0,0,0,0,0,0,0,0,0,0,0,0,0,0,0,0,0,0,0,0,0,0,0,0,0,0,164,130,294,11,10 มิถุนายน 2561
73,73,25010207,บ้านเขานันทา,2,2,4,1,6,4,10,1,2,4,6,1,10,10,20,3,5,7,12,1,5,4,9,1,7,1,8,1,4,2,6,1,1,4,5,1,4,4,8,1,26,22,48,6,0,0,0,0,0,0,0,0,0,0,0,0,0,0,0,0,0,0,0,0,0,0,0,0,0,0,0,0,0,0,0,0,0,0,0,0,0,0,0,0,0,0,0,0,36,32,68,9,10 มิถุนายน 2561
74,74,25010208,บ้านคลองแก้มช้ำ,0,0,0,0,4,6,10,1,2,6,8,1,6,12,18,2,7,6,13,1,6,3,9,1,6,1,7,1,3,3,6,1,2,2,4,1,5,1,6,1,29,16,45,6,0,0,0,0,0,0,0,0,0,0,0,0,0,0,0,0,0,0,0,0,0,0,0,0,0,0,0,0,0,0,0,0,0,0,0,0,0,0,0,0,0,0,0,0,35,28,63,8,10 มิถุนายน 2561
75,75,25010209,วัดอินทร์ไตรย์,2,3,5,1,3,6,9,1,3,5,8,1,8,14,22,3,3,2,5,1,3,4,7,1,5,2,7,1,2,1,3,1,5,2,7,1,5,2,7,1,23,13,36,6,0,0,0,0,0,0,0,0,0,0,0,0,0,0,0,0,0,0,0,0,0,0,0,0,0,0,0,0,0,0,0,0,0,0,0,0,0,0,0,0,0,0,0,0,31,27,58,9,10 มิถุนายน 2561
76,76,25010210,บ้านประเถท(โพธิพิทยาราม),3,0,3,1,2,1,3,1,2,3,5,1,7,4,11,3,3,1,4,1,3,2,5,1,1,2,3,1,2,1,3,1,2,0,2,1,3,1,4,1,14,7,21,6,0,0,0,0,0,0,0,0,0,0,0,0,0,0,0,0,0,0,0,0,0,0,0,0,0,0,0,0,0,0,0,0,0,0,0,0,0,0,0,0,0,0,0,0,21,11,32,9,10 มิถุนายน 2561
77,77,25010212,วัดหนองแก้ว,0,0,0,0,3,3,6,1,1,3,4,1,4,6,10,2,3,6,9,1,4,2,6,1,2,6,8,1,2,1,3,1,4,4,8,1,5,5,10,1,20,24,44,6,0,0,0,0,0,0,0,0,0,0,0,0,0,0,0,0,0,0,0,0,0,0,0,0,0,0,0,0,0,0,0,0,0,0,0,0,0,0,0,0,0,0,0,0,24,30,54,8,10 มิถุนายน 2561
78,78,25010213,วัดโคกเขื่อน,0,0,0,0,8,7,15,1,10,7,17,1,18,14,32,2,3,5,8,1,3,6,9,1,7,3,10,1,3,5,8,1,1,4,5,1,2,7,9,1,19,30,49,6,0,0,0,0,0,0,0,0,0,0,0,0,0,0,0,0,0,0,0,0,0,0,0,0,0,0,0,0,0,0,0,0,0,0,0,0,0,0,0,0,0,0,0,0,37,44,81,8,10 มิถุนายน 2561
79,79,25010214,วัดประดิษฐาราม,4,0,4,1,4,4,8,1,6,9,15,1,14,13,27,3,2,5,7,1,7,5,12,1,1,4,5,1,3,2,5,1,4,2,6,1,1,2,3,1,18,20,38,6,0,0,0,0,0,0,0,0,0,0,0,0,0,0,0,0,0,0,0,0,0,0,0,0,0,0,0,0,0,0,0,0,0,0,0,0,0,0,0,0,0,0,0,0,32,33,65,9,10 มิถุนายน 2561
80,80,25010215,วัดประสาทรังสฤษฎิ์,1,2,3,1,5,4,9,1,5,4,9,1,11,10,21,3,4,3,7,1,4,7,11,1,3,4,7,1,3,4,7,1,3,11,14,1,10,4,14,1,27,33,60,6,0,0,0,0,0,0,0,0,0,0,0,0,0,0,0,0,0,0,0,0,0,0,0,0,0,0,0,0,0,0,0,0,0,0,0,0,0,0,0,0,0,0,0,0,38,43,81,9,10 มิถุนายน 2561
81,81,25010216,วัดราษฎร์เจริญศรัทธาธรรม,0,0,0,0,47,41,88,3,46,38,84,3,93,79,172,6,54,48,102,3,48,39,87,3,30,36,66,2,40,47,87,3,40,50,90,3,32,36,68,2,244,256,500,16,0,0,0,0,0,0,0,0,0,0,0,0,0,0,0,0,0,0,0,0,0,0,0,0,0,0,0,0,0,0,0,0,0,0,0,0,0,0,0,0,0,0,0,0,337,335,672,22,10 มิถุนายน 2561
82,82,25010217,บ้านประพาส,10,8,18,1,40,23,63,3,43,49,92,3,93,80,173,7,43,48,91,2,45,34,79,2,33,30,63,2,47,36,83,2,36,25,61,2,49,44,93,2,253,217,470,12,38,34,72,2,48,47,95,2,33,37,70,2,119,118,237,6,0,0,0,0,0,0,0,0,0,0,0,0,0,0,0,0,0,0,0,0,0,0,0,0,0,0,0,0,465,415,880,25,10 มิถุนายน 2561
83,83,25010218,บ้านวังทะลุ,0,0,0,0,21,24,45,2,21,9,30,1,42,33,75,3,20,26,46,2,14,8,22,1,16,13,29,1,15,13,28,1,12,11,23,1,15,18,33,1,92,89,181,7,26,11,37,1,24,20,44,1,22,19,41,2,72,50,122,4,0,0,0,0,0,0,0,0,0,0,0,0,0,0,0,0,0,0,0,0,0,0,0,0,0,0,0,0,206,172,378,14,10 มิถุนายน 2561
84,84,25010219,บ้านวังขอน,0,0,0,0,6,8,14,1,10,12,22,1,16,20,36,2,9,8,17,1,7,3,10,1,7,9,16,1,7,13,20,1,6,11,17,1,11,10,21,1,47,54,101,6,0,0,0,0,0,0,0,0,0,0,0,0,0,0,0,0,0,0,0,0,0,0,0,0,0,0,0,0,0,0,0,0,0,0,0,0,0,0,0,0,0,0,0,0,63,74,137,8,10 มิถุนายน 2561
85,85,25010220,บ้านดงกระทงยาม,0,0,0,0,8,11,19,1,8,13,21,1,16,24,40,2,11,11,22,1,10,7,17,1,7,8,15,1,5,13,18,1,12,10,22,1,9,9,18,1,54,58,112,6,11,8,19,1,12,7,19,1,9,5,14,1,32,20,52,3,0,0,0,0,0,0,0,0,0,0,0,0,0,0,0,0,0,0,0,0,0,0,0,0,0,0,0,0,102,102,204,11,10 มิถุนายน 2561
86,86,25010221,บ้านย่านนางวิ่ง,0,0,0,0,10,7,17,1,7,3,10,1,17,10,27,2,7,8,15,1,3,10,13,1,8,4,12,1,9,5,14,1,5,4,9,1,8,6,14,1,40,37,77,6,0,0,0,0,0,0,0,0,0,0,0,0,0,0,0,0,0,0,0,0,0,0,0,0,0,0,0,0,0,0,0,0,0,0,0,0,0,0,0,0,0,0,0,0,57,47,104,8,10 มิถุนายน 2561
87,87,25010222,บ้านโป่งไผ่,24,21,45,2,15,14,29,1,22,21,43,2,61,56,117,5,23,28,51,2,26,24,50,2,33,15,48,2,24,26,50,2,29,25,54,2,17,19,36,1,152,137,289,11,0,0,0,0,0,0,0,0,0,0,0,0,0,0,0,0,0,0,0,0,0,0,0,0,0,0,0,0,0,0,0,0,0,0,0,0,0,0,0,0,0,0,0,0,213,193,406,16,10 มิถุนายน 2561
88,88,25010223,วัดบุยายใบ,0,0,0,0,8,7,15,1,11,10,21,1,19,17,36,2,8,9,17,1,4,10,14,1,14,6,20,1,10,8,18,1,6,2,8,1,4,6,10,1,46,41,87,6,0,0,0,0,0,0,0,0,0,0,0,0,0,0,0,0,0,0,0,0,0,0,0,0,0,0,0,0,0,0,0,0,0,0,0,0,0,0,0,0,0,0,0,0,65,58,123,8,10 มิถุนายน 2561
89,89,25010224,วัดหลังถ้ำวิทยาคาร,0,0,0,0,3,4,7,1,1,7,8,1,4,11,15,2,2,6,8,1,4,4,8,1,5,1,6,1,4,1,5,1,1,2,3,1,4,2,6,1,20,16,36,6,0,0,0,0,0,0,0,0,0,0,0,0,0,0,0,0,0,0,0,0,0,0,0,0,0,0,0,0,0,0,0,0,0,0,0,0,0,0,0,0,0,0,0,0,24,27,51,8,10 มิถุนายน 2561
90,90,25010225,บ้านท่าตูม,0,0,0,0,29,21,50,2,17,22,39,2,46,43,89,4,27,18,45,1,20,19,39,1,21,21,42,1,31,23,54,2,22,15,37,1,36,18,54,2,157,114,271,8,18,24,42,1,20,22,42,1,20,20,40,1,58,66,124,3,0,0,0,0,0,0,0,0,0,0,0,0,0,0,0,0,0,0,0,0,0,0,0,0,0,0,0,0,261,223,484,15,10 มิถุนายน 2561
91,91,25010227,วัดบุพพาราม,0,0,0,0,1,3,4,1,1,5,6,1,2,8,10,2,4,3,7,1,3,3,6,1,4,2,6,1,4,4,8,1,1,2,3,1,5,3,8,1,21,17,38,6,0,0,0,0,0,0,0,0,0,0,0,0,0,0,0,0,0,0,0,0,0,0,0,0,0,0,0,0,0,0,0,0,0,0,0,0,0,0,0,0,0,0,0,0,23,25,48,8,10 มิถุนายน 2561
92,92,25010228,วัดอรัญไพรศรี,0,0,0,0,8,4,12,1,7,5,12,1,15,9,24,2,3,7,10,1,6,5,11,1,5,4,9,1,6,7,13,1,9,6,15,1,8,6,14,1,37,35,72,6,0,0,0,0,0,0,0,0,0,0,0,0,0,0,0,0,0,0,0,0,0,0,0,0,0,0,0,0,0,0,0,0,0,0,0,0,0,0,0,0,0,0,0,0,52,44,96,8,10 มิถุนายน 2561
93,93,25010229,อนุบาลศรีมหาโพธิ,13,17,30,1,21,13,34,1,21,14,35,2,55,44,99,4,28,21,49,1,15,19,34,1,21,23,44,1,21,7,28,1,19,28,47,1,20,11,31,1,124,109,233,6,0,0,0,0,0,0,0,0,0,0,0,0,0,0,0,0,0,0,0,0,0,0,0,0,0,0,0,0,0,0,0,0,0,0,0,0,0,0,0,0,0,0,0,0,179,153,332,10,10 มิถุนายน 2561
94,94,25010230,บ้านหนองกระทุ่ม,0,0,0,0,10,6,16,1,11,7,18,1,21,13,34,2,12,14,26,1,7,7,14,1,11,3,14,1,7,5,12,1,10,9,19,1,13,7,20,1,60,45,105,6,0,0,0,0,0,0,0,0,0,0,0,0,0,0,0,0,0,0,0,0,0,0,0,0,0,0,0,0,0,0,0,0,0,0,0,0,0,0,0,0,0,0,0,0,81,58,139,8,10 มิถุนายน 2561
95,95,25010231,บ้านหนองหอย,0,0,0,0,6,4,10,1,4,6,10,1,10,10,20,2,3,2,5,1,5,5,10,1,6,10,16,1,3,3,6,1,4,6,10,1,3,2,5,1,24,28,52,6,0,0,0,0,0,0,0,0,0,0,0,0,0,0,0,0,0,0,0,0,0,0,0,0,0,0,0,0,0,0,0,0,0,0,0,0,0,0,0,0,0,0,0,0,34,38,72,8,10 มิถุนายน 2561
96,96,25010232,บ้านหว้าเอน,6,8,14,1,5,3,8,1,6,4,10,1,17,15,32,3,8,6,14,1,12,3,15,1,10,5,15,1,9,7,16,1,11,3,14,1,7,9,16,1,57,33,90,6,9,2,11,1,6,6,12,1,6,7,13,1,21,15,36,3,0,0,0,0,0,0,0,0,0,0,0,0,0,0,0,0,0,0,0,0,0,0,0,0,0,0,0,0,95,63,158,12,10 มิถุนายน 2561
97,97,25010233,วัดสัมพันธ์,0,0,0,0,6,5,11,1,13,7,20,1,19,12,31,2,6,7,13,1,3,10,13,1,5,1,6,1,7,9,16,1,10,7,17,1,5,5,10,1,36,39,75,6,0,0,0,0,0,0,0,0,0,0,0,0,0,0,0,0,0,0,0,0,0,0,0,0,0,0,0,0,0,0,0,0,0,0,0,0,0,0,0,0,0,0,0,0,55,51,106,8,10 มิถุนายน 2561
98,98,25010234,วัดระเบาะไผ่,0,0,0,0,27,29,56,2,34,42,76,3,61,71,132,5,32,27,59,2,24,21,45,2,41,28,69,2,42,26,68,2,33,26,59,2,30,29,59,2,202,157,359,12,41,27,68,2,43,30,73,2,26,24,50,2,110,81,191,6,0,0,0,0,0,0,0,0,0,0,0,0,0,0,0,0,0,0,0,0,0,0,0,0,0,0,0,0,373,309,682,23,10 มิถุนายน 2561
99,99,25010235,บ้านปรือวายใหญ่,0,0,0,0,14,7,21,1,18,16,34,1,32,23,55,2,23,18,41,1,10,9,19,1,7,16,23,1,14,12,26,1,12,7,19,1,23,13,36,1,89,75,164,6,10,20,30,1,25,18,43,1,14,10,24,1,49,48,97,3,0,0,0,0,0,0,0,0,0,0,0,0,0,0,0,0,0,0,0,0,0,0,0,0,0,0,0,0,170,146,316,11,10 มิถุนายน 2561
100,100,25010236,วัดใหม่ประชุมชนมิตรภาพที่ 76,10,8,18,1,11,15,26,1,10,10,20,1,31,33,64,3,14,8,22,1,8,12,20,1,6,2,8,1,8,6,14,1,12,4,16,1,6,5,11,1,54,37,91,6,0,0,0,0,0,0,0,0,0,0,0,0,0,0,0,0,0,0,0,0,0,0,0,0,0,0,0,0,0,0,0,0,0,0,0,0,0,0,0,0,0,0,0,0,85,70,155,9,10 มิถุนายน 2561
101,101,25010237,บ้านโป่งกะพ้อ,8,10,18,1,7,2,9,1,3,4,7,1,18,16,34,3,7,1,8,1,2,5,7,1,2,2,4,1,6,4,10,1,2,4,6,1,3,2,5,1,22,18,40,6,0,0,0,0,0,0,0,0,0,0,0,0,0,0,0,0,0,0,0,0,0,0,0,0,0,0,0,0,0,0,0,0,0,0,0,0,0,0,0,0,0,0,0,0,40,34,74,9,10 มิถุนายน 2561
102,102,25010238,บ้านมาบเหียง,0,0,0,0,2,0,2,1,2,5,7,1,4,5,9,2,4,2,6,1,4,3,7,1,2,4,6,1,2,3,5,1,1,3,4,1,1,1,2,1,14,16,30,6,0,0,0,0,0,0,0,0,0,0,0,0,0,0,0,0,0,0,0,0,0,0,0,0,0,0,0,0,0,0,0,0,0,0,0,0,0,0,0,0,0,0,0,0,18,21,39,8,10 มิถุนายน 2561
103,103,25010239,วัดหนองโพรง,0,0,0,0,14,8,22,1,10,15,25,1,24,23,47,2,12,7,19,1,16,5,21,1,9,15,24,1,9,4,13,1,12,8,20,1,14,10,24,1,72,49,121,6,0,0,0,0,0,0,0,0,0,0,0,0,0,0,0,0,0,0,0,0,0,0,0,0,0,0,0,0,0,0,0,0,0,0,0,0,0,0,0,0,0,0,0,0,96,72,168,8,10 มิถุนายน 2561
104,104,25010240,บ้านโคกกระเจียว,2,3,5,1,7,3,10,1,6,1,7,1,15,7,22,3,9,6,15,1,3,5,8,1,4,4,8,1,7,2,9,1,7,0,7,1,2,5,7,1,32,22,54,6,0,0,0,0,0,0,0,0,0,0,0,0,0,0,0,0,0,0,0,0,0,0,0,0,0,0,0,0,0,0,0,0,0,0,0,0,0,0,0,0,0,0,0,0,47,29,76,9,10 มิถุนายน 2561
105,105,25010241,วัดนพคุณทอง,9,1,10,1,3,3,6,1,6,2,8,1,18,6,24,3,5,7,12,1,5,3,8,1,3,2,5,1,7,8,15,1,7,0,7,1,4,7,11,1,31,27,58,6,0,0,0,0,0,0,0,0,0,0,0,0,0,0,0,0,0,0,0,0,0,0,0,0,0,0,0,0,0,0,0,0,0,0,0,0,0,0,0,0,0,0,0,0,49,33,82,9,10 มิถุนายน 2561
106,106,25010242,วัดหนองหูช้าง,4,7,11,1,5,6,11,1,6,7,13,1,15,20,35,3,5,3,8,1,6,5,11,1,2,8,10,1,6,5,11,1,4,1,5,1,6,8,14,1,29,30,59,6,0,0,0,0,0,0,0,0,0,0,0,0,0,0,0,0,0,0,0,0,0,0,0,0,0,0,0,0,0,0,0,0,0,0,0,0,0,0,0,0,0,0,0,0,44,50,94,9,10 มิถุนายน 2561
107,107,25010244,หัวซาวิทยา,0,0,0,0,4,4,8,1,5,7,12,1,9,11,20,2,9,7,16,1,8,3,11,1,4,1,5,1,6,3,9,1,9,4,13,1,10,4,14,1,46,22,68,6,13,8,21,1,23,7,30,1,16,13,29,1,52,28,80,3,0,0,0,0,0,0,0,0,0,0,0,0,0,0,0,0,0,0,0,0,0,0,0,0,0,0,0,0,107,61,168,11,10 มิถุนายน 2561
108,108,25010245,ชุมชนบ้านเกาะสมอ(สามัคคีวิทยา),9,11,20,1,7,9,16,1,12,4,16,1,28,24,52,3,10,7,17,1,16,9,25,1,13,17,30,1,14,11,25,1,16,15,31,1,12,8,20,1,81,67,148,6,0,0,0,0,0,0,0,0,0,0,0,0,0,0,0,0,0,0,0,0,0,0,0,0,0,0,0,0,0,0,0,0,0,0,0,0,0,0,0,0,0,0,0,0,109,91,200,9,10 มิถุนายน 2561
109,109,25010246,บ้านหนองปรือน้อย,5,7,12,1,8,6,14,1,8,11,19,1,21,24,45,3,8,7,15,1,6,9,15,1,5,4,9,1,6,3,9,1,9,8,17,1,7,9,16,1,41,40,81,6,0,0,0,0,0,0,0,0,0,0,0,0,0,0,0,0,0,0,0,0,0,0,0,0,0,0,0,0,0,0,0,0,0,0,0,0,0,0,0,0,0,0,0,0,62,64,126,9,10 มิถุนายน 2561
110,110,25010247,วัดเนินผาสุก,9,6,15,1,2,2,4,1,9,3,12,1,20,11,31,3,3,2,5,1,2,5,7,1,5,8,13,1,3,2,5,1,5,5,10,1,4,3,7,1,22,25,47,6,0,0,0,0,0,0,0,0,0,0,0,0,0,0,0,0,0,0,0,0,0,0,0,0,0,0,0,0,0,0,0,0,0,0,0,0,0,0,0,0,0,0,0,0,42,36,78,9,10 มิถุนายน 2561
111,111,25010248,วัดลิรัญดอน,0,0,0,0,9,1,10,1,5,6,11,1,14,7,21,2,5,4,9,1,3,2,5,1,4,3,7,1,1,1,2,1,3,2,5,1,3,1,4,1,19,13,32,6,0,0,0,0,0,0,0,0,0,0,0,0,0,0,0,0,0,0,0,0,0,0,0,0,0,0,0,0,0,0,0,0,0,0,0,0,0,0,0,0,0,0,0,0,33,20,53,8,10 มิถุนายน 2561
112,112,25010249,วัดคู้ลำพัน,0,0,0,0,0,0,0,0,0,0,0,0,0,0,0,0,7,8,15,1,3,3,6,1,8,2,10,1,5,3,8,1,2,1,3,1,5,3,8,1,30,20,50,6,0,0,0,0,0,0,0,0,0,0,0,0,0,0,0,0,0,0,0,0,0,0,0,0,0,0,0,0,0,0,0,0,0,0,0,0,0,0,0,0,0,0,0,0,30,20,50,6,10 มิถุนายน 2561
113,113,25010250,วัดหนองเกตุ,0,0,0,0,0,0,0,0,0,0,0,0,0,0,0,0,0,0,0,0,0,0,0,0,0,0,0,0,0,0,0,0,0,0,0,0,0,2,2,1,0,2,2,1,0,0,0,0,0,0,0,0,0,0,0,0,0,0,0,0,0,0,0,0,0,0,0,0,0,0,0,0,0,0,0,0,0,0,0,0,0,0,0,0,0,0,0,0,0,2,2,1,10 มิถุนายน 2561
114,114,25010251,บ้านโป่งตะเคียน,0,0,0,0,21,22,43,1,21,19,40,1,42,41,83,2,17,15,32,1,21,20,41,1,20,13,33,1,14,17,31,1,16,13,29,1,14,14,28,1,102,92,194,6,14,11,25,1,6,18,24,1,13,14,27,1,33,43,76,3,0,0,0,0,0,0,0,0,0,0,0,0,0,0,0,0,0,0,0,0,0,0,0,0,0,0,0,0,177,176,353,11,10 มิถุนายน 2561
115,115,25010252,วัดสระข่อย,0,0,0,0,5,12,17,1,13,8,21,1,18,20,38,2,7,9,16,1,6,2,8,1,5,8,13,1,9,7,16,1,10,4,14,1,6,9,15,1,43,39,82,6,0,0,0,0,0,0,0,0,0,0,0,0,0,0,0,0,0,0,0,0,0,0,0,0,0,0,0,0,0,0,0,0,0,0,0,0,0,0,0,0,0,0,0,0,61,59,120,8,10 มิถุนายน 2561
116,116,25010253,วัดแสงสว่าง,0,0,0,0,4,4,8,1,4,7,11,1,8,11,19,2,5,6,11,1,6,2,8,1,6,2,8,1,2,3,5,1,6,2,8,1,2,3,5,1,27,18,45,6,0,0,0,0,0,0,0,0,0,0,0,0,0,0,0,0,0,0,0,0,0,0,0,0,0,0,0,0,0,0,0,0,0,0,0,0,0,0,0,0,0,0,0,0,35,29,64,8,10 มิถุนายน 2561
117,117,25010254,บ้านโคกพนมดี,0,0,0,0,16,4,20,1,10,14,24,1,26,18,44,2,14,11,25,1,9,10,19,1,15,10,25,1,12,9,21,1,14,8,22,1,8,15,23,1,72,63,135,6,0,0,0,0,0,0,0,0,0,0,0,0,0,0,0,0,0,0,0,0,0,0,0,0,0,0,0,0,0,0,0,0,0,0,0,0,0,0,0,0,0,0,0,0,98,81,179,8,10 มิถุนายน 2561
118,118,25010255,วัดต้นโพธิ์ศรีมหาโพธิ,0,0,0,0,3,2,5,1,3,1,4,1,6,3,9,2,3,3,6,1,2,2,4,1,4,1,5,1,1,2,3,1,3,1,4,1,2,4,6,1,15,13,28,6,0,0,0,0,0,0,0,0,0,0,0,0,0,0,0,0,0,0,0,0,0,0,0,0,0,0,0,0,0,0,0,0,0,0,0,0,0,0,0,0,0,0,0,0,21,16,37,8,10 มิถุนายน 2561
119,119,25010256,อนุบาลศรีมโหสถ,19,13,32,1,22,11,33,1,12,19,31,1,53,43,96,3,22,25,47,2,20,21,41,1,29,26,55,2,14,12,26,1,15,18,33,1,20,18,38,1,120,120,240,8,0,0,0,0,0,0,0,0,0,0,0,0,0,0,0,0,0,0,0,0,0,0,0,0,0,0,0,0,0,0,0,0,0,0,0,0,0,0,0,0,0,0,0,0,173,163,336,11,10 มิถุนายน 2561
120,120,25010257,วัดสระมะเขือ,0,0,0,0,5,1,6,1,1,4,5,1,6,5,11,2,2,3,5,1,3,6,9,1,2,2,4,1,4,4,8,1,1,1,2,1,2,2,4,1,14,18,32,6,0,0,0,0,0,0,0,0,0,0,0,0,0,0,0,0,0,0,0,0,0,0,0,0,0,0,0,0,0,0,0,0,0,0,0,0,0,0,0,0,0,0,0,0,20,23,43,8,10 มิถุนายน 2561
121,121,25010258,วัดไผ่งาม,0,0,0,0,8,4,12,1,4,6,10,1,12,10,22,2,5,12,17,1,10,3,13,1,12,7,19,1,8,4,12,1,11,2,13,1,3,8,11,1,49,36,85,6,0,0,0,0,0,0,0,0,0,0,0,0,0,0,0,0,0,0,0,0,0,0,0,0,0,0,0,0,0,0,0,0,0,0,0,0,0,0,0,0,0,0,0,0,61,46,107,8,10 มิถุนายน 2561
