,0,1,2,3,4,5,6,7,8,9,10,11,12,13,14,15,16,17,18,19,20,21,22,23,24,25,26,27,28,29,30,31,32,33,34,35,36,37,38,39,40,41,42,43,44,45,46,47,48,49,50,51,52,53,54,55,56,57,58,59,60,61,62,63,64,65,66,67,68,69,70,71,72,73,74,75,76,77,78,79,80,81,82,83,84,85,86,87,88,89,90,91,92,93,94,95
0,ลำดับ,รหัส SMIS,โรงเรียน,อ.3 ขวบ ชาย,อ.3 ขวบ หญิง,รวมอ.3 ขวบ,อ.3 ขวบ ห้อง,อ.1 ชาย,อ.1 หญิง,รวมอ.1,อ.1 ห้อง,อ.2 ชาย,อ.2 หญิง,รวมอ.2,อ.2 ห้อง,รวมก่อนประถม ชาย,รวมก่อนประถม หญิง,รวมก่อนประถม,รวมห้องก่อนประถม,ป.1 ชาย,ป.1 หญิง,รวมป.1,ป.1 ห้อง,ป.2 ชาย,ป.2 หญิง,รวมป.2,ป.2 ห้อง,ป.3 ชาย,ป.3 หญิง,รวมป.3,ป.3 ห้อง,ป.4 ชาย,ป.4 หญิง,รวมป.4,ป.4 ห้อง,ป.5 ชาย,ป.5 หญิง,รวมป.5,ป.5 ห้อง,ป.6 ชาย,ป.6 หญิง,รวมป.6,ป.6 ห้อง,รวมประถม ชาย,รวมประถม หญิง,รวมประถม,รวมห้องประถม,ม.1 ชาย,ม.1 หญิง,รวมม.1,ม.1 ห้อง,ม.2 ชาย,ม.2 หญิง,รวมม.2,ม.2 ห้อง,ม.3 ชาย,ม.3 หญิง,รวมม.3,ม.3 ห้อง,รวมม.ต้น ชาย,รวมม.ต้น หญิง,รวมม.ต้น,รวมห้องม.ต้น,ม.4 ชาย,ม.4 หญิง,รวมม.4,ม.4 ห้อง,ม.5 ชาย,ม.5 หญิง,รวมม.5,ม.5 ห้อง,ม.6 ชาย,ม.6 หญิง,รวมม.6,ม.6 ห้อง,ปวช.1 ชาย,ปวช.1 หญิง,รวมปวช.1,ปวช.1 ห้อง,ปวช.2 ชาย,ปวช.2 หญิง,รวมปวช.2,ปวช.2 ห้อง,ปวช.3 ชาย,ปวช.3 หญิง,รวมปวช.3,ปวช.3 ห้อง,รวมม.ปลายและเทียบเท่า ชาย,รวมม.ปลายและเทียบเท่า หญิง,รวมม.ปลายและเทียบเท่า,รวมห้องม.ปลายและเทียบเท่า,รวมทั้งหมด ชาย,รวมทั้งหมด หญิง,รวมทั้งหมด,รวมห้องทั้งหมด,ข้อมูล ณ วันที่
1,1,30050001,บ้านถนนหักใหญ่,12,12,24,1,9,12,21,1,16,11,27,1,37,35,72,3,13,16,29,1,12,18,30,1,19,19,38,2,9,13,22,1,17,8,25,1,16,15,31,1,86,89,175,7,9,9,18,1,12,14,26,1,12,17,29,1,33,40,73,3,0,0,0,0,0,0,0,0,0,0,0,0,0,0,0,0,0,0,0,0,0,0,0,0,0,0,0,0,156,164,320,13,10 มิถุนายน 2561
2,2,30050002,บ้านไร่(ทองคูณคุรุราษฎร์สามัคคี),0,0,0,0,13,5,18,1,6,14,20,1,19,19,38,2,12,12,24,1,12,13,25,1,15,8,23,1,15,9,24,1,14,11,25,1,8,12,20,1,76,65,141,6,11,13,24,1,7,14,21,1,12,13,25,1,30,40,70,3,0,0,0,0,0,0,0,0,0,0,0,0,0,0,0,0,0,0,0,0,0,0,0,0,0,0,0,0,125,124,249,11,10 มิถุนายน 2561
3,3,30050003,บ้านสำนักพิมาน,0,0,0,0,1,4,5,1,4,0,4,1,5,4,9,2,1,3,4,1,3,5,8,1,3,2,5,1,0,2,2,1,4,1,5,1,1,1,2,1,12,14,26,6,0,0,0,0,0,0,0,0,0,0,0,0,0,0,0,0,0,0,0,0,0,0,0,0,0,0,0,0,0,0,0,0,0,0,0,0,0,0,0,0,0,0,0,0,17,18,35,8,10 มิถุนายน 2561
4,4,30050004,บ้านหนองกระเทียมเหนือ,0,0,0,0,5,7,12,1,2,4,6,1,7,11,18,2,11,8,19,1,6,4,10,1,0,10,10,1,5,3,8,1,7,8,15,1,7,5,12,1,36,38,74,6,0,0,0,0,0,0,0,0,0,0,0,0,0,0,0,0,0,0,0,0,0,0,0,0,0,0,0,0,0,0,0,0,0,0,0,0,0,0,0,0,0,0,0,0,43,49,92,8,10 มิถุนายน 2561
5,5,30050005,วัดกุดพิมาน,0,0,0,0,3,2,5,1,3,3,6,1,6,5,11,2,5,5,10,1,2,3,5,1,8,4,12,1,1,2,3,1,5,1,6,1,0,0,0,0,21,15,36,5,1,3,4,1,3,4,7,1,3,3,6,1,7,10,17,3,0,0,0,0,0,0,0,0,0,0,0,0,0,0,0,0,0,0,0,0,0,0,0,0,0,0,0,0,34,30,64,10,10 มิถุนายน 2561
6,6,30050006,บ้านหาญ,0,0,0,0,6,5,11,1,14,7,21,1,20,12,32,2,8,15,23,1,13,8,21,1,12,7,19,1,12,10,22,1,16,7,23,1,12,8,20,1,73,55,128,6,0,0,0,0,0,0,0,0,0,0,0,0,0,0,0,0,0,0,0,0,0,0,0,0,0,0,0,0,0,0,0,0,0,0,0,0,0,0,0,0,0,0,0,0,93,67,160,8,10 มิถุนายน 2561
7,7,30050007,วัดถนนหักน้อยดอนกลอย,0,0,0,0,5,3,8,1,9,11,20,1,14,14,28,2,9,13,22,1,5,6,11,1,11,15,26,1,8,17,25,1,9,7,16,1,12,7,19,1,54,65,119,6,0,0,0,0,0,0,0,0,0,0,0,0,0,0,0,0,0,0,0,0,0,0,0,0,0,0,0,0,0,0,0,0,0,0,0,0,0,0,0,0,0,0,0,0,68,79,147,8,10 มิถุนายน 2561
8,8,30050008,บ้านใหม่เจริญสุข,0,0,0,0,6,4,10,1,4,2,6,1,10,6,16,2,12,7,19,1,6,4,10,1,6,4,10,1,4,6,10,1,8,11,19,1,10,8,18,1,46,40,86,6,8,3,11,1,9,2,11,1,9,5,14,1,26,10,36,3,0,0,0,0,0,0,0,0,0,0,0,0,0,0,0,0,0,0,0,0,0,0,0,0,0,0,0,0,82,56,138,11,10 มิถุนายน 2561
9,9,30050009,บ้านจั่นโคกรักษ์,0,0,0,0,12,7,19,1,8,7,15,1,20,14,34,2,7,5,12,1,7,9,16,1,4,9,13,1,13,3,16,1,11,6,17,1,7,8,15,1,49,40,89,6,7,4,11,1,7,5,12,1,11,5,16,1,25,14,39,3,0,0,0,0,0,0,0,0,0,0,0,0,0,0,0,0,0,0,0,0,0,0,0,0,0,0,0,0,94,68,162,11,10 มิถุนายน 2561
10,10,30050010,ด่านขุนทด,0,0,0,0,36,43,79,3,50,41,91,4,86,84,170,7,69,78,147,4,61,59,120,4,74,55,129,4,76,76,152,5,76,90,166,5,76,79,155,5,432,437,869,27,181,207,388,10,191,177,368,10,163,171,334,9,535,555,1090,29,87,160,247,7,52,140,192,5,79,112,191,5,0,0,0,0,0,0,0,0,0,0,0,0,218,412,630,17,1271,1488,2759,80,10 มิถุนายน 2561
11,11,30050011,บ้านละเลิงพิมาน,0,0,0,0,4,11,15,1,6,1,7,1,10,12,22,2,5,6,11,1,6,7,13,1,6,2,8,1,9,8,17,1,4,10,14,1,3,5,8,1,33,38,71,6,0,0,0,0,0,0,0,0,0,0,0,0,0,0,0,0,0,0,0,0,0,0,0,0,0,0,0,0,0,0,0,0,0,0,0,0,0,0,0,0,0,0,0,0,43,50,93,8,10 มิถุนายน 2561
12,12,30050012,วัดบ้านด่านนอก(เสรีธรรมวิทยา),0,0,0,0,4,7,11,1,5,5,10,1,9,12,21,2,11,5,16,1,4,4,8,1,6,7,13,1,8,9,17,1,6,6,12,1,6,7,13,1,41,38,79,6,19,6,25,1,10,9,19,1,11,8,19,1,40,23,63,3,0,0,0,0,0,0,0,0,0,0,0,0,0,0,0,0,0,0,0,0,0,0,0,0,0,0,0,0,90,73,163,11,10 มิถุนายน 2561
13,13,30050013,บ้านพระมะขามสามัคคี,0,0,0,0,8,9,17,1,12,10,22,1,20,19,39,2,16,11,27,1,9,9,18,1,6,7,13,1,13,16,29,1,13,6,19,1,14,8,22,1,71,57,128,6,8,10,18,1,10,8,18,1,6,17,23,1,24,35,59,3,0,0,0,0,0,0,0,0,0,0,0,0,0,0,0,0,0,0,0,0,0,0,0,0,0,0,0,0,115,111,226,11,10 มิถุนายน 2561
14,14,30050014,บ้านหนองบง,0,0,0,0,5,8,13,1,9,9,18,1,14,17,31,2,9,6,15,1,8,3,11,1,7,6,13,1,4,9,13,1,4,6,10,1,5,3,8,1,37,33,70,6,0,0,0,0,0,0,0,0,0,0,0,0,0,0,0,0,0,0,0,0,0,0,0,0,0,0,0,0,0,0,0,0,0,0,0,0,0,0,0,0,0,0,0,0,51,50,101,8,10 มิถุนายน 2561
15,15,30050015,บ้านดอนด่านใน,0,0,0,0,12,9,21,1,8,16,24,1,20,25,45,2,13,8,21,1,8,15,23,1,14,5,19,1,12,9,21,1,15,9,24,1,16,9,25,1,78,55,133,6,13,6,19,1,17,13,30,1,11,12,23,1,41,31,72,3,0,0,0,0,0,0,0,0,0,0,0,0,0,0,0,0,0,0,0,0,0,0,0,0,0,0,0,0,139,111,250,11,10 มิถุนายน 2561
16,16,30050016,ชุมชนบ้านกุดม่วง,0,0,0,0,11,2,13,1,8,4,12,1,19,6,25,2,13,8,21,1,10,7,17,1,7,12,19,1,12,10,22,1,8,9,17,1,7,12,19,1,57,58,115,6,0,0,0,0,0,0,0,0,0,0,0,0,0,0,0,0,0,0,0,0,0,0,0,0,0,0,0,0,0,0,0,0,0,0,0,0,0,0,0,0,0,0,0,0,76,64,140,8,10 มิถุนายน 2561
17,17,30050017,ไชยณรงค์วิทยา,0,0,0,0,3,5,8,1,4,5,9,1,7,10,17,2,3,3,6,1,2,4,6,1,2,1,3,1,3,0,3,1,3,2,5,1,0,1,1,1,13,11,24,6,0,0,0,0,0,0,0,0,0,0,0,0,0,0,0,0,0,0,0,0,0,0,0,0,0,0,0,0,0,0,0,0,0,0,0,0,0,0,0,0,0,0,0,0,20,21,41,8,10 มิถุนายน 2561
18,18,30050018,บ้านโกรกลึก,0,0,0,0,7,5,12,1,8,10,18,1,15,15,30,2,9,10,19,1,7,7,14,1,7,4,11,1,4,7,11,1,9,0,9,1,11,5,16,1,47,33,80,6,0,0,0,0,0,0,0,0,0,0,0,0,0,0,0,0,0,0,0,0,0,0,0,0,0,0,0,0,0,0,0,0,0,0,0,0,0,0,0,0,0,0,0,0,62,48,110,8,10 มิถุนายน 2561
19,19,30050019,บ้านหนองละมั่ง,0,0,0,0,9,10,19,1,15,10,25,1,24,20,44,2,10,7,17,1,7,15,22,1,8,5,13,1,7,8,15,1,6,16,22,1,7,7,14,1,45,58,103,6,14,7,21,1,8,5,13,1,6,11,17,1,28,23,51,3,0,0,0,0,0,0,0,0,0,0,0,0,0,0,0,0,0,0,0,0,0,0,0,0,0,0,0,0,97,101,198,11,10 มิถุนายน 2561
20,20,30050020,บ้านหินลาด,0,0,0,0,2,2,4,1,10,2,12,1,12,4,16,2,3,3,6,1,4,4,8,1,3,5,8,1,2,1,3,1,3,3,6,1,2,6,8,1,17,22,39,6,0,0,0,0,0,0,0,0,0,0,0,0,0,0,0,0,0,0,0,0,0,0,0,0,0,0,0,0,0,0,0,0,0,0,0,0,0,0,0,0,0,0,0,0,29,26,55,8,10 มิถุนายน 2561
21,21,30050021,บ้านหินหล่อง,0,0,0,0,8,4,12,1,7,5,12,1,15,9,24,2,3,0,3,1,4,4,8,1,2,3,5,1,3,3,6,1,3,2,5,1,3,2,5,1,18,14,32,6,0,0,0,0,0,0,0,0,0,0,0,0,0,0,0,0,0,0,0,0,0,0,0,0,0,0,0,0,0,0,0,0,0,0,0,0,0,0,0,0,0,0,0,0,33,23,56,8,10 มิถุนายน 2561
22,22,30050022,บ้านตะเคียน,0,0,0,0,15,14,29,1,20,8,28,1,35,22,57,2,20,16,36,1,7,18,25,1,18,13,31,1,12,14,26,1,8,11,19,1,20,15,35,1,85,87,172,6,0,0,0,0,0,0,0,0,0,0,0,0,0,0,0,0,0,0,0,0,0,0,0,0,0,0,0,0,0,0,0,0,0,0,0,0,0,0,0,0,0,0,0,0,120,109,229,8,10 มิถุนายน 2561
23,23,30050023,บ้านคลองแค,0,0,0,0,9,8,17,1,7,5,12,1,16,13,29,2,6,8,14,1,8,3,11,1,9,7,16,1,13,7,20,1,12,6,18,1,6,5,11,1,54,36,90,6,0,0,0,0,0,0,0,0,0,0,0,0,0,0,0,0,0,0,0,0,0,0,0,0,0,0,0,0,0,0,0,0,0,0,0,0,0,0,0,0,0,0,0,0,70,49,119,8,10 มิถุนายน 2561
24,24,30050024,บ้านโนนเต็ง,0,0,0,0,11,6,17,1,12,10,22,1,23,16,39,2,4,6,10,1,4,6,10,1,2,6,8,1,5,4,9,1,4,6,10,1,9,8,17,1,28,36,64,6,2,5,7,1,8,2,10,1,4,7,11,1,14,14,28,3,0,0,0,0,0,0,0,0,0,0,0,0,0,0,0,0,0,0,0,0,0,0,0,0,0,0,0,0,65,66,131,11,10 มิถุนายน 2561
25,25,30050025,บ้านโนนเมือง,0,0,0,0,4,7,11,1,15,5,20,1,19,12,31,2,10,6,16,1,10,7,17,1,5,6,11,1,10,6,16,1,7,8,15,1,12,7,19,1,54,40,94,6,7,7,14,1,7,7,14,1,10,7,17,1,24,21,45,3,0,0,0,0,0,0,0,0,0,0,0,0,0,0,0,0,0,0,0,0,0,0,0,0,0,0,0,0,97,73,170,11,10 มิถุนายน 2561
26,26,30050027,บ้านกุดโดก,0,0,0,0,0,0,0,0,0,0,0,0,0,0,0,0,0,0,0,0,0,0,0,0,0,0,0,0,0,0,0,0,0,0,0,0,0,0,0,0,0,0,0,0,0,0,0,0,0,0,0,0,0,0,0,0,0,0,0,0,0,0,0,0,0,0,0,0,0,0,0,0,0,0,0,0,0,0,0,0,0,0,0,0,0,0,0,0,0,0,0,0,10 มิถุนายน 2561
27,27,30050028,บ้านเก่า-บ้านน้อย,1,4,5,1,2,5,7,1,6,3,9,1,9,12,21,3,9,3,12,1,3,2,5,1,2,4,6,1,5,5,10,1,2,2,4,1,8,9,17,1,29,25,54,6,0,0,0,0,0,0,0,0,0,0,0,0,0,0,0,0,0,0,0,0,0,0,0,0,0,0,0,0,0,0,0,0,0,0,0,0,0,0,0,0,0,0,0,0,38,37,75,9,10 มิถุนายน 2561
28,28,30050030,บ้านมะเริง,6,3,9,1,1,2,3,1,3,4,7,1,10,9,19,3,1,6,7,1,1,3,4,1,5,3,8,1,0,0,0,0,4,3,7,1,2,0,2,1,13,15,28,5,0,0,0,0,0,0,0,0,0,0,0,0,0,0,0,0,0,0,0,0,0,0,0,0,0,0,0,0,0,0,0,0,0,0,0,0,0,0,0,0,0,0,0,0,23,24,47,8,10 มิถุนายน 2561
29,29,30050031,บ้านวังโป่ง,0,0,0,0,7,6,13,1,18,7,25,1,25,13,38,2,10,9,19,1,9,2,11,1,4,6,10,1,8,2,10,1,8,6,14,1,8,10,18,1,47,35,82,6,3,3,6,1,0,3,3,1,4,1,5,1,7,7,14,3,0,0,0,0,0,0,0,0,0,0,0,0,0,0,0,0,0,0,0,0,0,0,0,0,0,0,0,0,79,55,134,11,10 มิถุนายน 2561
30,30,30050032,บ้านสระพัง,8,4,12,1,6,5,11,1,6,7,13,1,20,16,36,3,6,8,14,1,9,9,18,1,9,2,11,1,7,4,11,1,8,6,14,1,9,9,18,1,48,38,86,6,0,0,0,0,0,0,0,0,0,0,0,0,0,0,0,0,0,0,0,0,0,0,0,0,0,0,0,0,0,0,0,0,0,0,0,0,0,0,0,0,0,0,0,0,68,54,122,9,10 มิถุนายน 2561
31,31,30050034,บ้านประดู่งาม,0,0,0,0,5,2,7,1,3,0,3,1,8,2,10,2,3,3,6,1,0,1,1,1,4,4,8,1,4,4,8,1,5,5,10,1,2,4,6,1,18,21,39,6,0,0,0,0,0,0,0,0,0,0,0,0,0,0,0,0,0,0,0,0,0,0,0,0,0,0,0,0,0,0,0,0,0,0,0,0,0,0,0,0,0,0,0,0,26,23,49,8,10 มิถุนายน 2561
32,32,30050035,บ้านแปรง,0,0,0,0,9,8,17,1,11,10,21,1,20,18,38,2,9,8,17,1,11,6,17,1,10,4,14,1,10,12,22,1,9,8,17,1,13,7,20,1,62,45,107,6,9,9,18,1,7,13,20,1,12,6,18,1,28,28,56,3,0,0,0,0,0,0,0,0,0,0,0,0,0,0,0,0,0,0,0,0,0,0,0,0,0,0,0,0,110,91,201,11,10 มิถุนายน 2561
33,33,30050036,บ้านฝายโบสถ์,0,0,0,0,4,5,9,1,1,0,1,1,5,5,10,2,3,2,5,1,4,4,8,1,7,4,11,1,5,2,7,1,7,4,11,1,8,3,11,1,34,19,53,6,0,0,0,0,0,0,0,0,0,0,0,0,0,0,0,0,0,0,0,0,0,0,0,0,0,0,0,0,0,0,0,0,0,0,0,0,0,0,0,0,0,0,0,0,39,24,63,8,10 มิถุนายน 2561
34,34,30050038,บ้านหนองปรือ,0,0,0,0,8,7,15,1,12,10,22,1,20,17,37,2,9,5,14,1,6,8,14,1,8,1,9,1,4,11,15,1,4,7,11,1,9,6,15,1,40,38,78,6,8,5,13,1,7,2,9,1,7,8,15,1,22,15,37,3,0,0,0,0,0,0,0,0,0,0,0,0,0,0,0,0,0,0,0,0,0,0,0,0,0,0,0,0,82,70,152,11,10 มิถุนายน 2561
35,35,30050039,บ้านหนองพลวง,3,3,6,1,7,6,13,1,6,5,11,1,16,14,30,3,4,10,14,1,5,11,16,1,5,10,15,1,6,5,11,1,9,6,15,1,11,6,17,1,40,48,88,6,0,0,0,0,0,0,0,0,0,0,0,0,0,0,0,0,0,0,0,0,0,0,0,0,0,0,0,0,0,0,0,0,0,0,0,0,0,0,0,0,0,0,0,0,56,62,118,9,10 มิถุนายน 2561
36,36,30050040,บ้านดอน,2,4,6,1,3,8,11,1,2,3,5,1,7,15,22,3,2,1,3,1,1,0,1,1,0,2,2,1,5,2,7,1,1,6,7,1,5,4,9,1,14,15,29,6,0,0,0,0,0,0,0,0,0,0,0,0,0,0,0,0,0,0,0,0,0,0,0,0,0,0,0,0,0,0,0,0,0,0,0,0,0,0,0,0,0,0,0,0,21,30,51,9,10 มิถุนายน 2561
37,37,30050041,บ้านโนนสง่า,14,6,20,1,10,7,17,1,4,6,10,1,28,19,47,3,10,6,16,1,10,7,17,1,10,8,18,1,14,8,22,1,11,5,16,1,5,4,9,1,60,38,98,6,9,6,15,1,8,6,14,1,2,6,8,1,19,18,37,3,0,0,0,0,0,0,0,0,0,0,0,0,0,0,0,0,0,0,0,0,0,0,0,0,0,0,0,0,107,75,182,12,10 มิถุนายน 2561
38,38,30050042,บ้านโป่งกระสัง,4,6,10,1,4,5,9,1,3,6,9,1,11,17,28,3,7,5,12,1,1,3,4,1,4,5,9,1,2,1,3,1,4,2,6,1,4,5,9,1,22,21,43,6,0,0,0,0,0,0,0,0,0,0,0,0,0,0,0,0,0,0,0,0,0,0,0,0,0,0,0,0,0,0,0,0,0,0,0,0,0,0,0,0,0,0,0,0,33,38,71,9,10 มิถุนายน 2561
39,39,30050043,บ้านพันชนะ,4,8,12,1,4,3,7,1,7,0,7,1,15,11,26,3,7,3,10,1,2,5,7,1,7,4,11,1,4,5,9,1,5,2,7,1,4,10,14,1,29,29,58,6,16,2,18,1,9,10,19,1,14,4,18,1,39,16,55,3,0,0,0,0,0,0,0,0,0,0,0,0,0,0,0,0,0,0,0,0,0,0,0,0,0,0,0,0,83,56,139,12,10 มิถุนายน 2561
40,40,30050044,บ้านมาบกราด,3,4,7,1,2,6,8,1,3,4,7,1,8,14,22,3,4,5,9,1,3,2,5,1,1,4,5,1,1,4,5,1,3,0,3,1,4,4,8,1,16,19,35,6,0,0,0,0,0,0,0,0,0,0,0,0,0,0,0,0,0,0,0,0,0,0,0,0,0,0,0,0,0,0,0,0,0,0,0,0,0,0,0,0,0,0,0,0,24,33,57,9,10 มิถุนายน 2561
41,41,30050045,บ้านหลุง(ใหม่บุรพาคม),0,0,0,0,16,14,30,2,10,14,24,1,26,28,54,3,10,14,24,1,14,10,24,1,5,12,17,1,16,11,27,1,8,10,18,1,12,12,24,1,65,69,134,6,8,12,20,1,14,12,26,1,14,8,22,1,36,32,68,3,0,0,0,0,0,0,0,0,0,0,0,0,0,0,0,0,0,0,0,0,0,0,0,0,0,0,0,0,127,129,256,12,10 มิถุนายน 2561
42,42,30050046,วัดสระจรเข้,0,0,0,0,14,16,30,1,10,15,25,1,24,31,55,2,12,7,19,1,13,10,23,1,12,11,23,1,16,13,29,1,11,9,20,1,13,18,31,1,77,68,145,6,0,0,0,0,0,0,0,0,0,0,0,0,0,0,0,0,0,0,0,0,0,0,0,0,0,0,0,0,0,0,0,0,0,0,0,0,0,0,0,0,0,0,0,0,101,99,200,8,10 มิถุนายน 2561
43,43,30050047,บ้านหนองสาร,0,0,0,0,4,5,9,1,6,0,6,1,10,5,15,2,5,4,9,1,3,5,8,1,4,4,8,1,4,7,11,1,5,3,8,1,6,4,10,1,27,27,54,6,0,0,0,0,0,0,0,0,0,0,0,0,0,0,0,0,0,0,0,0,0,0,0,0,0,0,0,0,0,0,0,0,0,0,0,0,0,0,0,0,0,0,0,0,37,32,69,8,10 มิถุนายน 2561
44,44,30050048,บ้านเกาะลอย,0,0,0,0,2,3,5,1,3,2,5,1,5,5,10,2,3,3,6,1,5,1,6,1,0,0,0,0,6,5,11,1,1,5,6,1,3,4,7,1,18,18,36,5,0,0,0,0,0,0,0,0,0,0,0,0,0,0,0,0,0,0,0,0,0,0,0,0,0,0,0,0,0,0,0,0,0,0,0,0,0,0,0,0,0,0,0,0,23,23,46,7,10 มิถุนายน 2561
45,45,30050049,บ้านดอนใหญ่หนองโสน,0,0,0,0,8,8,16,1,11,13,24,1,19,21,40,2,9,13,22,1,4,7,11,1,9,6,15,1,9,6,15,1,7,6,13,1,12,8,20,1,50,46,96,6,0,0,0,0,0,0,0,0,0,0,0,0,0,0,0,0,0,0,0,0,0,0,0,0,0,0,0,0,0,0,0,0,0,0,0,0,0,0,0,0,0,0,0,0,69,67,136,8,10 มิถุนายน 2561
46,46,30050050,บ้านวังสนวน,0,0,0,0,3,12,15,1,9,10,19,1,12,22,34,2,8,5,13,1,11,6,17,1,7,11,18,1,3,9,12,1,7,4,11,1,7,5,12,1,43,40,83,6,7,3,10,1,10,5,15,1,3,4,7,1,20,12,32,3,0,0,0,0,0,0,0,0,0,0,0,0,0,0,0,0,0,0,0,0,0,0,0,0,0,0,0,0,75,74,149,11,10 มิถุนายน 2561
47,47,30050051,บ้านหนองขุยคูเมือง,0,0,0,0,4,3,7,1,3,3,6,1,7,6,13,2,1,1,2,1,3,2,5,1,3,4,7,1,4,3,7,1,7,1,8,1,7,1,8,1,25,12,37,6,0,0,0,0,0,0,0,0,0,0,0,0,0,0,0,0,0,0,0,0,0,0,0,0,0,0,0,0,0,0,0,0,0,0,0,0,0,0,0,0,0,0,0,0,32,18,50,8,10 มิถุนายน 2561
48,48,30050052,บ้านหนองหัน,0,0,0,0,1,0,1,1,0,0,0,0,1,0,1,1,0,1,1,1,1,2,3,1,0,1,1,1,1,0,1,1,1,3,4,1,2,2,4,1,5,9,14,6,0,0,0,0,0,0,0,0,0,0,0,0,0,0,0,0,0,0,0,0,0,0,0,0,0,0,0,0,0,0,0,0,0,0,0,0,0,0,0,0,0,0,0,0,6,9,15,7,10 มิถุนายน 2561
49,49,30050053,บ้านหนองแหน,0,0,0,0,0,1,1,1,0,0,0,0,0,1,1,1,5,2,7,1,2,1,3,1,5,1,6,1,3,1,4,1,2,4,6,1,1,3,4,1,18,12,30,6,0,0,0,0,0,0,0,0,0,0,0,0,0,0,0,0,0,0,0,0,0,0,0,0,0,0,0,0,0,0,0,0,0,0,0,0,0,0,0,0,0,0,0,0,18,13,31,7,10 มิถุนายน 2561
50,50,30050054,บ้านใหม่ชัยพฤกษ์,0,0,0,0,6,6,12,1,2,2,4,1,8,8,16,2,2,0,2,1,5,1,6,1,1,2,3,1,1,3,4,1,2,0,2,1,2,3,5,1,13,9,22,6,0,0,0,0,0,0,0,0,0,0,0,0,0,0,0,0,0,0,0,0,0,0,0,0,0,0,0,0,0,0,0,0,0,0,0,0,0,0,0,0,0,0,0,0,21,17,38,8,10 มิถุนายน 2561
51,51,30050055,บ้านใหม่ศรีสุข,0,0,0,0,1,4,5,1,7,5,12,1,8,9,17,2,4,5,9,1,6,2,8,1,3,3,6,1,3,4,7,1,6,1,7,1,3,5,8,1,25,20,45,6,0,0,0,0,0,0,0,0,0,0,0,0,0,0,0,0,0,0,0,0,0,0,0,0,0,0,0,0,0,0,0,0,0,0,0,0,0,0,0,0,0,0,0,0,33,29,62,8,10 มิถุนายน 2561
52,52,30050056,วัดหนองกราด(สังวรอุปถัมภ์),0,0,0,0,0,0,0,0,17,16,33,1,17,16,33,1,13,18,31,1,12,17,29,1,7,8,15,1,14,13,27,1,13,15,28,1,13,10,23,1,72,81,153,6,0,0,0,0,0,0,0,0,0,0,0,0,0,0,0,0,0,0,0,0,0,0,0,0,0,0,0,0,0,0,0,0,0,0,0,0,0,0,0,0,0,0,0,0,89,97,186,7,10 มิถุนายน 2561
53,53,30050057,บ้านหนองไทร,5,6,11,1,6,7,13,1,3,0,3,1,14,13,27,3,5,5,10,1,7,5,12,1,9,7,16,1,7,8,15,1,8,11,19,1,3,4,7,1,39,40,79,6,11,7,18,1,5,14,19,1,5,2,7,1,21,23,44,3,0,0,0,0,0,0,0,0,0,0,0,0,0,0,0,0,0,0,0,0,0,0,0,0,0,0,0,0,74,76,150,12,10 มิถุนายน 2561
54,54,30050058,บ้านหนองแดง,0,0,0,0,5,7,12,1,3,1,4,1,8,8,16,2,4,2,6,1,3,2,5,1,5,2,7,1,6,3,9,1,5,5,10,1,4,3,7,1,27,17,44,6,0,0,0,0,0,0,0,0,0,0,0,0,0,0,0,0,0,0,0,0,0,0,0,0,0,0,0,0,0,0,0,0,0,0,0,0,0,0,0,0,0,0,0,0,35,25,60,8,10 มิถุนายน 2561
55,55,30050059,บ้านหนองสะแก,0,0,0,0,5,2,7,1,5,4,9,1,10,6,16,2,7,8,15,1,5,2,7,1,2,5,7,1,5,2,7,1,3,7,10,1,7,4,11,1,29,28,57,6,0,0,0,0,0,0,0,0,0,0,0,0,0,0,0,0,0,0,0,0,0,0,0,0,0,0,0,0,0,0,0,0,0,0,0,0,0,0,0,0,0,0,0,0,39,34,73,8,10 มิถุนายน 2561
56,56,30050060,บ้านโคกสามัคคี,9,6,15,1,4,7,11,1,11,6,17,1,24,19,43,3,8,8,16,1,5,8,13,1,7,10,17,1,7,4,11,1,8,13,21,1,8,10,18,1,43,53,96,6,0,0,0,0,0,0,0,0,0,0,0,0,0,0,0,0,0,0,0,0,0,0,0,0,0,0,0,0,0,0,0,0,0,0,0,0,0,0,0,0,0,0,0,0,67,72,139,9,10 มิถุนายน 2561
57,57,30050061,บ้านหนองกระเทียมใต้,0,0,0,0,2,1,3,1,3,1,4,1,5,2,7,2,3,1,4,1,3,1,4,1,1,2,3,1,1,4,5,1,2,1,3,1,4,2,6,1,14,11,25,6,0,0,0,0,0,0,0,0,0,0,0,0,0,0,0,0,0,0,0,0,0,0,0,0,0,0,0,0,0,0,0,0,0,0,0,0,0,0,0,0,0,0,0,0,19,13,32,8,10 มิถุนายน 2561
58,58,30050062,วัดกุดน้ำใส,0,0,0,0,2,3,5,1,1,2,3,1,3,5,8,2,2,2,4,1,6,2,8,1,5,2,7,1,3,5,8,1,2,2,4,1,4,1,5,1,22,14,36,6,0,0,0,0,0,0,0,0,0,0,0,0,0,0,0,0,0,0,0,0,0,0,0,0,0,0,0,0,0,0,0,0,0,0,0,0,0,0,0,0,0,0,0,0,25,19,44,8,10 มิถุนายน 2561
59,59,30050063,บ้านจะบู,2,4,6,1,2,4,6,1,7,1,8,1,11,9,20,3,1,2,3,1,2,6,8,1,0,4,4,1,0,1,1,1,3,5,8,1,2,1,3,1,8,19,27,6,0,0,0,0,0,0,0,0,0,0,0,0,0,0,0,0,0,0,0,0,0,0,0,0,0,0,0,0,0,0,0,0,0,0,0,0,0,0,0,0,0,0,0,0,19,28,47,9,10 มิถุนายน 2561
60,60,30050064,บ้านโนนระเวียง,0,0,0,0,3,2,5,1,5,0,5,1,8,2,10,2,5,5,10,1,6,6,12,1,3,2,5,1,5,3,8,1,5,4,9,1,4,3,7,1,28,23,51,6,0,0,0,0,0,0,0,0,0,0,0,0,0,0,0,0,0,0,0,0,0,0,0,0,0,0,0,0,0,0,0,0,0,0,0,0,0,0,0,0,0,0,0,0,36,25,61,8,10 มิถุนายน 2561
61,61,30050065,บ้านเมืองตะโก,0,0,0,0,2,2,4,1,2,0,2,1,4,2,6,2,2,2,4,1,0,0,0,0,1,5,6,1,0,0,0,0,1,2,3,1,1,2,3,1,5,11,16,4,0,0,0,0,0,0,0,0,0,0,0,0,0,0,0,0,0,0,0,0,0,0,0,0,0,0,0,0,0,0,0,0,0,0,0,0,0,0,0,0,0,0,0,0,9,13,22,6,10 มิถุนายน 2561
62,62,30050066,บ้านหนองบัวตะเกียด(ประชานุกูลวิทยา),0,0,0,0,6,7,13,1,10,3,13,1,16,10,26,2,4,5,9,1,6,6,12,1,7,6,13,1,6,4,10,1,9,5,14,1,8,4,12,1,40,30,70,6,16,18,34,1,8,7,15,1,13,5,18,1,37,30,67,3,0,0,0,0,0,0,0,0,0,0,0,0,0,0,0,0,0,0,0,0,0,0,0,0,0,0,0,0,93,70,163,11,10 มิถุนายน 2561
63,63,30050067,บ้านห้วย,0,0,0,0,0,2,2,1,2,1,3,1,2,3,5,2,2,4,6,1,2,1,3,1,1,4,5,1,1,5,6,1,3,4,7,1,4,0,4,1,13,18,31,6,0,0,0,0,0,0,0,0,0,0,0,0,0,0,0,0,0,0,0,0,0,0,0,0,0,0,0,0,0,0,0,0,0,0,0,0,0,0,0,0,0,0,0,0,15,21,36,8,10 มิถุนายน 2561
64,64,30050068,บ้านสระขี้ตุ่น,3,5,8,1,2,4,6,1,3,1,4,1,8,10,18,3,6,4,10,1,6,0,6,1,3,4,7,1,7,5,12,1,7,7,14,1,3,3,6,1,32,23,55,6,0,0,0,0,0,0,0,0,0,0,0,0,0,0,0,0,0,0,0,0,0,0,0,0,0,0,0,0,0,0,0,0,0,0,0,0,0,0,0,0,0,0,0,0,40,33,73,9,10 มิถุนายน 2561
65,65,30050069,บ้านดอนมุกมัน,0,0,0,0,6,4,10,1,3,4,7,1,9,8,17,2,5,4,9,1,3,3,6,1,2,5,7,1,4,5,9,1,0,0,0,0,4,4,8,1,18,21,39,5,0,0,0,0,0,0,0,0,0,0,0,0,0,0,0,0,0,0,0,0,0,0,0,0,0,0,0,0,0,0,0,0,0,0,0,0,0,0,0,0,0,0,0,0,27,29,56,7,10 มิถุนายน 2561
66,66,30050070,บ้านโค้งตะคร้อ,0,0,0,0,6,3,9,1,1,3,4,1,7,6,13,2,3,0,3,1,2,0,2,1,2,0,2,1,2,5,7,1,1,7,8,1,3,3,6,1,13,15,28,6,0,0,0,0,0,0,0,0,0,0,0,0,0,0,0,0,0,0,0,0,0,0,0,0,0,0,0,0,0,0,0,0,0,0,0,0,0,0,0,0,0,0,0,0,20,21,41,8,10 มิถุนายน 2561
67,67,30050071,บ้านหนองบัวละคร,0,0,0,0,4,7,11,1,5,9,14,1,9,16,25,2,7,12,19,1,12,13,25,1,8,12,20,1,5,5,10,1,10,10,20,1,11,4,15,1,53,56,109,6,0,0,0,0,0,0,0,0,0,0,0,0,0,0,0,0,0,0,0,0,0,0,0,0,0,0,0,0,0,0,0,0,0,0,0,0,0,0,0,0,0,0,0,0,62,72,134,8,10 มิถุนายน 2561
68,68,30050072,บ้านเขื่อน(ท่าพระประชาสรรค์),0,0,0,0,1,3,4,1,1,3,4,1,2,6,8,2,5,2,7,1,3,3,6,1,1,1,2,1,2,3,5,1,2,6,8,1,3,3,6,1,16,18,34,6,0,0,0,0,0,0,0,0,0,0,0,0,0,0,0,0,0,0,0,0,0,0,0,0,0,0,0,0,0,0,0,0,0,0,0,0,0,0,0,0,0,0,0,0,18,24,42,8,10 มิถุนายน 2561
69,69,30050073,บ้านหินเพิง,0,0,0,0,8,7,15,1,1,4,5,1,9,11,20,2,2,2,4,1,5,5,10,1,2,3,5,1,2,3,5,1,3,2,5,1,6,1,7,1,20,16,36,6,0,0,0,0,0,0,0,0,0,0,0,0,0,0,0,0,0,0,0,0,0,0,0,0,0,0,0,0,0,0,0,0,0,0,0,0,0,0,0,0,0,0,0,0,29,27,56,8,10 มิถุนายน 2561
70,70,30050074,บ้านหนองใหญ่,0,0,0,0,7,5,12,1,15,8,23,1,22,13,35,2,15,6,21,1,8,9,17,1,14,10,24,1,9,4,13,1,4,14,18,1,5,6,11,1,55,49,104,6,8,14,22,1,9,3,12,1,16,5,21,1,33,22,55,3,0,0,0,0,0,0,0,0,0,0,0,0,0,0,0,0,0,0,0,0,0,0,0,0,0,0,0,0,110,84,194,11,10 มิถุนายน 2561
71,71,30050075,บ้านห้วยบง,7,3,10,1,14,9,23,1,13,10,23,1,34,22,56,3,20,15,35,1,9,13,22,1,9,8,17,1,7,7,14,1,14,14,28,1,14,11,25,1,73,68,141,6,17,12,29,1,14,11,25,1,18,7,25,1,49,30,79,3,0,0,0,0,0,0,0,0,0,0,0,0,0,0,0,0,0,0,0,0,0,0,0,0,0,0,0,0,156,120,276,12,10 มิถุนายน 2561
72,72,30050076,บ้านซับพลู,0,0,0,0,11,4,15,1,11,3,14,1,22,7,29,2,8,4,12,1,2,7,9,1,12,5,17,1,7,7,14,1,5,5,10,1,4,8,12,1,38,36,74,6,7,7,14,1,8,6,14,1,9,6,15,1,24,19,43,3,0,0,0,0,0,0,0,0,0,0,0,0,0,0,0,0,0,0,0,0,0,0,0,0,0,0,0,0,84,62,146,11,10 มิถุนายน 2561
73,73,30050077,บ้านซับยาง,0,0,0,0,6,7,13,1,6,6,12,1,12,13,25,2,9,3,12,1,4,7,11,1,6,5,11,1,8,9,17,1,8,8,16,1,5,8,13,1,40,40,80,6,0,0,0,0,0,0,0,0,0,0,0,0,0,0,0,0,0,0,0,0,0,0,0,0,0,0,0,0,0,0,0,0,0,0,0,0,0,0,0,0,0,0,0,0,52,53,105,8,10 มิถุนายน 2561
74,74,30050078,บ้านป่ารังงาม,0,0,0,0,5,4,9,1,7,6,13,1,12,10,22,2,6,5,11,1,4,3,7,1,6,3,9,1,4,7,11,1,5,4,9,1,8,3,11,1,33,25,58,6,0,0,0,0,0,0,0,0,0,0,0,0,0,0,0,0,0,0,0,0,0,0,0,0,0,0,0,0,0,0,0,0,0,0,0,0,0,0,0,0,0,0,0,0,45,35,80,8,10 มิถุนายน 2561
75,75,30050079,บ้านศิลาร่วมสามัคคี,0,0,0,0,6,6,12,1,13,6,19,1,19,12,31,2,5,10,15,1,11,5,16,1,5,9,14,1,7,6,13,1,11,9,20,1,7,8,15,1,46,47,93,6,8,4,12,1,11,9,20,1,7,7,14,1,26,20,46,3,0,0,0,0,0,0,0,0,0,0,0,0,0,0,0,0,0,0,0,0,0,0,0,0,0,0,0,0,91,79,170,11,10 มิถุนายน 2561
76,76,30050080,บ้านหนองกราดน้อย,0,0,0,0,1,6,7,1,6,11,17,1,7,17,24,2,3,4,7,1,8,4,12,1,6,8,14,1,4,5,9,1,2,6,8,1,8,7,15,1,31,34,65,6,0,0,0,0,0,0,0,0,0,0,0,0,0,0,0,0,0,0,0,0,0,0,0,0,0,0,0,0,0,0,0,0,0,0,0,0,0,0,0,0,0,0,0,0,38,51,89,8,10 มิถุนายน 2561
77,77,30050081,บ้านน้อยพัฒนา,0,0,0,0,5,5,10,1,8,16,24,1,13,21,34,2,5,10,15,1,13,6,19,1,5,12,17,1,13,7,20,1,7,10,17,1,13,6,19,1,56,51,107,6,0,0,0,0,0,0,0,0,0,0,0,0,0,0,0,0,0,0,0,0,0,0,0,0,0,0,0,0,0,0,0,0,0,0,0,0,0,0,0,0,0,0,0,0,69,72,141,8,10 มิถุนายน 2561
78,78,30050082,บ้านปราสาท,5,5,10,1,5,10,15,1,11,13,24,1,21,28,49,3,5,4,9,1,2,2,4,1,7,6,13,1,11,6,17,1,10,3,13,1,5,3,8,1,40,24,64,6,0,0,0,0,0,0,0,0,0,0,0,0,0,0,0,0,0,0,0,0,0,0,0,0,0,0,0,0,0,0,0,0,0,0,0,0,0,0,0,0,0,0,0,0,61,52,113,9,10 มิถุนายน 2561
79,79,30050083,บ้านห้วยจรเข้,0,0,0,0,10,8,18,1,12,16,28,1,22,24,46,2,3,7,10,1,15,8,23,1,14,9,23,1,11,9,20,1,17,11,28,1,5,8,13,1,65,52,117,6,11,7,18,1,6,9,15,1,21,15,36,1,38,31,69,3,0,0,0,0,0,0,0,0,0,0,0,0,0,0,0,0,0,0,0,0,0,0,0,0,0,0,0,0,125,107,232,11,10 มิถุนายน 2561
80,80,30050084,บ้านกุดนางทอหูก,0,4,4,1,11,10,21,1,8,5,13,1,19,19,38,3,8,7,15,1,9,10,19,1,11,11,22,1,14,4,18,1,9,8,17,1,8,7,15,1,59,47,106,6,0,0,0,0,0,0,0,0,0,0,0,0,0,0,0,0,0,0,0,0,0,0,0,0,0,0,0,0,0,0,0,0,0,0,0,0,0,0,0,0,0,0,0,0,78,66,144,9,10 มิถุนายน 2561
81,81,30050085,บ้านค่ายทะยิง,0,0,0,0,9,7,16,1,10,2,12,1,19,9,28,2,5,7,12,1,9,8,17,1,6,8,14,1,7,6,13,1,7,14,21,1,11,8,19,1,45,51,96,6,0,0,0,0,0,0,0,0,0,0,0,0,0,0,0,0,0,0,0,0,0,0,0,0,0,0,0,0,0,0,0,0,0,0,0,0,0,0,0,0,0,0,0,0,64,60,124,8,10 มิถุนายน 2561
82,82,30050086,บ้านทุ่งสว่าง,0,0,0,0,2,1,3,1,1,3,4,1,3,4,7,2,0,1,1,1,0,1,1,1,0,0,0,0,1,2,3,1,3,2,5,1,0,1,1,1,4,7,11,5,0,0,0,0,0,0,0,0,0,0,0,0,0,0,0,0,0,0,0,0,0,0,0,0,0,0,0,0,0,0,0,0,0,0,0,0,0,0,0,0,0,0,0,0,7,11,18,7,10 มิถุนายน 2561
83,83,30050089,บ้านหินดาด,0,0,0,0,21,16,37,1,22,21,43,1,43,37,80,2,15,16,31,1,14,10,24,1,15,9,24,1,18,15,33,1,20,14,34,1,14,11,25,1,96,75,171,6,0,0,0,0,0,0,0,0,0,0,0,0,0,0,0,0,0,0,0,0,0,0,0,0,0,0,0,0,0,0,0,0,0,0,0,0,0,0,0,0,0,0,0,0,139,112,251,8,10 มิถุนายน 2561
84,84,30050090,บ้านท่าขี้เหล็ก,0,0,0,0,5,3,8,1,7,2,9,1,12,5,17,2,4,6,10,1,3,4,7,1,4,4,8,1,3,1,4,1,5,3,8,1,3,3,6,1,22,21,43,6,0,0,0,0,0,0,0,0,0,0,0,0,0,0,0,0,0,0,0,0,0,0,0,0,0,0,0,0,0,0,0,0,0,0,0,0,0,0,0,0,0,0,0,0,34,26,60,8,10 มิถุนายน 2561
85,85,30050091,บัวปุ่นสันเทียะอนุสรณ์,5,4,9,1,0,3,3,1,0,5,5,1,5,12,17,3,2,5,7,1,2,1,3,1,4,6,10,1,5,3,8,1,3,2,5,1,4,3,7,1,20,20,40,6,0,0,0,0,0,0,0,0,0,0,0,0,0,0,0,0,0,0,0,0,0,0,0,0,0,0,0,0,0,0,0,0,0,0,0,0,0,0,0,0,0,0,0,0,25,32,57,9,10 มิถุนายน 2561
86,86,30050092,บ้านกำปัง,0,1,1,1,1,1,2,1,6,1,7,1,7,3,10,3,4,3,7,1,2,2,4,1,5,3,8,1,4,4,8,1,1,2,3,1,0,5,5,1,16,19,35,6,0,0,0,0,0,0,0,0,0,0,0,0,0,0,0,0,0,0,0,0,0,0,0,0,0,0,0,0,0,0,0,0,0,0,0,0,0,0,0,0,0,0,0,0,23,22,45,9,10 มิถุนายน 2561
87,87,30050093,บ้านจาน,6,10,16,1,5,13,18,1,10,8,18,1,21,31,52,3,16,15,31,1,10,8,18,1,13,16,29,1,12,11,23,1,14,11,25,1,12,11,23,1,77,72,149,6,12,5,17,1,13,8,21,1,10,15,25,1,35,28,63,3,0,0,0,0,0,0,0,0,0,0,0,0,0,0,0,0,0,0,0,0,0,0,0,0,0,0,0,0,133,131,264,12,10 มิถุนายน 2561
88,88,30050094,บ้านนา,6,7,13,1,7,10,17,1,6,13,19,1,19,30,49,3,17,10,27,1,12,9,21,1,16,12,28,1,14,12,26,1,12,13,25,1,12,12,24,1,83,68,151,6,18,11,29,1,13,9,22,1,15,6,21,1,46,26,72,3,0,0,0,0,0,0,0,0,0,0,0,0,0,0,0,0,0,0,0,0,0,0,0,0,0,0,0,0,148,124,272,12,10 มิถุนายน 2561
89,89,30050095,บ้านอ้อไพล,5,6,11,1,8,5,13,1,7,10,17,1,20,21,41,3,9,11,20,1,3,9,12,1,9,2,11,1,12,5,17,1,12,7,19,1,5,6,11,1,50,40,90,6,0,0,0,0,0,0,0,0,0,0,0,0,0,0,0,0,0,0,0,0,0,0,0,0,0,0,0,0,0,0,0,0,0,0,0,0,0,0,0,0,0,0,0,0,70,61,131,9,10 มิถุนายน 2561
90,90,30050096,ศรีชลสินธุ์,4,4,8,1,3,10,13,1,6,5,11,1,13,19,32,3,2,8,10,1,7,5,12,1,6,4,10,1,8,4,12,1,9,7,16,1,8,10,18,1,40,38,78,6,0,0,0,0,0,0,0,0,0,0,0,0,0,0,0,0,0,0,0,0,0,0,0,0,0,0,0,0,0,0,0,0,0,0,0,0,0,0,0,0,0,0,0,0,53,57,110,9,10 มิถุนายน 2561
91,91,30050097,บ้านกะพี้,3,5,8,1,3,1,4,1,4,3,7,1,10,9,19,3,4,2,6,1,3,6,9,1,6,2,8,1,2,7,9,1,5,6,11,1,1,2,3,1,21,25,46,6,0,0,0,0,0,0,0,0,0,0,0,0,0,0,0,0,0,0,0,0,0,0,0,0,0,0,0,0,0,0,0,0,0,0,0,0,0,0,0,0,0,0,0,0,31,34,65,9,10 มิถุนายน 2561
92,92,30050098,บ้านค้างพลู,0,0,0,0,10,8,18,1,16,8,24,1,26,16,42,2,11,9,20,1,9,13,22,1,13,15,28,1,10,11,21,1,13,11,24,1,11,7,18,1,67,66,133,6,0,0,0,0,0,0,0,0,0,0,0,0,0,0,0,0,0,0,0,0,0,0,0,0,0,0,0,0,0,0,0,0,0,0,0,0,0,0,0,0,0,0,0,0,93,82,175,8,10 มิถุนายน 2561
93,93,30050100,บ้านซินหนองเขวา,0,0,0,0,13,8,21,1,16,14,30,1,29,22,51,2,19,13,32,1,7,9,16,1,10,10,20,1,13,9,22,1,10,6,16,1,9,12,21,1,68,59,127,6,10,6,16,1,11,10,21,1,10,2,12,1,31,18,49,3,0,0,0,0,0,0,0,0,0,0,0,0,0,0,0,0,0,0,0,0,0,0,0,0,0,0,0,0,128,99,227,11,10 มิถุนายน 2561
94,94,30050101,บ้านโนนพุทรา,4,5,9,1,4,7,11,1,5,4,9,1,13,16,29,3,9,4,13,1,7,7,14,1,5,10,15,1,6,3,9,1,8,5,13,1,9,4,13,1,44,33,77,6,0,0,0,0,0,0,0,0,0,0,0,0,0,0,0,0,0,0,0,0,0,0,0,0,0,0,0,0,0,0,0,0,0,0,0,0,0,0,0,0,0,0,0,0,57,49,106,9,10 มิถุนายน 2561
95,95,30050102,ชุมชนบ้านด่านจาก,0,0,0,0,18,13,31,1,5,11,16,1,23,24,47,2,10,4,14,1,13,7,20,1,14,14,28,1,12,14,26,1,9,15,24,1,11,11,22,1,69,65,134,6,19,12,31,1,7,6,13,1,11,9,20,1,37,27,64,3,0,0,0,0,0,0,0,0,0,0,0,0,0,0,0,0,0,0,0,0,0,0,0,0,0,0,0,0,129,116,245,11,10 มิถุนายน 2561
96,96,30050103,บ้านตะคร้อ,0,0,0,0,6,11,17,1,12,7,19,1,18,18,36,2,11,8,19,1,14,2,16,1,10,11,21,1,12,9,21,1,7,16,23,1,11,8,19,1,65,54,119,6,6,7,13,1,18,7,25,1,9,6,15,1,33,20,53,3,0,0,0,0,0,0,0,0,0,0,0,0,0,0,0,0,0,0,0,0,0,0,0,0,0,0,0,0,116,92,208,11,10 มิถุนายน 2561
97,97,30050104,บ้านหอกลองกระสัง(โกศลสงเคราะห์),0,0,0,0,10,10,20,1,12,7,19,1,22,17,39,2,9,6,15,1,10,4,14,1,8,11,19,1,14,6,20,1,15,14,29,1,7,3,10,1,63,44,107,6,11,4,15,1,11,7,18,1,13,12,25,1,35,23,58,3,0,0,0,0,0,0,0,0,0,0,0,0,0,0,0,0,0,0,0,0,0,0,0,0,0,0,0,0,120,84,204,11,10 มิถุนายน 2561
98,98,30050105,บ้านถนนโพธิ์,0,0,0,0,8,13,21,1,6,7,13,1,14,20,34,2,13,15,28,1,17,10,27,1,12,12,24,1,10,8,18,1,15,17,32,1,12,10,22,1,79,72,151,6,9,11,20,1,20,11,31,1,9,14,23,1,38,36,74,3,0,0,0,0,0,0,0,0,0,0,0,0,0,0,0,0,0,0,0,0,0,0,0,0,0,0,0,0,131,128,259,11,10 มิถุนายน 2561
99,99,30050106,บ้านดอนสระจันทร์,0,0,0,0,1,2,3,1,0,3,3,1,1,5,6,2,3,2,5,1,3,6,9,1,1,1,2,1,3,2,5,1,1,1,2,1,0,1,1,1,11,13,24,6,0,0,0,0,0,0,0,0,0,0,0,0,0,0,0,0,0,0,0,0,0,0,0,0,0,0,0,0,0,0,0,0,0,0,0,0,0,0,0,0,0,0,0,0,12,18,30,8,10 มิถุนายน 2561
100,100,30050107,โนนไทย,0,0,0,0,15,22,37,2,22,23,45,2,37,45,82,4,25,35,60,2,35,32,67,2,36,44,80,3,26,27,53,2,41,33,74,2,40,28,68,2,203,199,402,13,0,0,0,0,0,0,0,0,0,0,0,0,0,0,0,0,0,0,0,0,0,0,0,0,0,0,0,0,0,0,0,0,0,0,0,0,0,0,0,0,0,0,0,0,240,244,484,17,10 มิถุนายน 2561
101,101,30050108,บ้านด่านกรงกราง,5,8,13,1,7,4,11,1,7,6,13,1,19,18,37,3,5,6,11,1,5,5,10,1,6,6,12,1,10,6,16,1,3,8,11,1,4,7,11,1,33,38,71,6,6,3,9,1,8,1,9,1,6,2,8,1,20,6,26,3,0,0,0,0,0,0,0,0,0,0,0,0,0,0,0,0,0,0,0,0,0,0,0,0,0,0,0,0,72,62,134,12,10 มิถุนายน 2561
102,102,30050109,บ้านโนนหวาย,0,1,1,1,6,3,9,1,6,8,14,1,12,12,24,3,5,5,10,1,4,11,15,1,7,8,15,1,7,2,9,1,2,6,8,1,3,6,9,1,28,38,66,6,0,0,0,0,0,0,0,0,0,0,0,0,0,0,0,0,0,0,0,0,0,0,0,0,0,0,0,0,0,0,0,0,0,0,0,0,0,0,0,0,0,0,0,0,40,50,90,9,10 มิถุนายน 2561
103,103,30050110,วัดสระจรเข้,6,3,9,1,6,4,10,1,7,3,10,1,19,10,29,3,3,3,6,1,4,2,6,1,4,4,8,1,5,7,12,1,3,4,7,1,8,5,13,1,27,25,52,6,0,0,0,0,0,0,0,0,0,0,0,0,0,0,0,0,0,0,0,0,0,0,0,0,0,0,0,0,0,0,0,0,0,0,0,0,0,0,0,0,0,0,0,0,46,35,81,9,10 มิถุนายน 2561
104,104,30050111,ศิริบ้านไร่,4,4,8,1,1,5,6,1,0,2,2,1,5,11,16,3,6,5,11,1,1,2,3,1,3,1,4,1,0,1,1,1,1,3,4,1,4,3,7,1,15,15,30,6,0,0,0,0,0,0,0,0,0,0,0,0,0,0,0,0,0,0,0,0,0,0,0,0,0,0,0,0,0,0,0,0,0,0,0,0,0,0,0,0,0,0,0,0,20,26,46,9,10 มิถุนายน 2561
105,105,30050112,บ้านใหม่โคกพรม,8,5,13,1,8,7,15,1,5,4,9,1,21,16,37,3,11,4,15,1,9,7,16,1,10,5,15,1,8,6,14,1,8,1,9,1,8,7,15,1,54,30,84,6,0,0,0,0,0,0,0,0,0,0,0,0,0,0,0,0,0,0,0,0,0,0,0,0,0,0,0,0,0,0,0,0,0,0,0,0,0,0,0,0,0,0,0,0,75,46,121,9,10 มิถุนายน 2561
106,106,30050113,บ้านกระดาน(รัฐประชาสรรค์),0,0,0,0,5,2,7,1,5,7,12,1,10,9,19,2,4,2,6,1,10,4,14,1,2,3,5,1,7,4,11,1,7,4,11,1,3,2,5,1,33,19,52,6,0,0,0,0,0,0,0,0,0,0,0,0,0,0,0,0,0,0,0,0,0,0,0,0,0,0,0,0,0,0,0,0,0,0,0,0,0,0,0,0,0,0,0,0,43,28,71,8,10 มิถุนายน 2561
107,107,30050114,บ้านบัลลังก์สะอาด,0,0,0,0,5,2,7,1,5,6,11,1,10,8,18,2,1,0,1,1,7,2,9,1,2,2,4,1,4,2,6,1,7,7,14,1,2,3,5,1,23,16,39,6,0,0,0,0,0,0,0,0,0,0,0,0,0,0,0,0,0,0,0,0,0,0,0,0,0,0,0,0,0,0,0,0,0,0,0,0,0,0,0,0,0,0,0,0,33,24,57,8,10 มิถุนายน 2561
108,108,30050115,บ้านโพธิ์ตาสี,0,0,0,0,8,2,10,1,1,7,8,1,9,9,18,2,1,4,5,1,5,0,5,1,6,2,8,1,4,6,10,1,3,1,4,1,9,5,14,1,28,18,46,6,3,2,5,1,4,3,7,1,1,6,7,1,8,11,19,3,0,0,0,0,0,0,0,0,0,0,0,0,0,0,0,0,0,0,0,0,0,0,0,0,0,0,0,0,45,38,83,11,10 มิถุนายน 2561
109,109,30050116,บ้านเมืองเก่า,0,0,0,0,7,1,8,1,7,4,11,1,14,5,19,2,6,5,11,1,4,1,5,1,5,2,7,1,2,4,6,1,3,1,4,1,3,3,6,1,23,16,39,6,0,0,0,0,0,0,0,0,0,0,0,0,0,0,0,0,0,0,0,0,0,0,0,0,0,0,0,0,0,0,0,0,0,0,0,0,0,0,0,0,0,0,0,0,37,21,58,8,10 มิถุนายน 2561
110,110,30050117,บ้านสระตะเฆ่,0,0,0,0,5,4,9,1,2,3,5,1,7,7,14,2,5,7,12,1,9,6,15,1,8,5,13,1,5,6,11,1,1,3,4,1,5,6,11,1,33,33,66,6,7,1,8,1,2,3,5,1,4,4,8,1,13,8,21,3,0,0,0,0,0,0,0,0,0,0,0,0,0,0,0,0,0,0,0,0,0,0,0,0,0,0,0,0,53,48,101,11,10 มิถุนายน 2561
111,111,30050118,บ้านหนองแจง,0,0,0,0,1,3,4,1,1,0,1,1,2,3,5,2,1,1,2,1,2,0,2,1,2,0,2,1,1,2,3,1,0,0,0,0,2,0,2,1,8,3,11,5,0,0,0,0,0,0,0,0,0,0,0,0,0,0,0,0,0,0,0,0,0,0,0,0,0,0,0,0,0,0,0,0,0,0,0,0,0,0,0,0,0,0,0,0,10,6,16,7,10 มิถุนายน 2561
112,112,30050119,บึงคำคู,0,0,0,0,9,5,14,1,6,5,11,1,15,10,25,2,12,7,19,1,7,4,11,1,4,9,13,1,9,5,14,1,4,9,13,1,11,7,18,1,47,41,88,6,2,10,12,1,12,7,19,1,15,5,20,1,29,22,51,3,0,0,0,0,0,0,0,0,0,0,0,0,0,0,0,0,0,0,0,0,0,0,0,0,0,0,0,0,91,73,164,11,10 มิถุนายน 2561
113,113,30050120,เทพคงคา,0,0,0,0,2,2,4,1,4,5,9,1,6,7,13,2,3,2,5,1,3,3,6,1,4,5,9,1,3,2,5,1,6,2,8,1,1,5,6,1,20,19,39,6,0,0,0,0,0,0,0,0,0,0,0,0,0,0,0,0,0,0,0,0,0,0,0,0,0,0,0,0,0,0,0,0,0,0,0,0,0,0,0,0,0,0,0,0,26,26,52,8,10 มิถุนายน 2561
114,114,30050121,บ้านหนองกลางดอน,0,0,0,0,3,2,5,1,0,1,1,1,3,3,6,2,1,1,2,1,4,5,9,1,4,1,5,1,2,3,5,1,5,4,9,1,1,3,4,1,17,17,34,6,0,0,0,0,0,0,0,0,0,0,0,0,0,0,0,0,0,0,0,0,0,0,0,0,0,0,0,0,0,0,0,0,0,0,0,0,0,0,0,0,0,0,0,0,20,20,40,8,10 มิถุนายน 2561
115,115,30050122,บุ่งสะอาดวัฒนา,4,4,8,1,1,5,6,1,4,3,7,1,9,12,21,3,6,4,10,1,6,7,13,1,3,9,12,1,6,2,8,1,8,3,11,1,4,4,8,1,33,29,62,6,0,0,0,0,0,0,0,0,0,0,0,0,0,0,0,0,0,0,0,0,0,0,0,0,0,0,0,0,0,0,0,0,0,0,0,0,0,0,0,0,0,0,0,0,42,41,83,9,10 มิถุนายน 2561
116,116,30050123,บ้านวัง(สายอนุกูล),0,0,0,0,5,4,9,1,4,5,9,1,9,9,18,2,12,10,22,1,3,3,6,1,7,9,16,1,9,5,14,1,7,7,14,1,7,9,16,1,45,43,88,6,8,5,13,1,7,8,15,1,5,9,14,1,20,22,42,3,0,0,0,0,0,0,0,0,0,0,0,0,0,0,0,0,0,0,0,0,0,0,0,0,0,0,0,0,74,74,148,11,10 มิถุนายน 2561
117,117,30050124,ดอนน้ำใสวิทยา,0,0,0,0,4,5,9,1,10,12,22,1,14,17,31,2,11,9,20,1,8,5,13,1,10,8,18,1,8,7,15,1,14,7,21,1,10,10,20,1,61,46,107,6,7,4,11,1,7,2,9,1,4,7,11,1,18,13,31,3,0,0,0,0,0,0,0,0,0,0,0,0,0,0,0,0,0,0,0,0,0,0,0,0,0,0,0,0,93,76,169,11,10 มิถุนายน 2561
118,118,30050125,บ้านหนองดุม,8,5,13,1,7,7,14,1,6,6,12,1,21,18,39,3,9,9,18,1,6,9,15,1,5,11,16,1,10,14,24,1,9,7,16,1,8,10,18,1,47,60,107,6,11,12,23,1,6,15,21,1,10,14,24,1,27,41,68,3,0,0,0,0,0,0,0,0,0,0,0,0,0,0,0,0,0,0,0,0,0,0,0,0,0,0,0,0,95,119,214,12,10 มิถุนายน 2561
119,119,30050126,บ้านมะเกลือโกรกกระสัง,0,0,0,0,0,2,2,1,1,1,2,1,1,3,4,2,0,1,1,1,0,1,1,1,2,1,3,1,2,2,4,1,4,1,5,1,2,0,2,1,10,6,16,6,0,0,0,0,0,0,0,0,0,0,0,0,0,0,0,0,0,0,0,0,0,0,0,0,0,0,0,0,0,0,0,0,0,0,0,0,0,0,0,0,0,0,0,0,11,9,20,8,10 มิถุนายน 2561
120,120,30050127,บ้านมะค่าดอนทะยิง,4,2,6,1,1,3,4,1,1,8,9,1,6,13,19,3,4,3,7,1,3,3,6,1,3,3,6,1,5,2,7,1,5,4,9,1,3,4,7,1,23,19,42,6,0,0,0,0,0,0,0,0,0,0,0,0,0,0,0,0,0,0,0,0,0,0,0,0,0,0,0,0,0,0,0,0,0,0,0,0,0,0,0,0,0,0,0,0,29,32,61,9,10 มิถุนายน 2561
121,121,30050128,ชุมชนบ้านโคกสวาย,0,0,0,0,28,37,65,3,24,26,50,2,52,63,115,5,36,34,70,2,30,24,54,2,34,33,67,2,34,36,70,2,34,20,54,2,33,29,62,2,201,176,377,12,40,25,65,2,47,19,66,2,39,22,61,2,126,66,192,6,5,14,19,1,10,12,22,1,4,14,18,1,0,0,0,0,0,0,0,0,0,0,0,0,19,40,59,3,398,345,743,26,10 มิถุนายน 2561
122,122,30050129,บ้านโคกหนองไผ่,0,0,0,0,1,3,4,1,2,4,6,1,3,7,10,2,3,3,6,1,2,1,3,1,2,2,4,1,2,1,3,1,4,3,7,1,4,2,6,1,17,12,29,6,0,0,0,0,0,0,0,0,0,0,0,0,0,0,0,0,0,0,0,0,0,0,0,0,0,0,0,0,0,0,0,0,0,0,0,0,0,0,0,0,0,0,0,0,20,19,39,8,10 มิถุนายน 2561
123,123,30050130,บ้านบุสายออ(บุญเขตบริหาร),0,0,0,0,2,2,4,1,2,6,8,1,4,8,12,2,3,5,8,1,1,4,5,1,3,8,11,1,5,2,7,1,3,7,10,1,8,6,14,1,23,32,55,6,0,0,0,0,0,0,0,0,0,0,0,0,0,0,0,0,0,0,0,0,0,0,0,0,0,0,0,0,0,0,0,0,0,0,0,0,0,0,0,0,0,0,0,0,27,40,67,8,10 มิถุนายน 2561
124,124,30050131,บ้านสระตอง,1,1,2,1,3,0,3,1,4,5,9,1,8,6,14,3,5,4,9,1,1,1,2,1,0,2,2,1,3,2,5,1,3,1,4,1,2,1,3,1,14,11,25,6,0,0,0,0,0,0,0,0,0,0,0,0,0,0,0,0,0,0,0,0,0,0,0,0,0,0,0,0,0,0,0,0,0,0,0,0,0,0,0,0,0,0,0,0,22,17,39,9,10 มิถุนายน 2561
125,125,30050133,บ้านทรงธรรม,1,1,2,1,7,1,8,1,6,7,13,1,14,9,23,3,6,4,10,1,4,2,6,1,5,6,11,1,10,4,14,1,7,5,12,1,6,1,7,1,38,22,60,6,0,0,0,0,0,0,0,0,0,0,0,0,0,0,0,0,0,0,0,0,0,0,0,0,0,0,0,0,0,0,0,0,0,0,0,0,0,0,0,0,0,0,0,0,52,31,83,9,10 มิถุนายน 2561
126,126,30050134,บ้านนารายณ์,0,0,0,0,13,9,22,1,11,14,25,1,24,23,47,2,21,12,33,1,11,15,26,1,16,11,27,1,15,14,29,1,12,12,24,1,12,12,24,1,87,76,163,6,0,0,0,0,0,0,0,0,0,0,0,0,0,0,0,0,0,0,0,0,0,0,0,0,0,0,0,0,0,0,0,0,0,0,0,0,0,0,0,0,0,0,0,0,111,99,210,8,10 มิถุนายน 2561
127,127,30050135,บ้านสำโรง,0,0,0,0,11,3,14,1,4,2,6,1,15,5,20,2,7,5,12,1,4,5,9,1,9,7,16,1,8,11,19,1,11,4,15,1,5,7,12,1,44,39,83,6,0,0,0,0,0,0,0,0,0,0,0,0,0,0,0,0,0,0,0,0,0,0,0,0,0,0,0,0,0,0,0,0,0,0,0,0,0,0,0,0,0,0,0,0,59,44,103,8,10 มิถุนายน 2561
128,128,30050136,บ้านหนองประดู่,0,0,0,0,4,1,5,1,4,6,10,1,8,7,15,2,4,3,7,1,7,2,9,1,5,7,12,1,1,2,3,1,2,5,7,1,8,4,12,1,27,23,50,6,0,0,0,0,0,0,0,0,0,0,0,0,0,0,0,0,0,0,0,0,0,0,0,0,0,0,0,0,0,0,0,0,0,0,0,0,0,0,0,0,0,0,0,0,35,30,65,8,10 มิถุนายน 2561
129,129,30050137,อนุบาลขามสะแกแสง,9,6,15,1,42,28,70,3,39,44,83,3,90,78,168,7,39,47,86,3,42,46,88,3,45,37,82,3,33,34,67,3,31,42,73,3,41,41,82,3,231,247,478,18,0,0,0,0,0,0,0,0,0,0,0,0,0,0,0,0,0,0,0,0,0,0,0,0,0,0,0,0,0,0,0,0,0,0,0,0,0,0,0,0,0,0,0,0,321,325,646,25,10 มิถุนายน 2561
130,130,30050138,บ้านคู(ประชาอุปถัมภ์),5,3,8,1,6,4,10,1,3,5,8,1,14,12,26,3,8,4,12,1,5,4,9,1,1,3,4,1,4,7,11,1,7,2,9,1,10,7,17,1,35,27,62,6,0,0,0,0,0,0,0,0,0,0,0,0,0,0,0,0,0,0,0,0,0,0,0,0,0,0,0,0,0,0,0,0,0,0,0,0,0,0,0,0,0,0,0,0,49,39,88,9,10 มิถุนายน 2561
131,131,30050139,บ้านหญ้าคาโนนแจง,2,3,5,1,6,5,11,1,4,6,10,1,12,14,26,3,5,1,6,1,7,2,9,1,3,3,6,1,7,2,9,1,5,2,7,1,2,5,7,1,29,15,44,6,0,0,0,0,0,0,0,0,0,0,0,0,0,0,0,0,0,0,0,0,0,0,0,0,0,0,0,0,0,0,0,0,0,0,0,0,0,0,0,0,0,0,0,0,41,29,70,9,10 มิถุนายน 2561
132,132,30050140,บ้านหนองจาน,11,4,15,1,11,10,21,1,8,5,13,1,30,19,49,3,12,11,23,1,4,6,10,1,9,11,20,1,13,12,25,1,13,8,21,1,15,5,20,1,66,53,119,6,11,9,20,1,9,8,17,1,9,10,19,1,29,27,56,3,0,0,0,0,0,0,0,0,0,0,0,0,0,0,0,0,0,0,0,0,0,0,0,0,0,0,0,0,125,99,224,12,10 มิถุนายน 2561
133,133,30050141,บ้านหนุก,4,4,8,1,3,1,4,1,4,4,8,1,11,9,20,3,4,5,9,1,5,3,8,1,8,0,8,1,2,1,3,1,2,2,4,1,4,0,4,1,25,11,36,6,5,4,9,1,7,1,8,1,5,3,8,1,17,8,25,3,0,0,0,0,0,0,0,0,0,0,0,0,0,0,0,0,0,0,0,0,0,0,0,0,0,0,0,0,53,28,81,12,10 มิถุนายน 2561
134,134,30050142,บ้านชีวึก(สังฆประชาสรรค์),0,0,0,0,7,4,11,1,3,5,8,1,10,9,19,2,4,2,6,1,1,4,5,1,0,3,3,1,3,3,6,1,3,3,6,1,5,4,9,1,16,19,35,6,3,1,4,1,2,3,5,1,5,10,15,1,10,14,24,3,0,0,0,0,0,0,0,0,0,0,0,0,0,0,0,0,0,0,0,0,0,0,0,0,0,0,0,0,36,42,78,11,10 มิถุนายน 2561
135,135,30050143,บ้านโนนผักชี,2,4,6,1,4,11,15,1,14,6,20,1,20,21,41,3,11,7,18,1,5,6,11,1,9,3,12,1,9,7,16,1,6,10,16,1,6,3,9,1,46,36,82,6,9,9,18,1,13,13,26,1,8,8,16,1,30,30,60,3,0,0,0,0,0,0,0,0,0,0,0,0,0,0,0,0,0,0,0,0,0,0,0,0,0,0,0,0,96,87,183,12,10 มิถุนายน 2561
136,136,30050144,บึงพัฒนาประชาร่วมจิต,0,0,0,0,1,1,2,1,0,1,1,1,1,2,3,2,1,1,2,1,2,2,4,1,2,1,3,1,2,2,4,1,0,1,1,1,3,3,6,1,10,10,20,6,0,0,0,0,0,0,0,0,0,0,0,0,0,0,0,0,0,0,0,0,0,0,0,0,0,0,0,0,0,0,0,0,0,0,0,0,0,0,0,0,0,0,0,0,11,12,23,8,10 มิถุนายน 2561
137,137,30050145,บ้านหนองกระทุ่มสระอโนดาต,4,7,11,1,3,5,8,1,6,5,11,1,13,17,30,3,3,7,10,1,10,2,12,1,3,3,6,1,5,4,9,1,5,4,9,1,8,9,17,1,34,29,63,6,0,0,0,0,0,0,0,0,0,0,0,0,0,0,0,0,0,0,0,0,0,0,0,0,0,0,0,0,0,0,0,0,0,0,0,0,0,0,0,0,0,0,0,0,47,46,93,9,10 มิถุนายน 2561
138,138,30050146,บ้านหนองโพธิ์,3,4,7,1,3,2,5,1,6,5,11,1,12,11,23,3,5,4,9,1,3,2,5,1,2,8,10,1,6,4,10,1,6,9,15,1,4,2,6,1,26,29,55,6,0,0,0,0,0,0,0,0,0,0,0,0,0,0,0,0,0,0,0,0,0,0,0,0,0,0,0,0,0,0,0,0,0,0,0,0,0,0,0,0,0,0,0,0,38,40,78,9,10 มิถุนายน 2561
139,139,30050147,บ้านครึมม่วง,0,0,0,0,3,4,7,1,6,9,15,1,9,13,22,2,9,5,14,1,2,7,9,1,13,3,16,1,10,4,14,1,3,8,11,1,4,3,7,1,41,30,71,6,0,0,0,0,0,0,0,0,0,0,0,0,0,0,0,0,0,0,0,0,0,0,0,0,0,0,0,0,0,0,0,0,0,0,0,0,0,0,0,0,0,0,0,0,50,43,93,8,10 มิถุนายน 2561
140,140,30050148,บ้านงิ้ว,0,0,0,0,0,2,2,1,4,5,9,1,4,7,11,2,1,1,2,1,4,2,6,1,3,7,10,1,2,0,2,1,3,5,8,1,6,1,7,1,19,16,35,6,0,0,0,0,0,0,0,0,0,0,0,0,0,0,0,0,0,0,0,0,0,0,0,0,0,0,0,0,0,0,0,0,0,0,0,0,0,0,0,0,0,0,0,0,23,23,46,8,10 มิถุนายน 2561
141,141,30050149,บ้านโนนเมือง(เยี่ยมประชาสรรค์),0,0,0,0,1,2,3,1,5,6,11,1,6,8,14,2,3,1,4,1,5,1,6,1,4,1,5,1,3,4,7,1,7,4,11,1,4,6,10,1,26,17,43,6,6,5,11,1,8,4,12,1,15,4,19,1,29,13,42,3,0,0,0,0,0,0,0,0,0,0,0,0,0,0,0,0,0,0,0,0,0,0,0,0,0,0,0,0,61,38,99,11,10 มิถุนายน 2561
142,142,30050150,บ้านสระแจง,0,0,0,0,4,4,8,1,7,12,19,1,11,16,27,2,5,6,11,1,4,3,7,1,5,3,8,1,3,7,10,1,3,5,8,1,7,4,11,1,27,28,55,6,0,0,0,0,0,0,0,0,0,0,0,0,0,0,0,0,0,0,0,0,0,0,0,0,0,0,0,0,0,0,0,0,0,0,0,0,0,0,0,0,0,0,0,0,38,44,82,8,10 มิถุนายน 2561
143,143,30050151,บ้านดอนพะงาด(รัฐราษฎร์วิทยา),0,0,0,0,1,2,3,1,8,3,11,1,9,5,14,2,6,8,14,1,9,2,11,1,7,9,16,1,7,2,9,1,4,6,10,1,14,14,28,1,47,41,88,6,17,5,22,1,8,9,17,1,9,1,10,1,34,15,49,3,0,0,0,0,0,0,0,0,0,0,0,0,0,0,0,0,0,0,0,0,0,0,0,0,0,0,0,0,90,61,151,11,10 มิถุนายน 2561
144,144,30050152,ชุมชนบ้านหนองไข่น้ำ,0,0,0,0,12,7,19,1,14,13,27,1,26,20,46,2,18,16,34,1,15,10,25,1,8,15,23,1,12,9,21,1,8,16,24,1,16,24,40,1,77,90,167,6,15,10,25,1,7,10,17,1,6,16,22,1,28,36,64,3,0,0,0,0,0,0,0,0,0,0,0,0,0,0,0,0,0,0,0,0,0,0,0,0,0,0,0,0,131,146,277,11,10 มิถุนายน 2561
145,145,30050153,บ้านหนองไผ่,0,0,0,0,1,0,1,1,2,0,2,1,3,0,3,2,3,2,5,1,0,1,1,1,4,2,6,1,3,1,4,1,0,1,1,1,2,2,4,1,12,9,21,6,0,0,0,0,0,0,0,0,0,0,0,0,0,0,0,0,0,0,0,0,0,0,0,0,0,0,0,0,0,0,0,0,0,0,0,0,0,0,0,0,0,0,0,0,15,9,24,8,10 มิถุนายน 2561
146,146,30050154,บ้านบุตะโก,6,2,8,1,4,1,5,1,7,5,12,1,17,8,25,3,9,4,13,1,8,1,9,1,3,1,4,1,2,5,7,1,5,7,12,1,5,4,9,1,32,22,54,6,0,0,0,0,0,0,0,0,0,0,0,0,0,0,0,0,0,0,0,0,0,0,0,0,0,0,0,0,0,0,0,0,0,0,0,0,0,0,0,0,0,0,0,0,49,30,79,9,10 มิถุนายน 2561
147,147,30050156,บ้านคูเมือง,0,0,0,0,12,5,17,1,8,7,15,1,20,12,32,2,8,8,16,1,10,6,16,1,6,5,11,1,11,6,17,1,8,6,14,1,11,7,18,1,54,38,92,6,7,9,16,1,8,7,15,1,3,4,7,1,18,20,38,3,0,0,0,0,0,0,0,0,0,0,0,0,0,0,0,0,0,0,0,0,0,0,0,0,0,0,0,0,92,70,162,11,10 มิถุนายน 2561
148,148,30050157,บ้านเมืองนาท,6,3,9,1,4,10,14,1,10,5,15,1,20,18,38,3,8,7,15,1,9,7,16,1,6,3,9,1,9,6,15,1,13,7,20,1,7,7,14,1,52,37,89,6,0,0,0,0,0,0,0,0,0,0,0,0,0,0,0,0,0,0,0,0,0,0,0,0,0,0,0,0,0,0,0,0,0,0,0,0,0,0,0,0,0,0,0,0,72,55,127,9,10 มิถุนายน 2561
149,149,30050158,บ้านเสมา,3,5,8,1,6,4,10,1,6,3,9,1,15,12,27,3,5,4,9,1,5,2,7,1,6,7,13,1,2,6,8,1,1,8,9,1,5,4,9,1,24,31,55,6,7,0,7,1,1,1,2,1,8,5,13,1,16,6,22,3,0,0,0,0,0,0,0,0,0,0,0,0,0,0,0,0,0,0,0,0,0,0,0,0,0,0,0,0,55,49,104,12,10 มิถุนายน 2561
150,150,30050160,บ้านห้วยโนนพฤกษ์,5,2,7,1,4,1,5,1,8,6,14,1,17,9,26,3,5,3,8,1,5,2,7,1,0,5,5,1,2,1,3,1,3,3,6,1,4,3,7,1,19,17,36,6,0,0,0,0,0,0,0,0,0,0,0,0,0,0,0,0,0,0,0,0,0,0,0,0,0,0,0,0,0,0,0,0,0,0,0,0,0,0,0,0,0,0,0,0,36,26,62,9,10 มิถุนายน 2561
151,151,30050161,บ้านเหนือทัพรั้ง,0,0,0,0,11,9,20,1,8,11,19,1,19,20,39,2,8,4,12,1,7,9,16,1,6,12,18,1,5,8,13,1,9,6,15,1,11,6,17,1,46,45,91,6,0,0,0,0,0,0,0,0,0,0,0,0,0,0,0,0,0,0,0,0,0,0,0,0,0,0,0,0,0,0,0,0,0,0,0,0,0,0,0,0,0,0,0,0,65,65,130,8,10 มิถุนายน 2561
152,152,30050163,บ้านโนนมะเกลือ,0,0,0,0,2,4,6,1,5,6,11,1,7,10,17,2,8,3,11,1,5,3,8,1,3,3,6,1,12,11,23,1,3,5,8,1,13,4,17,1,44,29,73,6,0,0,0,0,0,0,0,0,0,0,0,0,0,0,0,0,0,0,0,0,0,0,0,0,0,0,0,0,0,0,0,0,0,0,0,0,0,0,0,0,0,0,0,0,51,39,90,8,10 มิถุนายน 2561
153,153,30050164,ชุมชนหนองหัวฟาน,8,3,11,1,7,3,10,1,9,17,26,1,24,23,47,3,12,11,23,1,4,10,14,1,15,13,28,1,14,16,30,1,9,10,19,1,11,11,22,1,65,71,136,6,22,31,53,2,28,24,52,2,34,28,62,2,84,83,167,6,12,15,27,1,10,14,24,1,21,7,28,1,0,0,0,0,0,0,0,0,0,0,0,0,43,36,79,3,216,213,429,18,10 มิถุนายน 2561
154,154,30050165,บ้านโจด(ท้าวสุรนารีอนุสรณ์4),0,0,0,0,7,7,14,1,6,4,10,1,13,11,24,2,5,4,9,1,7,6,13,1,3,6,9,1,3,8,11,1,4,3,7,1,7,2,9,1,29,29,58,6,0,0,0,0,0,0,0,0,0,0,0,0,0,0,0,0,0,0,0,0,0,0,0,0,0,0,0,0,0,0,0,0,0,0,0,0,0,0,0,0,0,0,0,0,42,40,82,8,10 มิถุนายน 2561
155,155,30050166,บ้านหนองปรือ,0,0,0,0,2,3,5,1,2,2,4,1,4,5,9,2,0,3,3,1,2,1,3,1,2,1,3,1,0,4,4,1,3,1,4,1,4,1,5,1,11,11,22,6,0,0,0,0,0,0,0,0,0,0,0,0,0,0,0,0,0,0,0,0,0,0,0,0,0,0,0,0,0,0,0,0,0,0,0,0,0,0,0,0,0,0,0,0,15,16,31,8,10 มิถุนายน 2561
156,156,30050167,บ้านขามทะเลสอ,0,0,0,0,5,5,10,1,5,2,7,1,10,7,17,2,12,6,18,1,0,5,5,1,7,6,13,1,3,5,8,1,5,6,11,1,6,3,9,1,33,31,64,6,8,1,9,1,2,2,4,1,5,5,10,1,15,8,23,3,0,0,0,0,0,0,0,0,0,0,0,0,0,0,0,0,0,0,0,0,0,0,0,0,0,0,0,0,58,46,104,11,10 มิถุนายน 2561
157,157,30050168,บ้านโคกแฝก,0,0,0,0,5,3,8,1,6,5,11,1,11,8,19,2,6,4,10,1,5,5,10,1,3,2,5,1,3,0,3,1,2,5,7,1,3,3,6,1,22,19,41,6,0,0,0,0,0,0,0,0,0,0,0,0,0,0,0,0,0,0,0,0,0,0,0,0,0,0,0,0,0,0,0,0,0,0,0,0,0,0,0,0,0,0,0,0,33,27,60,8,10 มิถุนายน 2561
158,158,30050169,อนุบาลรัฐราษฎร์รังสรรค์,0,0,0,0,32,35,67,2,40,36,76,2,72,71,143,4,36,50,86,3,36,34,70,2,34,39,73,2,26,44,70,2,39,38,77,2,39,36,75,2,210,241,451,13,0,0,0,0,0,0,0,0,0,0,0,0,0,0,0,0,0,0,0,0,0,0,0,0,0,0,0,0,0,0,0,0,0,0,0,0,0,0,0,0,0,0,0,0,282,312,594,17,10 มิถุนายน 2561
159,159,30050170,บ้านโนนตาล,4,11,15,1,2,16,18,1,17,9,26,1,23,36,59,3,14,17,31,2,12,10,22,2,22,7,29,1,19,11,30,1,15,16,31,1,20,8,28,1,102,69,171,8,12,10,22,1,14,13,27,1,16,6,22,1,42,29,71,3,0,0,0,0,0,0,0,0,0,0,0,0,0,0,0,0,0,0,0,0,0,0,0,0,0,0,0,0,167,134,301,14,10 มิถุนายน 2561
160,160,30050171,บ้านบึงอ้อ(ปุ่นอุปถัมภ์),0,0,0,0,1,6,7,1,2,5,7,1,3,11,14,2,2,3,5,1,2,2,4,1,2,1,3,1,0,1,1,1,3,2,5,1,0,0,0,0,9,9,18,5,0,0,0,0,0,0,0,0,0,0,0,0,0,0,0,0,0,0,0,0,0,0,0,0,0,0,0,0,0,0,0,0,0,0,0,0,0,0,0,0,0,0,0,0,12,20,32,7,10 มิถุนายน 2561
161,161,30050172,บ้านบุระไหว,1,0,1,1,0,2,2,1,6,2,8,1,7,4,11,3,2,2,4,1,1,0,1,1,3,2,5,1,1,3,4,1,0,0,0,0,0,7,7,1,7,14,21,5,0,0,0,0,0,0,0,0,0,0,0,0,0,0,0,0,0,0,0,0,0,0,0,0,0,0,0,0,0,0,0,0,0,0,0,0,0,0,0,0,0,0,0,0,14,18,32,8,10 มิถุนายน 2561
162,162,30050173,บ้านกุ่มพะยาหนองกระทุ่มวิทยา,7,9,16,1,11,3,14,1,8,9,17,1,26,21,47,3,7,5,12,1,9,10,19,1,7,7,14,1,6,10,16,1,5,7,12,1,8,8,16,1,42,47,89,6,9,5,14,1,9,10,19,1,7,5,12,1,25,20,45,3,0,0,0,0,0,0,0,0,0,0,0,0,0,0,0,0,0,0,0,0,0,0,0,0,0,0,0,0,93,88,181,12,10 มิถุนายน 2561
163,163,30050174,บ้านหนองกระโดนดอนมะเกลือสามัคคี,3,2,5,1,6,1,7,1,6,3,9,1,15,6,21,3,4,6,10,1,6,4,10,1,2,10,12,1,4,6,10,1,7,3,10,1,11,4,15,1,34,33,67,6,0,0,0,0,0,0,0,0,0,0,0,0,0,0,0,0,0,0,0,0,0,0,0,0,0,0,0,0,0,0,0,0,0,0,0,0,0,0,0,0,0,0,0,0,49,39,88,9,10 มิถุนายน 2561
164,164,30050175,บ้านโป่งแดงน้ำฉ่าสามัคคี,0,0,0,0,7,5,12,1,10,7,17,1,17,12,29,2,5,8,13,1,5,8,13,1,6,4,10,1,6,7,13,1,3,16,19,1,7,8,15,1,32,51,83,6,11,11,22,1,10,5,15,1,6,2,8,1,27,18,45,3,0,0,0,0,0,0,0,0,0,0,0,0,0,0,0,0,0,0,0,0,0,0,0,0,0,0,0,0,76,81,157,11,10 มิถุนายน 2561
165,165,30050176,บ้านโนน,6,4,10,1,3,3,6,1,1,2,3,1,10,9,19,3,1,4,5,1,5,4,9,1,2,3,5,1,7,2,9,1,3,4,7,1,7,7,14,1,25,24,49,6,0,0,0,0,0,0,0,0,0,0,0,0,0,0,0,0,0,0,0,0,0,0,0,0,0,0,0,0,0,0,0,0,0,0,0,0,0,0,0,0,0,0,0,0,35,33,68,9,10 มิถุนายน 2561
166,166,30050177,บ้านโกรกกระหาด,0,1,1,1,3,1,4,1,1,4,5,1,4,6,10,3,1,4,5,1,6,1,7,1,4,2,6,1,2,1,3,1,5,7,12,1,5,2,7,1,23,17,40,6,0,0,0,0,0,0,0,0,0,0,0,0,0,0,0,0,0,0,0,0,0,0,0,0,0,0,0,0,0,0,0,0,0,0,0,0,0,0,0,0,0,0,0,0,27,23,50,9,10 มิถุนายน 2561
167,167,30050178,บ้านโคกแขวน,0,0,0,0,1,3,4,1,4,3,7,1,5,6,11,2,5,4,9,1,3,6,9,1,5,9,14,1,7,2,9,1,6,5,11,1,6,5,11,1,32,31,63,6,7,2,9,1,2,4,6,1,5,3,8,1,14,9,23,3,0,0,0,0,0,0,0,0,0,0,0,0,0,0,0,0,0,0,0,0,0,0,0,0,0,0,0,0,51,46,97,11,10 มิถุนายน 2561
168,168,30050179,บ้านโตนดพูนผลวิทยา,8,10,18,1,8,4,12,1,5,5,10,1,21,19,40,3,0,9,9,1,5,3,8,1,4,3,7,1,2,6,8,1,4,4,8,1,4,4,8,1,19,29,48,6,2,4,6,1,6,8,14,1,7,5,12,1,15,17,32,3,0,0,0,0,0,0,0,0,0,0,0,0,0,0,0,0,0,0,0,0,0,0,0,0,0,0,0,0,55,65,120,12,10 มิถุนายน 2561
169,169,30050180,บ้านพันดุง,3,1,4,1,1,8,9,1,4,4,8,1,8,13,21,3,5,8,13,1,5,6,11,1,7,4,11,1,10,11,21,1,11,10,21,1,8,4,12,1,46,43,89,6,6,5,11,1,5,6,11,1,8,1,9,1,19,12,31,3,0,0,0,0,0,0,0,0,0,0,0,0,0,0,0,0,0,0,0,0,0,0,0,0,0,0,0,0,73,68,141,12,10 มิถุนายน 2561
170,170,30050182,บ้านหนองสรวง,8,18,26,1,19,17,36,2,19,19,38,2,46,54,100,5,20,16,36,2,21,24,45,2,20,21,41,2,19,16,35,2,15,19,34,1,17,18,35,2,112,114,226,11,12,13,25,1,10,16,26,1,15,7,22,1,37,36,73,3,0,0,0,0,0,0,0,0,0,0,0,0,0,0,0,0,0,0,0,0,0,0,0,0,0,0,0,0,195,204,399,19,10 มิถุนายน 2561
171,171,30050183,บ้านหนองกก,0,0,0,0,5,2,7,1,3,4,7,1,8,6,14,2,4,7,11,1,3,3,6,1,5,9,14,1,4,3,7,1,4,5,9,1,2,4,6,1,22,31,53,6,0,0,0,0,0,0,0,0,0,0,0,0,0,0,0,0,0,0,0,0,0,0,0,0,0,0,0,0,0,0,0,0,0,0,0,0,0,0,0,0,0,0,0,0,30,37,67,8,10 มิถุนายน 2561
172,172,30050184,บ้านหนองตะครอง,0,0,0,0,1,2,3,1,4,1,5,1,5,3,8,2,4,1,5,1,5,7,12,1,3,1,4,1,4,2,6,1,3,3,6,1,6,8,14,1,25,22,47,6,0,0,0,0,0,0,0,0,0,0,0,0,0,0,0,0,0,0,0,0,0,0,0,0,0,0,0,0,0,0,0,0,0,0,0,0,0,0,0,0,0,0,0,0,30,25,55,8,10 มิถุนายน 2561
173,173,30050185,บ้านบึงปรือ,0,0,0,0,16,10,26,1,11,11,22,1,27,21,48,2,10,9,19,1,14,8,22,1,14,11,25,1,13,6,19,1,12,11,23,1,10,10,20,1,73,55,128,6,0,0,0,0,0,0,0,0,0,0,0,0,0,0,0,0,0,0,0,0,0,0,0,0,0,0,0,0,0,0,0,0,0,0,0,0,0,0,0,0,0,0,0,0,100,76,176,8,10 มิถุนายน 2561
174,174,30050186,บ้านห้วยน้ำเค็ม,0,0,0,0,10,2,12,1,9,6,15,1,19,8,27,2,4,4,8,1,3,6,9,1,12,4,16,1,2,6,8,1,7,6,13,1,10,9,19,1,38,35,73,6,6,7,13,1,8,3,11,1,5,4,9,1,19,14,33,3,0,0,0,0,0,0,0,0,0,0,0,0,0,0,0,0,0,0,0,0,0,0,0,0,0,0,0,0,76,57,133,11,10 มิถุนายน 2561
175,175,30050187,บ้านคลองขามป้อม,0,0,0,0,4,2,6,1,4,7,11,1,8,9,17,2,7,11,18,1,4,4,8,1,7,6,13,1,5,5,10,1,4,7,11,1,7,8,15,1,34,41,75,6,0,0,0,0,0,0,0,0,0,0,0,0,0,0,0,0,0,0,0,0,0,0,0,0,0,0,0,0,0,0,0,0,0,0,0,0,0,0,0,0,0,0,0,0,42,50,92,8,10 มิถุนายน 2561
176,176,30050188,บ้านกุดสระแก้ว,1,3,4,1,5,1,6,1,6,6,12,1,12,10,22,3,8,9,17,1,7,3,10,1,6,8,14,1,7,9,16,1,13,11,24,1,10,6,16,1,51,46,97,6,7,5,12,1,9,10,19,1,11,9,20,1,27,24,51,3,0,0,0,0,0,0,0,0,0,0,0,0,0,0,0,0,0,0,0,0,0,0,0,0,0,0,0,0,90,80,170,12,10 มิถุนายน 2561
177,177,30050189,บ้านวังยายทอง,0,0,0,0,17,6,23,1,10,13,23,1,27,19,46,2,9,5,14,1,11,13,24,1,13,9,22,1,7,9,16,1,7,9,16,1,14,11,25,1,61,56,117,6,0,0,0,0,0,0,0,0,0,0,0,0,0,0,0,0,0,0,0,0,0,0,0,0,0,0,0,0,0,0,0,0,0,0,0,0,0,0,0,0,0,0,0,0,88,75,163,8,10 มิถุนายน 2561
178,178,30050190,บ้านทำนบเทวดา,0,0,0,0,1,2,3,1,0,0,0,0,1,2,3,1,0,1,1,1,0,1,1,1,1,2,3,1,1,2,3,1,1,2,3,1,2,1,3,1,5,9,14,6,0,0,0,0,0,0,0,0,0,0,0,0,0,0,0,0,0,0,0,0,0,0,0,0,0,0,0,0,0,0,0,0,0,0,0,0,0,0,0,0,0,0,0,0,6,11,17,7,10 มิถุนายน 2561
179,179,30050191,บ้านสำนักตะคร้อ,14,11,25,1,26,10,36,2,19,16,35,2,59,37,96,5,21,21,42,2,12,17,29,1,24,23,47,2,20,34,54,2,17,17,34,1,17,11,28,1,111,123,234,9,21,7,28,1,11,8,19,1,9,9,18,1,41,24,65,3,0,0,0,0,0,0,0,0,0,0,0,0,0,0,0,0,0,0,0,0,0,0,0,0,0,0,0,0,211,184,395,17,10 มิถุนายน 2561
180,180,30050192,บ้านหนองโพธิ์,6,4,10,1,6,5,11,1,11,6,17,1,23,15,38,3,15,5,20,1,12,12,24,1,14,10,24,1,7,7,14,1,14,9,23,1,5,8,13,1,67,51,118,6,0,0,0,0,0,0,0,0,0,0,0,0,0,0,0,0,0,0,0,0,0,0,0,0,0,0,0,0,0,0,0,0,0,0,0,0,0,0,0,0,0,0,0,0,90,66,156,9,10 มิถุนายน 2561
181,181,30050193,บ้านหนองบัวหลวง,0,0,0,0,6,4,10,1,12,4,16,1,18,8,26,2,7,13,20,1,6,5,11,1,2,9,11,1,3,4,7,1,5,3,8,1,5,0,5,1,28,34,62,6,0,0,0,0,0,0,0,0,0,0,0,0,0,0,0,0,0,0,0,0,0,0,0,0,0,0,0,0,0,0,0,0,0,0,0,0,0,0,0,0,0,0,0,0,46,42,88,8,10 มิถุนายน 2561
182,182,30050194,โรงเรียนบ้านโคกกระบือ,0,0,0,0,3,6,9,1,4,6,10,1,7,12,19,2,6,1,7,1,2,1,3,1,5,4,9,1,7,3,10,1,6,4,10,1,5,6,11,1,31,19,50,6,0,0,0,0,0,0,0,0,0,0,0,0,0,0,0,0,0,0,0,0,0,0,0,0,0,0,0,0,0,0,0,0,0,0,0,0,0,0,0,0,0,0,0,0,38,31,69,8,10 มิถุนายน 2561
183,183,30050195,บ้านโนนทอง,0,0,0,0,6,5,11,1,4,4,8,1,10,9,19,2,5,2,7,1,6,3,9,1,10,3,13,1,2,6,8,1,4,7,11,1,8,6,14,1,35,27,62,6,6,3,9,1,8,9,17,1,5,5,10,1,19,17,36,3,0,0,0,0,0,0,0,0,0,0,0,0,0,0,0,0,0,0,0,0,0,0,0,0,0,0,0,0,64,53,117,11,10 มิถุนายน 2561
184,184,30050197,บ้านวังสมบูรณ์,5,4,9,1,5,4,9,1,8,6,14,1,18,14,32,3,5,3,8,1,9,7,16,1,9,7,16,1,1,5,6,1,7,5,12,1,4,4,8,1,35,31,66,6,5,9,14,1,8,3,11,1,8,6,14,1,21,18,39,3,0,0,0,0,0,0,0,0,0,0,0,0,0,0,0,0,0,0,0,0,0,0,0,0,0,0,0,0,74,63,137,12,10 มิถุนายน 2561
185,185,30050198,บ้านหนองแวง,3,0,3,1,5,18,23,1,9,10,19,1,17,28,45,3,15,17,32,1,11,11,22,1,18,7,25,1,13,6,19,1,11,15,26,1,11,9,20,1,79,65,144,6,7,11,18,1,12,7,19,1,15,8,23,1,34,26,60,3,0,0,0,0,0,0,0,0,0,0,0,0,0,0,0,0,0,0,0,0,0,0,0,0,0,0,0,0,130,119,249,12,10 มิถุนายน 2561
186,186,30050199,บ้านหิงห้อย,0,0,0,0,5,7,12,1,11,5,16,1,16,12,28,2,7,5,12,1,12,5,17,1,6,5,11,1,5,5,10,1,4,8,12,1,3,4,7,1,37,32,69,6,0,0,0,0,0,0,0,0,0,0,0,0,0,0,0,0,0,0,0,0,0,0,0,0,0,0,0,0,0,0,0,0,0,0,0,0,0,0,0,0,0,0,0,0,53,44,97,8,10 มิถุนายน 2561
187,187,30050200,บ้านใหม่เจริญผล,4,1,5,1,2,0,2,1,1,3,4,1,7,4,11,3,0,2,2,1,3,2,5,1,1,0,1,1,3,6,9,1,3,1,4,1,2,0,2,1,12,11,23,6,0,0,0,0,0,0,0,0,0,0,0,0,0,0,0,0,0,0,0,0,0,0,0,0,0,0,0,0,0,0,0,0,0,0,0,0,0,0,0,0,0,0,0,0,19,15,34,9,10 มิถุนายน 2561
188,188,30050201,บ้านสะพานหิน,0,0,0,0,8,2,10,1,6,6,12,1,14,8,22,2,11,3,14,1,10,6,16,1,10,4,14,1,6,8,14,1,10,10,20,1,7,11,18,1,54,42,96,6,17,8,25,1,9,9,18,1,7,10,17,1,33,27,60,3,0,0,0,0,0,0,0,0,0,0,0,0,0,0,0,0,0,0,0,0,0,0,0,0,0,0,0,0,101,77,178,11,10 มิถุนายน 2561
189,189,30050202,กุดตาดำ(คงฤทธิ์คุรุราษฎร์สามัคคี),0,0,0,0,24,25,49,2,19,14,33,2,43,39,82,4,25,31,56,2,14,20,34,2,12,23,35,2,28,18,46,2,23,12,35,2,19,27,46,2,121,131,252,12,17,17,34,1,24,16,40,1,31,19,50,2,72,52,124,4,7,18,25,1,16,18,34,1,6,12,18,1,0,0,0,0,0,0,0,0,0,0,0,0,29,48,77,3,265,270,535,23,10 มิถุนายน 2561
190,190,30050203,บ้านกุดไผ่,0,1,1,1,3,3,6,1,1,2,3,1,4,6,10,3,4,10,14,1,3,4,7,1,3,3,6,1,5,1,6,1,3,4,7,1,10,5,15,1,28,27,55,6,0,0,0,0,0,0,0,0,0,0,0,0,0,0,0,0,0,0,0,0,0,0,0,0,0,0,0,0,0,0,0,0,0,0,0,0,0,0,0,0,0,0,0,0,32,33,65,9,10 มิถุนายน 2561
191,191,30050204,บ้านดอนขวาง,3,8,11,1,9,8,17,1,7,10,17,1,19,26,45,3,12,9,21,1,8,6,14,1,7,6,13,1,8,6,14,1,10,6,16,1,7,7,14,1,52,40,92,6,0,0,0,0,0,0,0,0,0,0,0,0,0,0,0,0,0,0,0,0,0,0,0,0,0,0,0,0,0,0,0,0,0,0,0,0,0,0,0,0,0,0,0,0,71,66,137,9,10 มิถุนายน 2561
192,192,30050205,บ้านตะเคียนงาม,4,3,7,1,1,1,2,1,1,5,6,1,6,9,15,3,4,4,8,1,3,3,6,1,2,4,6,1,3,3,6,1,5,5,10,1,1,5,6,1,18,24,42,6,0,0,0,0,0,0,0,0,0,0,0,0,0,0,0,0,0,0,0,0,0,0,0,0,0,0,0,0,0,0,0,0,0,0,0,0,0,0,0,0,0,0,0,0,24,33,57,9,10 มิถุนายน 2561
193,193,30050206,บ้านโนนงิ้ว,0,0,0,0,3,4,7,1,3,4,7,1,6,8,14,2,5,7,12,1,3,1,4,1,5,5,10,1,2,3,5,1,7,3,10,1,4,7,11,1,26,26,52,6,0,0,0,0,0,0,0,0,0,0,0,0,0,0,0,0,0,0,0,0,0,0,0,0,0,0,0,0,0,0,0,0,0,0,0,0,0,0,0,0,0,0,0,0,32,34,66,8,10 มิถุนายน 2561
194,194,30050207,บ้านหนองยาง(อนุศาสนานุสรณ์),0,0,0,0,11,5,16,1,14,12,26,1,25,17,42,2,13,10,23,1,3,7,10,1,12,14,26,1,17,10,27,1,14,10,24,1,11,14,25,1,70,65,135,6,17,12,29,1,17,16,33,1,14,12,26,1,48,40,88,3,0,0,0,0,0,0,0,0,0,0,0,0,0,0,0,0,0,0,0,0,0,0,0,0,0,0,0,0,143,122,265,11,10 มิถุนายน 2561
195,195,30050208,บ้านห้วยหุงเกลือ,0,0,0,0,8,7,15,1,4,12,16,1,12,19,31,2,7,5,12,1,8,5,13,1,6,9,15,1,6,10,16,1,11,4,15,1,3,11,14,1,41,44,85,6,0,0,0,0,0,0,0,0,0,0,0,0,0,0,0,0,0,0,0,0,0,0,0,0,0,0,0,0,0,0,0,0,0,0,0,0,0,0,0,0,0,0,0,0,53,63,116,8,10 มิถุนายน 2561
196,196,30050209,บ้านห้วยสามขา,2,0,2,1,6,9,15,1,4,10,14,1,12,19,31,3,6,6,12,1,7,6,13,1,7,8,15,1,8,5,13,1,5,10,15,1,7,8,15,1,40,43,83,6,0,0,0,0,0,0,0,0,0,0,0,0,0,0,0,0,0,0,0,0,0,0,0,0,0,0,0,0,0,0,0,0,0,0,0,0,0,0,0,0,0,0,0,0,52,62,114,9,10 มิถุนายน 2561
197,197,30050210,บ้านป่าเพกา,3,3,6,1,0,3,3,1,0,2,2,1,3,8,11,3,1,2,3,1,3,1,4,1,4,2,6,1,1,2,3,1,1,1,2,1,2,1,3,1,12,9,21,6,0,0,0,0,0,0,0,0,0,0,0,0,0,0,0,0,0,0,0,0,0,0,0,0,0,0,0,0,0,0,0,0,0,0,0,0,0,0,0,0,0,0,0,0,15,17,32,9,10 มิถุนายน 2561
198,198,30050212,พังเทียม(คุรุสามัคคี 2),0,0,0,0,4,6,10,1,9,5,14,1,13,11,24,2,13,8,21,1,10,4,14,1,8,9,17,1,7,6,13,1,8,5,13,1,8,4,12,1,54,36,90,6,9,2,11,1,10,5,15,1,2,2,4,1,21,9,30,3,0,0,0,0,0,0,0,0,0,0,0,0,0,0,0,0,0,0,0,0,0,0,0,0,0,0,0,0,88,56,144,11,10 มิถุนายน 2561
199,199,30050213,บ้านโกรกช้างน้อย,3,4,7,1,5,5,10,1,3,1,4,1,11,10,21,3,4,1,5,1,7,3,10,1,6,1,7,1,4,4,8,1,4,0,4,1,0,0,0,0,25,9,34,5,0,0,0,0,0,0,0,0,0,0,0,0,0,0,0,0,0,0,0,0,0,0,0,0,0,0,0,0,0,0,0,0,0,0,0,0,0,0,0,0,0,0,0,0,36,19,55,8,10 มิถุนายน 2561
200,200,30050214,บ้านหนองกกตลุกผักไร,0,0,0,0,10,5,15,1,7,7,14,1,17,12,29,2,4,8,12,1,8,10,18,1,6,4,10,1,7,3,10,1,10,7,17,1,8,5,13,1,43,37,80,6,0,0,0,0,0,0,0,0,0,0,0,0,0,0,0,0,0,0,0,0,0,0,0,0,0,0,0,0,0,0,0,0,0,0,0,0,0,0,0,0,0,0,0,0,60,49,109,8,10 มิถุนายน 2561
201,201,30050215,บ้านทองหลาง,0,0,0,0,7,5,12,1,4,4,8,1,11,9,20,2,7,3,10,1,5,3,8,1,7,4,11,1,0,1,1,1,4,7,11,1,4,3,7,1,27,21,48,6,0,0,0,0,0,0,0,0,0,0,0,0,0,0,0,0,0,0,0,0,0,0,0,0,0,0,0,0,0,0,0,0,0,0,0,0,0,0,0,0,0,0,0,0,38,30,68,8,10 มิถุนายน 2561
202,202,30050216,บ้านโพนไพล,0,0,0,0,11,5,16,1,9,7,16,1,20,12,32,2,8,4,12,1,7,6,13,1,5,9,14,1,6,13,19,1,11,6,17,1,5,10,15,1,42,48,90,6,0,0,0,0,0,0,0,0,0,0,0,0,0,0,0,0,0,0,0,0,0,0,0,0,0,0,0,0,0,0,0,0,0,0,0,0,0,0,0,0,0,0,0,0,62,60,122,8,10 มิถุนายน 2561
203,203,30050217,ชายพะเนาหนองโพธิ์,0,0,0,0,3,2,5,1,0,0,0,0,3,2,5,1,0,0,0,0,1,0,1,1,2,2,4,1,1,1,2,1,0,1,1,1,3,2,5,1,7,6,13,5,0,0,0,0,0,0,0,0,0,0,0,0,0,0,0,0,0,0,0,0,0,0,0,0,0,0,0,0,0,0,0,0,0,0,0,0,0,0,0,0,0,0,0,0,10,8,18,6,10 มิถุนายน 2561
204,204,30050218,บ้านกุดจิกหนองแห้ว,0,0,0,0,0,0,0,0,3,1,4,1,3,1,4,1,1,1,2,1,1,2,3,1,0,0,0,0,2,2,4,1,2,0,2,1,4,0,4,1,10,5,15,5,0,0,0,0,0,0,0,0,0,0,0,0,0,0,0,0,0,0,0,0,0,0,0,0,0,0,0,0,0,0,0,0,0,0,0,0,0,0,0,0,0,0,0,0,13,6,19,6,10 มิถุนายน 2561
205,205,30050219,มาบกราดวิทยา,0,0,0,0,11,9,20,1,10,14,24,1,21,23,44,2,17,8,25,1,7,6,13,1,6,14,20,1,12,20,32,1,17,19,36,1,9,11,20,1,68,78,146,6,10,13,23,1,14,7,21,1,17,6,23,1,41,26,67,3,0,0,0,0,0,0,0,0,0,0,0,0,0,0,0,0,0,0,0,0,0,0,0,0,0,0,0,0,130,127,257,11,10 มิถุนายน 2561
206,206,30050221,บ้านเจริญผล,0,0,0,0,4,7,11,1,11,10,21,1,15,17,32,2,16,9,25,1,14,9,23,1,10,9,19,1,13,7,20,1,4,10,14,1,11,8,19,1,68,52,120,6,0,0,0,0,0,0,0,0,0,0,0,0,0,0,0,0,0,0,0,0,0,0,0,0,0,0,0,0,0,0,0,0,0,0,0,0,0,0,0,0,0,0,0,0,83,69,152,8,10 มิถุนายน 2561
207,207,30050222,ถนนสุรนารายณ์(คุรุรัฐประชาสรรค์),0,1,1,1,25,19,44,2,25,31,56,2,50,51,101,5,29,32,61,2,21,25,46,2,26,25,51,2,30,22,52,2,28,29,57,2,39,18,57,2,173,151,324,12,45,36,81,2,35,36,71,2,36,35,71,2,116,107,223,6,0,0,0,0,0,0,0,0,0,0,0,0,0,0,0,0,0,0,0,0,0,0,0,0,0,0,0,0,339,309,648,23,10 มิถุนายน 2561
208,208,30050223,สระพระขมาดไพร,0,0,0,0,16,14,30,1,16,15,31,1,32,29,61,2,12,6,18,1,16,19,35,1,20,10,30,1,9,13,22,1,6,11,17,1,13,14,27,1,76,73,149,6,0,0,0,0,0,0,0,0,0,0,0,0,0,0,0,0,0,0,0,0,0,0,0,0,0,0,0,0,0,0,0,0,0,0,0,0,0,0,0,0,0,0,0,0,108,102,210,8,10 มิถุนายน 2561
209,209,30050225,บ้านตลุกชั่งโค,0,0,0,0,0,0,0,0,1,1,2,1,1,1,2,1,0,0,0,0,0,0,0,0,2,1,3,1,0,2,2,1,1,0,1,1,3,2,5,1,6,5,11,4,0,0,0,0,0,0,0,0,0,0,0,0,0,0,0,0,0,0,0,0,0,0,0,0,0,0,0,0,0,0,0,0,0,0,0,0,0,0,0,0,0,0,0,0,7,6,13,5,10 มิถุนายน 2561
210,210,30050226,บ้านถนนหัก,0,0,0,0,3,0,3,1,2,0,2,1,5,0,5,2,1,5,6,1,2,4,6,1,1,0,1,1,5,2,7,1,2,5,7,1,0,2,2,1,11,18,29,6,0,0,0,0,0,0,0,0,0,0,0,0,0,0,0,0,0,0,0,0,0,0,0,0,0,0,0,0,0,0,0,0,0,0,0,0,0,0,0,0,0,0,0,0,16,18,34,8,10 มิถุนายน 2561
211,211,30050227,บ้านหนองกก,0,3,3,1,1,3,4,1,1,2,3,1,2,8,10,3,5,1,6,1,3,3,6,1,2,5,7,1,2,0,2,1,4,2,6,1,4,1,5,1,20,12,32,6,0,0,0,0,0,0,0,0,0,0,0,0,0,0,0,0,0,0,0,0,0,0,0,0,0,0,0,0,0,0,0,0,0,0,0,0,0,0,0,0,0,0,0,0,22,20,42,9,10 มิถุนายน 2561
212,212,30050228,บ้านหนองหอย,0,0,0,0,7,10,17,1,3,6,9,1,10,16,26,2,10,7,17,1,1,8,9,1,8,7,15,1,9,5,14,1,8,3,11,1,4,3,7,1,40,33,73,6,0,0,0,0,0,0,0,0,0,0,0,0,0,0,0,0,0,0,0,0,0,0,0,0,0,0,0,0,0,0,0,0,0,0,0,0,0,0,0,0,0,0,0,0,50,49,99,8,10 มิถุนายน 2561
213,213,30050229,บ้านบุเขว้า,0,0,0,0,10,10,20,1,12,12,24,1,22,22,44,2,10,9,19,1,9,7,16,1,10,6,16,1,10,13,23,1,10,6,16,1,9,5,14,1,58,46,104,6,0,0,0,0,0,0,0,0,0,0,0,0,0,0,0,0,0,0,0,0,0,0,0,0,0,0,0,0,0,0,0,0,0,0,0,0,0,0,0,0,0,0,0,0,80,68,148,8,10 มิถุนายน 2561
214,214,30050230,บ้านทำนบพัฒนา,0,0,0,0,9,21,30,1,10,10,20,1,19,31,50,2,21,17,38,1,16,18,34,1,14,8,22,1,17,12,29,1,14,18,32,1,21,10,31,1,103,83,186,6,14,6,20,1,15,9,24,1,14,6,20,1,43,21,64,3,0,0,0,0,0,0,0,0,0,0,0,0,0,0,0,0,0,0,0,0,0,0,0,0,0,0,0,0,165,135,300,11,10 มิถุนายน 2561
