,0,1,2,3,4,5,6,7,8,9,10,11,12,13,14,15,16,17,18,19,20,21,22,23,24,25,26,27,28,29,30,31,32,33,34,35,36,37,38,39,40,41,42,43,44,45,46,47,48,49,50,51,52,53,54,55,56,57,58,59,60,61,62,63,64,65,66,67,68,69,70,71,72,73,74,75,76,77,78,79,80,81,82,83,84,85,86,87,88,89,90,91,92,93,94,95
0,ลำดับ,รหัส SMIS,โรงเรียน,อ.3 ขวบ ชาย,อ.3 ขวบ หญิง,รวมอ.3 ขวบ,อ.3 ขวบ ห้อง,อ.1 ชาย,อ.1 หญิง,รวมอ.1,อ.1 ห้อง,อ.2 ชาย,อ.2 หญิง,รวมอ.2,อ.2 ห้อง,รวมก่อนประถม ชาย,รวมก่อนประถม หญิง,รวมก่อนประถม,รวมห้องก่อนประถม,ป.1 ชาย,ป.1 หญิง,รวมป.1,ป.1 ห้อง,ป.2 ชาย,ป.2 หญิง,รวมป.2,ป.2 ห้อง,ป.3 ชาย,ป.3 หญิง,รวมป.3,ป.3 ห้อง,ป.4 ชาย,ป.4 หญิง,รวมป.4,ป.4 ห้อง,ป.5 ชาย,ป.5 หญิง,รวมป.5,ป.5 ห้อง,ป.6 ชาย,ป.6 หญิง,รวมป.6,ป.6 ห้อง,รวมประถม ชาย,รวมประถม หญิง,รวมประถม,รวมห้องประถม,ม.1 ชาย,ม.1 หญิง,รวมม.1,ม.1 ห้อง,ม.2 ชาย,ม.2 หญิง,รวมม.2,ม.2 ห้อง,ม.3 ชาย,ม.3 หญิง,รวมม.3,ม.3 ห้อง,รวมม.ต้น ชาย,รวมม.ต้น หญิง,รวมม.ต้น,รวมห้องม.ต้น,ม.4 ชาย,ม.4 หญิง,รวมม.4,ม.4 ห้อง,ม.5 ชาย,ม.5 หญิง,รวมม.5,ม.5 ห้อง,ม.6 ชาย,ม.6 หญิง,รวมม.6,ม.6 ห้อง,ปวช.1 ชาย,ปวช.1 หญิง,รวมปวช.1,ปวช.1 ห้อง,ปวช.2 ชาย,ปวช.2 หญิง,รวมปวช.2,ปวช.2 ห้อง,ปวช.3 ชาย,ปวช.3 หญิง,รวมปวช.3,ปวช.3 ห้อง,รวมม.ปลายและเทียบเท่า ชาย,รวมม.ปลายและเทียบเท่า หญิง,รวมม.ปลายและเทียบเท่า,รวมห้องม.ปลายและเทียบเท่า,รวมทั้งหมด ชาย,รวมทั้งหมด หญิง,รวมทั้งหมด,รวมห้องทั้งหมด,ข้อมูล ณ วันที่
1,1,40020001,ประเสริฐแก้วอุทิศ,7,4,11,1,4,9,13,1,10,6,16,1,21,19,40,3,6,11,17,1,5,8,13,1,8,9,17,1,6,12,18,1,10,11,21,1,11,6,17,1,46,57,103,6,0,0,0,0,0,0,0,0,0,0,0,0,0,0,0,0,0,0,0,0,0,0,0,0,0,0,0,0,0,0,0,0,0,0,0,0,0,0,0,0,0,0,0,0,67,76,143,9,10 มิถุนายน 2561
2,2,40020002,ไตรคามประชาสรรค์,0,0,0,0,7,12,19,1,8,9,17,1,15,21,36,2,7,11,18,1,7,6,13,1,9,9,18,1,13,12,25,1,5,8,13,1,18,15,33,1,59,61,120,6,9,9,18,1,11,14,25,1,14,10,24,1,34,33,67,3,0,0,0,0,0,0,0,0,0,0,0,0,0,0,0,0,0,0,0,0,0,0,0,0,0,0,0,0,108,115,223,11,10 มิถุนายน 2561
3,3,40020003,บ้านแคนเหนือ,5,4,9,1,6,7,13,1,4,4,8,1,15,15,30,3,4,7,11,1,6,6,12,1,5,3,8,1,7,3,10,1,6,8,14,1,1,6,7,1,29,33,62,6,0,0,0,0,0,0,0,0,0,0,0,0,0,0,0,0,0,0,0,0,0,0,0,0,0,0,0,0,0,0,0,0,0,0,0,0,0,0,0,0,0,0,0,0,44,48,92,9,10 มิถุนายน 2561
4,4,40020004,โคกโกโคกกลาง,0,0,0,0,10,10,20,1,5,5,10,1,15,15,30,2,15,6,21,1,4,8,12,1,3,9,12,1,7,7,14,1,8,4,12,1,8,9,17,1,45,43,88,6,6,6,12,1,6,6,12,1,7,6,13,1,19,18,37,3,0,0,0,0,0,0,0,0,0,0,0,0,0,0,0,0,0,0,0,0,0,0,0,0,0,0,0,0,79,76,155,11,10 มิถุนายน 2561
5,5,40020005,บ้านดอนหมากพริกลิ้นฟ้า,0,0,0,0,3,2,5,1,1,0,1,1,4,2,6,2,3,2,5,1,1,4,5,1,2,0,2,1,2,3,5,1,1,2,3,1,0,0,0,0,9,11,20,5,0,0,0,0,0,0,0,0,0,0,0,0,0,0,0,0,0,0,0,0,0,0,0,0,0,0,0,0,0,0,0,0,0,0,0,0,0,0,0,0,0,0,0,0,13,13,26,7,10 มิถุนายน 2561
6,6,40020006,บ้านหนองเจ้าเมือง,2,0,2,1,1,0,1,1,1,2,3,1,4,2,6,3,2,0,2,1,2,2,4,1,1,1,2,1,3,1,4,1,0,2,2,1,3,1,4,1,11,7,18,6,0,0,0,0,0,0,0,0,0,0,0,0,0,0,0,0,0,0,0,0,0,0,0,0,0,0,0,0,0,0,0,0,0,0,0,0,0,0,0,0,0,0,0,0,15,9,24,9,10 มิถุนายน 2561
7,7,40020007,บ้านไผ่ประถมศึกษา,15,14,29,1,32,37,69,3,36,49,85,3,83,100,183,7,56,49,105,3,60,53,113,3,64,55,119,4,54,55,109,3,56,60,116,3,72,57,129,4,362,329,691,20,0,0,0,0,0,0,0,0,0,0,0,0,0,0,0,0,0,0,0,0,0,0,0,0,0,0,0,0,0,0,0,0,0,0,0,0,0,0,0,0,0,0,0,0,445,429,874,27,10 มิถุนายน 2561
8,8,40020008,บ้านหนองลุมพุก,3,3,6,1,5,4,9,1,5,5,10,1,13,12,25,3,3,1,4,1,3,6,9,1,2,3,5,1,4,2,6,1,2,4,6,1,2,5,7,1,16,21,37,6,0,0,0,0,0,0,0,0,0,0,0,0,0,0,0,0,0,0,0,0,0,0,0,0,0,0,0,0,0,0,0,0,0,0,0,0,0,0,0,0,0,0,0,0,29,33,62,9,10 มิถุนายน 2561
9,9,40020009,วัดจันทร์ประสิทธิ์,10,9,19,1,7,4,11,1,11,10,21,1,28,23,51,3,10,15,25,1,6,11,17,1,13,6,19,1,4,11,15,1,6,7,13,1,8,4,12,1,47,54,101,6,0,0,0,0,0,0,0,0,0,0,0,0,0,0,0,0,0,0,0,0,0,0,0,0,0,0,0,0,0,0,0,0,0,0,0,0,0,0,0,0,0,0,0,0,75,77,152,9,10 มิถุนายน 2561
10,10,40020010,บ้านศิลานาโพธิ์,0,0,0,0,11,8,19,1,10,2,12,1,21,10,31,2,14,7,21,1,12,14,26,1,11,7,18,1,9,8,17,1,10,7,17,1,11,5,16,1,67,48,115,6,0,0,0,0,0,0,0,0,0,0,0,0,0,0,0,0,0,0,0,0,0,0,0,0,0,0,0,0,0,0,0,0,0,0,0,0,0,0,0,0,0,0,0,0,88,58,146,8,10 มิถุนายน 2561
11,11,40020011,บ้านโสกตลิ่งโสกจาน,2,3,5,1,3,3,6,1,5,5,10,1,10,11,21,3,5,3,8,1,6,4,10,1,3,5,8,1,4,1,5,1,5,3,8,1,8,3,11,1,31,19,50,6,0,0,0,0,0,0,0,0,0,0,0,0,0,0,0,0,0,0,0,0,0,0,0,0,0,0,0,0,0,0,0,0,0,0,0,0,0,0,0,0,0,0,0,0,41,30,71,9,10 มิถุนายน 2561
12,12,40020012,บ้านทางพาดหนองแวงโอง,8,6,14,1,4,4,8,1,4,1,5,1,16,11,27,3,2,3,5,1,3,6,9,1,5,3,8,1,4,6,10,1,4,4,8,1,3,7,10,1,21,29,50,6,0,0,0,0,0,0,0,0,0,0,0,0,0,0,0,0,0,0,0,0,0,0,0,0,0,0,0,0,0,0,0,0,0,0,0,0,0,0,0,0,0,0,0,0,37,40,77,9,10 มิถุนายน 2561
13,13,40020013,บ้านหนองแวงไร่,0,0,0,0,7,3,10,1,8,4,12,1,15,7,22,2,10,3,13,1,7,4,11,1,7,3,10,1,3,5,8,1,9,10,19,1,14,9,23,1,50,34,84,6,0,0,0,0,0,0,0,0,0,0,0,0,0,0,0,0,0,0,0,0,0,0,0,0,0,0,0,0,0,0,0,0,0,0,0,0,0,0,0,0,0,0,0,0,65,41,106,8,10 มิถุนายน 2561
14,14,40020014,บ้านเก่าน้อย,4,3,7,1,2,0,2,1,5,0,5,1,11,3,14,3,3,4,7,1,2,4,6,1,5,2,7,1,4,3,7,1,5,2,7,1,1,2,3,1,20,17,37,6,0,0,0,0,0,0,0,0,0,0,0,0,0,0,0,0,0,0,0,0,0,0,0,0,0,0,0,0,0,0,0,0,0,0,0,0,0,0,0,0,0,0,0,0,31,20,51,9,10 มิถุนายน 2561
15,15,40020015,บ้านทุ่งมน,8,9,17,1,11,9,20,1,10,8,18,1,29,26,55,3,15,10,25,1,7,9,16,1,15,7,22,1,10,15,25,1,9,12,21,1,12,14,26,1,68,67,135,6,33,14,47,2,18,13,31,1,23,14,37,1,74,41,115,4,0,0,0,0,0,0,0,0,0,0,0,0,0,0,0,0,0,0,0,0,0,0,0,0,0,0,0,0,171,134,305,13,10 มิถุนายน 2561
16,16,40020016,เบญจมิตรวิทยาคม,0,0,0,0,4,10,14,1,10,15,25,1,14,25,39,2,6,15,21,1,14,8,22,1,10,16,26,1,10,11,21,1,12,6,18,1,8,16,24,1,60,72,132,6,11,8,19,1,12,11,23,1,12,12,24,1,35,31,66,3,0,0,0,0,0,0,0,0,0,0,0,0,0,0,0,0,0,0,0,0,0,0,0,0,0,0,0,0,109,128,237,11,10 มิถุนายน 2561
17,17,40020017,บ้านเป้าประชาบำรุง,0,0,0,0,1,0,1,1,2,1,3,1,3,1,4,2,1,1,2,1,4,3,7,1,3,1,4,1,0,1,1,1,3,1,4,1,2,3,5,1,13,10,23,6,0,0,0,0,0,0,0,0,0,0,0,0,0,0,0,0,0,0,0,0,0,0,0,0,0,0,0,0,0,0,0,0,0,0,0,0,0,0,0,0,0,0,0,0,16,11,27,8,10 มิถุนายน 2561
18,18,40020018,บ้านหนองผือกอบง,4,5,9,1,4,5,9,1,4,7,11,1,12,17,29,3,8,9,17,1,5,4,9,1,8,5,13,1,12,5,17,1,12,4,16,1,6,5,11,1,51,32,83,6,0,0,0,0,0,0,0,0,0,0,0,0,0,0,0,0,0,0,0,0,0,0,0,0,0,0,0,0,0,0,0,0,0,0,0,0,0,0,0,0,0,0,0,0,63,49,112,9,10 มิถุนายน 2561
19,19,40020019,บ้านเกิ้ง,11,3,14,1,3,9,12,1,6,5,11,1,20,17,37,3,10,6,16,1,7,3,10,1,7,6,13,1,7,3,10,1,7,7,14,1,7,4,11,1,45,29,74,6,6,5,11,1,4,9,13,1,12,3,15,1,22,17,39,3,0,0,0,0,0,0,0,0,0,0,0,0,0,0,0,0,0,0,0,0,0,0,0,0,0,0,0,0,87,63,150,12,10 มิถุนายน 2561
20,20,40020020,ชุมชนบ้านไผ่ยิ่งยงอุทิศ,6,11,17,1,8,16,24,1,16,20,36,1,30,47,77,3,14,13,27,1,9,9,18,1,20,10,30,1,11,6,17,1,6,17,23,1,6,10,16,1,66,65,131,6,0,0,0,0,0,0,0,0,0,0,0,0,0,0,0,0,0,0,0,0,0,0,0,0,0,0,0,0,0,0,0,0,0,0,0,0,0,0,0,0,0,0,0,0,96,112,208,9,10 มิถุนายน 2561
21,21,40020021,บ้านไผ่แสงทองประชาสรรค์,7,4,11,1,12,7,19,1,5,7,12,1,24,18,42,3,11,11,22,1,4,13,17,1,10,13,23,1,8,13,21,1,22,11,33,1,19,10,29,1,74,71,145,6,18,14,32,2,31,13,44,2,42,29,71,2,91,56,147,6,0,0,0,0,0,0,0,0,0,0,0,0,0,0,0,0,0,0,0,0,0,0,0,0,0,0,0,0,189,145,334,15,10 มิถุนายน 2561
22,22,40020022,บ้านขามเรียน,6,5,11,1,1,5,6,1,6,5,11,1,13,15,28,3,5,6,11,1,2,1,3,1,2,3,5,1,6,3,9,1,8,3,11,1,3,7,10,1,26,23,49,6,0,0,0,0,0,0,0,0,0,0,0,0,0,0,0,0,0,0,0,0,0,0,0,0,0,0,0,0,0,0,0,0,0,0,0,0,0,0,0,0,0,0,0,0,39,38,77,9,10 มิถุนายน 2561
23,23,40020023,บ้านชีกกค้อ,1,2,3,1,2,4,6,1,2,4,6,1,5,10,15,3,2,3,5,1,1,6,7,1,3,5,8,1,6,4,10,1,1,3,4,1,3,0,3,1,16,21,37,6,0,0,0,0,0,0,0,0,0,0,0,0,0,0,0,0,0,0,0,0,0,0,0,0,0,0,0,0,0,0,0,0,0,0,0,0,0,0,0,0,0,0,0,0,21,31,52,9,10 มิถุนายน 2561
24,24,40020024,บ้านดู่ใหญ่,4,7,11,1,4,9,13,1,2,4,6,1,10,20,30,3,2,4,6,1,7,8,15,1,8,5,13,1,9,6,15,1,6,7,13,1,3,4,7,1,35,34,69,6,17,8,25,1,10,6,16,1,4,9,13,1,31,23,54,3,0,0,0,0,0,0,0,0,0,0,0,0,0,0,0,0,0,0,0,0,0,0,0,0,0,0,0,0,76,77,153,12,10 มิถุนายน 2561
25,25,40020025,บ้านเมืองเพีย,5,5,10,1,4,2,6,1,5,3,8,1,14,10,24,3,1,6,7,1,4,10,14,1,4,8,12,1,7,2,9,1,5,5,10,1,9,3,12,1,30,34,64,6,12,2,14,1,14,7,21,1,5,8,13,1,31,17,48,3,0,0,0,0,0,0,0,0,0,0,0,0,0,0,0,0,0,0,0,0,0,0,0,0,0,0,0,0,75,61,136,12,10 มิถุนายน 2561
26,26,40020026,บ้านละว้า,10,11,21,1,8,16,24,1,15,5,20,1,33,32,65,3,12,7,19,1,13,11,24,1,10,5,15,1,9,6,15,1,12,4,16,1,10,10,20,1,66,43,109,6,10,7,17,1,16,12,28,1,15,16,31,2,41,35,76,4,0,0,0,0,0,0,0,0,0,0,0,0,0,0,0,0,0,0,0,0,0,0,0,0,0,0,0,0,140,110,250,13,10 มิถุนายน 2561
27,27,40020027,บ้านหนองนางขวัญ,0,0,0,0,0,0,0,0,1,0,1,1,1,0,1,1,1,1,2,1,0,1,1,1,0,1,1,1,0,5,5,1,2,1,3,1,1,0,1,1,4,9,13,6,0,0,0,0,0,0,0,0,0,0,0,0,0,0,0,0,0,0,0,0,0,0,0,0,0,0,0,0,0,0,0,0,0,0,0,0,0,0,0,0,0,0,0,0,5,9,14,7,10 มิถุนายน 2561
28,28,40020028,บ้านผักหวานโนนสวาง,0,0,0,0,4,1,5,1,8,4,12,1,12,5,17,2,4,3,7,1,6,3,9,1,3,7,10,1,3,6,9,1,10,4,14,1,3,2,5,1,29,25,54,6,0,0,0,0,0,0,0,0,0,0,0,0,0,0,0,0,0,0,0,0,0,0,0,0,0,0,0,0,0,0,0,0,0,0,0,0,0,0,0,0,0,0,0,0,41,30,71,8,10 มิถุนายน 2561
29,29,40020029,บ้านสร้างแป้นดอนนาแพง,0,0,0,0,11,11,22,1,11,5,16,1,22,16,38,2,15,6,21,1,17,12,29,1,7,4,11,1,15,7,22,1,13,5,18,1,7,16,23,1,74,50,124,6,12,10,22,1,7,5,12,1,11,7,18,1,30,22,52,3,0,0,0,0,0,0,0,0,0,0,0,0,0,0,0,0,0,0,0,0,0,0,0,0,0,0,0,0,126,88,214,11,10 มิถุนายน 2561
30,30,40020030,บ้านกุดเชือก,0,0,0,0,11,11,22,1,9,11,20,1,20,22,42,2,7,8,15,1,10,7,17,1,15,7,22,1,10,3,13,1,7,11,18,1,10,7,17,1,59,43,102,6,0,0,0,0,0,0,0,0,0,0,0,0,0,0,0,0,0,0,0,0,0,0,0,0,0,0,0,0,0,0,0,0,0,0,0,0,0,0,0,0,0,0,0,0,79,65,144,8,10 มิถุนายน 2561
31,31,40020031,บ้านขามป้อม,11,7,18,1,7,3,10,1,7,10,17,1,25,20,45,3,8,11,19,1,8,13,21,1,12,9,21,1,10,14,24,1,7,5,12,1,11,14,25,1,56,66,122,6,12,12,24,1,8,5,13,1,8,4,12,1,28,21,49,3,0,0,0,0,0,0,0,0,0,0,0,0,0,0,0,0,0,0,0,0,0,0,0,0,0,0,0,0,109,107,216,12,10 มิถุนายน 2561
32,32,40020032,บ้านลาน,0,0,0,0,7,10,17,1,6,9,15,1,13,19,32,2,7,14,21,1,7,6,13,1,8,6,14,1,9,7,16,1,6,9,15,1,8,3,11,1,45,45,90,6,0,0,0,0,0,0,0,0,0,0,0,0,0,0,0,0,0,0,0,0,0,0,0,0,0,0,0,0,0,0,0,0,0,0,0,0,0,0,0,0,0,0,0,0,58,64,122,8,10 มิถุนายน 2561
33,33,40020033,บ้านสร้างเอี่ยน,0,0,0,0,2,1,3,1,2,1,3,1,4,2,6,2,8,4,12,1,4,3,7,1,3,2,5,1,4,0,4,1,8,3,11,1,7,6,13,1,34,18,52,6,0,0,0,0,0,0,0,0,0,0,0,0,0,0,0,0,0,0,0,0,0,0,0,0,0,0,0,0,0,0,0,0,0,0,0,0,0,0,0,0,0,0,0,0,38,20,58,8,10 มิถุนายน 2561
34,34,40020034,บ้านหนองตับเต่า,7,7,14,1,5,5,10,1,6,4,10,1,18,16,34,3,14,8,22,1,7,9,16,1,7,8,15,1,5,8,13,1,9,6,15,1,6,8,14,1,48,47,95,6,0,0,0,0,0,0,0,0,0,0,0,0,0,0,0,0,0,0,0,0,0,0,0,0,0,0,0,0,0,0,0,0,0,0,0,0,0,0,0,0,0,0,0,0,66,63,129,9,10 มิถุนายน 2561
35,35,40020035,บ้านหนองดู่ดอนเปือยสาขาบ้านดอนเปือย,0,0,0,0,0,0,0,0,0,0,0,0,0,0,0,0,0,0,0,0,5,0,5,1,2,0,2,1,3,4,7,1,1,1,2,1,5,2,7,1,16,7,23,5,0,0,0,0,0,0,0,0,0,0,0,0,0,0,0,0,0,0,0,0,0,0,0,0,0,0,0,0,0,0,0,0,0,0,0,0,0,0,0,0,0,0,0,0,16,7,23,5,10 มิถุนายน 2561
36,36,40020036,บ้านป่าปอ,0,0,0,0,8,11,19,1,8,6,14,1,16,17,33,2,15,11,26,1,3,8,11,1,10,7,17,1,7,3,10,1,9,11,20,1,11,3,14,1,55,43,98,6,13,7,20,1,12,5,17,1,10,4,14,1,35,16,51,3,0,0,0,0,0,0,0,0,0,0,0,0,0,0,0,0,0,0,0,0,0,0,0,0,0,0,0,0,106,76,182,11,10 มิถุนายน 2561
37,37,40020037,บ้านป่าปอสาขาบ้านหนองข่าลิ้น,0,0,0,0,0,1,1,1,0,2,2,1,0,3,3,2,1,1,2,1,0,1,1,1,2,1,3,1,2,0,2,1,3,1,4,1,2,1,3,1,10,5,15,6,0,0,0,0,0,0,0,0,0,0,0,0,0,0,0,0,0,0,0,0,0,0,0,0,0,0,0,0,0,0,0,0,0,0,0,0,0,0,0,0,0,0,0,0,10,8,18,8,10 มิถุนายน 2561
38,38,40020038,บ้านเสือเฒ่า,9,8,17,1,8,5,13,1,12,8,20,1,29,21,50,3,8,6,14,1,8,3,11,1,2,5,7,1,6,6,12,1,3,0,3,1,7,6,13,1,34,26,60,6,6,4,10,1,10,8,18,1,11,7,18,1,27,19,46,3,0,0,0,0,0,0,0,0,0,0,0,0,0,0,0,0,0,0,0,0,0,0,0,0,0,0,0,0,90,66,156,12,10 มิถุนายน 2561
39,39,40020039,บ้านหนองดู่ดอนเปือย,5,3,8,1,2,4,6,1,11,6,17,1,18,13,31,3,7,4,11,1,8,3,11,1,4,0,4,1,1,5,6,1,3,9,12,1,10,4,14,1,33,25,58,6,0,0,0,0,0,0,0,0,0,0,0,0,0,0,0,0,0,0,0,0,0,0,0,0,0,0,0,0,0,0,0,0,0,0,0,0,0,0,0,0,0,0,0,0,51,38,89,9,10 มิถุนายน 2561
40,40,40020040,บ้านภูเหล็ก,0,0,0,0,14,14,28,2,20,20,40,2,34,34,68,4,20,15,35,2,25,12,37,2,16,12,28,2,15,17,32,2,18,18,36,2,19,15,34,2,113,89,202,12,8,10,18,2,19,18,37,2,16,17,33,2,43,45,88,6,0,0,0,0,0,0,0,0,0,0,0,0,0,0,0,0,0,0,0,0,0,0,0,0,0,0,0,0,190,168,358,22,10 มิถุนายน 2561
41,41,40020041,บ้านหนองหญ้าปล้อง,0,0,0,0,0,3,3,1,5,1,6,1,5,4,9,2,3,3,6,1,2,3,5,1,1,4,5,1,1,0,1,1,7,4,11,1,2,2,4,1,16,16,32,6,0,0,0,0,0,0,0,0,0,0,0,0,0,0,0,0,0,0,0,0,0,0,0,0,0,0,0,0,0,0,0,0,0,0,0,0,0,0,0,0,0,0,0,0,21,20,41,8,10 มิถุนายน 2561
42,42,40020042,บ้านหนองรูแข้,0,0,0,0,10,4,14,1,6,8,14,1,16,12,28,2,3,5,8,1,2,3,5,1,9,5,14,1,10,7,17,1,6,9,15,1,6,3,9,1,36,32,68,6,0,0,0,0,0,0,0,0,0,0,0,0,0,0,0,0,0,0,0,0,0,0,0,0,0,0,0,0,0,0,0,0,0,0,0,0,0,0,0,0,0,0,0,0,52,44,96,8,10 มิถุนายน 2561
43,43,40020043,ไตรมิตรประชาบำรุง,5,2,7,1,2,4,6,1,6,8,14,1,13,14,27,3,10,10,20,1,6,8,14,1,6,7,13,1,8,5,13,1,9,7,16,1,6,8,14,1,45,45,90,6,0,0,0,0,0,0,0,0,0,0,0,0,0,0,0,0,0,0,0,0,0,0,0,0,0,0,0,0,0,0,0,0,0,0,0,0,0,0,0,0,0,0,0,0,58,59,117,9,10 มิถุนายน 2561
44,44,40020044,เก่านาโนมีวิทยา,3,1,4,1,2,1,3,1,1,2,3,1,6,4,10,3,1,2,3,1,6,3,9,1,3,3,6,1,2,4,6,1,5,1,6,1,4,4,8,1,21,17,38,6,0,0,0,0,0,0,0,0,0,0,0,0,0,0,0,0,0,0,0,0,0,0,0,0,0,0,0,0,0,0,0,0,0,0,0,0,0,0,0,0,0,0,0,0,27,21,48,9,10 มิถุนายน 2561
45,45,40020045,จตุรมิตรบ้านไผ่,2,2,4,1,2,4,6,1,1,0,1,1,5,6,11,3,7,6,13,1,1,2,3,1,5,3,8,1,3,4,7,1,5,5,10,1,2,1,3,1,23,21,44,6,0,0,0,0,0,0,0,0,0,0,0,0,0,0,0,0,0,0,0,0,0,0,0,0,0,0,0,0,0,0,0,0,0,0,0,0,0,0,0,0,0,0,0,0,28,27,55,9,10 มิถุนายน 2561
46,46,40020046,หนองตอกเกี้ยหัวนาประชาสรรค์,3,2,5,1,2,2,4,1,5,6,11,1,10,10,20,3,8,6,14,1,4,2,6,1,4,3,7,1,0,4,4,1,4,4,8,1,7,9,16,1,27,28,55,6,0,0,0,0,0,0,0,0,0,0,0,0,0,0,0,0,0,0,0,0,0,0,0,0,0,0,0,0,0,0,0,0,0,0,0,0,0,0,0,0,0,0,0,0,37,38,75,9,10 มิถุนายน 2561
47,47,40020047,บ้านหนองน้ำใส,8,7,15,1,4,8,12,1,10,4,14,1,22,19,41,3,8,9,17,1,8,7,15,1,6,7,13,1,10,4,14,1,7,2,9,1,2,3,5,1,41,32,73,6,0,0,0,0,0,0,0,0,0,0,0,0,0,0,0,0,0,0,0,0,0,0,0,0,0,0,0,0,0,0,0,0,0,0,0,0,0,0,0,0,0,0,0,0,63,51,114,9,10 มิถุนายน 2561
48,48,40020048,บ้านหนองร้านหญ้าโนนข่า,3,3,6,1,6,3,9,1,10,0,10,1,19,6,25,3,6,1,7,1,1,2,3,1,3,3,6,1,3,6,9,1,3,3,6,1,5,4,9,1,21,19,40,6,0,0,0,0,0,0,0,0,0,0,0,0,0,0,0,0,0,0,0,0,0,0,0,0,0,0,0,0,0,0,0,0,0,0,0,0,0,0,0,0,0,0,0,0,40,25,65,9,10 มิถุนายน 2561
49,49,40020049,บ้านหัวหนองนาวัวโนนงิ้ว,0,0,0,0,1,0,1,1,2,1,3,1,3,1,4,2,1,4,5,1,3,4,7,1,3,0,3,1,3,1,4,1,2,2,4,1,2,4,6,1,14,15,29,6,0,0,0,0,0,0,0,0,0,0,0,0,0,0,0,0,0,0,0,0,0,0,0,0,0,0,0,0,0,0,0,0,0,0,0,0,0,0,0,0,0,0,0,0,17,16,33,8,10 มิถุนายน 2561
50,50,40020050,บ้านหินลาดนาโนหนองกุง,3,8,11,1,3,3,6,1,6,4,10,1,12,15,27,3,6,3,9,1,6,4,10,1,3,1,4,1,5,5,10,1,10,6,16,1,3,6,9,1,33,25,58,6,0,0,0,0,0,0,0,0,0,0,0,0,0,0,0,0,0,0,0,0,0,0,0,0,0,0,0,0,0,0,0,0,0,0,0,0,0,0,0,0,0,0,0,0,45,40,85,9,10 มิถุนายน 2561
51,51,40020051,บ้านหินตั้งโคกก่อง,0,0,0,0,7,14,21,1,10,3,13,1,17,17,34,2,13,9,22,1,12,11,23,1,5,5,10,1,6,12,18,1,11,7,18,1,6,11,17,1,53,55,108,6,0,0,0,0,0,0,0,0,0,0,0,0,0,0,0,0,0,0,0,0,0,0,0,0,0,0,0,0,0,0,0,0,0,0,0,0,0,0,0,0,0,0,0,0,70,72,142,8,10 มิถุนายน 2561
52,52,40020052,บ้านสว่าง,0,0,0,0,5,1,6,1,4,1,5,1,9,2,11,2,7,12,19,1,4,8,12,1,5,5,10,1,8,4,12,1,5,2,7,1,5,4,9,1,34,35,69,6,0,0,0,0,0,0,0,0,0,0,0,0,0,0,0,0,0,0,0,0,0,0,0,0,0,0,0,0,0,0,0,0,0,0,0,0,0,0,0,0,0,0,0,0,43,37,80,8,10 มิถุนายน 2561
53,53,40020053,บ้านป่างิ้วหนองฮี,13,16,29,1,17,22,39,2,19,19,38,2,49,57,106,5,8,20,28,2,17,19,36,2,19,18,37,1,14,16,30,1,19,16,35,2,15,17,32,2,92,106,198,10,20,32,52,2,29,25,54,2,30,24,54,2,79,81,160,6,0,0,0,0,0,0,0,0,0,0,0,0,0,0,0,0,0,0,0,0,0,0,0,0,0,0,0,0,220,244,464,21,10 มิถุนายน 2561
54,54,40020054,บ้านโกน้อย,3,2,5,1,0,2,2,1,1,1,2,1,4,5,9,3,2,4,6,1,2,3,5,1,1,3,4,1,4,2,6,1,1,4,5,1,3,0,3,1,13,16,29,6,0,0,0,0,0,0,0,0,0,0,0,0,0,0,0,0,0,0,0,0,0,0,0,0,0,0,0,0,0,0,0,0,0,0,0,0,0,0,0,0,0,0,0,0,17,21,38,9,10 มิถุนายน 2561
55,55,40020055,บ้านวังผือขามป้อม,2,1,3,1,10,4,14,1,7,7,14,1,19,12,31,3,9,5,14,1,15,8,23,1,12,8,20,1,10,10,20,1,9,6,15,1,6,10,16,1,61,47,108,6,13,7,20,1,11,1,12,1,9,4,13,1,33,12,45,3,0,0,0,0,0,0,0,0,0,0,0,0,0,0,0,0,0,0,0,0,0,0,0,0,0,0,0,0,113,71,184,12,10 มิถุนายน 2561
56,56,40020056,บ้านส้มป่อย,4,3,7,1,8,6,14,1,17,10,27,1,29,19,48,3,9,8,17,1,10,10,20,1,3,4,7,1,7,7,14,1,7,1,8,1,6,5,11,1,42,35,77,6,0,0,0,0,0,0,0,0,0,0,0,0,0,0,0,0,0,0,0,0,0,0,0,0,0,0,0,0,0,0,0,0,0,0,0,0,0,0,0,0,0,0,0,0,71,54,125,9,10 มิถุนายน 2561
57,57,40020057,บ้านหนองนกเขียนนาเสถียร,3,1,4,1,3,0,3,1,3,5,8,1,9,6,15,3,6,6,12,1,2,0,2,1,4,1,5,1,2,1,3,1,1,1,2,1,4,0,4,1,19,9,28,6,0,0,0,0,0,0,0,0,0,0,0,0,0,0,0,0,0,0,0,0,0,0,0,0,0,0,0,0,0,0,0,0,0,0,0,0,0,0,0,0,0,0,0,0,28,15,43,9,10 มิถุนายน 2561
58,58,40020058,บ้านหินฮาวลำวังชู,2,5,7,1,5,2,7,1,2,2,4,1,9,9,18,3,4,3,7,1,4,1,5,1,2,1,3,1,1,5,6,1,1,5,6,1,4,2,6,1,16,17,33,6,0,0,0,0,0,0,0,0,0,0,0,0,0,0,0,0,0,0,0,0,0,0,0,0,0,0,0,0,0,0,0,0,0,0,0,0,0,0,0,0,0,0,0,0,25,26,51,9,10 มิถุนายน 2561
59,59,40020059,ชุมชนบ้านหัวขัว,1,4,5,1,9,9,18,1,15,11,26,2,25,24,49,4,22,13,35,2,17,12,29,2,10,14,24,2,14,13,27,2,15,9,24,1,15,11,26,2,93,72,165,11,14,8,22,1,12,5,17,1,7,13,20,1,33,26,59,3,0,0,0,0,0,0,0,0,0,0,0,0,0,0,0,0,0,0,0,0,0,0,0,0,0,0,0,0,151,122,273,18,10 มิถุนายน 2561
60,60,40020060,ไตรคามประชาพัฒนา,7,6,13,1,7,8,15,1,13,12,25,1,27,26,53,3,14,13,27,1,12,12,24,1,9,15,24,1,7,12,19,1,8,10,18,1,16,10,26,1,66,72,138,6,0,0,0,0,0,0,0,0,0,0,0,0,0,0,0,0,0,0,0,0,0,0,0,0,0,0,0,0,0,0,0,0,0,0,0,0,0,0,0,0,0,0,0,0,93,98,191,9,10 มิถุนายน 2561
61,61,40020061,บ้านโนนสว่าง,4,3,7,1,4,3,7,1,4,2,6,1,12,8,20,3,3,4,7,1,1,1,2,1,2,1,3,1,1,4,5,1,3,2,5,1,3,4,7,1,13,16,29,6,0,0,0,0,0,0,0,0,0,0,0,0,0,0,0,0,0,0,0,0,0,0,0,0,0,0,0,0,0,0,0,0,0,0,0,0,0,0,0,0,0,0,0,0,25,24,49,9,10 มิถุนายน 2561
62,62,40020062,บ้านวังม่วง,0,0,0,0,4,6,10,1,13,10,23,1,17,16,33,2,9,4,13,1,5,9,14,1,10,11,21,1,5,8,13,1,6,3,9,1,6,10,16,1,41,45,86,6,6,3,9,1,11,5,16,1,6,9,15,1,23,17,40,3,0,0,0,0,0,0,0,0,0,0,0,0,0,0,0,0,0,0,0,0,0,0,0,0,0,0,0,0,81,78,159,11,10 มิถุนายน 2561
63,63,40020063,บ้านโสกนาค,0,0,0,0,6,6,12,1,3,6,9,1,9,12,21,2,5,4,9,1,3,6,9,1,6,3,9,1,5,3,8,1,15,6,21,1,4,8,12,1,38,30,68,6,7,4,11,1,6,2,8,1,6,3,9,1,19,9,28,3,0,0,0,0,0,0,0,0,0,0,0,0,0,0,0,0,0,0,0,0,0,0,0,0,0,0,0,0,66,51,117,11,10 มิถุนายน 2561
64,64,40020064,บ้านห้วยโป่ง,0,0,0,0,0,0,0,0,4,0,4,1,4,0,4,1,0,1,1,1,0,3,3,1,1,1,2,1,1,0,1,1,2,5,7,1,3,2,5,1,7,12,19,6,0,0,0,0,0,0,0,0,0,0,0,0,0,0,0,0,0,0,0,0,0,0,0,0,0,0,0,0,0,0,0,0,0,0,0,0,0,0,0,0,0,0,0,0,11,12,23,7,10 มิถุนายน 2561
65,65,40020065,บ้านห้วยแร่,0,0,0,0,8,14,22,1,22,9,31,1,30,23,53,2,6,10,16,1,8,7,15,1,16,7,23,1,12,14,26,1,15,7,22,1,9,12,21,1,66,57,123,6,9,9,18,1,8,15,23,1,11,9,20,1,28,33,61,3,0,0,0,0,0,0,0,0,0,0,0,0,0,0,0,0,0,0,0,0,0,0,0,0,0,0,0,0,124,113,237,11,10 มิถุนายน 2561
66,66,40020066,บ้านวังหินเก่าค้อ,1,2,3,1,1,3,4,1,2,1,3,1,4,6,10,3,8,13,21,1,8,7,15,1,11,6,17,1,6,7,13,1,11,5,16,1,7,17,24,1,51,55,106,6,0,0,0,0,0,0,0,0,0,0,0,0,0,0,0,0,0,0,0,0,0,0,0,0,0,0,0,0,0,0,0,0,0,0,0,0,0,0,0,0,0,0,0,0,55,61,116,9,10 มิถุนายน 2561
67,67,40020067,บ้านนาเสียวโคกสว่าง,0,0,0,0,0,0,0,0,0,0,0,0,0,0,0,0,4,0,4,1,0,3,3,1,0,0,0,0,2,1,3,1,0,1,1,1,4,2,6,1,10,7,17,5,0,0,0,0,0,0,0,0,0,0,0,0,0,0,0,0,0,0,0,0,0,0,0,0,0,0,0,0,0,0,0,0,0,0,0,0,0,0,0,0,0,0,0,0,10,7,17,5,10 มิถุนายน 2561
68,68,40020068,บ้านสระแก้วประชาสรรค์,0,0,0,0,0,0,0,0,0,0,0,0,0,0,0,0,3,2,5,1,0,0,0,0,2,2,4,1,5,4,9,1,3,4,7,1,3,1,4,1,16,13,29,5,0,0,0,0,0,0,0,0,0,0,0,0,0,0,0,0,0,0,0,0,0,0,0,0,0,0,0,0,0,0,0,0,0,0,0,0,0,0,0,0,0,0,0,0,16,13,29,5,10 มิถุนายน 2561
69,69,40020069,ชุมชนบ้านหันมัญจาคีรี,12,4,16,1,22,19,41,2,24,25,49,2,58,48,106,5,40,20,60,2,27,20,47,2,29,22,51,2,25,24,49,2,28,34,62,2,24,19,43,2,173,139,312,12,0,0,0,0,0,0,0,0,0,0,0,0,0,0,0,0,0,0,0,0,0,0,0,0,0,0,0,0,0,0,0,0,0,0,0,0,0,0,0,0,0,0,0,0,231,187,418,17,10 มิถุนายน 2561
70,70,40020070,บ้านโจด,0,0,0,0,6,7,13,1,2,11,13,1,8,18,26,2,4,9,13,1,5,5,10,1,6,6,12,1,4,3,7,1,3,7,10,1,4,5,9,1,26,35,61,6,7,8,15,1,4,12,16,1,8,6,14,1,19,26,45,3,0,0,0,0,0,0,0,0,0,0,0,0,0,0,0,0,0,0,0,0,0,0,0,0,0,0,0,0,53,79,132,11,10 มิถุนายน 2561
71,71,40020071,บ้านหนองขามบ่อหิน,1,1,2,1,2,2,4,1,3,0,3,1,6,3,9,3,3,1,4,1,2,3,5,1,3,0,3,1,5,2,7,1,3,0,3,1,2,2,4,1,18,8,26,6,0,0,0,0,0,0,0,0,0,0,0,0,0,0,0,0,0,0,0,0,0,0,0,0,0,0,0,0,0,0,0,0,0,0,0,0,0,0,0,0,0,0,0,0,24,11,35,9,10 มิถุนายน 2561
72,72,40020072,บ้านหนองโนประชานุเคราะห์,2,3,5,1,1,2,3,1,3,0,3,1,6,5,11,3,2,1,3,1,3,1,4,1,6,4,10,1,0,2,2,1,4,6,10,1,1,3,4,1,16,17,33,6,0,0,0,0,0,0,0,0,0,0,0,0,0,0,0,0,0,0,0,0,0,0,0,0,0,0,0,0,0,0,0,0,0,0,0,0,0,0,0,0,0,0,0,0,22,22,44,9,10 มิถุนายน 2561
73,73,40020073,บ้านหนองม่วงหลุบคา,2,6,8,1,0,4,4,1,5,5,10,1,7,15,22,3,10,5,15,1,1,4,5,1,10,8,18,1,8,3,11,1,6,10,16,1,7,7,14,1,42,37,79,6,8,6,14,1,14,5,19,1,10,2,12,1,32,13,45,3,0,0,0,0,0,0,0,0,0,0,0,0,0,0,0,0,0,0,0,0,0,0,0,0,0,0,0,0,81,65,146,12,10 มิถุนายน 2561
74,74,40020074,บ้านขุมดิน,0,0,0,0,5,3,8,1,8,4,12,1,13,7,20,2,5,7,12,1,6,4,10,1,4,6,10,1,6,2,8,1,4,5,9,1,4,2,6,1,29,26,55,6,0,0,0,0,0,0,0,0,0,0,0,0,0,0,0,0,0,0,0,0,0,0,0,0,0,0,0,0,0,0,0,0,0,0,0,0,0,0,0,0,0,0,0,0,42,33,75,8,10 มิถุนายน 2561
75,75,40020075,บ้านเขวา,0,0,0,0,3,1,4,1,2,2,4,1,5,3,8,2,1,1,2,1,3,0,3,1,3,0,3,1,3,2,5,1,1,2,3,1,4,4,8,1,15,9,24,6,0,0,0,0,0,0,0,0,0,0,0,0,0,0,0,0,0,0,0,0,0,0,0,0,0,0,0,0,0,0,0,0,0,0,0,0,0,0,0,0,0,0,0,0,20,12,32,8,10 มิถุนายน 2561
76,76,40020076,บ้านบัว,0,0,0,0,1,1,2,1,3,3,6,1,4,4,8,2,3,3,6,1,3,1,4,1,2,4,6,1,3,4,7,1,2,3,5,1,4,6,10,1,17,21,38,6,0,0,0,0,0,0,0,0,0,0,0,0,0,0,0,0,0,0,0,0,0,0,0,0,0,0,0,0,0,0,0,0,0,0,0,0,0,0,0,0,0,0,0,0,21,25,46,8,10 มิถุนายน 2561
77,77,40020079,กุดขอนแก่นท่าเกษม,0,0,0,0,0,4,4,1,4,2,6,1,4,6,10,2,1,4,5,1,0,5,5,1,3,0,3,1,6,2,8,1,2,2,4,1,6,2,8,1,18,15,33,6,0,0,0,0,0,0,0,0,0,0,0,0,0,0,0,0,0,0,0,0,0,0,0,0,0,0,0,0,0,0,0,0,0,0,0,0,0,0,0,0,0,0,0,0,22,21,43,8,10 มิถุนายน 2561
78,78,40020080,บ้านคำแคน,0,0,0,0,0,1,1,1,5,1,6,1,5,2,7,2,1,1,2,1,4,2,6,1,2,0,2,1,1,0,1,1,0,0,0,0,1,1,2,1,9,4,13,5,0,0,0,0,0,0,0,0,0,0,0,0,0,0,0,0,0,0,0,0,0,0,0,0,0,0,0,0,0,0,0,0,0,0,0,0,0,0,0,0,0,0,0,0,14,6,20,7,10 มิถุนายน 2561
79,79,40020081,บ้านคำโซ่,1,0,1,1,8,1,9,1,6,6,12,1,15,7,22,3,5,5,10,1,1,7,8,1,8,4,12,1,4,3,7,1,5,3,8,1,4,8,12,1,27,30,57,6,3,5,8,1,7,2,9,1,2,2,4,1,12,9,21,3,0,0,0,0,0,0,0,0,0,0,0,0,0,0,0,0,0,0,0,0,0,0,0,0,0,0,0,0,54,46,100,12,10 มิถุนายน 2561
80,80,40020082,บ้านคำน้อย,0,0,0,0,2,2,4,1,3,2,5,1,5,4,9,2,6,4,10,1,1,3,4,1,5,8,13,1,10,4,14,1,8,5,13,1,4,5,9,1,34,29,63,6,0,0,0,0,0,0,0,0,0,0,0,0,0,0,0,0,0,0,0,0,0,0,0,0,0,0,0,0,0,0,0,0,0,0,0,0,0,0,0,0,0,0,0,0,39,33,72,8,10 มิถุนายน 2561
81,81,40020083,บ้านคำปากดาว,0,0,0,0,6,6,12,1,7,3,10,1,13,9,22,2,6,4,10,1,4,4,8,1,5,6,11,1,3,6,9,1,3,4,7,1,5,5,10,1,26,29,55,6,0,0,0,0,0,0,0,0,0,0,0,0,0,0,0,0,0,0,0,0,0,0,0,0,0,0,0,0,0,0,0,0,0,0,0,0,0,0,0,0,0,0,0,0,39,38,77,8,10 มิถุนายน 2561
82,82,40020084,บ้านน้อยกลางคำแคนเหนือ,0,0,0,0,2,3,5,1,3,5,8,1,5,8,13,2,5,3,8,1,1,4,5,1,3,4,7,1,5,3,8,1,2,2,4,1,4,3,7,1,20,19,39,6,0,0,0,0,0,0,0,0,0,0,0,0,0,0,0,0,0,0,0,0,0,0,0,0,0,0,0,0,0,0,0,0,0,0,0,0,0,0,0,0,0,0,0,0,25,27,52,8,10 มิถุนายน 2561
83,83,40020085,บ้านป่าดู่,0,0,0,0,2,1,3,1,2,3,5,1,4,4,8,2,5,4,9,1,0,1,1,1,2,2,4,1,1,0,1,1,1,2,3,1,0,3,3,1,9,12,21,6,0,0,0,0,0,0,0,0,0,0,0,0,0,0,0,0,0,0,0,0,0,0,0,0,0,0,0,0,0,0,0,0,0,0,0,0,0,0,0,0,0,0,0,0,13,16,29,8,10 มิถุนายน 2561
84,84,40020086,บ้านห้วยแล้ง,3,1,4,1,2,3,5,1,3,1,4,1,8,5,13,3,4,6,10,1,7,6,13,1,8,3,11,1,7,0,7,1,5,5,10,1,3,3,6,1,34,23,57,6,0,0,0,0,0,0,0,0,0,0,0,0,0,0,0,0,0,0,0,0,0,0,0,0,0,0,0,0,0,0,0,0,0,0,0,0,0,0,0,0,0,0,0,0,42,28,70,9,10 มิถุนายน 2561
85,85,40020087,บ้านหนองขามวิทยา,0,0,0,0,5,3,8,1,4,0,4,1,9,3,12,2,4,2,6,1,6,7,13,1,3,3,6,1,2,2,4,1,5,0,5,1,3,5,8,1,23,19,42,6,0,0,0,0,0,0,0,0,0,0,0,0,0,0,0,0,0,0,0,0,0,0,0,0,0,0,0,0,0,0,0,0,0,0,0,0,0,0,0,0,0,0,0,0,32,22,54,8,10 มิถุนายน 2561
86,86,40020088,บ้านท่าศาลาประชารังสรรค์,5,3,8,1,6,3,9,1,5,3,8,1,16,9,25,3,5,2,7,1,4,8,12,1,5,5,10,1,10,7,17,1,6,4,10,1,6,8,14,1,36,34,70,6,6,3,9,1,1,0,1,1,0,5,5,1,7,8,15,3,0,0,0,0,0,0,0,0,0,0,0,0,0,0,0,0,0,0,0,0,0,0,0,0,0,0,0,0,59,51,110,12,10 มิถุนายน 2561
87,87,40020089,บ้านท่าสวรรค์,0,0,0,0,8,6,14,1,6,4,10,1,14,10,24,2,3,6,9,1,6,2,8,1,5,5,10,1,1,7,8,1,6,5,11,1,7,7,14,1,28,32,60,6,0,0,0,0,0,0,0,0,0,0,0,0,0,0,0,0,0,0,0,0,0,0,0,0,0,0,0,0,0,0,0,0,0,0,0,0,0,0,0,0,0,0,0,0,42,42,84,8,10 มิถุนายน 2561
88,88,40020090,บ้านโนนคูณรัฐประชาสรรค์,0,0,0,0,4,2,6,1,5,2,7,1,9,4,13,2,5,6,11,1,3,4,7,1,1,6,7,1,7,10,17,1,3,7,10,1,4,6,10,1,23,39,62,6,0,0,0,0,0,0,0,0,0,0,0,0,0,0,0,0,0,0,0,0,0,0,0,0,0,0,0,0,0,0,0,0,0,0,0,0,0,0,0,0,0,0,0,0,32,43,75,8,10 มิถุนายน 2561
89,89,40020091,บ้านโนนเค็ง,2,5,7,1,5,4,9,1,9,8,17,1,16,17,33,3,9,6,15,1,5,3,8,1,7,12,19,1,6,7,13,1,2,8,10,1,9,3,12,1,38,39,77,6,0,0,0,0,0,0,0,0,0,0,0,0,0,0,0,0,0,0,0,0,0,0,0,0,0,0,0,0,0,0,0,0,0,0,0,0,0,0,0,0,0,0,0,0,54,56,110,9,10 มิถุนายน 2561
90,90,40020092,บ้านโนนตุ่นศึกษา,0,0,0,0,0,0,0,0,0,0,0,0,0,0,0,0,1,0,1,1,4,1,5,1,2,1,3,1,3,3,6,1,0,2,2,1,2,1,3,1,12,8,20,6,0,0,0,0,0,0,0,0,0,0,0,0,0,0,0,0,0,0,0,0,0,0,0,0,0,0,0,0,0,0,0,0,0,0,0,0,0,0,0,0,0,0,0,0,12,8,20,6,10 มิถุนายน 2561
91,91,40020093,บ้านไส้ไก่,3,4,7,1,4,5,9,1,2,1,3,1,9,10,19,3,3,3,6,1,3,1,4,1,6,4,10,1,5,6,11,1,5,2,7,1,0,3,3,1,22,19,41,6,0,0,0,0,0,0,0,0,0,0,0,0,0,0,0,0,0,0,0,0,0,0,0,0,0,0,0,0,0,0,0,0,0,0,0,0,0,0,0,0,0,0,0,0,31,29,60,9,10 มิถุนายน 2561
92,92,40020094,บ้านหัวนา,2,2,4,1,8,2,10,1,4,5,9,1,14,9,23,3,4,7,11,1,9,1,10,1,13,2,15,1,5,1,6,1,6,2,8,1,8,5,13,1,45,18,63,6,0,0,0,0,0,0,0,0,0,0,0,0,0,0,0,0,0,0,0,0,0,0,0,0,0,0,0,0,0,0,0,0,0,0,0,0,0,0,0,0,0,0,0,0,59,27,86,9,10 มิถุนายน 2561
93,93,40020095,บ้านหนองต่อโคกหนองโจด,1,3,4,1,2,4,6,1,3,5,8,1,6,12,18,3,5,1,6,1,3,2,5,1,2,4,6,1,6,4,10,1,5,3,8,1,4,3,7,1,25,17,42,6,0,0,0,0,0,0,0,0,0,0,0,0,0,0,0,0,0,0,0,0,0,0,0,0,0,0,0,0,0,0,0,0,0,0,0,0,0,0,0,0,0,0,0,0,31,29,60,9,10 มิถุนายน 2561
94,94,40020096,หนองบัวเย็น,2,1,3,1,6,3,9,1,2,6,8,1,10,10,20,3,6,5,11,1,5,3,8,1,3,5,8,1,5,3,8,1,4,3,7,1,1,3,4,1,24,22,46,6,0,0,0,0,0,0,0,0,0,0,0,0,0,0,0,0,0,0,0,0,0,0,0,0,0,0,0,0,0,0,0,0,0,0,0,0,0,0,0,0,0,0,0,0,34,32,66,9,10 มิถุนายน 2561
95,95,40020097,เหล่าใหญ่วิทยา,6,6,12,1,9,3,12,1,3,4,7,1,18,13,31,3,3,5,8,1,5,5,10,1,4,2,6,1,6,3,9,1,4,1,5,1,3,1,4,1,25,17,42,6,0,0,0,0,0,0,0,0,0,0,0,0,0,0,0,0,0,0,0,0,0,0,0,0,0,0,0,0,0,0,0,0,0,0,0,0,0,0,0,0,0,0,0,0,43,30,73,9,10 มิถุนายน 2561
96,96,40020098,สวัสดี,8,7,15,1,11,9,20,1,8,4,12,1,27,20,47,3,11,15,26,1,18,14,32,1,10,2,12,1,16,8,24,1,10,7,17,1,7,9,16,1,72,55,127,6,7,8,15,1,12,8,20,1,7,4,11,1,26,20,46,3,0,0,0,0,0,0,0,0,0,0,0,0,0,0,0,0,0,0,0,0,0,0,0,0,0,0,0,0,125,95,220,12,10 มิถุนายน 2561
97,97,40020099,หัวห้วยหัวฝาย,1,2,3,1,1,1,2,1,1,0,1,1,3,3,6,3,1,3,4,1,2,4,6,1,5,3,8,1,3,1,4,1,5,5,10,1,9,5,14,1,25,21,46,6,0,0,0,0,0,0,0,0,0,0,0,0,0,0,0,0,0,0,0,0,0,0,0,0,0,0,0,0,0,0,0,0,0,0,0,0,0,0,0,0,0,0,0,0,28,24,52,9,10 มิถุนายน 2561
98,98,40020100,บัวเหลือง,0,0,0,0,2,1,3,1,2,1,3,1,4,2,6,2,5,3,8,1,7,5,12,1,2,2,4,1,1,7,8,1,3,0,3,1,4,4,8,1,22,21,43,6,0,0,0,0,0,0,0,0,0,0,0,0,0,0,0,0,0,0,0,0,0,0,0,0,0,0,0,0,0,0,0,0,0,0,0,0,0,0,0,0,0,0,0,0,26,23,49,8,10 มิถุนายน 2561
99,99,40020101,บ้านขามป้อมดอนยูง,1,0,1,1,0,2,2,1,2,0,2,1,3,2,5,3,1,1,2,1,1,1,2,1,4,1,5,1,1,0,1,1,1,2,3,1,3,0,3,1,11,5,16,6,0,0,0,0,0,0,0,0,0,0,0,0,0,0,0,0,0,0,0,0,0,0,0,0,0,0,0,0,0,0,0,0,0,0,0,0,0,0,0,0,0,0,0,0,14,7,21,9,10 มิถุนายน 2561
100,100,40020102,บ้านนาข่า,3,3,6,1,3,5,8,1,2,3,5,1,8,11,19,3,1,1,2,1,0,0,0,0,5,6,11,1,4,0,4,1,6,2,8,1,2,0,2,1,18,9,27,5,2,2,4,1,1,2,3,1,8,3,11,1,11,7,18,3,0,0,0,0,0,0,0,0,0,0,0,0,0,0,0,0,0,0,0,0,0,0,0,0,0,0,0,0,37,27,64,11,10 มิถุนายน 2561
101,101,40020103,บัวเหลือง(สาขาบ้านหนองบัว),0,0,0,0,0,0,0,0,3,3,6,1,3,3,6,1,3,1,4,1,0,0,0,0,3,3,6,1,3,2,5,1,2,3,5,1,4,4,8,1,15,13,28,5,0,0,0,0,0,0,0,0,0,0,0,0,0,0,0,0,0,0,0,0,0,0,0,0,0,0,0,0,0,0,0,0,0,0,0,0,0,0,0,0,0,0,0,0,18,16,34,6,10 มิถุนายน 2561
102,102,40020104,บ้านโคกสูงพิทยาคาร,0,0,0,0,7,3,10,1,4,3,7,1,11,6,17,2,5,6,11,1,9,5,14,1,7,3,10,1,6,6,12,1,5,6,11,1,7,2,9,1,39,28,67,6,0,0,0,0,0,0,0,0,0,0,0,0,0,0,0,0,0,0,0,0,0,0,0,0,0,0,0,0,0,0,0,0,0,0,0,0,0,0,0,0,0,0,0,0,50,34,84,8,10 มิถุนายน 2561
103,103,40020105,แก่นเท่าโสกน้ำขุ่น,3,3,6,1,3,3,6,1,2,3,5,1,8,9,17,3,5,6,11,1,5,4,9,1,3,6,9,1,5,1,6,1,3,7,10,1,8,6,14,1,29,30,59,6,0,0,0,0,0,0,0,0,0,0,0,0,0,0,0,0,0,0,0,0,0,0,0,0,0,0,0,0,0,0,0,0,0,0,0,0,0,0,0,0,0,0,0,0,37,39,76,9,10 มิถุนายน 2561
104,104,40020106,บ้านแจ้งทัพม้า,4,2,6,1,2,1,3,1,2,0,2,1,8,3,11,3,1,2,3,1,0,2,2,1,2,2,4,1,1,2,3,1,2,4,6,1,0,6,6,1,6,18,24,6,0,0,0,0,0,0,0,0,0,0,0,0,0,0,0,0,0,0,0,0,0,0,0,0,0,0,0,0,0,0,0,0,0,0,0,0,0,0,0,0,0,0,0,0,14,21,35,9,10 มิถุนายน 2561
105,105,40020107,บ้านนางาม,3,3,6,1,5,9,14,1,4,7,11,1,12,19,31,3,5,4,9,1,8,8,16,1,10,6,16,1,6,8,14,1,6,3,9,1,7,9,16,1,42,38,80,6,0,0,0,0,0,0,0,0,0,0,0,0,0,0,0,0,0,0,0,0,0,0,0,0,0,0,0,0,0,0,0,0,0,0,0,0,0,0,0,0,0,0,0,0,54,57,111,9,10 มิถุนายน 2561
106,106,40020108,บ้านเสาเล้าหินแตก,0,0,0,0,5,2,7,1,5,8,13,1,10,10,20,2,6,5,11,1,1,3,4,1,1,3,4,1,6,4,10,1,5,5,10,1,5,2,7,1,24,22,46,6,0,0,0,0,0,0,0,0,0,0,0,0,0,0,0,0,0,0,0,0,0,0,0,0,0,0,0,0,0,0,0,0,0,0,0,0,0,0,0,0,0,0,0,0,34,32,66,8,10 มิถุนายน 2561
107,107,40020109,บ้านหนองสองห้อง,0,0,0,0,13,8,21,1,7,10,17,1,20,18,38,2,5,10,15,1,8,3,11,1,11,5,16,1,7,6,13,1,14,9,23,1,10,11,21,1,55,44,99,6,0,0,0,0,0,0,0,0,0,0,0,0,0,0,0,0,0,0,0,0,0,0,0,0,0,0,0,0,0,0,0,0,0,0,0,0,0,0,0,0,0,0,0,0,75,62,137,8,10 มิถุนายน 2561
108,108,40020110,บ้านขามป้อมราษฎร์นุกูล,2,2,4,1,2,1,3,1,6,5,11,1,10,8,18,3,7,9,16,1,2,6,8,1,7,8,15,1,5,1,6,1,7,10,17,1,11,4,15,1,39,38,77,6,4,2,6,1,5,3,8,1,3,3,6,1,12,8,20,3,0,0,0,0,0,0,0,0,0,0,0,0,0,0,0,0,0,0,0,0,0,0,0,0,0,0,0,0,61,54,115,12,10 มิถุนายน 2561
109,109,40020111,บ้านนาฮี,3,0,3,1,1,0,1,1,1,1,2,1,5,1,6,3,1,0,1,1,0,2,2,1,0,0,0,0,0,0,0,0,2,1,3,1,1,2,3,1,4,5,9,4,0,0,0,0,0,0,0,0,0,0,0,0,0,0,0,0,0,0,0,0,0,0,0,0,0,0,0,0,0,0,0,0,0,0,0,0,0,0,0,0,0,0,0,0,9,6,15,7,10 มิถุนายน 2561
110,110,40020112,บ้านโนนคุต,0,0,0,0,2,3,5,1,2,1,3,1,4,4,8,2,3,5,8,1,1,4,5,1,1,4,5,1,0,3,3,1,4,2,6,1,5,0,5,1,14,18,32,6,0,0,0,0,0,0,0,0,0,0,0,0,0,0,0,0,0,0,0,0,0,0,0,0,0,0,0,0,0,0,0,0,0,0,0,0,0,0,0,0,0,0,0,0,18,22,40,8,10 มิถุนายน 2561
111,111,40020113,โนนสวางวิทยาสรรค์,0,0,0,0,4,4,8,1,3,6,9,1,7,10,17,2,6,1,7,1,6,5,11,1,5,4,9,1,4,7,11,1,4,3,7,1,6,7,13,1,31,27,58,6,0,0,0,0,0,0,0,0,0,0,0,0,0,0,0,0,0,0,0,0,0,0,0,0,0,0,0,0,0,0,0,0,0,0,0,0,0,0,0,0,0,0,0,0,38,37,75,8,10 มิถุนายน 2561
112,112,40020114,โนนสวางวิทยาสรรค์(สาขาห้วยหินเกิ้ง),0,0,0,0,3,0,3,1,1,1,2,1,4,1,5,2,2,1,3,1,2,1,3,1,3,2,5,1,1,1,2,1,2,0,2,1,1,3,4,1,11,8,19,6,0,0,0,0,0,0,0,0,0,0,0,0,0,0,0,0,0,0,0,0,0,0,0,0,0,0,0,0,0,0,0,0,0,0,0,0,0,0,0,0,0,0,0,0,15,9,24,8,10 มิถุนายน 2561
113,113,40020115,โพนเพ็กพัฒนวิทยา,0,0,0,0,3,0,3,1,4,3,7,1,7,3,10,2,2,2,4,1,6,2,8,1,3,2,5,1,3,2,5,1,2,2,4,1,4,5,9,1,20,15,35,6,0,0,0,0,0,0,0,0,0,0,0,0,0,0,0,0,0,0,0,0,0,0,0,0,0,0,0,0,0,0,0,0,0,0,0,0,0,0,0,0,0,0,0,0,27,18,45,8,10 มิถุนายน 2561
114,114,40020116,หนองหญ้าปล้องวิทยา,11,5,16,1,4,2,6,1,2,5,7,1,17,12,29,3,6,5,11,1,3,4,7,1,2,2,4,1,1,6,7,1,2,2,4,1,6,1,7,1,20,20,40,6,0,0,0,0,0,0,0,0,0,0,0,0,0,0,0,0,0,0,0,0,0,0,0,0,0,0,0,0,0,0,0,0,0,0,0,0,0,0,0,0,0,0,0,0,37,32,69,9,10 มิถุนายน 2561
115,115,40020117,หนองไฮแจ้งบูรณวิทยา,4,3,7,1,10,7,17,1,12,16,28,1,26,26,52,3,7,8,15,1,10,4,14,1,8,10,18,1,10,6,16,1,5,5,10,1,4,5,9,1,44,38,82,6,7,8,15,1,5,5,10,1,0,3,3,1,12,16,28,3,0,0,0,0,0,0,0,0,0,0,0,0,0,0,0,0,0,0,0,0,0,0,0,0,0,0,0,0,82,80,162,12,10 มิถุนายน 2561
116,116,40020118,บ้านห้วยฮวก,4,1,5,1,0,2,2,1,2,2,4,1,6,5,11,3,3,1,4,1,2,5,7,1,1,4,5,1,0,2,2,1,1,2,3,1,4,4,8,1,11,18,29,6,0,0,0,0,0,0,0,0,0,0,0,0,0,0,0,0,0,0,0,0,0,0,0,0,0,0,0,0,0,0,0,0,0,0,0,0,0,0,0,0,0,0,0,0,17,23,40,9,10 มิถุนายน 2561
117,117,40020119,บ้านกอกป่าผุวิทยา,10,3,13,1,1,2,3,1,4,6,10,1,15,11,26,3,3,4,7,1,6,5,11,1,5,5,10,1,5,5,10,1,6,5,11,1,8,4,12,1,33,28,61,6,9,4,13,1,12,6,18,1,10,5,15,1,31,15,46,3,0,0,0,0,0,0,0,0,0,0,0,0,0,0,0,0,0,0,0,0,0,0,0,0,0,0,0,0,79,54,133,12,10 มิถุนายน 2561
118,118,40020120,บ้านขามคุรุราษฎร์อุปถัมภ์,1,1,2,1,2,2,4,1,0,2,2,1,3,5,8,3,2,1,3,1,3,1,4,1,3,0,3,1,4,1,5,1,4,2,6,1,2,0,2,1,18,5,23,6,0,0,0,0,0,0,0,0,0,0,0,0,0,0,0,0,0,0,0,0,0,0,0,0,0,0,0,0,0,0,0,0,0,0,0,0,0,0,0,0,0,0,0,0,21,10,31,9,10 มิถุนายน 2561
119,119,40020121,ไตรมิตรศึกษา,2,1,3,1,3,0,3,1,3,2,5,1,8,3,11,3,3,3,6,1,1,1,2,1,1,1,2,1,2,2,4,1,1,2,3,1,3,1,4,1,11,10,21,6,0,0,0,0,0,0,0,0,0,0,0,0,0,0,0,0,0,0,0,0,0,0,0,0,0,0,0,0,0,0,0,0,0,0,0,0,0,0,0,0,0,0,0,0,19,13,32,9,10 มิถุนายน 2561
120,120,40020122,โนนเขวาประชารักษ์,3,1,4,1,0,3,3,1,3,2,5,1,6,6,12,3,1,2,3,1,2,1,3,1,1,2,3,1,3,1,4,1,2,6,8,1,3,2,5,1,12,14,26,6,0,0,0,0,0,0,0,0,0,0,0,0,0,0,0,0,0,0,0,0,0,0,0,0,0,0,0,0,0,0,0,0,0,0,0,0,0,0,0,0,0,0,0,0,18,20,38,9,10 มิถุนายน 2561
121,121,40020123,บ้านมูลตุ่น,0,0,0,1,3,0,3,1,2,1,3,1,5,1,6,3,3,3,6,1,2,1,3,1,2,0,2,1,5,0,5,1,2,1,3,1,1,1,2,1,15,6,21,6,0,0,0,0,0,0,0,0,0,0,0,0,0,0,0,0,0,0,0,0,0,0,0,0,0,0,0,0,0,0,0,0,0,0,0,0,0,0,0,0,0,0,0,0,20,7,27,9,10 มิถุนายน 2561
122,122,40020124,บ้านสวนหม่อน,2,0,2,1,1,0,1,1,5,2,7,1,8,2,10,3,0,3,3,1,5,3,8,1,4,4,8,1,3,1,4,1,5,3,8,1,6,5,11,1,23,19,42,6,0,0,0,0,0,0,0,0,0,0,0,0,0,0,0,0,0,0,0,0,0,0,0,0,0,0,0,0,0,0,0,0,0,0,0,0,0,0,0,0,0,0,0,0,31,21,52,9,10 มิถุนายน 2561
123,123,40020125,บ้านเหล่ากกหุ่งสว่าง,6,2,8,1,2,2,4,1,5,4,9,1,13,8,21,3,1,5,6,1,6,6,12,1,5,7,12,1,4,3,7,1,6,4,10,1,3,4,7,1,25,29,54,6,3,4,7,1,9,1,10,1,1,6,7,1,13,11,24,3,0,0,0,0,0,0,0,0,0,0,0,0,0,0,0,0,0,0,0,0,0,0,0,0,0,0,0,0,51,48,99,12,10 มิถุนายน 2561
124,124,40020126,บ้านวังแคน,5,1,6,1,2,0,2,1,2,2,4,1,9,3,12,3,4,3,7,1,4,1,5,1,2,3,5,1,0,6,6,1,0,2,2,1,1,2,3,1,11,17,28,6,0,0,0,0,0,0,0,0,0,0,0,0,0,0,0,0,0,0,0,0,0,0,0,0,0,0,0,0,0,0,0,0,0,0,0,0,0,0,0,0,0,0,0,0,20,20,40,9,10 มิถุนายน 2561
125,125,40020127,บ้านแจ้ง,0,0,0,0,0,2,2,1,1,1,2,1,1,3,4,2,2,0,2,1,0,3,3,1,0,1,1,1,2,1,3,1,2,5,7,1,1,0,1,1,7,10,17,6,0,0,0,0,0,0,0,0,0,0,0,0,0,0,0,0,0,0,0,0,0,0,0,0,0,0,0,0,0,0,0,0,0,0,0,0,0,0,0,0,0,0,0,0,8,13,21,8,10 มิถุนายน 2561
126,126,40020128,บ้านนาจานบ่อแก้ววิทยาคาร,6,2,8,1,6,4,10,1,3,7,10,1,15,13,28,3,1,6,7,1,1,7,8,1,8,5,13,1,6,2,8,1,5,1,6,1,7,7,14,1,28,28,56,6,7,3,10,1,13,5,18,1,5,4,9,1,25,12,37,3,0,0,0,0,0,0,0,0,0,0,0,0,0,0,0,0,0,0,0,0,0,0,0,0,0,0,0,0,68,53,121,12,10 มิถุนายน 2561
127,127,40020129,บ้านโนนสำนัก,0,0,0,0,0,0,0,0,0,2,2,1,0,2,2,1,2,0,2,1,2,1,3,1,0,1,1,1,2,0,2,1,1,6,7,1,4,4,8,1,11,12,23,6,0,0,0,0,0,0,0,0,0,0,0,0,0,0,0,0,0,0,0,0,0,0,0,0,0,0,0,0,0,0,0,0,0,0,0,0,0,0,0,0,0,0,0,0,11,14,25,7,10 มิถุนายน 2561
128,128,40020130,บ้านหนองแปน,8,7,15,1,6,10,16,1,3,7,10,1,17,24,41,3,5,7,12,1,11,6,17,1,10,9,19,1,14,9,23,1,13,10,23,1,11,10,21,1,64,51,115,6,9,9,18,1,9,11,20,1,13,7,20,1,31,27,58,3,0,0,0,0,0,0,0,0,0,0,0,0,0,0,0,0,0,0,0,0,0,0,0,0,0,0,0,0,112,102,214,12,10 มิถุนายน 2561
129,129,40020131,บ้านหนองหัวช้างดอนพันชาด,7,4,11,1,2,4,6,1,7,7,14,1,16,15,31,3,13,11,24,1,6,5,11,1,10,5,15,1,4,13,17,1,5,4,9,1,6,5,11,1,44,43,87,6,13,5,18,1,2,7,9,1,6,4,10,1,21,16,37,3,0,0,0,0,0,0,0,0,0,0,0,0,0,0,0,0,0,0,0,0,0,0,0,0,0,0,0,0,81,74,155,12,10 มิถุนายน 2561
130,130,40020132,บ้านหนองไห,4,2,6,1,6,5,11,1,6,6,12,1,16,13,29,3,6,8,14,1,2,9,11,1,9,8,17,1,7,4,11,1,7,8,15,1,9,6,15,1,40,43,83,6,0,0,0,0,0,0,0,0,0,0,0,0,0,0,0,0,0,0,0,0,0,0,0,0,0,0,0,0,0,0,0,0,0,0,0,0,0,0,0,0,0,0,0,0,56,56,112,9,10 มิถุนายน 2561
131,131,40020133,บ้านกุดเพียขอมนาผายโนนสังข์,0,0,0,0,6,4,10,1,8,8,16,1,14,12,26,2,10,7,17,1,5,4,9,1,6,8,14,1,9,8,17,1,3,8,11,1,11,7,18,1,44,42,86,6,0,0,0,0,0,0,0,0,0,0,0,0,0,0,0,0,0,0,0,0,0,0,0,0,0,0,0,0,0,0,0,0,0,0,0,0,0,0,0,0,0,0,0,0,58,54,112,8,10 มิถุนายน 2561
132,132,40020134,บ้านกุดเพียขอมเหนือ,0,0,0,0,0,0,0,0,0,0,0,0,0,0,0,0,0,0,0,0,0,0,0,0,2,0,2,1,1,0,1,1,4,2,6,1,1,3,4,1,8,5,13,4,0,0,0,0,0,0,0,0,0,0,0,0,0,0,0,0,0,0,0,0,0,0,0,0,0,0,0,0,0,0,0,0,0,0,0,0,0,0,0,0,0,0,0,0,8,5,13,4,10 มิถุนายน 2561
133,133,40020135,บ้านนาดอกไม้ขามเปี้ยดอนข่า,0,3,3,1,5,3,8,1,4,5,9,1,9,11,20,3,5,2,7,1,1,4,5,1,2,2,4,1,5,2,7,1,6,5,11,1,8,4,12,1,27,19,46,6,0,0,0,0,0,0,0,0,0,0,0,0,0,0,0,0,0,0,0,0,0,0,0,0,0,0,0,0,0,0,0,0,0,0,0,0,0,0,0,0,0,0,0,0,36,30,66,9,10 มิถุนายน 2561
134,134,40020136,บ้านหญ้าเครือเสาเล้าร่องดูก,0,0,0,0,4,6,10,1,6,10,16,1,10,16,26,2,9,2,11,1,3,6,9,1,8,6,14,1,9,7,16,1,9,3,12,1,2,5,7,1,40,29,69,6,0,0,0,0,0,0,0,0,0,0,0,0,0,0,0,0,0,0,0,0,0,0,0,0,0,0,0,0,0,0,0,0,0,0,0,0,0,0,0,0,0,0,0,0,50,45,95,8,10 มิถุนายน 2561
135,135,40020137,ชุมชนบ้านชนบท,13,18,31,1,30,48,78,3,36,39,75,3,79,105,184,7,46,43,89,3,28,31,59,2,46,57,103,3,47,41,88,3,29,36,65,2,41,45,86,3,237,253,490,16,0,0,0,0,0,0,0,0,0,0,0,0,0,0,0,0,0,0,0,0,0,0,0,0,0,0,0,0,0,0,0,0,0,0,0,0,0,0,0,0,0,0,0,0,316,358,674,23,10 มิถุนายน 2561
136,136,40020138,บ้านท่านางเลื่อนท่าข่อย,2,2,4,1,5,0,5,1,3,1,4,1,10,3,13,3,1,2,3,1,3,3,6,1,8,2,10,1,6,2,8,1,5,11,16,1,4,5,9,1,27,25,52,6,0,0,0,0,0,0,0,0,0,0,0,0,0,0,0,0,0,0,0,0,0,0,0,0,0,0,0,0,0,0,0,0,0,0,0,0,0,0,0,0,0,0,0,0,37,28,65,9,10 มิถุนายน 2561
137,137,40020139,โนนพะยอมพิทยไพศาล,0,0,0,0,10,5,15,1,16,10,26,1,26,15,41,2,13,10,23,1,8,16,24,1,9,12,21,1,9,10,19,1,17,7,24,1,9,9,18,1,65,64,129,6,6,7,13,1,10,8,18,1,15,12,27,1,31,27,58,3,0,0,0,0,0,0,0,0,0,0,0,0,0,0,0,0,0,0,0,0,0,0,0,0,0,0,0,0,122,106,228,11,10 มิถุนายน 2561
138,138,40020140,บ้านหนองเต่าราษฎร์บำรุง,0,0,0,0,3,5,8,1,4,6,10,1,7,11,18,2,4,7,11,1,5,7,12,1,5,6,11,1,9,6,15,1,4,6,10,1,1,6,7,1,28,38,66,6,0,0,0,0,0,0,0,0,0,0,0,0,0,0,0,0,0,0,0,0,0,0,0,0,0,0,0,0,0,0,0,0,0,0,0,0,0,0,0,0,0,0,0,0,35,49,84,8,10 มิถุนายน 2561
139,139,40020141,บ้านห้วยไร่,0,0,0,0,3,1,4,1,3,1,4,1,6,2,8,2,3,5,8,1,4,6,10,1,7,3,10,1,4,4,8,1,3,2,5,1,6,1,7,1,27,21,48,6,0,0,0,0,0,0,0,0,0,0,0,0,0,0,0,0,0,0,0,0,0,0,0,0,0,0,0,0,0,0,0,0,0,0,0,0,0,0,0,0,0,0,0,0,33,23,56,8,10 มิถุนายน 2561
140,140,40020143,ร่มเย็นประชาสรรค์,0,0,0,0,4,5,9,1,5,5,10,1,9,10,19,2,8,8,16,1,5,6,11,1,13,7,20,1,5,8,13,1,4,2,6,1,0,3,3,1,35,34,69,6,0,0,0,0,0,0,0,0,0,0,0,0,0,0,0,0,0,0,0,0,0,0,0,0,0,0,0,0,0,0,0,0,0,0,0,0,0,0,0,0,0,0,0,0,44,44,88,8,10 มิถุนายน 2561
141,141,40020144,บ้านแท่น,0,0,0,0,4,5,9,1,6,7,13,1,10,12,22,2,6,1,7,1,3,7,10,1,8,5,13,1,8,6,14,1,4,9,13,1,3,3,6,1,32,31,63,6,0,0,0,0,0,0,0,0,0,0,0,0,0,0,0,0,0,0,0,0,0,0,0,0,0,0,0,0,0,0,0,0,0,0,0,0,0,0,0,0,0,0,0,0,42,43,85,8,10 มิถุนายน 2561
142,142,40020145,บ้านโนนแดงน้อย,0,0,0,0,4,1,5,1,0,3,3,1,4,4,8,2,5,3,8,1,1,2,3,1,1,4,5,1,0,3,3,1,7,3,10,1,1,2,3,1,15,17,32,6,0,0,0,0,0,0,0,0,0,0,0,0,0,0,0,0,0,0,0,0,0,0,0,0,0,0,0,0,0,0,0,0,0,0,0,0,0,0,0,0,0,0,0,0,19,21,40,8,10 มิถุนายน 2561
143,143,40020146,สระแก้วโคกกลาง,0,0,0,0,3,3,6,1,9,4,13,1,12,7,19,2,6,5,11,1,5,5,10,1,6,8,14,1,3,5,8,1,4,2,6,1,10,3,13,1,34,28,62,6,0,0,0,0,0,0,0,0,0,0,0,0,0,0,0,0,0,0,0,0,0,0,0,0,0,0,0,0,0,0,0,0,0,0,0,0,0,0,0,0,0,0,0,0,46,35,81,8,10 มิถุนายน 2561
144,144,40020147,บ้านหัวนากลาง,0,0,0,0,3,3,6,1,4,2,6,1,7,5,12,2,1,3,4,1,4,7,11,1,6,0,6,1,3,1,4,1,4,5,9,1,2,4,6,1,20,20,40,6,0,0,0,0,0,0,0,0,0,0,0,0,0,0,0,0,0,0,0,0,0,0,0,0,0,0,0,0,0,0,0,0,0,0,0,0,0,0,0,0,0,0,0,0,27,25,52,8,10 มิถุนายน 2561
145,145,40020148,บ้านหันแฮด,0,0,0,0,1,0,1,1,1,0,1,1,2,0,2,2,1,0,1,1,2,0,2,1,0,2,2,1,2,2,4,1,0,2,2,1,1,2,3,1,6,8,14,6,0,0,0,0,0,0,0,0,0,0,0,0,0,0,0,0,0,0,0,0,0,0,0,0,0,0,0,0,0,0,0,0,0,0,0,0,0,0,0,0,0,0,0,0,8,8,16,8,10 มิถุนายน 2561
146,146,40020149,มาบตากล้าร่มเย็น,0,0,0,0,3,7,10,1,9,1,10,1,12,8,20,2,7,5,12,1,6,2,8,1,5,5,10,1,8,8,16,1,7,7,14,1,4,5,9,1,37,32,69,6,0,0,0,0,0,0,0,0,0,0,0,0,0,0,0,0,0,0,0,0,0,0,0,0,0,0,0,0,0,0,0,0,0,0,0,0,0,0,0,0,0,0,0,0,49,40,89,8,10 มิถุนายน 2561
147,147,40020150,บ้านหนองไฮหนองแวง,0,0,0,0,6,5,11,1,3,4,7,1,9,9,18,2,1,5,6,1,8,3,11,1,6,5,11,1,3,0,3,1,2,1,3,1,3,3,6,1,23,17,40,6,0,0,0,0,0,0,0,0,0,0,0,0,0,0,0,0,0,0,0,0,0,0,0,0,0,0,0,0,0,0,0,0,0,0,0,0,0,0,0,0,0,0,0,0,32,26,58,8,10 มิถุนายน 2561
148,148,40020151,บ้านปอแดง,0,0,0,0,3,5,8,1,9,5,14,1,12,10,22,2,2,6,8,1,7,7,14,1,8,7,15,1,3,3,6,1,11,4,15,1,5,4,9,1,36,31,67,6,8,8,16,1,2,0,2,1,1,9,10,1,11,17,28,3,0,0,0,0,0,0,0,0,0,0,0,0,0,0,0,0,0,0,0,0,0,0,0,0,0,0,0,0,59,58,117,11,10 มิถุนายน 2561
149,149,40020152,บ้านโคกพระหนองยายเกลี้ยง,11,4,15,1,6,2,8,1,6,7,13,1,23,13,36,3,6,2,8,1,9,3,12,1,8,7,15,1,6,8,14,1,5,5,10,1,2,3,5,1,36,28,64,6,0,0,0,0,0,0,0,0,0,0,0,0,0,0,0,0,0,0,0,0,0,0,0,0,0,0,0,0,0,0,0,0,0,0,0,0,0,0,0,0,0,0,0,0,59,41,100,9,10 มิถุนายน 2561
150,150,40020153,บ้านโนนข่า,3,4,7,1,8,7,15,1,3,6,9,1,14,17,31,3,4,6,10,1,3,8,11,1,5,7,12,1,8,5,13,1,2,4,6,1,9,10,19,1,31,40,71,6,16,14,30,1,10,7,17,1,11,4,15,1,37,25,62,3,0,0,0,0,0,0,0,0,0,0,0,0,0,0,0,0,0,0,0,0,0,0,0,0,0,0,0,0,82,82,164,12,10 มิถุนายน 2561
151,151,40020154,บ้านวังแสง,0,0,0,0,4,6,10,1,5,5,10,1,9,11,20,2,7,4,11,1,3,4,7,1,3,9,12,1,3,3,6,1,2,4,6,1,7,7,14,1,25,31,56,6,6,4,10,1,3,2,5,1,7,2,9,1,16,8,24,3,0,0,0,0,0,0,0,0,0,0,0,0,0,0,0,0,0,0,0,0,0,0,0,0,0,0,0,0,50,50,100,11,10 มิถุนายน 2561
152,152,40020155,บ้านหูลิงโนนศิลา,2,4,6,1,8,5,13,1,2,3,5,1,12,12,24,3,11,6,17,1,6,6,12,1,8,7,15,1,5,6,11,1,7,8,15,1,7,5,12,1,44,38,82,6,0,0,0,0,0,0,0,0,0,0,0,0,0,0,0,0,0,0,0,0,0,0,0,0,0,0,0,0,0,0,0,0,0,0,0,0,0,0,0,0,0,0,0,0,56,50,106,9,10 มิถุนายน 2561
153,153,40020156,บ้านห้วยไผ่โนนคำมี,9,13,22,1,5,7,12,1,8,5,13,1,22,25,47,3,6,7,13,1,7,5,12,1,10,8,18,1,6,7,13,1,13,8,21,1,9,6,15,1,51,41,92,6,0,0,0,0,0,0,0,0,0,0,0,0,0,0,0,0,0,0,0,0,0,0,0,0,0,0,0,0,0,0,0,0,0,0,0,0,0,0,0,0,0,0,0,0,73,66,139,9,10 มิถุนายน 2561
154,154,40020157,บ้านห้วยยางประชาสรรค์,8,7,15,1,10,5,15,1,11,6,17,1,29,18,47,3,3,7,10,1,6,5,11,1,6,6,12,1,6,9,15,1,8,3,11,1,7,3,10,1,36,33,69,6,0,0,0,0,0,0,0,0,0,0,0,0,0,0,0,0,0,0,0,0,0,0,0,0,0,0,0,0,0,0,0,0,0,0,0,0,0,0,0,0,0,0,0,0,65,51,116,9,10 มิถุนายน 2561
155,155,40020158,ชุมชนโนนแสนสุข,10,5,15,1,11,4,15,1,11,3,14,1,32,12,44,3,8,7,15,1,3,7,10,1,7,3,10,1,9,5,14,1,7,4,11,1,8,3,11,1,42,29,71,6,5,6,11,1,7,5,12,1,6,4,10,1,18,15,33,3,0,0,0,0,0,0,0,0,0,0,0,0,0,0,0,0,0,0,0,0,0,0,0,0,0,0,0,0,92,56,148,12,10 มิถุนายน 2561
156,156,40020159,บ้านดอนดู่คุรุราษฎร์บำรุง,4,3,7,1,4,2,6,1,4,5,9,1,12,10,22,3,3,4,7,1,5,2,7,1,4,8,12,1,9,4,13,1,3,6,9,1,6,3,9,1,30,27,57,6,0,0,0,0,0,0,0,0,0,0,0,0,0,0,0,0,0,0,0,0,0,0,0,0,0,0,0,0,0,0,0,0,0,0,0,0,0,0,0,0,0,0,0,0,42,37,79,9,10 มิถุนายน 2561
157,157,40020160,บ้านท่าม่วง,6,3,9,1,7,6,13,1,5,7,12,1,18,16,34,3,8,7,15,1,7,9,16,1,8,4,12,1,4,6,10,1,13,4,17,1,3,8,11,1,43,38,81,6,0,0,0,0,0,0,0,0,0,0,0,0,0,0,0,0,0,0,0,0,0,0,0,0,0,0,0,0,0,0,0,0,0,0,0,0,0,0,0,0,0,0,0,0,61,54,115,9,10 มิถุนายน 2561
158,158,40020161,บ้านวังเวินกุดหล่ม,6,4,10,1,9,8,17,1,7,2,9,1,22,14,36,3,8,5,13,1,5,7,12,1,6,9,15,1,10,7,17,1,3,3,6,1,2,9,11,1,34,40,74,6,6,2,8,1,6,8,14,1,5,9,14,1,17,19,36,3,0,0,0,0,0,0,0,0,0,0,0,0,0,0,0,0,0,0,0,0,0,0,0,0,0,0,0,0,73,73,146,12,10 มิถุนายน 2561
159,159,40020162,บ้านโซ่งเหล่านาดี,0,0,0,0,8,4,12,1,10,10,20,1,18,14,32,2,5,5,10,1,5,3,8,1,4,6,10,1,7,10,17,1,7,6,13,1,1,6,7,1,29,36,65,6,0,0,0,0,0,0,0,0,0,0,0,0,0,0,0,0,0,0,0,0,0,0,0,0,0,0,0,0,0,0,0,0,0,0,0,0,0,0,0,0,0,0,0,0,47,50,97,8,10 มิถุนายน 2561
160,160,40020163,บ้านทุ่มห้วย,0,0,0,0,5,0,5,1,0,2,2,1,5,2,7,2,4,1,5,1,2,1,3,1,0,2,2,1,0,0,0,0,2,1,3,1,1,4,5,1,9,9,18,5,0,0,0,0,0,0,0,0,0,0,0,0,0,0,0,0,0,0,0,0,0,0,0,0,0,0,0,0,0,0,0,0,0,0,0,0,0,0,0,0,0,0,0,0,14,11,25,7,10 มิถุนายน 2561
161,161,40020164,บ้านห้วยแกดอนหันหนองหญ้าม้า,0,0,0,0,6,7,13,1,5,9,14,1,11,16,27,2,3,10,13,1,2,6,8,1,7,7,14,1,6,11,17,1,5,8,13,1,12,6,18,1,35,48,83,6,7,6,13,1,9,5,14,1,6,6,12,1,22,17,39,3,0,0,0,0,0,0,0,0,0,0,0,0,0,0,0,0,0,0,0,0,0,0,0,0,0,0,0,0,68,81,149,11,10 มิถุนายน 2561
162,162,40020165,บ้านหนองสะแบงหนองโน,0,0,0,0,6,1,7,1,4,4,8,1,10,5,15,2,6,9,15,1,6,11,17,1,4,4,8,1,4,7,11,1,15,8,23,1,9,16,25,1,44,55,99,6,0,0,0,0,0,0,0,0,0,0,0,0,0,0,0,0,0,0,0,0,0,0,0,0,0,0,0,0,0,0,0,0,0,0,0,0,0,0,0,0,0,0,0,0,54,60,114,8,10 มิถุนายน 2561
163,163,40020166,บ้านเหล่าเหนือ,0,0,0,0,5,6,11,1,4,4,8,1,9,10,19,2,6,5,11,1,1,5,6,1,6,4,10,1,4,4,8,1,4,6,10,1,3,3,6,1,24,27,51,6,0,0,0,0,0,0,0,0,0,0,0,0,0,0,0,0,0,0,0,0,0,0,0,0,0,0,0,0,0,0,0,0,0,0,0,0,0,0,0,0,0,0,0,0,33,37,70,8,10 มิถุนายน 2561
164,164,40020167,บ้านหัวฝายโนนสะอาดวิทยา,0,0,0,0,8,4,12,1,4,2,6,1,12,6,18,2,10,3,13,1,11,9,20,1,8,4,12,1,7,6,13,1,10,3,13,1,9,7,16,1,55,32,87,6,0,0,0,0,0,0,0,0,0,0,0,0,0,0,0,0,0,0,0,0,0,0,0,0,0,0,0,0,0,0,0,0,0,0,0,0,0,0,0,0,0,0,0,0,67,38,105,8,10 มิถุนายน 2561
165,165,40020168,ซับแดงซำไผ่,0,0,0,0,10,4,14,1,9,8,17,1,19,12,31,2,5,5,10,1,12,6,18,1,7,6,13,1,3,7,10,1,5,8,13,1,5,5,10,1,37,37,74,6,0,0,0,0,0,0,0,0,0,0,0,0,0,0,0,0,0,0,0,0,0,0,0,0,0,0,0,0,0,0,0,0,0,0,0,0,0,0,0,0,0,0,0,0,56,49,105,8,10 มิถุนายน 2561
166,166,40020169,บ้านซับบอนซับเจริญ,5,1,6,1,4,1,5,1,2,5,7,1,11,7,18,3,4,5,9,1,0,3,3,1,2,2,4,1,2,5,7,1,2,0,2,1,2,2,4,1,12,17,29,6,0,0,0,0,0,0,0,0,0,0,0,0,0,0,0,0,0,0,0,0,0,0,0,0,0,0,0,0,0,0,0,0,0,0,0,0,0,0,0,0,0,0,0,0,23,24,47,9,10 มิถุนายน 2561
167,167,40020170,บ้านนาจานซับสมบูรณ์,4,6,10,1,6,5,11,1,5,3,8,1,15,14,29,3,9,7,16,1,3,4,7,1,7,9,16,1,9,9,18,1,4,11,15,1,8,2,10,1,40,42,82,6,5,10,15,1,8,5,13,1,4,8,12,1,17,23,40,3,0,0,0,0,0,0,0,0,0,0,0,0,0,0,0,0,0,0,0,0,0,0,0,0,0,0,0,0,72,79,151,12,10 มิถุนายน 2561
168,168,40020171,บ้านนาตับเต่า,0,0,0,0,1,1,2,1,1,2,3,1,2,3,5,2,1,4,5,1,4,3,7,1,6,3,9,1,5,1,6,1,2,4,6,1,2,3,5,1,20,18,38,6,0,0,0,0,0,0,0,0,0,0,0,0,0,0,0,0,0,0,0,0,0,0,0,0,0,0,0,0,0,0,0,0,0,0,0,0,0,0,0,0,0,0,0,0,22,21,43,8,10 มิถุนายน 2561
169,169,40020172,หนองหญ้าปล้องโนนสว่าง,3,1,4,1,6,4,10,1,4,7,11,1,13,12,25,3,4,7,11,1,9,4,13,1,7,5,12,1,3,6,9,1,3,3,6,1,5,2,7,1,31,27,58,6,0,0,0,0,0,0,0,0,0,0,0,0,0,0,0,0,0,0,0,0,0,0,0,0,0,0,0,0,0,0,0,0,0,0,0,0,0,0,0,0,0,0,0,0,44,39,83,9,10 มิถุนายน 2561
170,170,40020173,บ้านหินตั้ง,8,5,13,1,4,13,17,1,13,8,21,1,25,26,51,3,3,11,14,1,11,9,20,1,12,8,20,1,10,5,15,1,9,6,15,1,7,4,11,1,52,43,95,6,0,0,0,0,0,0,0,0,0,0,0,0,0,0,0,0,0,0,0,0,0,0,0,0,0,0,0,0,0,0,0,0,0,0,0,0,0,0,0,0,0,0,0,0,77,69,146,9,10 มิถุนายน 2561
171,171,40020174,บ้านโสกนาดี,5,11,16,1,6,4,10,1,2,8,10,1,13,23,36,3,2,8,10,1,8,7,15,1,6,6,12,1,2,7,9,1,5,7,12,1,8,4,12,1,31,39,70,6,0,0,0,0,0,0,0,0,0,0,0,0,0,0,0,0,0,0,0,0,0,0,0,0,0,0,0,0,0,0,0,0,0,0,0,0,0,0,0,0,0,0,0,0,44,62,106,9,10 มิถุนายน 2561
172,172,40020175,บ้านแก้งค้อ,0,0,0,0,3,4,7,1,3,1,4,1,6,5,11,2,4,7,11,1,5,4,9,1,5,3,8,1,3,3,6,1,5,4,9,1,2,3,5,1,24,24,48,6,0,0,0,0,0,0,0,0,0,0,0,0,0,0,0,0,0,0,0,0,0,0,0,0,0,0,0,0,0,0,0,0,0,0,0,0,0,0,0,0,0,0,0,0,30,29,59,8,10 มิถุนายน 2561
173,173,40020176,บ้านนาแพงสงแดง,0,0,0,0,2,2,4,1,5,1,6,1,7,3,10,2,8,2,10,1,1,2,3,1,1,2,3,1,5,5,10,1,1,3,4,1,3,3,6,1,19,17,36,6,0,0,0,0,0,0,0,0,0,0,0,0,0,0,0,0,0,0,0,0,0,0,0,0,0,0,0,0,0,0,0,0,0,0,0,0,0,0,0,0,0,0,0,0,26,20,46,8,10 มิถุนายน 2561
174,174,40020177,บ้านโนนงาม,0,0,0,0,3,0,3,1,0,0,0,0,3,0,3,1,0,0,0,0,0,1,1,1,0,0,0,0,1,0,1,1,0,0,0,0,0,0,0,0,1,1,2,2,0,0,0,0,0,0,0,0,0,0,0,0,0,0,0,0,0,0,0,0,0,0,0,0,0,0,0,0,0,0,0,0,0,0,0,0,0,0,0,0,0,0,0,0,4,1,5,3,10 มิถุนายน 2561
175,175,40020178,บ้านโนนทองวิทยาคม,0,0,0,0,1,1,2,1,2,1,3,1,3,2,5,2,4,0,4,1,5,3,8,1,4,5,9,1,2,4,6,1,3,0,3,1,3,1,4,1,21,13,34,6,0,0,0,0,0,0,0,0,0,0,0,0,0,0,0,0,0,0,0,0,0,0,0,0,0,0,0,0,0,0,0,0,0,0,0,0,0,0,0,0,0,0,0,0,24,15,39,8,10 มิถุนายน 2561
176,176,40020179,บ้านโนนสาวเอ้,0,0,0,0,0,0,0,0,1,0,1,1,1,0,1,1,0,0,0,0,0,0,0,0,1,0,1,1,0,0,0,0,0,0,0,0,1,0,1,1,2,0,2,2,0,0,0,0,0,0,0,0,0,0,0,0,0,0,0,0,0,0,0,0,0,0,0,0,0,0,0,0,0,0,0,0,0,0,0,0,0,0,0,0,0,0,0,0,3,0,3,3,10 มิถุนายน 2561
177,177,40020180,ดอนหมู,3,2,5,1,7,2,9,1,8,7,15,1,18,11,29,3,5,4,9,1,7,11,18,1,5,8,13,1,11,2,13,1,9,5,14,1,5,5,10,1,42,35,77,6,10,4,14,1,7,13,20,1,7,3,10,1,24,20,44,3,0,0,0,0,0,0,0,0,0,0,0,0,0,0,0,0,0,0,0,0,0,0,0,0,0,0,0,0,84,66,150,12,10 มิถุนายน 2561
178,178,40020181,โนนคูณอัมพวัน,0,0,0,0,0,0,0,0,0,0,0,0,0,0,0,0,0,0,0,0,0,0,0,0,0,0,0,0,0,0,0,0,0,0,0,0,0,0,0,0,0,0,0,0,0,0,0,0,0,0,0,0,0,0,0,0,0,0,0,0,0,0,0,0,0,0,0,0,0,0,0,0,0,0,0,0,0,0,0,0,0,0,0,0,0,0,0,0,0,0,0,0,10 มิถุนายน 2561
179,179,40020182,ชุมชนบ้านโคก,7,9,16,1,5,6,11,1,6,9,15,1,18,24,42,3,14,8,22,1,8,13,21,1,8,9,17,1,11,12,23,1,11,9,20,1,14,7,21,1,66,58,124,6,0,0,0,0,0,0,0,0,0,0,0,0,0,0,0,0,0,0,0,0,0,0,0,0,0,0,0,0,0,0,0,0,0,0,0,0,0,0,0,0,0,0,0,0,84,82,166,9,10 มิถุนายน 2561
180,180,40020183,บ้านหนองทุ่มวิทยา,0,0,0,0,6,2,8,1,5,5,10,1,11,7,18,2,6,5,11,1,4,4,8,1,3,6,9,1,3,10,13,1,6,9,15,1,3,3,6,1,25,37,62,6,0,0,0,0,0,0,0,0,0,0,0,0,0,0,0,0,0,0,0,0,0,0,0,0,0,0,0,0,0,0,0,0,0,0,0,0,0,0,0,0,0,0,0,0,36,44,80,8,10 มิถุนายน 2561
181,181,40020184,อุดมคงคาคีรีเขต,4,1,5,1,1,1,2,1,2,1,3,1,7,3,10,3,1,1,2,1,3,2,5,1,1,4,5,1,4,1,5,1,2,4,6,1,4,1,5,1,15,13,28,6,0,0,0,0,0,0,0,0,0,0,0,0,0,0,0,0,0,0,0,0,0,0,0,0,0,0,0,0,0,0,0,0,0,0,0,0,0,0,0,0,0,0,0,0,22,16,38,9,10 มิถุนายน 2561
182,182,40020185,บ้านโนนกระยอมกุดลอบ,5,12,17,1,5,7,12,1,5,9,14,1,15,28,43,3,2,6,8,1,9,9,18,1,8,5,13,1,7,4,11,1,3,10,13,1,8,9,17,1,37,43,80,6,0,0,0,0,0,0,0,0,0,0,0,0,0,0,0,0,0,0,0,0,0,0,0,0,0,0,0,0,0,0,0,0,0,0,0,0,0,0,0,0,0,0,0,0,52,71,123,9,10 มิถุนายน 2561
183,183,40020186,บ้านโพธิ์ไชย,0,0,0,0,0,0,0,1,3,2,5,1,3,2,5,2,0,5,5,1,2,3,5,1,4,2,6,1,1,2,3,1,3,2,5,1,8,1,9,1,18,15,33,6,0,0,0,0,0,0,0,0,0,0,0,0,0,0,0,0,0,0,0,0,0,0,0,0,0,0,0,0,0,0,0,0,0,0,0,0,0,0,0,0,0,0,0,0,21,17,38,8,10 มิถุนายน 2561
184,184,40020187,สามหมอโนนทัน,8,6,14,1,6,5,11,1,8,8,16,1,22,19,41,3,3,3,6,1,4,7,11,1,3,3,6,1,8,7,15,1,7,7,14,1,8,6,14,1,33,33,66,6,5,4,9,1,6,7,13,1,7,8,15,1,18,19,37,3,0,0,0,0,0,0,0,0,0,0,0,0,0,0,0,0,0,0,0,0,0,0,0,0,0,0,0,0,73,71,144,12,10 มิถุนายน 2561
185,185,40020188,บ้านมูลนาค,5,3,8,1,8,9,17,1,8,5,13,1,21,17,38,3,3,6,9,1,4,8,12,1,6,4,10,1,7,4,11,1,3,7,10,1,4,10,14,1,27,39,66,6,8,5,13,1,13,12,25,1,5,3,8,1,26,20,46,3,0,0,0,0,0,0,0,0,0,0,0,0,0,0,0,0,0,0,0,0,0,0,0,0,0,0,0,0,74,76,150,12,10 มิถุนายน 2561
186,186,40020189,บ้านหนองหญ้ารังกา,0,0,0,0,1,2,3,1,1,2,3,1,2,4,6,2,8,4,12,1,1,4,5,1,3,2,5,1,1,2,3,1,6,6,12,1,4,3,7,1,23,21,44,6,0,0,0,0,0,0,0,0,0,0,0,0,0,0,0,0,0,0,0,0,0,0,0,0,0,0,0,0,0,0,0,0,0,0,0,0,0,0,0,0,0,0,0,0,25,25,50,8,10 มิถุนายน 2561
187,187,40020190,บ้านโคกสำราญ,13,13,26,1,9,6,15,1,7,2,9,1,29,21,50,3,9,11,20,1,9,5,14,1,6,5,11,1,9,7,16,1,8,4,12,1,16,7,23,1,57,39,96,6,11,9,20,1,8,6,14,1,14,10,24,1,33,25,58,3,0,0,0,0,0,0,0,0,0,0,0,0,0,0,0,0,0,0,0,0,0,0,0,0,0,0,0,0,119,85,204,12,10 มิถุนายน 2561
188,188,40020191,บ้านดงหนองเกี่ยว,0,0,0,0,7,6,13,1,3,6,9,1,10,12,22,2,3,2,5,1,6,9,15,1,3,5,8,1,3,4,7,1,3,2,5,1,5,0,5,1,23,22,45,6,0,0,0,0,0,0,0,0,0,0,0,0,0,0,0,0,0,0,0,0,0,0,0,0,0,0,0,0,0,0,0,0,0,0,0,0,0,0,0,0,0,0,0,0,33,34,67,8,10 มิถุนายน 2561
189,189,40020192,บ้านดอนปอแดง,2,2,4,1,6,6,12,1,10,1,11,1,18,9,27,3,5,0,5,1,9,3,12,1,3,4,7,1,3,7,10,1,4,2,6,1,6,0,6,1,30,16,46,6,0,0,0,0,0,0,0,0,0,0,0,0,0,0,0,0,0,0,0,0,0,0,0,0,0,0,0,0,0,0,0,0,0,0,0,0,0,0,0,0,0,0,0,0,48,25,73,9,10 มิถุนายน 2561
190,190,40020193,บ้านโนนพันชาติ,0,0,0,0,0,1,1,1,0,1,1,1,0,2,2,2,1,1,2,1,1,0,1,1,0,0,0,0,2,1,3,1,2,1,3,1,1,6,7,1,7,9,16,5,0,0,0,0,0,0,0,0,0,0,0,0,0,0,0,0,0,0,0,0,0,0,0,0,0,0,0,0,0,0,0,0,0,0,0,0,0,0,0,0,0,0,0,0,7,11,18,7,10 มิถุนายน 2561
191,191,40020194,บ้านป่าแดงแจ้งกระหนวน,3,1,4,1,4,2,6,1,1,7,8,1,8,10,18,3,4,1,5,1,5,2,7,1,3,0,3,1,3,4,7,1,1,1,2,1,4,4,8,1,20,12,32,6,0,0,0,0,0,0,0,0,0,0,0,0,0,0,0,0,0,0,0,0,0,0,0,0,0,0,0,0,0,0,0,0,0,0,0,0,0,0,0,0,0,0,0,0,28,22,50,9,10 มิถุนายน 2561
192,192,40020195,บ้านป่าม่วง,0,0,0,0,0,0,0,0,0,0,0,0,0,0,0,0,0,2,2,1,1,1,2,1,2,1,3,1,2,0,2,1,0,0,0,0,0,1,1,1,5,5,10,5,0,0,0,0,0,0,0,0,0,0,0,0,0,0,0,0,0,0,0,0,0,0,0,0,0,0,0,0,0,0,0,0,0,0,0,0,0,0,0,0,0,0,0,0,5,5,10,5,10 มิถุนายน 2561
193,193,40020196,บ้านเล็บเงือก,3,4,7,1,10,10,20,1,3,5,8,1,16,19,35,3,2,4,6,1,4,5,9,1,1,4,5,1,5,6,11,1,14,3,17,1,5,3,8,1,31,25,56,6,4,4,8,1,4,2,6,1,4,3,7,1,12,9,21,3,0,0,0,0,0,0,0,0,0,0,0,0,0,0,0,0,0,0,0,0,0,0,0,0,0,0,0,0,59,53,112,12,10 มิถุนายน 2561
194,194,40020197,บ้านหนองมะเขือ,1,2,3,1,3,3,6,1,3,4,7,1,7,9,16,3,2,3,5,1,3,4,7,1,1,1,2,1,8,3,11,1,5,0,5,1,3,7,10,1,22,18,40,6,0,0,0,0,0,0,0,0,0,0,0,0,0,0,0,0,0,0,0,0,0,0,0,0,0,0,0,0,0,0,0,0,0,0,0,0,0,0,0,0,0,0,0,0,29,27,56,9,10 มิถุนายน 2561
195,195,40020198,บ้านหนองหัวช้าง,1,1,2,1,2,2,4,1,0,1,1,1,3,4,7,3,0,2,2,1,2,1,3,1,0,3,3,1,1,1,2,1,2,4,6,1,0,4,4,1,5,15,20,6,0,0,0,0,0,0,0,0,0,0,0,0,0,0,0,0,0,0,0,0,0,0,0,0,0,0,0,0,0,0,0,0,0,0,0,0,0,0,0,0,0,0,0,0,8,19,27,9,10 มิถุนายน 2561
196,196,40020199,บ้านโนนทัน,4,7,11,1,1,8,9,1,2,7,9,1,7,22,29,3,7,6,13,1,6,2,8,1,3,7,10,1,1,7,8,1,2,4,6,1,7,4,11,1,26,30,56,6,0,0,0,0,0,0,0,0,0,0,0,0,0,0,0,0,0,0,0,0,0,0,0,0,0,0,0,0,0,0,0,0,0,0,0,0,0,0,0,0,0,0,0,0,33,52,85,9,10 มิถุนายน 2561
197,197,40020200,บ้านหนองกระหนวนหนองเม็ก,1,0,1,1,2,1,3,1,0,3,3,1,3,4,7,3,4,6,10,1,2,1,3,1,3,3,6,1,3,3,6,1,3,0,3,1,4,2,6,1,19,15,34,6,0,0,0,0,0,0,0,0,0,0,0,0,0,0,0,0,0,0,0,0,0,0,0,0,0,0,0,0,0,0,0,0,0,0,0,0,0,0,0,0,0,0,0,0,22,19,41,9,10 มิถุนายน 2561
198,198,40020201,บ้านหนองขามสมบูรณ์,3,3,6,1,3,7,10,1,6,6,12,1,12,16,28,3,11,8,19,1,10,7,17,1,7,8,15,1,10,12,22,1,6,4,10,1,8,7,15,1,52,46,98,6,0,0,0,0,0,0,0,0,0,0,0,0,0,0,0,0,0,0,0,0,0,0,0,0,0,0,0,0,0,0,0,0,0,0,0,0,0,0,0,0,0,0,0,0,64,62,126,9,10 มิถุนายน 2561
199,199,40020202,บ้านหนองผักตบ,0,0,0,0,7,2,9,1,4,6,10,1,11,8,19,2,9,20,29,1,4,5,9,1,13,7,20,1,8,7,15,1,6,7,13,1,11,5,16,1,51,51,102,6,0,0,0,0,0,0,0,0,0,0,0,0,0,0,0,0,0,0,0,0,0,0,0,0,0,0,0,0,0,0,0,0,0,0,0,0,0,0,0,0,0,0,0,0,62,59,121,8,10 มิถุนายน 2561
200,200,40020203,ชุมชนบ้านแฮด,1,2,3,1,6,3,9,1,4,1,5,1,11,6,17,3,1,0,1,1,3,3,6,1,4,10,14,1,9,3,12,1,3,4,7,1,4,4,8,1,24,24,48,6,0,0,0,0,0,0,0,0,0,0,0,0,0,0,0,0,0,0,0,0,0,0,0,0,0,0,0,0,0,0,0,0,0,0,0,0,0,0,0,0,0,0,0,0,35,30,65,9,10 มิถุนายน 2561
201,201,40020204,ประชาพัฒนาบ้านแฮด,4,3,7,1,4,3,7,1,5,8,13,1,13,14,27,3,16,6,22,1,5,5,10,1,18,8,26,1,11,3,14,1,12,19,31,1,10,11,21,1,72,52,124,6,0,0,0,0,0,0,0,0,0,0,0,0,0,0,0,0,0,0,0,0,0,0,0,0,0,0,0,0,0,0,0,0,0,0,0,0,0,0,0,0,0,0,0,0,85,66,151,9,10 มิถุนายน 2561
202,202,40020205,บ้านวังหว้า,7,7,14,1,3,1,4,1,13,7,20,1,23,15,38,3,8,6,14,1,7,1,8,1,5,1,6,1,7,10,17,1,6,9,15,1,8,8,16,1,41,35,76,6,7,5,12,1,5,6,11,1,7,6,13,1,19,17,36,3,0,0,0,0,0,0,0,0,0,0,0,0,0,0,0,0,0,0,0,0,0,0,0,0,0,0,0,0,83,67,150,12,10 มิถุนายน 2561
203,203,40020206,บ้านหนองไฮขามเปี้ย,3,3,6,1,2,3,5,1,7,4,11,1,12,10,22,3,5,9,14,1,5,6,11,1,6,6,12,1,6,4,10,1,5,17,22,1,16,12,28,1,43,54,97,6,14,16,30,1,11,6,17,1,19,17,36,1,44,39,83,3,0,0,0,0,0,0,0,0,0,0,0,0,0,0,0,0,0,0,0,0,0,0,0,0,0,0,0,0,99,103,202,12,10 มิถุนายน 2561
204,204,40020207,บ้านขอนสักรัฐราษฎร์บำรุง,5,3,8,1,5,7,12,1,9,7,16,1,19,17,36,3,9,7,16,1,10,4,14,1,7,5,12,1,8,7,15,1,9,7,16,1,8,7,15,1,51,37,88,6,0,0,0,0,0,0,0,0,0,0,0,0,0,0,0,0,0,0,0,0,0,0,0,0,0,0,0,0,0,0,0,0,0,0,0,0,0,0,0,0,0,0,0,0,70,54,124,9,10 มิถุนายน 2561
205,205,40020208,ขามป้อมประชานุกูล,1,4,5,1,5,2,7,1,0,3,3,1,6,9,15,3,0,3,3,1,3,4,7,1,4,2,6,1,2,3,5,1,4,4,8,1,3,5,8,1,16,21,37,6,0,0,0,0,0,0,0,0,0,0,0,0,0,0,0,0,0,0,0,0,0,0,0,0,0,0,0,0,0,0,0,0,0,0,0,0,0,0,0,0,0,0,0,0,22,30,52,9,10 มิถุนายน 2561
206,206,40020209,บ้านห้วยม่วงคุรุราษฎร์รังสรรค์,0,0,0,0,6,6,12,1,2,5,7,1,8,11,19,2,5,10,15,1,10,6,16,1,6,4,10,1,10,3,13,1,8,4,12,1,12,5,17,1,51,32,83,6,0,0,0,0,0,0,0,0,0,0,0,0,0,0,0,0,0,0,0,0,0,0,0,0,0,0,0,0,0,0,0,0,0,0,0,0,0,0,0,0,0,0,0,0,59,43,102,8,10 มิถุนายน 2561
207,207,40020210,หนองแซงวิทยาคม,1,3,4,1,11,1,12,1,2,6,8,1,14,10,24,3,1,4,5,1,4,4,8,1,3,4,7,1,2,2,4,1,3,2,5,1,4,7,11,1,17,23,40,6,4,4,8,1,3,3,6,1,5,4,9,1,12,11,23,3,0,0,0,0,0,0,0,0,0,0,0,0,0,0,0,0,0,0,0,0,0,0,0,0,0,0,0,0,43,44,87,12,10 มิถุนายน 2561
208,208,40020211,บ้านหนองเต่า,0,0,0,0,3,2,5,1,8,2,10,1,11,4,15,2,3,2,5,1,2,10,12,1,5,6,11,1,6,0,6,1,3,3,6,1,5,3,8,1,24,24,48,6,0,0,0,0,0,0,0,0,0,0,0,0,0,0,0,0,0,0,0,0,0,0,0,0,0,0,0,0,0,0,0,0,0,0,0,0,0,0,0,0,0,0,0,0,35,28,63,8,10 มิถุนายน 2561
