,0,1,2,3,4,5,6,7,8,9,10,11,12,13,14,15,16,17,18,19,20,21,22,23,24,25,26,27,28,29,30,31,32,33,34,35,36,37,38,39,40,41,42,43,44,45,46,47,48,49,50,51,52,53,54,55,56,57,58,59,60,61,62,63,64,65,66,67,68,69,70,71,72,73,74,75,76,77,78,79,80,81,82,83,84,85,86,87,88,89,90,91,92,93,94,95
0,ลำดับ,รหัส SMIS,โรงเรียน,อ.3 ขวบ ชาย,อ.3 ขวบ หญิง,รวมอ.3 ขวบ,อ.3 ขวบ ห้อง,อ.1 ชาย,อ.1 หญิง,รวมอ.1,อ.1 ห้อง,อ.2 ชาย,อ.2 หญิง,รวมอ.2,อ.2 ห้อง,รวมก่อนประถม ชาย,รวมก่อนประถม หญิง,รวมก่อนประถม,รวมห้องก่อนประถม,ป.1 ชาย,ป.1 หญิง,รวมป.1,ป.1 ห้อง,ป.2 ชาย,ป.2 หญิง,รวมป.2,ป.2 ห้อง,ป.3 ชาย,ป.3 หญิง,รวมป.3,ป.3 ห้อง,ป.4 ชาย,ป.4 หญิง,รวมป.4,ป.4 ห้อง,ป.5 ชาย,ป.5 หญิง,รวมป.5,ป.5 ห้อง,ป.6 ชาย,ป.6 หญิง,รวมป.6,ป.6 ห้อง,รวมประถม ชาย,รวมประถม หญิง,รวมประถม,รวมห้องประถม,ม.1 ชาย,ม.1 หญิง,รวมม.1,ม.1 ห้อง,ม.2 ชาย,ม.2 หญิง,รวมม.2,ม.2 ห้อง,ม.3 ชาย,ม.3 หญิง,รวมม.3,ม.3 ห้อง,รวมม.ต้น ชาย,รวมม.ต้น หญิง,รวมม.ต้น,รวมห้องม.ต้น,ม.4 ชาย,ม.4 หญิง,รวมม.4,ม.4 ห้อง,ม.5 ชาย,ม.5 หญิง,รวมม.5,ม.5 ห้อง,ม.6 ชาย,ม.6 หญิง,รวมม.6,ม.6 ห้อง,ปวช.1 ชาย,ปวช.1 หญิง,รวมปวช.1,ปวช.1 ห้อง,ปวช.2 ชาย,ปวช.2 หญิง,รวมปวช.2,ปวช.2 ห้อง,ปวช.3 ชาย,ปวช.3 หญิง,รวมปวช.3,ปวช.3 ห้อง,รวมม.ปลายและเทียบเท่า ชาย,รวมม.ปลายและเทียบเท่า หญิง,รวมม.ปลายและเทียบเท่า,รวมห้องม.ปลายและเทียบเท่า,รวมทั้งหมด ชาย,รวมทั้งหมด หญิง,รวมทั้งหมด,รวมห้องทั้งหมด,ข้อมูล ณ วันที่
1,1,50050002,บ้านแปะ,0,0,0,0,4,5,9,1,0,4,4,1,4,9,13,2,3,6,9,1,2,3,5,1,8,4,12,1,2,2,4,1,6,2,8,1,3,1,4,1,24,18,42,6,0,0,0,0,0,0,0,0,0,0,0,0,0,0,0,0,0,0,0,0,0,0,0,0,0,0,0,0,0,0,0,0,0,0,0,0,0,0,0,0,0,0,0,0,28,27,55,8,10 มิถุนายน 2561
2,2,50050003,บ้านห้วยทราย,0,0,0,0,14,6,20,1,10,7,17,1,24,13,37,2,8,6,14,1,11,7,18,1,9,13,22,1,4,9,13,1,10,6,16,1,9,8,17,1,51,49,100,6,6,5,11,1,12,6,18,1,8,15,23,1,26,26,52,3,0,0,0,0,0,0,0,0,0,0,0,0,0,0,0,0,0,0,0,0,0,0,0,0,0,0,0,0,101,88,189,11,10 มิถุนายน 2561
3,3,50050004,บ้านข่วงเปาใต้,0,0,0,0,4,2,6,1,6,4,10,1,10,6,16,2,1,3,4,1,5,5,10,1,2,3,5,1,2,1,3,1,3,3,6,1,3,4,7,1,16,19,35,6,0,0,0,0,0,0,0,0,0,0,0,0,0,0,0,0,0,0,0,0,0,0,0,0,0,0,0,0,0,0,0,0,0,0,0,0,0,0,0,0,0,0,0,0,26,25,51,8,10 มิถุนายน 2561
4,4,50050005,บ้านท่าข้าม,0,0,0,0,14,4,18,1,14,8,22,1,28,12,40,2,15,7,22,1,10,12,22,1,11,12,23,1,13,7,20,1,14,12,26,1,9,15,24,1,72,65,137,6,0,0,0,0,0,0,0,0,0,0,0,0,0,0,0,0,0,0,0,0,0,0,0,0,0,0,0,0,0,0,0,0,0,0,0,0,0,0,0,0,0,0,0,0,100,77,177,8,10 มิถุนายน 2561
5,5,50050006,บ้านบนนา,0,0,0,0,13,7,20,1,7,7,14,1,20,14,34,2,10,3,13,1,13,9,22,1,13,8,21,1,7,4,11,1,6,9,15,1,6,4,10,1,55,37,92,6,0,0,0,0,0,0,0,0,0,0,0,0,0,0,0,0,0,0,0,0,0,0,0,0,0,0,0,0,0,0,0,0,0,0,0,0,0,0,0,0,0,0,0,0,75,51,126,8,10 มิถุนายน 2561
6,6,50050007,บ้านขุนแปะ,0,0,0,0,7,7,14,1,21,18,39,2,28,25,53,3,10,14,24,1,14,8,22,1,22,7,29,1,16,8,24,1,13,14,27,1,11,9,20,1,86,60,146,6,16,22,38,1,17,26,43,1,6,13,19,1,39,61,100,3,0,0,0,0,0,0,0,0,0,0,0,0,0,0,0,0,0,0,0,0,0,0,0,0,0,0,0,0,153,146,299,12,10 มิถุนายน 2561
7,7,50050008,บ้านสบแจ่มฝั่งซ้าย,0,0,0,0,10,9,19,1,12,7,19,1,22,16,38,2,15,12,27,1,14,11,25,1,3,7,10,1,9,6,15,1,6,7,13,1,5,3,8,1,52,46,98,6,0,0,0,0,0,0,0,0,0,0,0,0,0,0,0,0,0,0,0,0,0,0,0,0,0,0,0,0,0,0,0,0,0,0,0,0,0,0,0,0,0,0,0,0,74,62,136,8,10 มิถุนายน 2561
8,8,50050009,บ้านขุนแปะ สาขาแม่จร,0,0,0,0,9,7,16,1,6,6,12,1,15,13,28,2,7,3,10,1,4,5,9,1,1,3,4,1,4,4,8,1,3,0,3,1,2,1,3,1,21,16,37,6,0,0,0,0,0,0,0,0,0,0,0,0,0,0,0,0,0,0,0,0,0,0,0,0,0,0,0,0,0,0,0,0,0,0,0,0,0,0,0,0,0,0,0,0,36,29,65,8,10 มิถุนายน 2561
9,9,50050012,บ้านสบแปะ,0,0,0,0,2,4,6,1,8,2,10,1,10,6,16,2,5,3,8,1,7,2,9,1,3,2,5,1,7,4,11,1,6,4,10,1,4,5,9,1,32,20,52,6,0,0,0,0,0,0,0,0,0,0,0,0,0,0,0,0,0,0,0,0,0,0,0,0,0,0,0,0,0,0,0,0,0,0,0,0,0,0,0,0,0,0,0,0,42,26,68,8,10 มิถุนายน 2561
10,10,50050015,บ้านปากทางท่าลี่,0,0,0,0,5,1,6,1,1,3,4,1,6,4,10,2,4,4,8,1,5,3,8,1,0,10,10,1,11,2,13,1,4,6,10,1,5,6,11,1,29,31,60,6,10,3,13,1,11,7,18,1,3,9,12,1,24,19,43,3,0,0,0,0,0,0,0,0,0,0,0,0,0,0,0,0,0,0,0,0,0,0,0,0,0,0,0,0,59,54,113,11,10 มิถุนายน 2561
11,11,50050016,นิยมไพรผาหมอนอินทนนท์,0,0,0,0,6,6,12,1,12,21,33,2,18,27,45,3,13,6,19,2,7,16,23,2,16,8,24,2,12,12,24,2,12,12,24,2,11,10,21,2,71,64,135,12,0,0,0,0,0,0,0,0,0,0,0,0,0,0,0,0,0,0,0,0,0,0,0,0,0,0,0,0,0,0,0,0,0,0,0,0,0,0,0,0,0,0,0,0,89,91,180,15,10 มิถุนายน 2561
12,12,50050017,บ้านเมืองอาง,0,0,0,0,3,1,4,1,0,6,6,1,3,7,10,2,5,5,10,1,2,1,3,1,3,6,9,1,5,2,7,1,4,4,8,1,4,6,10,1,23,24,47,6,0,0,0,0,0,0,0,0,0,0,0,0,0,0,0,0,0,0,0,0,0,0,0,0,0,0,0,0,0,0,0,0,0,0,0,0,0,0,0,0,0,0,0,0,26,31,57,8,10 มิถุนายน 2561
13,13,50050018,บ้านน้ำตกแม่กลาง,1,0,1,1,9,5,14,1,6,5,11,1,16,10,26,3,8,7,15,1,6,3,9,1,12,5,17,1,7,8,15,1,5,6,11,1,3,5,8,1,41,34,75,6,0,0,0,0,0,0,0,0,0,0,0,0,0,0,0,0,0,0,0,0,0,0,0,0,0,0,0,0,0,0,0,0,0,0,0,0,0,0,0,0,0,0,0,0,57,44,101,9,10 มิถุนายน 2561
14,14,50050019,บ้านเมืองกลาง,0,0,0,0,5,3,8,1,3,2,5,1,8,5,13,2,5,4,9,1,2,3,5,1,5,6,11,1,7,6,13,1,5,4,9,1,5,0,5,1,29,23,52,6,0,0,0,0,0,0,0,0,0,0,0,0,0,0,0,0,0,0,0,0,0,0,0,0,0,0,0,0,0,0,0,0,0,0,0,0,0,0,0,0,0,0,0,0,37,28,65,8,10 มิถุนายน 2561
15,15,50050020,วัดพระบาท,0,0,0,0,1,0,1,1,1,2,3,1,2,2,4,2,5,1,6,1,2,0,2,1,2,4,6,1,6,6,12,1,3,2,5,1,0,0,0,0,18,13,31,5,0,0,0,0,0,0,0,0,0,0,0,0,0,0,0,0,0,0,0,0,0,0,0,0,0,0,0,0,0,0,0,0,0,0,0,0,0,0,0,0,0,0,0,0,20,15,35,7,10 มิถุนายน 2561
16,16,50050022,บ้านแม่ปอน,0,0,0,0,3,2,5,1,1,5,6,1,4,7,11,2,5,9,14,1,4,10,14,1,10,10,20,1,12,10,22,1,12,7,19,1,13,14,27,2,56,60,116,7,0,0,0,0,0,0,0,0,0,0,0,0,0,0,0,0,0,0,0,0,0,0,0,0,0,0,0,0,0,0,0,0,0,0,0,0,0,0,0,0,0,0,0,0,60,67,127,9,10 มิถุนายน 2561
17,17,50050023,บ้านขุนกลางสาขาแม่ยะน้อย,0,0,0,0,0,0,0,0,0,0,0,0,0,0,0,0,3,5,8,1,2,4,6,1,8,0,8,1,0,3,3,1,5,2,7,1,2,3,5,1,20,17,37,6,0,0,0,0,0,0,0,0,0,0,0,0,0,0,0,0,0,0,0,0,0,0,0,0,0,0,0,0,0,0,0,0,0,0,0,0,0,0,0,0,0,0,0,0,20,17,37,6,10 มิถุนายน 2561
18,18,50050026,ศรีจอมทอง,38,33,71,3,77,69,146,5,74,71,145,5,189,173,362,13,104,112,216,7,96,98,194,6,92,103,195,6,119,100,219,6,95,88,183,6,92,109,201,6,598,610,1208,37,0,0,0,0,0,0,0,0,0,0,0,0,0,0,0,0,0,0,0,0,0,0,0,0,0,0,0,0,0,0,0,0,0,0,0,0,0,0,0,0,0,0,0,0,787,783,1570,50,10 มิถุนายน 2561
19,19,50050027,บ้านห้วยส้มป่อย,0,0,0,0,0,0,0,0,0,0,0,0,0,0,0,0,10,9,19,1,7,4,11,1,12,9,21,1,8,14,22,1,7,9,16,1,10,4,14,1,54,49,103,6,6,4,10,1,8,5,13,1,7,6,13,1,21,15,36,3,0,0,0,0,0,0,0,0,0,0,0,0,0,0,0,0,0,0,0,0,0,0,0,0,0,0,0,0,75,64,139,9,10 มิถุนายน 2561
20,20,50050029,บ้านห้วยน้ำดิบ,0,0,0,0,2,3,5,1,4,8,12,1,6,11,17,2,5,3,8,1,8,2,10,1,2,2,4,1,4,2,6,1,1,4,5,1,4,4,8,1,24,17,41,6,0,0,0,0,0,0,0,0,0,0,0,0,0,0,0,0,0,0,0,0,0,0,0,0,0,0,0,0,0,0,0,0,0,0,0,0,0,0,0,0,0,0,0,0,30,28,58,8,10 มิถุนายน 2561
21,21,50050031,บ้านขุนแตะ,0,0,0,0,4,3,7,1,5,1,6,1,9,4,13,2,12,7,19,1,7,8,15,1,4,15,19,1,10,8,18,1,8,5,13,1,5,6,11,1,46,49,95,6,0,0,0,0,0,0,0,0,0,0,0,0,0,0,0,0,0,0,0,0,0,0,0,0,0,0,0,0,0,0,0,0,0,0,0,0,0,0,0,0,0,0,0,0,55,53,108,8,10 มิถุนายน 2561
22,22,50050032,บ้านขุนยะ,1,1,2,1,3,5,8,1,4,5,9,1,8,11,19,3,4,5,9,1,3,2,5,1,3,8,11,1,2,5,7,1,7,4,11,1,9,2,11,1,28,26,54,6,0,0,0,0,0,0,0,0,0,0,0,0,0,0,0,0,0,0,0,0,0,0,0,0,0,0,0,0,0,0,0,0,0,0,0,0,0,0,0,0,0,0,0,0,36,37,73,9,10 มิถุนายน 2561
23,23,50050033,บ้านขุนกลาง,0,0,0,0,44,22,66,2,41,32,73,2,85,54,139,4,43,28,71,3,29,20,49,2,33,19,52,2,20,20,40,2,30,20,50,2,17,13,30,1,172,120,292,12,14,15,29,1,10,4,14,1,11,7,18,1,35,26,61,3,0,0,0,0,0,0,0,0,0,0,0,0,0,0,0,0,0,0,0,0,0,0,0,0,0,0,0,0,292,200,492,19,10 มิถุนายน 2561
24,24,50050034,บ้านวังน้ำหยาด,0,0,0,0,0,0,0,0,0,0,0,0,0,0,0,0,4,3,7,1,3,0,3,1,3,2,5,1,1,0,1,1,3,4,7,1,4,0,4,1,18,9,27,6,0,0,0,0,0,0,0,0,0,0,0,0,0,0,0,0,0,0,0,0,0,0,0,0,0,0,0,0,0,0,0,0,0,0,0,0,0,0,0,0,0,0,0,0,18,9,27,6,10 มิถุนายน 2561
25,25,50050035,บ้านแม่สอย,0,0,0,0,0,0,0,0,7,9,16,1,7,9,16,1,6,3,9,1,5,13,18,1,6,2,8,1,12,7,19,1,7,4,11,1,8,1,9,1,44,30,74,6,0,0,0,0,0,0,0,0,0,0,0,0,0,0,0,0,0,0,0,0,0,0,0,0,0,0,0,0,0,0,0,0,0,0,0,0,0,0,0,0,0,0,0,0,51,39,90,7,10 มิถุนายน 2561
26,26,50050036,บ้านโรงวัว,0,0,0,0,0,0,0,0,7,6,13,1,7,6,13,1,10,10,20,1,10,10,20,1,6,6,12,1,5,7,12,1,7,6,13,1,4,9,13,1,42,48,90,6,0,0,0,0,0,0,0,0,0,0,0,0,0,0,0,0,0,0,0,0,0,0,0,0,0,0,0,0,0,0,0,0,0,0,0,0,0,0,0,0,0,0,0,0,49,54,103,7,10 มิถุนายน 2561
27,27,50050037,บ้านหนองคัน,0,0,0,0,2,0,2,1,5,5,10,1,7,5,12,2,3,3,6,1,3,2,5,1,5,0,5,1,3,4,7,1,1,2,3,1,4,1,5,1,19,12,31,6,0,0,0,0,0,0,0,0,0,0,0,0,0,0,0,0,0,0,0,0,0,0,0,0,0,0,0,0,0,0,0,0,0,0,0,0,0,0,0,0,0,0,0,0,26,17,43,8,10 มิถุนายน 2561
28,28,50050038,บ้านห้วยม่วงฝั่งซ้าย,0,0,0,0,9,7,16,1,7,8,15,1,16,15,31,2,15,17,32,1,5,6,11,1,8,3,11,1,12,7,19,1,10,8,18,1,11,12,23,1,61,53,114,6,0,0,0,0,0,0,0,0,0,0,0,0,0,0,0,0,0,0,0,0,0,0,0,0,0,0,0,0,0,0,0,0,0,0,0,0,0,0,0,0,0,0,0,0,77,68,145,8,10 มิถุนายน 2561
29,29,50050039,บ้านใหม่สารภี,0,0,0,0,0,0,0,0,0,0,0,0,0,0,0,0,1,2,3,1,4,9,13,1,4,5,9,1,4,3,7,1,5,5,10,1,8,2,10,1,26,26,52,6,10,10,20,1,8,10,18,1,16,11,27,1,34,31,65,3,0,0,0,0,0,0,0,0,0,0,0,0,0,0,0,0,0,0,0,0,0,0,0,0,0,0,0,0,60,57,117,9,10 มิถุนายน 2561
30,30,50050040,ป่ากล้วยพัฒนา,0,0,0,0,10,8,18,1,9,8,17,1,19,16,35,2,6,12,18,1,9,7,16,1,8,4,12,1,5,7,12,1,10,4,14,1,6,4,10,1,44,38,82,6,0,0,0,0,0,0,0,0,0,0,0,0,0,0,0,0,0,0,0,0,0,0,0,0,0,0,0,0,0,0,0,0,0,0,0,0,0,0,0,0,0,0,0,0,63,54,117,8,10 มิถุนายน 2561
31,31,50050041,บ้านห้วยสะแพด,0,0,0,0,0,0,0,0,8,7,15,1,8,7,15,1,12,10,22,1,7,4,11,1,6,7,13,1,8,3,11,1,4,3,7,1,7,2,9,1,44,29,73,6,0,0,0,0,0,0,0,0,0,0,0,0,0,0,0,0,0,0,0,0,0,0,0,0,0,0,0,0,0,0,0,0,0,0,0,0,0,0,0,0,0,0,0,0,52,36,88,7,10 มิถุนายน 2561
32,32,50050042,วัดพุทธนิมิตร,0,0,0,0,5,0,5,1,3,1,4,1,8,1,9,2,2,1,3,1,1,4,5,1,2,4,6,1,1,2,3,1,1,3,4,1,3,3,6,1,10,17,27,6,0,0,0,0,0,0,0,0,0,0,0,0,0,0,0,0,0,0,0,0,0,0,0,0,0,0,0,0,0,0,0,0,0,0,0,0,0,0,0,0,0,0,0,0,18,18,36,8,10 มิถุนายน 2561
33,33,50050043,บ้านหาดนาค,0,0,0,0,1,5,6,1,2,1,3,1,3,6,9,2,5,2,7,1,1,0,1,1,3,5,8,1,0,3,3,1,3,0,3,1,3,4,7,1,15,14,29,6,0,0,0,0,0,0,0,0,0,0,0,0,0,0,0,0,0,0,0,0,0,0,0,0,0,0,0,0,0,0,0,0,0,0,0,0,0,0,0,0,0,0,0,0,18,20,38,8,10 มิถุนายน 2561
34,34,50050045,ไทยรัฐวิทยา ๗๙ (บ้านหนองอาบช้าง),0,0,0,0,6,4,10,1,1,4,5,1,7,8,15,2,7,1,8,1,7,3,10,1,6,5,11,1,8,5,13,1,4,8,12,1,11,11,22,1,43,33,76,6,28,25,53,2,17,31,48,2,22,28,50,2,67,84,151,6,0,0,0,0,0,0,0,0,0,0,0,0,0,0,0,0,0,0,0,0,0,0,0,0,0,0,0,0,117,125,242,14,10 มิถุนายน 2561
35,35,50050046,บ้านห้วยม่วง,0,0,0,0,5,4,9,1,3,5,8,1,8,9,17,2,3,3,6,1,2,7,9,1,3,5,8,1,7,2,9,1,5,4,9,1,3,2,5,1,23,23,46,6,0,0,0,0,0,0,0,0,0,0,0,0,0,0,0,0,0,0,0,0,0,0,0,0,0,0,0,0,0,0,0,0,0,0,0,0,0,0,0,0,0,0,0,0,31,32,63,8,10 มิถุนายน 2561
36,36,50050048,บ้านท่าหลุก,0,0,0,0,0,3,3,1,3,1,4,1,3,4,7,2,3,8,11,1,4,3,7,1,8,7,15,1,3,3,6,1,2,1,3,1,7,5,12,1,27,27,54,6,0,0,0,0,0,0,0,0,0,0,0,0,0,0,0,0,0,0,0,0,0,0,0,0,0,0,0,0,0,0,0,0,0,0,0,0,0,0,0,0,0,0,0,0,30,31,61,8,10 มิถุนายน 2561
37,37,50050051,บ้านสบเตี๊ยะ,0,0,0,0,2,8,10,1,12,6,18,1,14,14,28,2,9,7,16,1,9,4,13,1,8,6,14,1,7,6,13,1,9,10,19,1,9,15,24,1,51,48,99,6,18,18,36,2,20,14,34,2,22,34,56,2,60,66,126,6,0,0,0,0,0,0,0,0,0,0,0,0,0,0,0,0,0,0,0,0,0,0,0,0,0,0,0,0,125,128,253,14,10 มิถุนายน 2561
38,38,50050052,บ้านกองแขก,0,0,0,0,10,6,16,1,11,7,18,1,21,13,34,2,19,12,31,1,9,14,23,1,9,6,15,1,11,6,17,1,7,6,13,1,13,4,17,1,68,48,116,6,16,21,37,1,10,14,24,1,11,16,27,1,37,51,88,3,0,0,0,0,0,0,0,0,0,0,0,0,0,0,0,0,0,0,0,0,0,0,0,0,0,0,0,0,126,112,238,11,10 มิถุนายน 2561
39,39,50050053,บ้านอมเม็ง,0,0,0,0,4,6,10,1,5,5,10,1,9,11,20,2,7,3,10,1,5,9,14,1,10,7,17,1,6,2,8,1,6,7,13,1,7,1,8,1,41,29,70,6,0,0,0,0,0,0,0,0,0,0,0,0,0,0,0,0,0,0,0,0,0,0,0,0,0,0,0,0,0,0,0,0,0,0,0,0,0,0,0,0,0,0,0,0,50,40,90,8,10 มิถุนายน 2561
40,40,50050054,ออป.13,0,0,0,0,29,24,53,2,20,17,37,1,49,41,90,3,10,13,23,1,17,14,31,1,11,16,27,1,7,10,17,1,12,10,22,1,14,13,27,1,71,76,147,6,0,0,0,0,0,0,0,0,0,0,0,0,0,0,0,0,0,0,0,0,0,0,0,0,0,0,0,0,0,0,0,0,0,0,0,0,0,0,0,0,0,0,0,0,120,117,237,9,10 มิถุนายน 2561
41,41,50050055,บ้านโม่งหลวง,0,0,0,0,7,8,15,1,8,8,16,1,15,16,31,2,7,10,17,1,6,7,13,1,6,7,13,1,5,11,16,1,8,12,20,1,13,6,19,1,45,53,98,6,5,16,21,1,6,6,12,1,10,6,16,1,21,28,49,3,0,0,0,0,0,0,0,0,0,0,0,0,0,0,0,0,0,0,0,0,0,0,0,0,0,0,0,0,81,97,178,11,10 มิถุนายน 2561
42,42,50050056,บ้านอมขูด,0,0,0,0,0,0,0,0,0,3,3,1,0,3,3,1,1,0,1,1,1,0,1,1,2,3,5,1,3,4,7,1,1,1,2,1,4,3,7,1,12,11,23,6,0,0,0,0,0,0,0,0,0,0,0,0,0,0,0,0,0,0,0,0,0,0,0,0,0,0,0,0,0,0,0,0,0,0,0,0,0,0,0,0,0,0,0,0,12,14,26,7,10 มิถุนายน 2561
43,43,50050057,บ้านกองแขก สาขาบ้านแม่หลุ,0,0,0,0,0,0,0,0,6,4,10,1,6,4,10,1,9,4,13,1,7,3,10,1,6,3,9,1,4,3,7,1,3,5,8,1,5,6,11,1,34,24,58,6,0,0,0,0,0,0,0,0,0,0,0,0,0,0,0,0,0,0,0,0,0,0,0,0,0,0,0,0,0,0,0,0,0,0,0,0,0,0,0,0,0,0,0,0,40,28,68,7,10 มิถุนายน 2561
44,44,50050058,บ้านโม่งหลวง สาขาบ้านแม่อมลานใน,0,0,0,0,0,1,1,1,2,0,2,1,2,1,3,2,2,1,3,1,1,2,3,1,2,1,3,1,3,0,3,1,4,4,8,1,2,1,3,1,14,9,23,6,0,0,0,0,0,0,0,0,0,0,0,0,0,0,0,0,0,0,0,0,0,0,0,0,0,0,0,0,0,0,0,0,0,0,0,0,0,0,0,0,0,0,0,0,16,10,26,8,10 มิถุนายน 2561
45,45,50050059,บ้านแจ่มหลวง,0,0,0,0,8,3,11,1,4,7,11,1,12,10,22,2,4,9,13,1,10,8,18,1,6,7,13,1,5,6,11,1,3,5,8,1,14,7,21,1,42,42,84,6,11,14,25,1,13,13,26,1,14,17,31,1,38,44,82,3,0,0,0,0,0,0,0,0,0,0,0,0,0,0,0,0,0,0,0,0,0,0,0,0,0,0,0,0,92,96,188,11,10 มิถุนายน 2561
46,46,50050060,บ้านห้วยยา,0,0,0,0,5,3,8,1,4,4,8,1,9,7,16,2,7,2,9,1,6,3,9,1,9,3,12,1,5,7,12,1,5,4,9,1,8,4,12,1,40,23,63,6,8,6,14,1,9,7,16,1,7,8,15,1,24,21,45,3,0,0,0,0,0,0,0,0,0,0,0,0,0,0,0,0,0,0,0,0,0,0,0,0,0,0,0,0,73,51,124,11,10 มิถุนายน 2561
47,47,50050061,บ้านขุนแม่รวม,0,0,0,0,5,2,7,1,9,10,19,1,14,12,26,2,16,11,27,1,8,11,19,1,7,15,22,1,3,4,7,1,6,14,20,1,13,10,23,1,53,65,118,6,8,7,15,1,14,9,23,1,7,16,23,1,29,32,61,3,0,0,0,0,0,0,0,0,0,0,0,0,0,0,0,0,0,0,0,0,0,0,0,0,0,0,0,0,96,109,205,11,10 มิถุนายน 2561
48,48,50050062,บ้านทุ่งยาว,0,0,0,0,4,9,13,1,5,5,10,1,9,14,23,2,6,6,12,1,5,6,11,1,8,7,15,1,9,6,15,1,7,2,9,1,6,2,8,1,41,29,70,6,0,0,0,0,0,0,0,0,0,0,0,0,0,0,0,0,0,0,0,0,0,0,0,0,0,0,0,0,0,0,0,0,0,0,0,0,0,0,0,0,0,0,0,0,50,43,93,8,10 มิถุนายน 2561
49,49,50050063,บ้านต่อเรือ,0,0,0,0,0,0,0,0,0,0,0,0,0,0,0,0,0,1,1,1,9,1,10,1,0,2,2,1,2,0,2,1,7,3,10,1,5,3,8,1,23,10,33,6,0,0,0,0,0,0,0,0,0,0,0,0,0,0,0,0,0,0,0,0,0,0,0,0,0,0,0,0,0,0,0,0,0,0,0,0,0,0,0,0,0,0,0,0,23,10,33,6,10 มิถุนายน 2561
50,50,50050064,ชุมชนบ้านช่างเคิ่ง,2,1,3,1,6,9,15,1,3,7,10,1,11,17,28,3,8,12,20,1,16,13,29,2,10,10,20,1,13,4,17,1,14,15,29,1,18,14,32,2,79,68,147,8,0,0,0,0,0,0,0,0,0,0,0,0,0,0,0,0,0,0,0,0,0,0,0,0,0,0,0,0,0,0,0,0,0,0,0,0,0,0,0,0,0,0,0,0,90,85,175,11,10 มิถุนายน 2561
51,51,50050066,บ้านแม่ปาน,0,0,0,0,3,2,5,1,9,10,19,1,12,12,24,2,10,7,17,1,14,9,23,1,12,2,14,1,8,7,15,1,12,8,20,1,8,4,12,1,64,37,101,6,0,0,0,0,0,0,0,0,0,0,0,0,0,0,0,0,0,0,0,0,0,0,0,0,0,0,0,0,0,0,0,0,0,0,0,0,0,0,0,0,0,0,0,0,76,49,125,8,10 มิถุนายน 2561
52,52,50050067,อินทนนท์วิทยา,0,0,0,0,14,10,24,1,4,4,8,1,18,14,32,2,10,7,17,1,4,5,9,1,8,8,16,1,8,6,14,1,13,5,18,1,7,9,16,1,50,40,90,6,14,7,21,1,12,5,17,1,12,18,30,1,38,30,68,3,0,0,0,0,0,0,0,0,0,0,0,0,0,0,0,0,0,0,0,0,0,0,0,0,0,0,0,0,106,84,190,11,10 มิถุนายน 2561
53,53,50050068,บ้านเนินวิทยา,0,0,0,0,2,1,3,1,2,4,6,1,4,5,9,2,9,5,14,1,7,8,15,1,11,9,20,1,6,13,19,1,14,11,25,1,9,3,12,1,56,49,105,6,0,0,0,0,0,0,0,0,0,0,0,0,0,0,0,0,0,0,0,0,0,0,0,0,0,0,0,0,0,0,0,0,0,0,0,0,0,0,0,0,0,0,0,0,60,54,114,8,10 มิถุนายน 2561
54,54,50050071,ชุมชนบ้านพร้าวหนุ่ม,0,0,0,0,17,14,31,1,7,12,19,1,24,26,50,2,21,14,35,1,8,14,22,1,22,11,33,1,19,19,38,1,7,9,16,1,10,11,21,1,87,78,165,6,0,0,0,0,0,0,0,0,0,0,0,0,0,0,0,0,0,0,0,0,0,0,0,0,0,0,0,0,0,0,0,0,0,0,0,0,0,0,0,0,0,0,0,0,111,104,215,8,10 มิถุนายน 2561
55,55,50050072,บ้านสามสบ,0,0,0,0,0,0,0,0,8,3,11,1,8,3,11,1,5,1,6,1,2,2,4,1,1,2,3,1,7,2,9,1,6,0,6,1,2,0,2,1,23,7,30,6,0,0,0,0,0,0,0,0,0,0,0,0,0,0,0,0,0,0,0,0,0,0,0,0,0,0,0,0,0,0,0,0,0,0,0,0,0,0,0,0,0,0,0,0,31,10,41,7,10 มิถุนายน 2561
56,56,50050073,บ้านผานัง,0,0,0,0,2,4,6,1,10,3,13,1,12,7,19,2,7,1,8,1,7,7,14,1,7,9,16,1,9,8,17,1,8,10,18,1,15,7,22,1,53,42,95,6,0,0,0,0,0,0,0,0,0,0,0,0,0,0,0,0,0,0,0,0,0,0,0,0,0,0,0,0,0,0,0,0,0,0,0,0,0,0,0,0,0,0,0,0,65,49,114,8,10 มิถุนายน 2561
57,57,50050075,ชุมชนตำบลท่าผา,0,0,0,0,9,6,15,1,7,11,18,1,16,17,33,2,8,14,22,1,8,9,17,1,8,9,17,1,8,12,20,1,12,10,22,1,7,7,14,1,51,61,112,6,0,0,0,0,0,0,0,0,0,0,0,0,0,0,0,0,0,0,0,0,0,0,0,0,0,0,0,0,0,0,0,0,0,0,0,0,0,0,0,0,0,0,0,0,67,78,145,8,10 มิถุนายน 2561
58,58,50050077,บ้านทัพ,0,0,0,0,3,6,9,1,8,2,10,1,11,8,19,2,7,2,9,1,3,4,7,1,9,5,14,1,2,8,10,1,4,6,10,1,3,4,7,1,28,29,57,6,0,0,0,0,0,0,0,0,0,0,0,0,0,0,0,0,0,0,0,0,0,0,0,0,0,0,0,0,0,0,0,0,0,0,0,0,0,0,0,0,0,0,0,0,39,37,76,8,10 มิถุนายน 2561
59,59,50050078,สามัคคีสันม่วง,0,0,0,0,12,12,24,1,6,9,15,1,18,21,39,2,11,12,23,1,8,17,25,1,15,11,26,1,8,10,18,1,13,10,23,1,8,13,21,1,63,73,136,6,9,14,23,1,13,10,23,1,11,6,17,1,33,30,63,3,0,0,0,0,0,0,0,0,0,0,0,0,0,0,0,0,0,0,0,0,0,0,0,0,0,0,0,0,114,124,238,11,10 มิถุนายน 2561
60,60,50050079,บ้านจันทร์,0,0,0,0,5,4,9,1,10,3,13,1,15,7,22,2,7,3,10,1,6,4,10,1,5,10,15,1,6,6,12,1,7,10,17,1,4,8,12,1,35,41,76,6,7,7,14,1,14,8,22,1,14,2,16,1,35,17,52,3,0,0,0,0,0,0,0,0,0,0,0,0,0,0,0,0,0,0,0,0,0,0,0,0,0,0,0,0,85,65,150,11,10 มิถุนายน 2561
61,61,50050080,บ้านจันทร์ สาขาแจ่มน้อย,0,0,0,0,4,1,5,1,2,5,7,1,6,6,12,2,2,6,8,1,5,3,8,1,5,2,7,1,3,5,8,1,4,4,8,1,2,2,4,1,21,22,43,6,0,0,0,0,0,0,0,0,0,0,0,0,0,0,0,0,0,0,0,0,0,0,0,0,0,0,0,0,0,0,0,0,0,0,0,0,0,0,0,0,0,0,0,0,27,28,55,8,10 มิถุนายน 2561
62,62,50050082,บ้านสองธาร,0,0,0,0,10,7,17,1,10,9,19,1,20,16,36,2,10,7,17,1,6,8,14,1,4,6,10,1,6,4,10,1,0,2,2,1,1,0,1,1,27,27,54,6,0,0,0,0,0,0,0,0,0,0,0,0,0,0,0,0,0,0,0,0,0,0,0,0,0,0,0,0,0,0,0,0,0,0,0,0,0,0,0,0,0,0,0,0,47,43,90,8,10 มิถุนายน 2561
63,63,50050083,บ้านทุ่งแก,0,0,0,0,3,5,8,1,12,8,20,1,15,13,28,2,7,1,8,1,4,8,12,1,5,7,12,1,7,5,12,1,4,5,9,1,10,8,18,1,37,34,71,6,6,14,20,1,5,9,14,1,3,3,6,1,14,26,40,3,0,0,0,0,0,0,0,0,0,0,0,0,0,0,0,0,0,0,0,0,0,0,0,0,0,0,0,0,66,73,139,11,10 มิถุนายน 2561
64,64,50050084,บ้านปางหินฝน,0,0,0,0,1,5,6,1,7,3,10,1,8,8,16,2,6,5,11,1,5,1,6,1,1,6,7,1,1,4,5,1,3,3,6,1,5,4,9,1,21,23,44,6,18,4,22,1,10,11,21,1,14,11,25,1,42,26,68,3,0,0,0,0,0,0,0,0,0,0,0,0,0,0,0,0,0,0,0,0,0,0,0,0,0,0,0,0,71,57,128,11,10 มิถุนายน 2561
65,65,50050085,บ้านพุย,0,0,0,0,17,19,36,1,13,9,22,1,30,28,58,2,15,15,30,1,16,7,23,1,16,9,25,1,6,10,16,1,6,5,11,1,3,9,12,1,62,55,117,6,0,0,0,0,0,0,0,0,0,0,0,0,0,0,0,0,0,0,0,0,0,0,0,0,0,0,0,0,0,0,0,0,0,0,0,0,0,0,0,0,0,0,0,0,92,83,175,8,10 มิถุนายน 2561
66,66,50050086,บ้านแม่ตูม,0,0,0,0,2,5,7,1,5,5,10,1,7,10,17,2,3,3,6,1,3,2,5,1,6,2,8,1,3,1,4,1,0,3,3,1,10,8,18,1,25,19,44,6,0,0,0,0,0,0,0,0,0,0,0,0,0,0,0,0,0,0,0,0,0,0,0,0,0,0,0,0,0,0,0,0,0,0,0,0,0,0,0,0,0,0,0,0,32,29,61,8,10 มิถุนายน 2561
67,67,50050087,บ้านเฮาะวิทยา,0,0,0,0,3,5,8,1,6,5,11,1,9,10,19,2,3,3,6,1,2,5,7,1,3,1,4,1,9,5,14,1,6,3,9,1,2,1,3,1,25,18,43,6,0,0,0,0,0,0,0,0,0,0,0,0,0,0,0,0,0,0,0,0,0,0,0,0,0,0,0,0,0,0,0,0,0,0,0,0,0,0,0,0,0,0,0,0,34,28,62,8,10 มิถุนายน 2561
68,68,50050088,บ้านแปะสามัคคี,0,0,0,0,1,4,5,1,4,2,6,1,5,6,11,2,3,4,7,1,4,5,9,1,5,6,11,1,8,2,10,1,8,7,15,1,2,5,7,1,30,29,59,6,0,0,0,0,0,0,0,0,0,0,0,0,0,0,0,0,0,0,0,0,0,0,0,0,0,0,0,0,0,0,0,0,0,0,0,0,0,0,0,0,0,0,0,0,35,35,70,8,10 มิถุนายน 2561
69,69,50050089,บ้านแม่แฮใต้,0,0,0,0,5,3,8,1,6,8,14,1,11,11,22,2,15,10,25,1,4,15,19,1,9,11,20,1,5,5,10,1,4,9,13,1,8,6,14,1,45,56,101,6,0,0,0,0,0,0,0,0,0,0,0,0,0,0,0,0,0,0,0,0,0,0,0,0,0,0,0,0,0,0,0,0,0,0,0,0,0,0,0,0,0,0,0,0,56,67,123,8,10 มิถุนายน 2561
70,70,50050090,บ้านแม่หงานหลวง,6,7,13,1,5,10,15,1,6,8,14,1,17,25,42,3,9,11,20,1,7,4,11,1,10,10,20,1,11,4,15,1,9,5,14,1,11,5,16,1,57,39,96,6,11,9,20,1,8,6,14,1,11,11,22,1,30,26,56,3,0,0,0,0,0,0,0,0,0,0,0,0,0,0,0,0,0,0,0,0,0,0,0,0,0,0,0,0,104,90,194,12,10 มิถุนายน 2561
71,71,50050091,บ้านพุย สาขาพุยใต้,0,0,0,0,0,0,0,0,0,0,0,0,0,0,0,0,4,1,5,1,1,4,5,1,2,9,11,1,1,2,3,1,2,1,3,1,1,2,3,1,11,19,30,6,0,0,0,0,0,0,0,0,0,0,0,0,0,0,0,0,0,0,0,0,0,0,0,0,0,0,0,0,0,0,0,0,0,0,0,0,0,0,0,0,0,0,0,0,11,19,30,6,10 มิถุนายน 2561
72,72,50050093,บ้านแม่แดดน้อย,0,0,0,0,2,1,3,1,5,3,8,1,7,4,11,2,10,1,11,1,8,1,9,1,2,5,7,1,7,4,11,1,3,5,8,1,2,3,5,1,32,19,51,6,14,10,24,1,19,6,25,1,4,4,8,1,37,20,57,3,0,0,0,0,0,0,0,0,0,0,0,0,0,0,0,0,0,0,0,0,0,0,0,0,0,0,0,0,76,43,119,11,10 มิถุนายน 2561
73,73,50050094,บ้านห้วยปู,0,0,0,0,7,4,11,1,3,7,10,1,10,11,21,2,7,4,11,1,0,6,6,1,3,2,5,1,5,6,11,1,7,3,10,1,6,6,12,1,28,27,55,6,0,0,0,0,0,0,0,0,0,0,0,0,0,0,0,0,0,0,0,0,0,0,0,0,0,0,0,0,0,0,0,0,0,0,0,0,0,0,0,0,0,0,0,0,38,38,76,8,10 มิถุนายน 2561
74,74,50050095,บ้านแม่ตะละเหนือ,1,1,2,1,4,2,6,1,3,1,4,1,8,4,12,3,3,5,8,1,4,0,4,1,0,3,3,1,4,3,7,1,5,4,9,1,4,5,9,1,20,20,40,6,0,0,0,0,0,0,0,0,0,0,0,0,0,0,0,0,0,0,0,0,0,0,0,0,0,0,0,0,0,0,0,0,0,0,0,0,0,0,0,0,0,0,0,0,28,24,52,9,10 มิถุนายน 2561
75,75,50050096,บ้านห้วยปู สาขาแม่ตะละใต้,3,0,3,1,2,0,2,1,0,1,1,1,5,1,6,3,2,2,4,1,1,0,1,1,2,1,3,1,0,0,0,0,0,0,0,0,0,0,0,0,5,3,8,3,0,0,0,0,0,0,0,0,0,0,0,0,0,0,0,0,0,0,0,0,0,0,0,0,0,0,0,0,0,0,0,0,0,0,0,0,0,0,0,0,0,0,0,0,10,4,14,6,10 มิถุนายน 2561
76,76,50050097,บ้านแม่แดดน้อย สาขาดงสามหมื่น,0,0,0,0,11,19,30,1,19,29,48,1,30,48,78,2,10,14,24,1,9,11,20,1,6,7,13,1,8,5,13,1,4,9,13,1,5,6,11,1,42,52,94,6,0,0,0,0,0,0,0,0,0,0,0,0,0,0,0,0,0,0,0,0,0,0,0,0,0,0,0,0,0,0,0,0,0,0,0,0,0,0,0,0,0,0,0,0,72,100,172,8,10 มิถุนายน 2561
77,77,50050098,บ้านแม่แฮเหนือ สาขาแม่แจ๊ะ,0,0,0,0,0,0,0,0,15,11,26,1,15,11,26,1,9,14,23,1,11,7,18,1,4,7,11,1,10,3,13,1,4,3,7,1,9,6,15,1,47,40,87,6,0,0,0,0,0,0,0,0,0,0,0,0,0,0,0,0,0,0,0,0,0,0,0,0,0,0,0,0,0,0,0,0,0,0,0,0,0,0,0,0,0,0,0,0,62,51,113,7,10 มิถุนายน 2561
78,78,50050099,บ้านแม่มุ,0,0,0,0,4,7,11,1,9,6,15,1,13,13,26,2,10,4,14,1,5,6,11,1,4,4,8,1,2,1,3,1,2,4,6,1,3,5,8,1,26,24,50,6,0,0,0,0,0,0,0,0,0,0,0,0,0,0,0,0,0,0,0,0,0,0,0,0,0,0,0,0,0,0,0,0,0,0,0,0,0,0,0,0,0,0,0,0,39,37,76,8,10 มิถุนายน 2561
79,79,50050100,บ้านแม่นาจร,0,0,0,0,3,4,7,1,6,8,14,1,9,12,21,2,3,10,13,1,6,5,11,1,3,7,10,1,10,4,14,1,9,10,19,1,17,2,19,1,48,38,86,6,36,20,56,2,33,21,54,2,20,23,43,2,89,64,153,6,0,0,0,0,0,0,0,0,0,0,0,0,0,0,0,0,0,0,0,0,0,0,0,0,0,0,0,0,146,114,260,14,10 มิถุนายน 2561
80,80,50050101,บ้านแม่มะลอ,0,0,0,0,0,0,0,0,3,1,4,1,3,1,4,1,16,4,20,1,12,6,18,1,4,6,10,1,3,6,9,1,8,6,14,1,3,4,7,1,46,32,78,6,0,0,0,0,0,0,0,0,0,0,0,0,0,0,0,0,0,0,0,0,0,0,0,0,0,0,0,0,0,0,0,0,0,0,0,0,0,0,0,0,0,0,0,0,49,33,82,7,10 มิถุนายน 2561
81,81,50050102,บ้านแม่วาก,0,0,0,0,2,2,4,1,1,1,2,1,3,3,6,2,3,0,3,1,2,4,6,1,6,2,8,1,4,2,6,1,6,5,11,1,5,2,7,1,26,15,41,6,0,0,0,0,0,0,0,0,0,0,0,0,0,0,0,0,0,0,0,0,0,0,0,0,0,0,0,0,0,0,0,0,0,0,0,0,0,0,0,0,0,0,0,0,29,18,47,8,10 มิถุนายน 2561
82,82,50050103,บ้านสบวาก,0,0,0,0,0,0,0,0,0,0,0,0,0,0,0,0,6,3,9,1,4,3,7,1,1,4,5,1,6,2,8,1,1,7,8,1,10,11,21,1,28,30,58,6,0,0,0,0,0,0,0,0,0,0,0,0,0,0,0,0,0,0,0,0,0,0,0,0,0,0,0,0,0,0,0,0,0,0,0,0,0,0,0,0,0,0,0,0,28,30,58,6,10 มิถุนายน 2561
83,83,50050105,บ้านแม่แฮเหนือ,0,0,0,0,8,15,23,1,31,32,63,3,39,47,86,4,61,48,109,4,21,27,48,2,37,34,71,3,36,28,64,2,21,31,52,2,22,24,46,2,198,192,390,15,27,25,52,2,24,26,50,2,22,33,55,2,73,84,157,6,34,33,67,2,4,20,24,2,10,21,31,2,0,0,0,0,0,0,0,0,0,0,0,0,48,74,122,6,358,397,755,31,10 มิถุนายน 2561
84,84,50050106,บ้านสบแม่รวม,0,0,0,0,0,0,0,0,3,2,5,1,3,2,5,1,6,3,9,1,3,8,11,1,3,3,6,1,7,9,16,1,1,3,4,1,2,4,6,1,22,30,52,6,0,0,0,0,0,0,0,0,0,0,0,0,0,0,0,0,0,0,0,0,0,0,0,0,0,0,0,0,0,0,0,0,0,0,0,0,0,0,0,0,0,0,0,0,25,32,57,7,10 มิถุนายน 2561
85,85,50050107,บ้านห้วยผา,0,0,0,0,0,0,0,0,0,0,0,0,0,0,0,0,0,6,6,1,3,1,4,1,4,5,9,1,6,3,9,1,9,8,17,1,9,8,17,1,31,31,62,6,0,0,0,0,0,0,0,0,0,0,0,0,0,0,0,0,0,0,0,0,0,0,0,0,0,0,0,0,0,0,0,0,0,0,0,0,0,0,0,0,0,0,0,0,31,31,62,6,10 มิถุนายน 2561
86,86,50050108,บ้านแม่ซา,0,0,0,0,1,1,2,1,9,7,16,1,10,8,18,2,10,9,19,1,4,3,7,1,7,8,15,1,19,10,29,1,8,6,14,1,9,10,19,1,57,46,103,6,17,13,30,1,18,17,35,1,17,10,27,1,52,40,92,3,0,0,0,0,0,0,0,0,0,0,0,0,0,0,0,0,0,0,0,0,0,0,0,0,0,0,0,0,119,94,213,11,10 มิถุนายน 2561
87,87,50050109,บ้านแม่หอย,0,0,0,0,0,0,0,0,0,0,0,0,0,0,0,0,7,4,11,1,4,3,7,1,8,4,12,1,5,2,7,1,5,5,10,1,4,7,11,1,33,25,58,6,0,0,0,0,0,0,0,0,0,0,0,0,0,0,0,0,0,0,0,0,0,0,0,0,0,0,0,0,0,0,0,0,0,0,0,0,0,0,0,0,0,0,0,0,33,25,58,6,10 มิถุนายน 2561
88,88,50050110,บ้านแม่เอาะ,0,0,0,0,0,1,1,1,5,5,10,1,5,6,11,2,10,11,21,1,10,7,17,1,6,2,8,1,10,3,13,1,9,6,15,1,8,16,24,1,53,45,98,6,9,4,13,1,11,3,14,1,7,2,9,1,27,9,36,3,0,0,0,0,0,0,0,0,0,0,0,0,0,0,0,0,0,0,0,0,0,0,0,0,0,0,0,0,85,60,145,11,10 มิถุนายน 2561
89,89,50050112,บ้านแม่ศึก,2,1,3,1,2,0,2,1,7,3,10,1,11,4,15,3,3,8,11,1,4,5,9,1,2,1,3,1,3,3,6,1,7,6,13,1,5,3,8,1,24,26,50,6,11,8,19,1,11,7,18,1,12,8,20,1,34,23,57,3,0,0,0,0,0,0,0,0,0,0,0,0,0,0,0,0,0,0,0,0,0,0,0,0,0,0,0,0,69,53,122,12,10 มิถุนายน 2561
90,90,50050113,บ้านขุนแม่นาย,0,0,0,0,0,1,1,1,0,0,0,0,0,1,1,1,3,3,6,1,5,11,16,1,4,3,7,1,3,2,5,1,5,6,11,1,3,2,5,1,23,27,50,6,0,0,0,0,0,0,0,0,0,0,0,0,0,0,0,0,0,0,0,0,0,0,0,0,0,0,0,0,0,0,0,0,0,0,0,0,0,0,0,0,0,0,0,0,23,28,51,7,10 มิถุนายน 2561
91,91,50050114,บ้านผาละปิ,0,0,0,0,0,0,0,0,3,4,7,1,3,4,7,1,6,4,10,1,7,8,15,1,6,7,13,1,10,6,16,1,5,11,16,1,10,7,17,1,44,43,87,6,0,0,0,0,0,0,0,0,0,0,0,0,0,0,0,0,0,0,0,0,0,0,0,0,0,0,0,0,0,0,0,0,0,0,0,0,0,0,0,0,0,0,0,0,47,47,94,7,10 มิถุนายน 2561
92,92,50050115,บ้านปางอุ๋ง,0,0,0,0,31,37,68,2,25,27,52,2,56,64,120,4,38,27,65,2,23,19,42,2,21,16,37,2,23,14,37,2,20,14,34,2,16,17,33,2,141,107,248,12,15,11,26,1,21,15,36,1,26,7,33,1,62,33,95,3,3,8,11,2,8,7,15,3,7,4,11,2,0,0,0,0,0,0,0,0,0,0,0,0,18,19,37,7,277,223,500,26,10 มิถุนายน 2561
93,93,50050116,บ้านขุนแม่หยอด,4,5,9,1,2,3,5,1,4,4,8,1,10,12,22,3,6,5,11,1,5,5,10,1,9,10,19,1,5,4,9,1,4,5,9,1,6,7,13,1,35,36,71,6,5,5,10,1,13,4,17,1,4,6,10,1,22,15,37,3,0,0,0,0,0,0,0,0,0,0,0,0,0,0,0,0,0,0,0,0,0,0,0,0,0,0,0,0,67,63,130,12,10 มิถุนายน 2561
94,94,50050117,บ้านปางอุ๋ง สาขาแม่สะต๊อบ,0,0,0,0,0,0,0,0,4,4,8,1,4,4,8,1,8,7,15,1,7,5,12,1,7,5,12,1,6,5,11,1,8,1,9,1,3,6,9,1,39,29,68,6,0,0,0,0,0,0,0,0,0,0,0,0,0,0,0,0,0,0,0,0,0,0,0,0,0,0,0,0,0,0,0,0,0,0,0,0,0,0,0,0,0,0,0,0,43,33,76,7,10 มิถุนายน 2561
95,95,50050118,บ้านปางเกี๊ยะ,0,0,0,0,19,25,44,2,22,23,45,2,41,48,89,4,35,21,56,2,24,18,42,2,14,12,26,1,14,14,28,1,13,10,23,1,10,13,23,1,110,88,198,8,0,0,0,0,0,0,0,0,0,0,0,0,0,0,0,0,0,0,0,0,0,0,0,0,0,0,0,0,0,0,0,0,0,0,0,0,0,0,0,0,0,0,0,0,151,136,287,12,10 มิถุนายน 2561
96,96,50050119,บ้านนากลาง,0,0,0,0,3,4,7,1,5,5,10,1,8,9,17,2,12,6,18,1,4,2,6,1,3,6,9,1,3,2,5,1,4,5,9,1,2,4,6,1,28,25,53,6,0,0,0,0,0,0,0,0,0,0,0,0,0,0,0,0,0,0,0,0,0,0,0,0,0,0,0,0,0,0,0,0,0,0,0,0,0,0,0,0,0,0,0,0,36,34,70,8,10 มิถุนายน 2561
97,97,50050120,บ้านนาฮ่อง,3,5,8,1,14,12,26,1,21,17,38,1,38,34,72,3,16,13,29,1,8,12,20,1,7,10,17,1,9,8,17,1,16,5,21,1,11,8,19,1,67,56,123,6,0,0,0,0,0,0,0,0,0,0,0,0,0,0,0,0,0,0,0,0,0,0,0,0,0,0,0,0,0,0,0,0,0,0,0,0,0,0,0,0,0,0,0,0,105,90,195,9,10 มิถุนายน 2561
98,98,50050121,บ้านนากลาง สาขาห้วยผักกูด,0,0,0,0,6,3,9,1,4,7,11,1,10,10,20,2,6,10,16,1,5,1,6,1,3,3,6,1,3,2,5,1,2,5,7,1,4,5,9,1,23,26,49,6,0,0,0,0,0,0,0,0,0,0,0,0,0,0,0,0,0,0,0,0,0,0,0,0,0,0,0,0,0,0,0,0,0,0,0,0,0,0,0,0,0,0,0,0,33,36,69,8,10 มิถุนายน 2561
99,99,50050229,บ้านทุ่งแก สาขาบ้านแม่แอบ,0,0,0,0,9,9,18,1,10,9,19,1,19,18,37,2,4,8,12,1,14,7,21,1,7,14,21,1,3,4,7,1,6,4,10,1,5,5,10,1,39,42,81,6,0,0,0,0,0,0,0,0,0,0,0,0,0,0,0,0,0,0,0,0,0,0,0,0,0,0,0,0,0,0,0,0,0,0,0,0,0,0,0,0,0,0,0,0,58,60,118,8,10 มิถุนายน 2561
100,100,2147483647,,0,0,0,0,0,0,0,1,0,0,0,2,0,0,0,3,0,0,0,2,0,0,0,2,0,0,0,2,0,0,0,2,0,0,0,2,0,0,0,1,0,0,0,11,0,0,0,0,0,0,0,0,0,0,0,0,0,0,0,0,0,0,0,0,0,0,0,0,0,0,0,0,0,0,0,0,0,0,0,0,0,0,0,0,0,0,0,0,0,0,0,14,10 มิถุนายน 2561
101,101,2147483647,,0,0,0,0,0,0,0,0,0,0,0,0,0,0,0,0,0,0,0,1,0,0,0,1,0,0,0,1,0,0,0,0,0,0,0,0,0,0,0,0,0,0,0,3,0,0,0,0,0,0,0,0,0,0,0,0,0,0,0,0,0,0,0,0,0,0,0,0,0,0,0,0,0,0,0,0,0,0,0,0,0,0,0,0,0,0,0,0,0,0,0,3,10 มิถุนายน 2561
102,102,2147483647,,0,0,0,0,0,0,0,0,0,0,0,0,0,0,0,0,0,0,0,0,0,0,0,0,0,0,0,0,0,0,0,0,0,0,0,0,0,0,0,0,0,0,0,0,0,0,0,0,0,0,0,0,0,0,0,0,0,0,0,0,0,0,0,0,0,0,0,0,0,0,0,0,0,0,0,0,0,0,0,0,0,0,0,0,0,0,0,0,0,0,0,0,10 มิถุนายน 2561
103,103,2147483647,,0,0,0,0,0,0,0,0,0,0,0,0,0,0,0,0,0,0,0,0,0,0,0,0,0,0,0,0,0,0,0,0,0,0,0,0,0,0,0,0,0,0,0,0,0,0,0,0,0,0,0,0,0,0,0,0,0,0,0,0,0,0,0,0,0,0,0,0,0,0,0,0,0,0,0,0,0,0,0,0,0,0,0,0,0,0,0,0,0,0,0,0,10 มิถุนายน 2561
