,0,1,2,3,4,5,6,7,8,9,10,11,12,13,14,15,16,17,18,19,20,21,22,23,24,25,26,27,28,29,30,31,32,33,34,35,36,37,38,39,40,41,42,43,44,45,46,47,48,49,50,51,52,53,54,55,56,57,58,59,60,61,62,63,64,65,66,67,68,69,70,71,72,73,74,75,76,77,78,79,80,81,82,83,84,85,86,87,88,89,90,91,92,93,94,95
0,ลำดับ,รหัส SMIS,โรงเรียน,อ.3 ขวบ ชาย,อ.3 ขวบ หญิง,รวมอ.3 ขวบ,อ.3 ขวบ ห้อง,อ.1 ชาย,อ.1 หญิง,รวมอ.1,อ.1 ห้อง,อ.2 ชาย,อ.2 หญิง,รวมอ.2,อ.2 ห้อง,รวมก่อนประถม ชาย,รวมก่อนประถม หญิง,รวมก่อนประถม,รวมห้องก่อนประถม,ป.1 ชาย,ป.1 หญิง,รวมป.1,ป.1 ห้อง,ป.2 ชาย,ป.2 หญิง,รวมป.2,ป.2 ห้อง,ป.3 ชาย,ป.3 หญิง,รวมป.3,ป.3 ห้อง,ป.4 ชาย,ป.4 หญิง,รวมป.4,ป.4 ห้อง,ป.5 ชาย,ป.5 หญิง,รวมป.5,ป.5 ห้อง,ป.6 ชาย,ป.6 หญิง,รวมป.6,ป.6 ห้อง,รวมประถม ชาย,รวมประถม หญิง,รวมประถม,รวมห้องประถม,ม.1 ชาย,ม.1 หญิง,รวมม.1,ม.1 ห้อง,ม.2 ชาย,ม.2 หญิง,รวมม.2,ม.2 ห้อง,ม.3 ชาย,ม.3 หญิง,รวมม.3,ม.3 ห้อง,รวมม.ต้น ชาย,รวมม.ต้น หญิง,รวมม.ต้น,รวมห้องม.ต้น,ม.4 ชาย,ม.4 หญิง,รวมม.4,ม.4 ห้อง,ม.5 ชาย,ม.5 หญิง,รวมม.5,ม.5 ห้อง,ม.6 ชาย,ม.6 หญิง,รวมม.6,ม.6 ห้อง,ปวช.1 ชาย,ปวช.1 หญิง,รวมปวช.1,ปวช.1 ห้อง,ปวช.2 ชาย,ปวช.2 หญิง,รวมปวช.2,ปวช.2 ห้อง,ปวช.3 ชาย,ปวช.3 หญิง,รวมปวช.3,ปวช.3 ห้อง,รวมม.ปลายและเทียบเท่า ชาย,รวมม.ปลายและเทียบเท่า หญิง,รวมม.ปลายและเทียบเท่า,รวมห้องม.ปลายและเทียบเท่า,รวมทั้งหมด ชาย,รวมทั้งหมด หญิง,รวมทั้งหมด,รวมห้องทั้งหมด,ข้อมูล ณ วันที่
1,1,52020005,บ้านท่าผา,6,9,15,1,7,13,20,1,10,9,19,1,23,31,54,3,8,11,19,1,10,8,18,1,10,9,19,1,6,7,13,1,5,4,9,1,3,5,8,1,42,44,86,6,0,0,0,0,0,0,0,0,0,0,0,0,0,0,0,0,0,0,0,0,0,0,0,0,0,0,0,0,0,0,0,0,0,0,0,0,0,0,0,0,0,0,0,0,65,75,140,9,10 มิถุนายน 2561
2,2,52020006,บ้านศาลาสามัคคี,0,0,0,0,6,3,9,1,8,2,10,1,14,5,19,2,8,3,11,1,4,5,9,1,1,3,4,1,2,1,3,1,5,6,11,1,3,2,5,1,23,20,43,6,0,0,0,0,0,0,0,0,0,0,0,0,0,0,0,0,0,0,0,0,0,0,0,0,0,0,0,0,0,0,0,0,0,0,0,0,0,0,0,0,0,0,0,0,37,25,62,8,10 มิถุนายน 2561
3,3,52020007,บ้านจอมปิง,3,1,4,1,2,3,5,1,3,4,7,1,8,8,16,3,4,4,8,1,1,1,2,1,5,2,7,1,4,2,6,1,3,8,11,1,2,1,3,1,19,18,37,6,0,0,0,0,0,0,0,0,0,0,0,0,0,0,0,0,0,0,0,0,0,0,0,0,0,0,0,0,0,0,0,0,0,0,0,0,0,0,0,0,0,0,0,0,27,26,53,9,10 มิถุนายน 2561
4,4,52020008,สบต๋ำวิทยา (แปงภักดีอุปถัมภ์),0,0,0,0,5,7,12,1,2,4,6,1,7,11,18,2,6,7,13,1,6,3,9,1,3,3,6,1,2,6,8,1,5,5,10,1,6,5,11,1,28,29,57,6,5,10,15,1,8,8,16,1,5,10,15,1,18,28,46,3,0,0,0,0,0,0,0,0,0,0,0,0,0,0,0,0,0,0,0,0,0,0,0,0,0,0,0,0,53,68,121,11,10 มิถุนายน 2561
5,5,52020011,บ้านนาแก้วประชารัฐ,0,0,0,0,5,4,9,1,9,3,12,1,14,7,21,2,2,8,10,1,6,3,9,1,3,2,5,1,4,5,9,1,5,4,9,1,3,4,7,1,23,26,49,6,7,5,12,1,19,7,26,1,11,4,15,1,37,16,53,3,0,0,0,0,0,0,0,0,0,0,0,0,0,0,0,0,0,0,0,0,0,0,0,0,0,0,0,0,74,49,123,11,10 มิถุนายน 2561
6,6,52020012,บ้านสองแควใต้,0,0,0,0,3,4,7,1,5,5,10,1,8,9,17,2,6,0,6,1,3,2,5,1,3,4,7,1,0,1,1,1,6,2,8,1,4,0,4,1,22,9,31,6,0,0,0,0,0,0,0,0,0,0,0,0,0,0,0,0,0,0,0,0,0,0,0,0,0,0,0,0,0,0,0,0,0,0,0,0,0,0,0,0,0,0,0,0,30,18,48,8,10 มิถุนายน 2561
7,7,52020014,วัดหาดปู่ด้าย,0,3,3,1,3,3,6,1,4,3,7,1,7,9,16,3,3,6,9,1,1,7,8,1,3,0,3,1,3,2,5,1,1,1,2,1,3,1,4,1,14,17,31,6,0,0,0,0,0,0,0,0,0,0,0,0,0,0,0,0,0,0,0,0,0,0,0,0,0,0,0,0,0,0,0,0,0,0,0,0,0,0,0,0,0,0,0,0,21,26,47,9,10 มิถุนายน 2561
8,8,52020016,วัดนาแก้ว,2,7,9,1,6,4,10,1,7,2,9,1,15,13,28,3,2,3,5,1,6,4,10,1,3,0,3,1,3,0,3,1,3,3,6,1,4,4,8,1,21,14,35,6,3,5,8,1,8,5,13,1,9,5,14,1,20,15,35,3,0,0,0,0,0,0,0,0,0,0,0,0,0,0,0,0,0,0,0,0,0,0,0,0,0,0,0,0,56,42,98,12,10 มิถุนายน 2561
9,9,52020019,ชุมชนวัดพระธาตุลำปางหลวง,0,0,0,0,13,16,29,1,9,11,20,1,22,27,49,2,5,7,12,1,12,3,15,1,5,4,9,1,10,7,17,1,5,8,13,1,4,4,8,1,41,33,74,6,0,0,0,0,0,0,0,0,0,0,0,0,0,0,0,0,0,0,0,0,0,0,0,0,0,0,0,0,0,0,0,0,0,0,0,0,0,0,0,0,0,0,0,0,63,60,123,8,10 มิถุนายน 2561
10,10,52020024,บ้านแม่หลง-สบจาง,0,0,0,0,1,2,3,1,2,4,6,1,3,6,9,2,3,5,8,1,8,5,13,1,2,2,4,1,1,3,4,1,8,2,10,1,3,2,5,1,25,19,44,6,0,0,0,0,0,0,0,0,0,0,0,0,0,0,0,0,0,0,0,0,0,0,0,0,0,0,0,0,0,0,0,0,0,0,0,0,0,0,0,0,0,0,0,0,28,25,53,8,10 มิถุนายน 2561
11,11,52020025,วังพร้าววิทยา,0,0,0,0,7,6,13,1,10,3,13,1,17,9,26,2,3,6,9,1,10,7,17,1,6,7,13,1,10,4,14,1,11,8,19,1,6,12,18,1,46,44,90,6,9,6,15,1,5,9,14,1,6,4,10,1,20,19,39,3,0,0,0,0,0,0,0,0,0,0,0,0,0,0,0,0,0,0,0,0,0,0,0,0,0,0,0,0,83,72,155,11,10 มิถุนายน 2561
12,12,52020026,บ้านสาด-ผึ้งนาเกลือ,0,0,0,0,6,2,8,1,3,2,5,1,9,4,13,2,4,2,6,1,2,1,3,1,11,1,12,1,5,5,10,1,5,3,8,1,6,3,9,1,33,15,48,6,0,0,0,0,0,0,0,0,0,0,0,0,0,0,0,0,0,0,0,0,0,0,0,0,0,0,0,0,0,0,0,0,0,0,0,0,0,0,0,0,0,0,0,0,42,19,61,8,10 มิถุนายน 2561
13,13,52020028,ศาลาวิทยา,0,0,0,0,6,9,15,1,5,8,13,1,11,17,28,2,9,10,19,1,4,6,10,1,11,6,17,1,9,6,15,1,6,8,14,1,4,5,9,1,43,41,84,6,13,18,31,1,15,2,17,1,6,11,17,1,34,31,65,3,0,0,0,0,0,0,0,0,0,0,0,0,0,0,0,0,0,0,0,0,0,0,0,0,0,0,0,0,88,89,177,11,10 มิถุนายน 2561
14,14,52020029,อนุบาลเกาะคา (น้ำตาลอนุเคราะห์),0,0,0,0,33,27,60,2,30,33,63,2,63,60,123,4,29,34,63,2,29,37,66,2,23,31,54,2,32,37,69,2,25,29,54,2,29,35,64,2,167,203,370,12,34,31,65,2,35,18,53,2,33,25,58,2,102,74,176,6,0,0,0,0,0,0,0,0,0,0,0,0,0,0,0,0,0,0,0,0,0,0,0,0,0,0,0,0,332,337,669,22,10 มิถุนายน 2561
15,15,52020030,บ้านดอนธรรม,6,1,7,1,2,3,5,1,2,3,5,1,10,7,17,3,2,2,4,1,3,4,7,1,5,2,7,1,2,6,8,1,6,7,13,1,3,3,6,1,21,24,45,6,0,0,0,0,0,0,0,0,0,0,0,0,0,0,0,0,0,0,0,0,0,0,0,0,0,0,0,0,0,0,0,0,0,0,0,0,0,0,0,0,0,0,0,0,31,31,62,9,10 มิถุนายน 2561
16,16,52020031,บ้านทุ่งขาม,6,5,11,1,3,4,7,1,4,7,11,1,13,16,29,3,7,2,9,1,2,7,9,1,2,2,4,1,3,5,8,1,7,6,13,1,5,4,9,1,26,26,52,6,0,0,0,0,0,0,0,0,0,0,0,0,0,0,0,0,0,0,0,0,0,0,0,0,0,0,0,0,0,0,0,0,0,0,0,0,0,0,0,0,0,0,0,0,39,42,81,9,10 มิถุนายน 2561
17,17,52020034,บ้านดอนธรรมสาขาต้นผึ้ง,0,0,0,0,0,0,0,0,0,0,0,0,0,0,0,0,0,0,0,0,0,0,0,0,0,0,0,0,0,0,0,0,0,0,0,0,0,0,0,0,0,0,0,0,0,0,0,0,0,0,0,0,0,0,0,0,0,0,0,0,0,0,0,0,0,0,0,0,0,0,0,0,0,0,0,0,0,0,0,0,0,0,0,0,0,0,0,0,0,0,0,0,10 มิถุนายน 2561
18,18,52020039,ไหล่หินราษฎร์บำรุง,7,9,16,1,14,13,27,1,11,12,23,1,32,34,66,3,12,9,21,1,10,17,27,1,13,5,18,1,9,7,16,1,5,11,16,1,12,7,19,1,61,56,117,6,0,0,0,0,0,0,0,0,0,0,0,0,0,0,0,0,0,0,0,0,0,0,0,0,0,0,0,0,0,0,0,0,0,0,0,0,0,0,0,0,0,0,0,0,93,90,183,9,10 มิถุนายน 2561
19,19,52020042,วัดสาแล,0,0,0,0,2,5,7,1,6,2,8,1,8,7,15,2,7,5,12,1,4,3,7,1,5,1,6,1,0,4,4,1,5,2,7,1,6,4,10,1,27,19,46,6,0,0,0,0,0,0,0,0,0,0,0,0,0,0,0,0,0,0,0,0,0,0,0,0,0,0,0,0,0,0,0,0,0,0,0,0,0,0,0,0,0,0,0,0,35,26,61,8,10 มิถุนายน 2561
20,20,52020044,ชุมชนบ้านมั่ว,2,1,3,1,6,5,11,1,5,3,8,1,13,9,22,3,4,3,7,1,3,2,5,1,4,1,5,1,1,3,4,1,3,4,7,1,7,3,10,1,22,16,38,6,0,0,0,0,0,0,0,0,0,0,0,0,0,0,0,0,0,0,0,0,0,0,0,0,0,0,0,0,0,0,0,0,0,0,0,0,0,0,0,0,0,0,0,0,35,25,60,9,10 มิถุนายน 2561
21,21,52020045,บ้านแม่กึ๊ด,0,0,0,0,7,5,12,1,3,9,12,1,10,14,24,2,4,2,6,1,1,4,5,1,4,9,13,1,1,2,3,1,1,2,3,1,3,4,7,1,14,23,37,6,0,0,0,0,0,0,0,0,0,0,0,0,0,0,0,0,0,0,0,0,0,0,0,0,0,0,0,0,0,0,0,0,0,0,0,0,0,0,0,0,0,0,0,0,24,37,61,8,10 มิถุนายน 2561
22,22,52020046,อนุบาลเสริมงาม,8,12,20,1,27,34,61,3,40,32,72,3,75,78,153,7,31,30,61,3,41,39,80,3,38,36,74,3,24,31,55,2,41,37,78,3,50,49,99,3,225,222,447,17,0,0,0,0,0,0,0,0,0,0,0,0,0,0,0,0,0,0,0,0,0,0,0,0,0,0,0,0,0,0,0,0,0,0,0,0,0,0,0,0,0,0,0,0,300,300,600,24,10 มิถุนายน 2561
23,23,52020047,บ้านกิ่วห้วยเบิก,3,1,4,1,4,2,6,1,2,2,4,1,9,5,14,3,2,0,2,1,3,4,7,1,1,0,1,1,0,2,2,1,4,1,5,1,3,5,8,1,13,12,25,6,0,0,0,0,0,0,0,0,0,0,0,0,0,0,0,0,0,0,0,0,0,0,0,0,0,0,0,0,0,0,0,0,0,0,0,0,0,0,0,0,0,0,0,0,22,17,39,9,10 มิถุนายน 2561
24,24,52020048,บ้านโป่งน้ำร้อน,0,0,0,0,3,4,7,1,3,2,5,1,6,6,12,2,2,1,3,1,2,0,2,1,3,1,4,1,2,3,5,1,4,3,7,1,3,5,8,1,16,13,29,6,0,0,0,0,0,0,0,0,0,0,0,0,0,0,0,0,0,0,0,0,0,0,0,0,0,0,0,0,0,0,0,0,0,0,0,0,0,0,0,0,0,0,0,0,22,19,41,8,10 มิถุนายน 2561
25,25,52020049,บ้านทุ่งต๋ำ,0,0,0,0,3,0,3,1,2,4,6,1,5,4,9,2,5,3,8,1,6,1,7,1,3,6,9,1,10,4,14,1,5,4,9,1,10,2,12,1,39,20,59,6,0,0,0,0,0,0,0,0,0,0,0,0,0,0,0,0,0,0,0,0,0,0,0,0,0,0,0,0,0,0,0,0,0,0,0,0,0,0,0,0,0,0,0,0,44,24,68,8,10 มิถุนายน 2561
26,26,52020050,วัดนาเอี้ยง,0,0,0,0,0,0,0,0,0,0,0,0,0,0,0,0,0,0,0,0,0,0,0,0,0,0,0,0,0,0,0,0,0,0,0,0,0,0,0,0,0,0,0,0,0,0,0,0,0,0,0,0,0,0,0,0,0,0,0,0,0,0,0,0,0,0,0,0,0,0,0,0,0,0,0,0,0,0,0,0,0,0,0,0,0,0,0,0,0,0,0,0,10 มิถุนายน 2561
27,27,52020051,ศรีลังกาวิทยา,8,5,13,1,13,11,24,1,9,17,26,1,30,33,63,3,9,5,14,1,10,7,17,1,10,11,21,1,6,7,13,1,11,3,14,1,8,7,15,1,54,40,94,6,7,8,15,1,7,1,8,1,4,4,8,1,18,13,31,3,0,0,0,0,0,0,0,0,0,0,0,0,0,0,0,0,0,0,0,0,0,0,0,0,0,0,0,0,102,86,188,12,10 มิถุนายน 2561
28,28,52020052,บ้านเหล่ายาว,0,0,0,0,2,3,5,1,4,4,8,1,6,7,13,2,1,2,3,1,4,2,6,1,1,3,4,1,5,2,7,1,2,1,3,1,3,2,5,1,16,12,28,6,0,0,0,0,0,0,0,0,0,0,0,0,0,0,0,0,0,0,0,0,0,0,0,0,0,0,0,0,0,0,0,0,0,0,0,0,0,0,0,0,0,0,0,0,22,19,41,8,10 มิถุนายน 2561
29,29,52020053,สันโป่งวิทยา,0,0,0,0,4,7,11,1,4,5,9,1,8,12,20,2,3,6,9,1,7,8,15,1,6,2,8,1,3,1,4,1,2,5,7,1,6,5,11,1,27,27,54,6,11,8,19,1,10,7,17,1,11,8,19,1,32,23,55,3,0,0,0,0,0,0,0,0,0,0,0,0,0,0,0,0,0,0,0,0,0,0,0,0,0,0,0,0,67,62,129,11,10 มิถุนายน 2561
30,30,52020055,บ้านปงแพ่ง,4,1,5,1,6,7,13,1,3,3,6,1,13,11,24,3,5,3,8,1,1,5,6,1,3,3,6,1,2,6,8,1,7,5,12,1,3,6,9,1,21,28,49,6,0,0,0,0,0,0,0,0,0,0,0,0,0,0,0,0,0,0,0,0,0,0,0,0,0,0,0,0,0,0,0,0,0,0,0,0,0,0,0,0,0,0,0,0,34,39,73,9,10 มิถุนายน 2561
31,31,52020057,เสริมขวาวิทยา,2,4,6,1,9,7,16,1,10,6,16,1,21,17,38,3,10,11,21,1,12,6,18,1,11,8,19,1,5,14,19,1,16,10,26,1,15,13,28,1,69,62,131,6,13,10,23,1,13,5,18,1,10,8,18,1,36,23,59,3,0,0,0,0,0,0,0,0,0,0,0,0,0,0,0,0,0,0,0,0,0,0,0,0,0,0,0,0,126,102,228,12,10 มิถุนายน 2561
32,32,52020059,บ้านแม่ผึ้ง,0,0,0,0,0,0,0,0,0,0,0,0,0,0,0,0,0,0,0,0,0,0,0,0,0,0,0,0,0,0,0,0,0,0,0,0,0,0,0,0,0,0,0,0,0,0,0,0,0,0,0,0,0,0,0,0,0,0,0,0,0,0,0,0,0,0,0,0,0,0,0,0,0,0,0,0,0,0,0,0,0,0,0,0,0,0,0,0,0,0,0,0,10 มิถุนายน 2561
33,33,52020060,บ้านแม่เลียง,0,0,0,0,0,0,0,0,1,2,3,1,1,2,3,1,1,4,5,1,1,3,4,1,3,2,5,1,1,0,1,1,8,4,12,1,0,2,2,1,14,15,29,6,0,0,0,0,0,0,0,0,0,0,0,0,0,0,0,0,0,0,0,0,0,0,0,0,0,0,0,0,0,0,0,0,0,0,0,0,0,0,0,0,0,0,0,0,15,17,32,7,10 มิถุนายน 2561
34,34,52020061,บ้านแม่เลียงพัฒนา,0,0,0,0,0,0,0,0,0,0,0,0,0,0,0,0,0,0,0,0,0,0,0,0,0,0,0,0,0,0,0,0,0,0,0,0,0,0,0,0,0,0,0,0,0,0,0,0,0,0,0,0,0,0,0,0,0,0,0,0,0,0,0,0,0,0,0,0,0,0,0,0,0,0,0,0,0,0,0,0,0,0,0,0,0,0,0,0,0,0,0,0,10 มิถุนายน 2561
35,35,52020062,บ้านแม่ต๋ำ,0,0,0,0,0,0,0,0,0,0,0,0,0,0,0,0,0,0,0,0,0,0,0,0,0,0,0,0,0,0,0,0,0,0,0,0,0,0,0,0,0,0,0,0,0,0,0,0,0,0,0,0,0,0,0,0,0,0,0,0,0,0,0,0,0,0,0,0,0,0,0,0,0,0,0,0,0,0,0,0,0,0,0,0,0,0,0,0,0,0,0,0,10 มิถุนายน 2561
36,36,52020063,เสริมซ้ายวิทยา,0,0,0,0,6,3,9,1,8,3,11,1,14,6,20,2,7,11,18,1,2,3,5,1,7,3,10,1,8,5,13,1,4,7,11,1,12,11,23,1,40,40,80,6,7,4,11,1,1,1,2,1,3,0,3,1,11,5,16,3,0,0,0,0,0,0,0,0,0,0,0,0,0,0,0,0,0,0,0,0,0,0,0,0,0,0,0,0,65,51,116,11,10 มิถุนายน 2561
37,37,52020064,วัดสบแม่ทำ,0,0,0,0,3,4,7,1,3,4,7,1,6,8,14,2,1,4,5,1,3,6,9,1,4,7,11,1,6,3,9,1,2,7,9,1,2,4,6,1,18,31,49,6,0,0,0,0,0,0,0,0,0,0,0,0,0,0,0,0,0,0,0,0,0,0,0,0,0,0,0,0,0,0,0,0,0,0,0,0,0,0,0,0,0,0,0,0,24,39,63,8,10 มิถุนายน 2561
38,38,52020065,ไทยรัฐวิทยา ๔๗(วัดนาเดา),0,0,0,0,3,1,4,1,2,3,5,1,5,4,9,2,2,3,5,1,3,2,5,1,3,2,5,1,4,3,7,1,0,4,4,1,3,3,6,1,15,17,32,6,0,0,0,0,0,0,0,0,0,0,0,0,0,0,0,0,0,0,0,0,0,0,0,0,0,0,0,0,0,0,0,0,0,0,0,0,0,0,0,0,0,0,0,0,20,21,41,8,10 มิถุนายน 2561
39,39,52020066,บ้านท่าโป่ง,0,0,0,0,0,0,0,0,0,0,0,0,0,0,0,0,0,0,0,0,0,0,0,0,0,0,0,0,0,0,0,0,0,0,0,0,0,0,0,0,0,0,0,0,0,0,0,0,0,0,0,0,0,0,0,0,0,0,0,0,0,0,0,0,0,0,0,0,0,0,0,0,0,0,0,0,0,0,0,0,0,0,0,0,0,0,0,0,0,0,0,0,10 มิถุนายน 2561
40,40,52020068,บ้านท่า,0,0,0,0,9,5,14,14,4,6,10,10,13,11,24,24,2,3,5,5,7,6,13,13,4,3,7,7,1,2,3,3,5,3,8,8,0,3,3,3,19,20,39,39,0,0,0,0,0,0,0,0,0,0,0,0,0,0,0,0,0,0,0,0,0,0,0,0,0,0,0,0,0,0,0,0,0,0,0,0,0,0,0,0,0,0,0,0,32,31,63,63,10 มิถุนายน 2561
41,41,52020069,วังหินวิทยา,0,0,0,0,6,2,8,1,7,3,10,1,13,5,18,2,3,6,9,1,8,5,13,1,2,8,10,1,9,8,17,1,6,6,12,1,5,6,11,1,33,39,72,6,11,8,19,1,5,3,8,1,7,6,13,1,23,17,40,3,0,0,0,0,0,0,0,0,0,0,0,0,0,0,0,0,0,0,0,0,0,0,0,0,0,0,0,0,69,61,130,11,10 มิถุนายน 2561
42,42,52020070,บ้านป่าตาล,0,0,0,0,10,3,13,1,9,8,17,1,19,11,30,2,14,9,23,1,5,9,14,1,13,4,17,1,10,4,14,1,8,7,15,1,6,4,10,1,56,37,93,6,0,0,0,0,0,0,0,0,0,0,0,0,0,0,0,0,0,0,0,0,0,0,0,0,0,0,0,0,0,0,0,0,0,0,0,0,0,0,0,0,0,0,0,0,75,48,123,8,10 มิถุนายน 2561
43,43,52020071,บ้านสองแคว,0,0,0,0,1,2,3,1,2,1,3,1,3,3,6,2,3,5,8,1,0,0,0,0,5,1,6,1,2,1,3,1,6,2,8,1,6,0,6,1,22,9,31,5,0,0,0,0,0,0,0,0,0,0,0,0,0,0,0,0,0,0,0,0,0,0,0,0,0,0,0,0,0,0,0,0,0,0,0,0,0,0,0,0,0,0,0,0,25,12,37,7,10 มิถุนายน 2561
44,44,52020073,ห้วยแก้ววิทยา,0,0,0,0,11,6,17,1,12,13,25,1,23,19,42,2,8,7,15,1,5,10,15,1,12,7,19,1,11,12,23,1,10,5,15,1,10,3,13,1,56,44,100,6,9,9,18,1,19,7,26,1,13,7,20,1,41,23,64,3,0,0,0,0,0,0,0,0,0,0,0,0,0,0,0,0,0,0,0,0,0,0,0,0,0,0,0,0,120,86,206,11,10 มิถุนายน 2561
45,45,52020075,บ้านสันหลวง,0,0,0,0,0,0,0,0,0,0,0,0,0,0,0,0,0,0,0,0,0,0,0,0,0,0,0,0,0,0,0,0,0,0,0,0,0,0,0,0,0,0,0,0,0,0,0,0,0,0,0,0,0,0,0,0,0,0,0,0,0,0,0,0,0,0,0,0,0,0,0,0,0,0,0,0,0,0,0,0,0,0,0,0,0,0,0,0,0,0,0,0,10 มิถุนายน 2561
46,46,52020076,บ้านนาโป่ง,0,0,0,0,3,3,6,1,5,1,6,1,8,4,12,2,2,3,5,1,3,5,8,1,2,2,4,1,1,3,4,1,3,1,4,1,3,3,6,1,14,17,31,6,0,0,0,0,0,0,0,0,0,0,0,0,0,0,0,0,0,0,0,0,0,0,0,0,0,0,0,0,0,0,0,0,0,0,0,0,0,0,0,0,0,0,0,0,22,21,43,8,10 มิถุนายน 2561
47,47,52020077,บ้านนาเบี้ย,0,0,0,0,6,4,10,1,3,2,5,1,9,6,15,2,4,4,8,1,4,5,9,1,2,4,6,1,4,3,7,1,3,4,7,1,3,5,8,1,20,25,45,6,0,0,0,0,0,0,0,0,0,0,0,0,0,0,0,0,0,0,0,0,0,0,0,0,0,0,0,0,0,0,0,0,0,0,0,0,0,0,0,0,0,0,0,0,29,31,60,8,10 มิถุนายน 2561
48,48,52020079,นาบ้านไร่วิทยา,0,0,0,0,5,2,7,1,5,1,6,1,10,3,13,2,6,4,10,1,4,3,7,1,2,4,6,1,7,5,12,1,4,4,8,1,4,4,8,1,27,24,51,6,3,2,5,1,6,4,10,1,4,3,7,1,13,9,22,3,0,0,0,0,0,0,0,0,0,0,0,0,0,0,0,0,0,0,0,0,0,0,0,0,0,0,0,0,50,36,86,11,10 มิถุนายน 2561
49,49,52020082,แม่ถอดวิทยา,0,0,0,0,16,17,33,1,15,19,34,1,31,36,67,2,8,20,28,1,13,7,20,1,13,14,27,1,13,18,31,1,16,11,27,1,12,11,23,1,75,81,156,6,15,14,29,1,19,10,29,1,9,12,21,1,43,36,79,3,0,0,0,0,0,0,0,0,0,0,0,0,0,0,0,0,0,0,0,0,0,0,0,0,0,0,0,0,149,153,302,11,10 มิถุนายน 2561
50,50,52020083,บ้านแม่เติน,0,0,0,0,8,3,11,1,6,4,10,1,14,7,21,2,6,3,9,1,2,3,5,1,2,3,5,1,7,3,10,1,3,3,6,1,6,3,9,1,26,18,44,6,0,0,0,0,0,0,0,0,0,0,0,0,0,0,0,0,0,0,0,0,0,0,0,0,0,0,0,0,0,0,0,0,0,0,0,0,0,0,0,0,0,0,0,0,40,25,65,8,10 มิถุนายน 2561
51,51,52020086,เถิน-ท่าผา,0,0,0,0,3,4,7,1,6,7,13,1,9,11,20,2,7,7,14,1,8,6,14,1,5,4,9,1,4,5,9,1,5,4,9,1,5,3,8,1,34,29,63,6,0,0,0,0,0,0,0,0,0,0,0,0,0,0,0,0,0,0,0,0,0,0,0,0,0,0,0,0,0,0,0,0,0,0,0,0,0,0,0,0,0,0,0,0,43,40,83,8,10 มิถุนายน 2561
52,52,52020087,บ้านท่ามะเกว๋น,4,6,10,1,6,3,9,1,2,2,4,1,12,11,23,3,7,2,9,1,3,5,8,1,3,1,4,1,5,7,12,1,3,1,4,1,3,6,9,1,24,22,46,6,0,0,0,0,0,0,0,0,0,0,0,0,0,0,0,0,0,0,0,0,0,0,0,0,0,0,0,0,0,0,0,0,0,0,0,0,0,0,0,0,0,0,0,0,36,33,69,9,10 มิถุนายน 2561
53,53,52020088,ปางกุ่มวิทยา,0,0,0,0,1,6,7,1,5,1,6,1,6,7,13,2,9,4,13,1,2,5,7,1,3,3,6,1,7,3,10,1,9,3,12,1,8,5,13,1,38,23,61,6,8,3,11,1,6,6,12,1,5,6,11,1,19,15,34,3,0,0,0,0,0,0,0,0,0,0,0,0,0,0,0,0,0,0,0,0,0,0,0,0,0,0,0,0,63,45,108,11,10 มิถุนายน 2561
54,54,52020089,บ้านหัวน้ำ,0,0,0,0,1,5,6,1,4,4,8,1,5,9,14,2,6,8,14,1,6,7,13,1,4,7,11,1,0,4,4,1,10,4,14,1,10,8,18,1,36,38,74,6,0,0,0,0,0,0,0,0,0,0,0,0,0,0,0,0,0,0,0,0,0,0,0,0,0,0,0,0,0,0,0,0,0,0,0,0,0,0,0,0,0,0,0,0,41,47,88,8,10 มิถุนายน 2561
55,55,52020090,แม่มอกวิทยา,0,0,0,0,1,4,5,1,6,4,10,1,7,8,15,2,5,4,9,1,4,4,8,1,9,3,12,1,3,5,8,1,5,6,11,1,3,2,5,1,29,24,53,6,10,8,18,1,0,3,3,1,6,2,8,1,16,13,29,3,0,0,0,0,0,0,0,0,0,0,0,0,0,0,0,0,0,0,0,0,0,0,0,0,0,0,0,0,52,45,97,11,10 มิถุนายน 2561
56,56,52020091,บ้านกุ่มเนิ้งใต้,0,0,0,0,8,1,9,1,6,8,14,1,14,9,23,2,4,7,11,1,7,6,13,1,3,6,9,1,10,1,11,1,2,7,9,1,5,3,8,1,31,30,61,6,0,0,0,0,0,0,0,0,0,0,0,0,0,0,0,0,0,0,0,0,0,0,0,0,0,0,0,0,0,0,0,0,0,0,0,0,0,0,0,0,0,0,0,0,45,39,84,8,10 มิถุนายน 2561
57,57,52020093,บ้านสะพานหิน,0,0,0,0,11,10,21,1,7,9,16,1,18,19,37,2,8,13,21,1,9,8,17,1,3,6,9,1,6,3,9,1,8,4,12,1,9,2,11,1,43,36,79,6,0,0,0,0,0,0,0,0,0,0,0,0,0,0,0,0,0,0,0,0,0,0,0,0,0,0,0,0,0,0,0,0,0,0,0,0,0,0,0,0,0,0,0,0,61,55,116,8,10 มิถุนายน 2561
58,58,52020094,บ้านน้ำดิบ,5,4,9,1,5,6,11,1,6,4,10,1,16,14,30,3,8,3,11,1,6,1,7,1,10,6,16,1,4,7,11,1,6,4,10,1,5,4,9,1,39,25,64,6,0,0,0,0,0,0,0,0,0,0,0,0,0,0,0,0,0,0,0,0,0,0,0,0,0,0,0,0,0,0,0,0,0,0,0,0,0,0,0,0,0,0,0,0,55,39,94,9,10 มิถุนายน 2561
59,59,52020095,บ้านแม่วะเด่นชัย,0,0,0,0,5,2,7,1,10,1,11,1,15,3,18,2,10,4,14,1,6,3,9,1,6,12,18,1,6,3,9,1,1,5,6,1,10,5,15,1,39,32,71,6,0,0,0,0,0,0,0,0,0,0,0,0,0,0,0,0,0,0,0,0,0,0,0,0,0,0,0,0,0,0,0,0,0,0,0,0,0,0,0,0,0,0,0,0,54,35,89,8,10 มิถุนายน 2561
60,60,52020096,แม่วะวิทยา,0,0,0,0,5,4,9,1,2,3,5,1,7,7,14,2,4,3,7,1,4,2,6,1,7,4,11,1,3,0,3,1,7,3,10,1,2,5,7,1,27,17,44,6,3,2,5,1,3,11,14,1,7,6,13,1,13,19,32,3,0,0,0,0,0,0,0,0,0,0,0,0,0,0,0,0,0,0,0,0,0,0,0,0,0,0,0,0,47,43,90,11,10 มิถุนายน 2561
61,61,52020097,บ้านท่าช้าง,0,0,0,0,6,3,9,1,3,6,9,1,9,9,18,2,1,3,4,1,2,6,8,1,6,3,9,1,1,5,6,1,6,5,11,1,5,7,12,1,21,29,50,6,0,0,0,0,0,0,0,0,0,0,0,0,0,0,0,0,0,0,0,0,0,0,0,0,0,0,0,0,0,0,0,0,0,0,0,0,0,0,0,0,0,0,0,0,30,38,68,8,10 มิถุนายน 2561
62,62,52020098,อุมลองรักขิตานุเคราะห์,0,0,0,0,5,8,13,1,5,5,10,1,10,13,23,2,4,8,12,1,5,4,9,1,3,5,8,1,8,4,12,1,8,6,14,1,3,9,12,1,31,36,67,6,0,0,0,0,0,0,0,0,0,0,0,0,0,0,0,0,0,0,0,0,0,0,0,0,0,0,0,0,0,0,0,0,0,0,0,0,0,0,0,0,0,0,0,0,41,49,90,8,10 มิถุนายน 2561
63,63,52020099,บ้านเวียง,4,6,10,1,3,9,12,1,15,13,28,1,22,28,50,3,10,8,18,1,15,16,31,1,8,13,21,1,9,12,21,1,7,12,19,1,8,13,21,1,57,74,131,6,0,0,0,0,0,0,0,0,0,0,0,0,0,0,0,0,0,0,0,0,0,0,0,0,0,0,0,0,0,0,0,0,0,0,0,0,0,0,0,0,0,0,0,0,79,102,181,9,10 มิถุนายน 2561
64,64,52020100,อนุบาลเถิน (ท่านางอุปถัมภ์),5,13,18,1,23,22,45,2,24,18,42,2,52,53,105,5,40,39,79,3,33,30,63,3,34,32,66,3,28,30,58,2,36,42,78,3,46,36,82,3,217,209,426,17,0,0,0,0,0,0,0,0,0,0,0,0,0,0,0,0,0,0,0,0,0,0,0,0,0,0,0,0,0,0,0,0,0,0,0,0,0,0,0,0,0,0,0,0,269,262,531,22,10 มิถุนายน 2561
65,65,52020101,ล้อมแรดวิทยา,0,0,0,0,3,8,11,1,4,14,18,1,7,22,29,2,7,12,19,1,12,7,19,1,15,8,23,1,11,8,19,1,2,11,13,1,14,13,27,1,61,59,120,6,11,4,15,1,17,9,26,1,15,11,26,1,43,24,67,3,0,0,0,0,0,0,0,0,0,0,0,0,0,0,0,0,0,0,0,0,0,0,0,0,0,0,0,0,111,105,216,11,10 มิถุนายน 2561
66,66,52020102,บ้านเหล่า,1,0,1,1,4,5,9,1,6,4,10,1,11,9,20,3,3,3,6,1,5,1,6,1,3,2,5,1,3,5,8,1,4,3,7,1,4,5,9,1,22,19,41,6,0,0,0,0,0,0,0,0,0,0,0,0,0,0,0,0,0,0,0,0,0,0,0,0,0,0,0,0,0,0,0,0,0,0,0,0,0,0,0,0,0,0,0,0,33,28,61,9,10 มิถุนายน 2561
67,67,52020103,บ้านดอนไชย,8,3,11,1,4,4,8,1,5,4,9,1,17,11,28,3,10,8,18,1,8,6,14,1,6,8,14,1,12,10,22,1,8,18,26,1,16,9,25,1,60,59,119,6,0,0,0,0,0,0,0,0,0,0,0,0,0,0,0,0,0,0,0,0,0,0,0,0,0,0,0,0,0,0,0,0,0,0,0,0,0,0,0,0,0,0,0,0,77,70,147,9,10 มิถุนายน 2561
68,68,52020104,บ้านหนองเตา,4,2,6,1,2,4,6,1,3,2,5,1,9,8,17,3,2,5,7,1,0,3,3,1,1,3,4,1,4,1,5,1,3,5,8,1,6,3,9,1,16,20,36,6,0,0,0,0,0,0,0,0,0,0,0,0,0,0,0,0,0,0,0,0,0,0,0,0,0,0,0,0,0,0,0,0,0,0,0,0,0,0,0,0,0,0,0,0,25,28,53,9,10 มิถุนายน 2561
69,69,52020105,แสลมวิทยา,0,0,0,0,4,7,11,1,7,6,13,1,11,13,24,2,10,12,22,1,6,5,11,1,8,15,23,1,9,10,19,1,17,10,27,1,11,9,20,1,61,61,122,6,12,11,23,1,7,7,14,1,5,6,11,1,24,24,48,3,0,0,0,0,0,0,0,0,0,0,0,0,0,0,0,0,0,0,0,0,0,0,0,0,0,0,0,0,96,98,194,11,10 มิถุนายน 2561
70,70,52020106,บ้านสะเลียมหวาน,0,0,0,0,7,8,15,1,5,9,14,1,12,17,29,2,7,7,14,1,10,10,20,1,6,5,11,1,9,7,16,1,10,11,21,1,5,8,13,1,47,48,95,6,0,0,0,0,0,0,0,0,0,0,0,0,0,0,0,0,0,0,0,0,0,0,0,0,0,0,0,0,0,0,0,0,0,0,0,0,0,0,0,0,0,0,0,0,59,65,124,8,10 มิถุนายน 2561
71,71,52020107,บ้านปางอ้า,0,0,0,0,7,3,10,1,6,11,17,1,13,14,27,2,11,6,17,1,5,6,11,1,7,7,14,1,7,13,20,1,13,6,19,1,6,8,14,1,49,46,95,6,0,0,0,0,0,0,0,0,0,0,0,0,0,0,0,0,0,0,0,0,0,0,0,0,0,0,0,0,0,0,0,0,0,0,0,0,0,0,0,0,0,0,0,0,62,60,122,8,10 มิถุนายน 2561
72,72,52020108,บ้านท่าเกวียน,7,5,12,1,13,5,18,1,4,11,15,1,24,21,45,3,12,9,21,1,3,6,9,1,6,8,14,1,8,8,16,1,7,5,12,1,4,7,11,1,40,43,83,6,0,0,0,0,0,0,0,0,0,0,0,0,0,0,0,0,0,0,0,0,0,0,0,0,0,0,0,0,0,0,0,0,0,0,0,0,0,0,0,0,0,0,0,0,64,64,128,9,10 มิถุนายน 2561
73,73,52020109,แม่พุหอรบวิทยา,0,0,0,0,6,5,11,1,7,9,16,1,13,14,27,2,8,6,14,1,9,3,12,1,6,10,16,1,4,8,12,1,8,6,14,1,12,3,15,1,47,36,83,6,14,5,19,1,8,8,16,1,12,8,20,1,34,21,55,3,0,0,0,0,0,0,0,0,0,0,0,0,0,0,0,0,0,0,0,0,0,0,0,0,0,0,0,0,94,71,165,11,10 มิถุนายน 2561
74,74,52020110,บ้านท่าเวียง,0,0,0,0,2,6,8,1,8,7,15,1,10,13,23,2,11,9,20,1,7,10,17,1,9,5,14,1,6,5,11,1,5,5,10,1,8,7,15,1,46,41,87,6,0,0,0,0,0,0,0,0,0,0,0,0,0,0,0,0,0,0,0,0,0,0,0,0,0,0,0,0,0,0,0,0,0,0,0,0,0,0,0,0,0,0,0,0,56,54,110,8,10 มิถุนายน 2561
75,75,52020112,ผาปังวิทยา,0,0,0,0,4,4,8,1,4,3,7,1,8,7,15,2,6,5,11,1,5,1,6,1,2,4,6,1,5,8,13,1,7,3,10,1,6,0,6,1,31,21,52,6,5,5,10,1,8,9,17,1,15,5,20,1,28,19,47,3,0,0,0,0,0,0,0,0,0,0,0,0,0,0,0,0,0,0,0,0,0,0,0,0,0,0,0,0,67,47,114,11,10 มิถุนายน 2561
76,76,52020113,บ้านแม่ตั๋ง,0,0,0,0,6,2,8,1,7,5,12,1,13,7,20,2,5,6,11,1,6,7,13,1,8,7,15,1,6,5,11,1,3,2,5,1,9,4,13,1,37,31,68,6,0,0,0,0,0,0,0,0,0,0,0,0,0,0,0,0,0,0,0,0,0,0,0,0,0,0,0,0,0,0,0,0,0,0,0,0,0,0,0,0,0,0,0,0,50,38,88,8,10 มิถุนายน 2561
77,77,52020114,แม่เชียงรายวิทยา,0,0,0,0,2,7,9,1,6,5,11,1,8,12,20,2,6,7,13,1,7,2,9,1,10,6,16,1,11,5,16,1,17,6,23,1,6,5,11,1,57,31,88,6,5,4,9,1,8,8,16,1,6,9,15,1,19,21,40,3,0,0,0,0,0,0,0,0,0,0,0,0,0,0,0,0,0,0,0,0,0,0,0,0,0,0,0,0,84,64,148,11,10 มิถุนายน 2561
78,78,52020116,ชุมชนบ้านแม่ปุ,0,0,0,0,3,2,5,1,2,2,4,1,5,4,9,2,5,2,7,1,4,6,10,1,6,4,10,1,3,5,8,1,5,4,9,1,5,3,8,1,28,24,52,6,0,0,0,0,0,0,0,0,0,0,0,0,0,0,0,0,0,0,0,0,0,0,0,0,0,0,0,0,0,0,0,0,0,0,0,0,0,0,0,0,0,0,0,0,33,28,61,8,10 มิถุนายน 2561
79,79,52020118,ต้นธงวิทยา,0,0,0,0,4,5,9,1,5,10,15,1,9,15,24,2,8,6,14,1,6,11,17,1,6,10,16,1,9,13,22,1,10,8,18,1,11,7,18,1,50,55,105,6,5,2,7,1,8,4,12,1,4,7,11,1,17,13,30,3,0,0,0,0,0,0,0,0,0,0,0,0,0,0,0,0,0,0,0,0,0,0,0,0,0,0,0,0,76,83,159,11,10 มิถุนายน 2561
80,80,52020121,ห้วยขี้นกวิทยา,0,0,0,0,3,5,8,1,4,3,7,1,7,8,15,2,6,5,11,1,4,2,6,1,3,3,6,1,4,8,12,1,0,5,5,1,7,4,11,1,24,27,51,6,3,2,5,1,4,2,6,1,7,10,17,1,14,14,28,3,0,0,0,0,0,0,0,0,0,0,0,0,0,0,0,0,0,0,0,0,0,0,0,0,0,0,0,0,45,49,94,11,10 มิถุนายน 2561
81,81,52020122,อนุบาลแม่พริก (สุนันทสังฆประสิทธิ์),0,0,0,0,7,6,13,1,7,10,17,1,14,16,30,2,11,4,15,1,11,12,23,1,6,12,18,1,12,9,21,1,6,6,12,1,13,6,19,1,59,49,108,6,0,0,0,0,0,0,0,0,0,0,0,0,0,0,0,0,0,0,0,0,0,0,0,0,0,0,0,0,0,0,0,0,0,0,0,0,0,0,0,0,0,0,0,0,73,65,138,8,10 มิถุนายน 2561
82,82,52020123,บ้านแม่พริกบน,0,0,0,0,8,5,13,1,8,4,12,1,16,9,25,2,12,7,19,1,6,4,10,1,5,10,15,1,9,10,19,1,9,10,19,1,9,6,15,1,50,47,97,6,0,0,0,0,0,0,0,0,0,0,0,0,0,0,0,0,0,0,0,0,0,0,0,0,0,0,0,0,0,0,0,0,0,0,0,0,0,0,0,0,0,0,0,0,66,56,122,8,10 มิถุนายน 2561
83,83,52020124,บ้านแม่เชียงรายลุ่ม,0,0,0,0,4,1,5,1,4,0,4,1,8,1,9,2,6,8,14,1,3,4,7,1,7,0,7,1,3,1,4,1,3,9,12,1,4,3,7,1,26,25,51,6,0,0,0,0,0,0,0,0,0,0,0,0,0,0,0,0,0,0,0,0,0,0,0,0,0,0,0,0,0,0,0,0,0,0,0,0,0,0,0,0,0,0,0,0,34,26,60,8,10 มิถุนายน 2561
84,84,52020127,บ้านนาบง,0,0,0,0,3,1,4,1,10,5,15,1,13,6,19,2,3,3,6,1,1,2,3,1,2,0,2,1,5,1,6,1,2,3,5,1,2,1,3,1,15,10,25,6,0,0,0,0,0,0,0,0,0,0,0,0,0,0,0,0,0,0,0,0,0,0,0,0,0,0,0,0,0,0,0,0,0,0,0,0,0,0,0,0,0,0,0,0,28,16,44,8,10 มิถุนายน 2561
85,85,52020128,บ้านใหม่,0,0,0,0,0,0,0,0,0,0,0,0,0,0,0,0,0,0,0,0,0,0,0,0,0,0,0,0,0,0,0,0,0,0,0,0,0,0,0,0,0,0,0,0,0,0,0,0,0,0,0,0,0,0,0,0,0,0,0,0,0,0,0,0,0,0,0,0,0,0,0,0,0,0,0,0,0,0,0,0,0,0,0,0,0,0,0,0,0,0,0,0,10 มิถุนายน 2561
86,86,52020130,บ้านนากวาง,0,0,0,0,8,3,11,1,1,4,5,1,9,7,16,2,9,2,11,1,5,7,12,1,5,1,6,1,5,3,8,1,5,6,11,1,6,4,10,1,35,23,58,6,0,0,0,0,0,0,0,0,0,0,0,0,0,0,0,0,0,0,0,0,0,0,0,0,0,0,0,0,0,0,0,0,0,0,0,0,0,0,0,0,0,0,0,0,44,30,74,8,10 มิถุนายน 2561
87,87,52020131,อนุบาลแม่ทะ (ชุมชนบ้านน้ำโท้ง-บ้านฮ่อมอุปถัมภ์),2,4,6,1,5,7,12,1,12,7,19,1,19,18,37,3,3,4,7,1,10,6,16,1,10,6,16,1,11,17,28,1,13,11,24,1,10,11,21,1,57,55,112,6,0,0,0,0,0,0,0,0,0,0,0,0,0,0,0,0,0,0,0,0,0,0,0,0,0,0,0,0,0,0,0,0,0,0,0,0,0,0,0,0,0,0,0,0,76,73,149,9,10 มิถุนายน 2561
88,88,52020132,บ้านหนองถ้อย,0,0,0,0,0,0,0,0,0,0,0,0,0,0,0,0,0,0,0,0,0,0,0,0,0,0,0,0,0,0,0,0,0,0,0,0,0,0,0,0,0,0,0,0,0,0,0,0,0,0,0,0,0,0,0,0,0,0,0,0,0,0,0,0,0,0,0,0,0,0,0,0,0,0,0,0,0,0,0,0,0,0,0,0,0,0,0,0,0,0,0,0,10 มิถุนายน 2561
89,89,52020133,บ้านหลวง,0,0,0,0,0,0,0,0,0,0,0,0,0,0,0,0,4,4,8,1,2,1,3,1,2,1,3,1,5,5,10,1,4,3,7,1,7,3,10,1,24,17,41,6,0,0,0,0,0,0,0,0,0,0,0,0,0,0,0,0,0,0,0,0,0,0,0,0,0,0,0,0,0,0,0,0,0,0,0,0,0,0,0,0,0,0,0,0,24,17,41,6,10 มิถุนายน 2561
90,90,52020134,บ้านหลุก,0,0,0,0,0,0,0,0,4,3,7,1,4,3,7,1,2,5,7,1,4,5,9,1,6,14,20,1,9,6,15,1,7,6,13,1,11,8,19,1,39,44,83,6,0,0,0,0,0,0,0,0,0,0,0,0,0,0,0,0,0,0,0,0,0,0,0,0,0,0,0,0,0,0,0,0,0,0,0,0,0,0,0,0,0,0,0,0,43,47,90,7,10 มิถุนายน 2561
91,91,52020135,นาครัวประชาสามัคคี,6,6,12,1,5,5,10,1,3,4,7,1,14,15,29,3,7,7,14,1,4,7,11,1,5,5,10,1,5,3,8,1,5,5,10,1,3,6,9,1,29,33,62,6,0,0,0,0,0,0,0,0,0,0,0,0,0,0,0,0,0,0,0,0,0,0,0,0,0,0,0,0,0,0,0,0,0,0,0,0,0,0,0,0,0,0,0,0,43,48,91,9,10 มิถุนายน 2561
92,92,52020140,บ้านฮ่องห้า,7,3,10,1,6,8,14,1,7,2,9,1,20,13,33,3,7,2,9,1,2,5,7,1,3,2,5,1,3,2,5,1,3,1,4,1,6,4,10,1,24,16,40,6,0,0,0,0,0,0,0,0,0,0,0,0,0,0,0,0,0,0,0,0,0,0,0,0,0,0,0,0,0,0,0,0,0,0,0,0,0,0,0,0,0,0,0,0,44,29,73,9,10 มิถุนายน 2561
93,93,52020141,ทองทิพย์วิทยา,0,0,0,0,8,7,15,1,6,10,16,1,14,17,31,2,8,3,11,1,7,7,14,1,10,4,14,1,3,6,9,1,16,8,24,1,7,7,14,1,51,35,86,6,11,7,18,1,10,8,18,1,6,11,17,1,27,26,53,3,0,0,0,0,0,0,0,0,0,0,0,0,0,0,0,0,0,0,0,0,0,0,0,0,0,0,0,0,92,78,170,11,10 มิถุนายน 2561
94,94,52020142,บ้านหนอง,0,0,0,0,0,0,0,0,0,0,0,0,0,0,0,0,0,0,0,0,0,0,0,0,0,0,0,0,0,0,0,0,0,0,0,0,0,0,0,0,0,0,0,0,0,0,0,0,0,0,0,0,0,0,0,0,0,0,0,0,0,0,0,0,0,0,0,0,0,0,0,0,0,0,0,0,0,0,0,0,0,0,0,0,0,0,0,0,0,0,0,0,10 มิถุนายน 2561
95,95,52020143,กิ่วประชาวิทยา,1,4,5,1,4,2,6,1,3,2,5,1,8,8,16,3,1,3,4,1,2,1,3,1,0,2,2,1,5,1,6,1,3,1,4,1,1,0,1,1,12,8,20,6,4,1,5,1,5,6,11,1,6,2,8,1,15,9,24,3,0,0,0,0,0,0,0,0,0,0,0,0,0,0,0,0,0,0,0,0,0,0,0,0,0,0,0,0,35,25,60,12,10 มิถุนายน 2561
96,96,52020144,บ้านนาต๋ม,0,0,0,0,1,1,2,1,4,5,9,1,5,6,11,2,3,4,7,1,2,5,7,1,3,3,6,1,5,0,5,1,5,2,7,1,5,3,8,1,23,17,40,6,0,0,0,0,0,0,0,0,0,0,0,0,0,0,0,0,0,0,0,0,0,0,0,0,0,0,0,0,0,0,0,0,0,0,0,0,0,0,0,0,0,0,0,0,28,23,51,8,10 มิถุนายน 2561
97,97,52020147,บ้านบอม,6,9,15,1,9,7,16,1,10,3,13,1,25,19,44,3,5,5,10,1,7,7,14,1,5,2,7,1,1,9,10,1,8,11,19,1,14,13,27,1,40,47,87,6,0,0,0,0,0,0,0,0,0,0,0,0,0,0,0,0,0,0,0,0,0,0,0,0,0,0,0,0,0,0,0,0,0,0,0,0,0,0,0,0,0,0,0,0,65,66,131,9,10 มิถุนายน 2561
98,98,52020151,ป่าตันวิทยา,0,0,0,0,6,4,10,1,0,2,2,1,6,6,12,2,6,2,8,1,0,4,4,1,5,6,11,1,4,3,7,1,1,8,9,1,10,4,14,1,26,27,53,6,7,7,14,1,8,7,15,1,18,11,29,1,33,25,58,3,0,0,0,0,0,0,0,0,0,0,0,0,0,0,0,0,0,0,0,0,0,0,0,0,0,0,0,0,65,58,123,11,10 มิถุนายน 2561
99,99,52020152,บ้านนาคต,1,0,1,1,1,2,3,1,2,8,10,1,4,10,14,3,4,3,7,1,6,5,11,1,9,7,16,1,2,5,7,1,7,6,13,1,5,7,12,1,33,33,66,6,0,0,0,0,0,0,0,0,0,0,0,0,0,0,0,0,0,0,0,0,0,0,0,0,0,0,0,0,0,0,0,0,0,0,0,0,0,0,0,0,0,0,0,0,37,43,80,9,10 มิถุนายน 2561
100,100,52020153,บ้านแม่ทะ,0,0,0,0,3,6,9,1,5,5,10,1,8,11,19,2,5,4,9,1,8,3,11,1,1,5,6,1,6,8,14,1,6,2,8,1,4,4,8,1,30,26,56,6,11,4,15,1,8,10,18,1,8,10,18,1,27,24,51,3,0,0,0,0,0,0,0,0,0,0,0,0,0,0,0,0,0,0,0,0,0,0,0,0,0,0,0,0,65,61,126,11,10 มิถุนายน 2561
101,101,52020154,ชุมชนบ้านท่าแหน,0,0,0,0,3,4,7,1,7,7,14,1,10,11,21,2,4,4,8,1,3,4,7,1,2,3,5,1,2,4,6,1,12,4,16,1,7,3,10,1,30,22,52,6,0,0,0,0,0,0,0,0,0,0,0,0,0,0,0,0,0,0,0,0,0,0,0,0,0,0,0,0,0,0,0,0,0,0,0,0,0,0,0,0,0,0,0,0,40,33,73,8,10 มิถุนายน 2561
102,102,52020155,บ้านน้ำโทก-หัวดง,0,0,0,0,4,3,7,1,2,1,3,1,6,4,10,2,5,1,6,1,2,2,4,1,1,0,1,1,2,0,2,1,6,6,12,1,2,8,10,1,18,17,35,6,0,0,0,0,0,0,0,0,0,0,0,0,0,0,0,0,0,0,0,0,0,0,0,0,0,0,0,0,0,0,0,0,0,0,0,0,0,0,0,0,0,0,0,0,24,21,45,8,10 มิถุนายน 2561
103,103,52020159,บ้านทุ่งตอน,0,0,0,0,0,0,0,0,0,0,0,0,0,0,0,0,0,0,0,0,0,0,0,0,0,0,0,0,0,0,0,0,0,0,0,0,0,0,0,0,0,0,0,0,0,0,0,0,0,0,0,0,0,0,0,0,0,0,0,0,0,0,0,0,0,0,0,0,0,0,0,0,0,0,0,0,0,0,0,0,0,0,0,0,0,0,0,0,0,0,0,0,10 มิถุนายน 2561
104,104,52020160,บ้านนาดู่,0,0,0,0,0,0,0,0,2,1,3,1,2,1,3,1,2,4,6,1,0,1,1,1,1,3,4,1,1,2,3,1,1,1,2,1,1,5,6,1,6,16,22,6,0,0,0,0,0,0,0,0,0,0,0,0,0,0,0,0,0,0,0,0,0,0,0,0,0,0,0,0,0,0,0,0,0,0,0,0,0,0,0,0,0,0,0,0,8,17,25,7,10 มิถุนายน 2561
105,105,52020161,บ้านนาดง,0,0,0,0,6,4,10,1,3,2,5,1,9,6,15,2,4,1,5,1,5,5,10,1,0,2,2,1,4,2,6,1,1,0,1,1,3,0,3,1,17,10,27,6,0,0,0,0,0,0,0,0,0,0,0,0,0,0,0,0,0,0,0,0,0,0,0,0,0,0,0,0,0,0,0,0,0,0,0,0,0,0,0,0,0,0,0,0,26,16,42,8,10 มิถุนายน 2561
106,106,52020162,บ้านสันป่าเปา,0,0,0,0,0,0,0,0,0,0,0,0,0,0,0,0,0,0,0,0,0,0,0,0,0,0,0,0,0,0,0,0,0,0,0,0,0,0,0,0,0,0,0,0,0,0,0,0,0,0,0,0,0,0,0,0,0,0,0,0,0,0,0,0,0,0,0,0,0,0,0,0,0,0,0,0,0,0,0,0,0,0,0,0,0,0,0,0,0,0,0,0,10 มิถุนายน 2561
107,107,52020163,บ้านอ้อวิทยา,0,0,0,0,2,1,3,1,4,3,7,1,6,4,10,2,12,6,18,1,8,7,15,1,12,11,23,1,9,7,16,1,13,11,24,1,7,5,12,1,61,47,108,6,8,8,16,1,4,4,8,1,19,10,29,1,31,22,53,3,0,0,0,0,0,0,0,0,0,0,0,0,0,0,0,0,0,0,0,0,0,0,0,0,0,0,0,0,98,73,171,11,10 มิถุนายน 2561
108,108,52020165,บ้านแม่ทาน,0,0,0,0,1,1,2,1,2,0,2,1,3,1,4,2,4,4,8,1,4,4,8,1,9,6,15,1,5,3,8,1,5,4,9,1,1,2,3,1,28,23,51,6,0,0,0,0,0,0,0,0,0,0,0,0,0,0,0,0,0,0,0,0,0,0,0,0,0,0,0,0,0,0,0,0,0,0,0,0,0,0,0,0,0,0,0,0,31,24,55,8,10 มิถุนายน 2561
109,109,52020166,บ้านแม่วะ,0,0,0,0,0,0,0,0,0,0,0,0,0,0,0,0,0,0,0,0,0,0,0,0,0,0,0,0,0,0,0,0,0,0,0,0,0,0,0,0,0,0,0,0,0,0,0,0,0,0,0,0,0,0,0,0,0,0,0,0,0,0,0,0,0,0,0,0,0,0,0,0,0,0,0,0,0,0,0,0,0,0,0,0,0,0,0,0,0,0,0,0,10 มิถุนายน 2561
110,110,52020167,บ้านก้อมหนองมุง,0,0,0,0,0,0,0,0,0,0,0,0,0,0,0,0,0,0,0,0,0,0,0,0,0,0,0,0,0,0,0,0,0,0,0,0,0,0,0,0,0,0,0,0,0,0,0,0,0,0,0,0,0,0,0,0,0,0,0,0,0,0,0,0,0,0,0,0,0,0,0,0,0,0,0,0,0,0,0,0,0,0,0,0,0,0,0,0,0,0,0,0,10 มิถุนายน 2561
111,111,52020169,ห้วยมะเกลือวิทยา,0,0,0,0,1,1,2,1,1,2,3,1,2,3,5,2,5,2,7,1,5,3,8,1,1,5,6,1,4,3,7,1,5,5,10,1,4,5,9,1,24,23,47,6,1,4,5,1,5,4,9,1,3,8,11,1,9,16,25,3,0,0,0,0,0,0,0,0,0,0,0,0,0,0,0,0,0,0,0,0,0,0,0,0,0,0,0,0,35,42,77,11,10 มิถุนายน 2561
112,112,52020172,บ้านสามขา,0,0,0,0,12,7,19,1,4,8,12,1,16,15,31,2,3,6,9,1,3,5,8,1,2,5,7,1,6,5,11,1,0,4,4,1,4,3,7,1,18,28,46,6,0,0,0,0,0,0,0,0,0,0,0,0,0,0,0,0,0,0,0,0,0,0,0,0,0,0,0,0,0,0,0,0,0,0,0,0,0,0,0,0,0,0,0,0,34,43,77,8,10 มิถุนายน 2561
113,113,52020174,บ้านผาแมว,0,0,0,0,3,3,6,1,3,4,7,1,6,7,13,2,5,4,9,1,3,4,7,1,3,2,5,1,4,2,6,1,5,1,6,1,3,0,3,1,23,13,36,6,0,0,0,0,0,0,0,0,0,0,0,0,0,0,0,0,0,0,0,0,0,0,0,0,0,0,0,0,0,0,0,0,0,0,0,0,0,0,0,0,0,0,0,0,29,20,49,8,10 มิถุนายน 2561
114,114,52020175,บ้านแก่น,0,0,0,0,3,3,6,1,1,1,2,1,4,4,8,2,1,4,5,1,1,2,3,1,5,2,7,1,3,0,3,1,7,4,11,1,4,4,8,1,21,16,37,6,0,0,0,0,0,0,0,0,0,0,0,0,0,0,0,0,0,0,0,0,0,0,0,0,0,0,0,0,0,0,0,0,0,0,0,0,0,0,0,0,0,0,0,0,25,20,45,8,10 มิถุนายน 2561
115,115,52020176,นายางวิทยา,0,0,0,0,2,4,6,1,3,6,9,1,5,10,15,2,4,2,6,1,4,6,10,1,2,10,12,1,2,6,8,1,4,2,6,1,6,4,10,1,22,30,52,6,4,2,6,1,9,0,9,1,5,5,10,1,18,7,25,3,0,0,0,0,0,0,0,0,0,0,0,0,0,0,0,0,0,0,0,0,0,0,0,0,0,0,0,0,45,47,92,11,10 มิถุนายน 2561
116,116,52020180,ไตรมิตรสามัคคี,3,4,7,1,1,4,5,1,3,2,5,1,7,10,17,3,1,4,5,1,1,3,4,1,4,2,6,1,2,1,3,1,5,1,6,1,3,2,5,1,16,13,29,6,0,0,0,0,0,0,0,0,0,0,0,0,0,0,0,0,0,0,0,0,0,0,0,0,0,0,0,0,0,0,0,0,0,0,0,0,0,0,0,0,0,0,0,0,23,23,46,9,10 มิถุนายน 2561
117,117,52020181,บ้านปงกา,0,0,0,0,0,0,0,0,0,0,0,0,0,0,0,0,0,0,0,0,0,0,0,0,0,0,0,0,0,0,0,0,0,0,0,0,0,0,0,0,0,0,0,0,0,0,0,0,0,0,0,0,0,0,0,0,0,0,0,0,0,0,0,0,0,0,0,0,0,0,0,0,0,0,0,0,0,0,0,0,0,0,0,0,0,0,0,0,0,0,0,0,10 มิถุนายน 2561
118,118,52020182,บ้านแม่กัวะ,0,0,0,0,9,17,26,1,15,23,38,2,24,40,64,3,14,15,29,1,7,11,18,1,17,13,30,1,8,9,17,1,15,21,36,2,8,10,18,1,69,79,148,7,0,0,0,0,0,0,0,0,0,0,0,0,0,0,0,0,0,0,0,0,0,0,0,0,0,0,0,0,0,0,0,0,0,0,0,0,0,0,0,0,0,0,0,0,93,119,212,10,10 มิถุนายน 2561
119,119,52020183,บ้านวังยาว,0,0,0,0,5,2,7,1,2,3,5,1,7,5,12,2,5,1,6,1,1,3,4,1,2,1,3,1,5,3,8,1,1,0,1,1,2,4,6,1,16,12,28,6,0,0,0,0,0,0,0,0,0,0,0,0,0,0,0,0,0,0,0,0,0,0,0,0,0,0,0,0,0,0,0,0,0,0,0,0,0,0,0,0,0,0,0,0,23,17,40,8,10 มิถุนายน 2561
120,120,52020185,บ้านวัฒนา,0,0,0,0,0,0,0,0,0,0,0,0,0,0,0,0,0,0,0,0,0,0,0,0,0,0,0,0,0,0,0,0,0,0,0,0,0,0,0,0,0,0,0,0,0,0,0,0,0,0,0,0,0,0,0,0,0,0,0,0,0,0,0,0,0,0,0,0,0,0,0,0,0,0,0,0,0,0,0,0,0,0,0,0,0,0,0,0,0,0,0,0,10 มิถุนายน 2561
121,121,52020186,อนุบาลสบปราบ,0,0,0,0,20,21,41,2,30,21,51,2,50,42,92,4,18,18,36,1,22,17,39,2,15,31,46,2,15,11,26,1,18,18,36,1,21,18,39,1,109,113,222,8,0,0,0,0,0,0,0,0,0,0,0,0,0,0,0,0,0,0,0,0,0,0,0,0,0,0,0,0,0,0,0,0,0,0,0,0,0,0,0,0,0,0,0,0,159,155,314,12,10 มิถุนายน 2561
122,122,52020188,ชุมชนบ้านทุ่ง,0,0,0,0,12,16,28,1,8,19,27,1,20,35,55,2,9,8,17,1,8,11,19,1,4,11,15,1,8,11,19,1,6,4,10,1,10,9,19,1,45,54,99,6,0,0,0,0,0,0,0,0,0,0,0,0,0,0,0,0,0,0,0,0,0,0,0,0,0,0,0,0,0,0,0,0,0,0,0,0,0,0,0,0,0,0,0,0,65,89,154,8,10 มิถุนายน 2561
123,123,52020190,บ้านวังพร้าว-สบเรียง,0,0,0,0,0,0,0,0,0,0,0,0,0,0,0,0,0,0,0,0,0,0,0,0,0,0,0,0,0,0,0,0,0,0,0,0,0,0,0,0,0,0,0,0,0,0,0,0,0,0,0,0,0,0,0,0,0,0,0,0,0,0,0,0,0,0,0,0,0,0,0,0,0,0,0,0,0,0,0,0,0,0,0,0,0,0,0,0,0,0,0,0,10 มิถุนายน 2561
124,124,52020191,ชุมชนบ้านจัววิทยา,0,0,0,0,7,5,12,1,13,6,19,1,20,11,31,2,8,9,17,1,5,5,10,1,7,6,13,1,6,6,12,1,10,9,19,1,11,3,14,1,47,38,85,6,10,11,21,1,15,7,22,1,19,5,24,1,44,23,67,3,0,0,0,0,0,0,0,0,0,0,0,0,0,0,0,0,0,0,0,0,0,0,0,0,0,0,0,0,111,72,183,11,10 มิถุนายน 2561
125,125,52020192,บ้านเด่น,0,0,0,0,10,6,16,1,6,8,14,1,16,14,30,2,11,7,18,1,3,4,7,1,7,7,14,1,5,4,9,1,3,8,11,1,6,4,10,1,35,34,69,6,0,0,0,0,0,0,0,0,0,0,0,0,0,0,0,0,0,0,0,0,0,0,0,0,0,0,0,0,0,0,0,0,0,0,0,0,0,0,0,0,0,0,0,0,51,48,99,8,10 มิถุนายน 2561
126,126,52020193,บ้านสมัย,0,0,0,0,8,7,15,1,5,5,10,1,13,12,25,2,7,9,16,1,4,5,9,1,12,6,18,1,7,5,12,1,3,5,8,1,1,2,3,1,34,32,66,6,0,0,0,0,0,0,0,0,0,0,0,0,0,0,0,0,0,0,0,0,0,0,0,0,0,0,0,0,0,0,0,0,0,0,0,0,0,0,0,0,0,0,0,0,47,44,91,8,10 มิถุนายน 2561
127,127,52020194,บ้านน้ำหลง,0,0,0,0,2,7,9,1,4,4,8,1,6,11,17,2,1,5,6,1,2,4,6,1,4,4,8,1,4,2,6,1,4,7,11,1,3,5,8,1,18,27,45,6,0,0,0,0,0,0,0,0,0,0,0,0,0,0,0,0,0,0,0,0,0,0,0,0,0,0,0,0,0,0,0,0,0,0,0,0,0,0,0,0,0,0,0,0,24,38,62,8,10 มิถุนายน 2561
128,128,52020195,บ้านอุมลอง,0,0,0,0,1,0,1,1,3,4,7,1,4,4,8,2,6,1,7,1,2,4,6,1,3,1,4,1,4,5,9,1,5,2,7,1,2,3,5,1,22,16,38,6,0,0,0,0,0,0,0,0,0,0,0,0,0,0,0,0,0,0,0,0,0,0,0,0,0,0,0,0,0,0,0,0,0,0,0,0,0,0,0,0,0,0,0,0,26,20,46,8,10 มิถุนายน 2561
