,0,1,2,3,4,5,6,7,8,9,10,11,12,13,14,15,16,17,18,19,20,21,22,23,24,25,26,27,28,29,30,31,32,33,34,35,36,37,38,39,40,41,42,43,44,45,46,47,48,49,50,51,52,53,54,55,56,57,58,59,60,61,62,63,64,65,66,67,68,69,70,71,72,73,74,75,76,77,78,79,80,81,82,83,84,85,86,87,88,89,90,91,92,93,94,95
0,ลำดับ,รหัส SMIS,โรงเรียน,อ.3 ขวบ ชาย,อ.3 ขวบ หญิง,รวมอ.3 ขวบ,อ.3 ขวบ ห้อง,อ.1 ชาย,อ.1 หญิง,รวมอ.1,อ.1 ห้อง,อ.2 ชาย,อ.2 หญิง,รวมอ.2,อ.2 ห้อง,รวมก่อนประถม ชาย,รวมก่อนประถม หญิง,รวมก่อนประถม,รวมห้องก่อนประถม,ป.1 ชาย,ป.1 หญิง,รวมป.1,ป.1 ห้อง,ป.2 ชาย,ป.2 หญิง,รวมป.2,ป.2 ห้อง,ป.3 ชาย,ป.3 หญิง,รวมป.3,ป.3 ห้อง,ป.4 ชาย,ป.4 หญิง,รวมป.4,ป.4 ห้อง,ป.5 ชาย,ป.5 หญิง,รวมป.5,ป.5 ห้อง,ป.6 ชาย,ป.6 หญิง,รวมป.6,ป.6 ห้อง,รวมประถม ชาย,รวมประถม หญิง,รวมประถม,รวมห้องประถม,ม.1 ชาย,ม.1 หญิง,รวมม.1,ม.1 ห้อง,ม.2 ชาย,ม.2 หญิง,รวมม.2,ม.2 ห้อง,ม.3 ชาย,ม.3 หญิง,รวมม.3,ม.3 ห้อง,รวมม.ต้น ชาย,รวมม.ต้น หญิง,รวมม.ต้น,รวมห้องม.ต้น,ม.4 ชาย,ม.4 หญิง,รวมม.4,ม.4 ห้อง,ม.5 ชาย,ม.5 หญิง,รวมม.5,ม.5 ห้อง,ม.6 ชาย,ม.6 หญิง,รวมม.6,ม.6 ห้อง,ปวช.1 ชาย,ปวช.1 หญิง,รวมปวช.1,ปวช.1 ห้อง,ปวช.2 ชาย,ปวช.2 หญิง,รวมปวช.2,ปวช.2 ห้อง,ปวช.3 ชาย,ปวช.3 หญิง,รวมปวช.3,ปวช.3 ห้อง,รวมม.ปลายและเทียบเท่า ชาย,รวมม.ปลายและเทียบเท่า หญิง,รวมม.ปลายและเทียบเท่า,รวมห้องม.ปลายและเทียบเท่า,รวมทั้งหมด ชาย,รวมทั้งหมด หญิง,รวมทั้งหมด,รวมห้องทั้งหมด,ข้อมูล ณ วันที่
1,1,52030001,อนุบาลแจ้ห่ม,0,0,0,0,36,42,78,3,32,40,72,3,68,82,150,6,36,50,86,2,34,42,76,2,22,28,50,2,31,32,63,2,34,30,64,2,31,38,69,2,188,220,408,12,0,0,0,0,0,0,0,0,0,0,0,0,0,0,0,0,0,0,0,0,0,0,0,0,0,0,0,0,0,0,0,0,0,0,0,0,0,0,0,0,0,0,0,0,256,302,558,18,10 มิถุนายน 2561
2,2,52030002,บ้านสบฟ้า,0,0,0,0,2,1,3,1,2,4,6,1,4,5,9,2,2,3,5,1,1,2,3,1,4,2,6,1,7,3,10,1,5,4,9,1,4,4,8,1,23,18,41,6,0,0,0,0,0,0,0,0,0,0,0,0,0,0,0,0,0,0,0,0,0,0,0,0,0,0,0,0,0,0,0,0,0,0,0,0,0,0,0,0,0,0,0,0,27,23,50,8,10 มิถุนายน 2561
3,3,52030003,บ้านม่วงงาม,0,0,0,0,2,0,2,1,0,1,1,1,2,1,3,2,1,1,2,1,0,0,0,0,0,0,0,0,0,2,2,1,0,0,0,0,1,2,3,1,2,5,7,3,0,0,0,0,0,0,0,0,0,0,0,0,0,0,0,0,0,0,0,0,0,0,0,0,0,0,0,0,0,0,0,0,0,0,0,0,0,0,0,0,0,0,0,0,4,6,10,5,10 มิถุนายน 2561
4,4,52030004,บ้านฮ่องลี่,0,0,0,0,1,4,5,1,3,3,6,1,4,7,11,2,8,4,12,1,1,0,1,1,7,6,13,1,5,4,9,1,4,3,7,1,8,2,10,1,33,19,52,6,0,0,0,0,0,0,0,0,0,0,0,0,0,0,0,0,0,0,0,0,0,0,0,0,0,0,0,0,0,0,0,0,0,0,0,0,0,0,0,0,0,0,0,0,37,26,63,8,10 มิถุนายน 2561
5,5,52030006,บ้านหนองนาว,0,0,0,0,7,12,19,1,1,6,7,1,8,18,26,2,9,4,13,1,8,2,10,1,8,9,17,1,1,4,5,1,8,9,17,1,5,7,12,1,39,35,74,6,0,0,0,0,0,0,0,0,0,0,0,0,0,0,0,0,0,0,0,0,0,0,0,0,0,0,0,0,0,0,0,0,0,0,0,0,0,0,0,0,0,0,0,0,47,53,100,8,10 มิถุนายน 2561
6,6,52030007,บ้านทุ่งผึ้ง,0,0,0,0,4,2,6,1,2,1,3,1,6,3,9,2,3,1,4,1,0,3,3,1,2,2,4,1,3,2,5,1,2,1,3,1,5,1,6,1,15,10,25,6,0,0,0,0,0,0,0,0,0,0,0,0,0,0,0,0,0,0,0,0,0,0,0,0,0,0,0,0,0,0,0,0,0,0,0,0,0,0,0,0,0,0,0,0,21,13,34,8,10 มิถุนายน 2561
7,7,52030008,บ้านหัวฝาย,0,0,0,0,1,0,1,1,1,2,3,1,2,2,4,2,1,1,2,1,4,4,8,1,2,1,3,1,1,2,3,1,1,1,2,1,0,5,5,1,9,14,23,6,0,0,0,0,0,0,0,0,0,0,0,0,0,0,0,0,0,0,0,0,0,0,0,0,0,0,0,0,0,0,0,0,0,0,0,0,0,0,0,0,0,0,0,0,11,16,27,8,10 มิถุนายน 2561
8,8,52030009,แจ้คอนวิทยา,0,0,0,0,4,3,7,1,3,1,4,1,7,4,11,2,15,15,30,1,5,14,19,1,13,9,22,1,12,11,23,1,14,11,25,1,5,9,14,1,64,69,133,6,12,9,21,1,9,12,21,1,15,9,24,1,36,30,66,3,0,0,0,0,0,0,0,0,0,0,0,0,0,0,0,0,0,0,0,0,0,0,0,0,0,0,0,0,107,103,210,11,10 มิถุนายน 2561
9,9,52030010,บ้านทุ่งฮ้าง,0,0,0,0,2,2,4,1,6,3,9,1,8,5,13,2,2,1,3,1,0,1,1,1,1,4,5,1,2,1,3,1,2,5,7,1,1,2,3,1,8,14,22,6,0,0,0,0,0,0,0,0,0,0,0,0,0,0,0,0,0,0,0,0,0,0,0,0,0,0,0,0,0,0,0,0,0,0,0,0,0,0,0,0,0,0,0,0,16,19,35,8,10 มิถุนายน 2561
10,10,52030011,บ้านช่อฟ้า,0,0,0,0,0,0,0,0,0,0,0,0,0,0,0,0,1,1,2,1,1,2,3,1,1,2,3,1,2,2,4,1,1,1,2,1,4,2,6,1,10,10,20,6,0,0,0,0,0,0,0,0,0,0,0,0,0,0,0,0,0,0,0,0,0,0,0,0,0,0,0,0,0,0,0,0,0,0,0,0,0,0,0,0,0,0,0,0,10,10,20,6,10 มิถุนายน 2561
11,11,52030012,บ้านช่อฟ้า สาขาแม่จอกฟ้า,0,0,0,0,0,0,0,0,0,0,0,0,0,0,0,0,0,1,1,1,2,1,3,1,0,0,0,0,0,2,2,1,2,4,6,1,2,1,3,1,6,9,15,5,0,0,0,0,0,0,0,0,0,0,0,0,0,0,0,0,0,0,0,0,0,0,0,0,0,0,0,0,0,0,0,0,0,0,0,0,0,0,0,0,0,0,0,0,6,9,15,5,10 มิถุนายน 2561
12,12,52030013,ชุมชนบ้านสา,0,0,0,0,7,6,13,1,3,5,8,1,10,11,21,2,8,5,13,1,6,5,11,1,7,6,13,1,4,6,10,1,3,9,12,1,8,5,13,1,36,36,72,6,0,0,0,0,0,0,0,0,0,0,0,0,0,0,0,0,0,0,0,0,0,0,0,0,0,0,0,0,0,0,0,0,0,0,0,0,0,0,0,0,0,0,0,0,46,47,93,8,10 มิถุนายน 2561
13,13,52030014,บ้านแป้น,0,0,0,0,14,6,20,1,3,10,13,1,17,16,33,2,8,5,13,1,4,7,11,1,5,4,9,1,8,7,15,1,3,8,11,1,4,7,11,1,32,38,70,6,0,0,0,0,0,0,0,0,0,0,0,0,0,0,0,0,0,0,0,0,0,0,0,0,0,0,0,0,0,0,0,0,0,0,0,0,0,0,0,0,0,0,0,0,49,54,103,8,10 มิถุนายน 2561
14,14,52030015,บ้านสาแพะ,0,0,0,0,5,4,9,1,4,2,6,1,9,6,15,2,4,1,5,1,2,2,4,1,5,2,7,1,1,3,4,1,4,2,6,1,1,4,5,1,17,14,31,6,0,0,0,0,0,0,0,0,0,0,0,0,0,0,0,0,0,0,0,0,0,0,0,0,0,0,0,0,0,0,0,0,0,0,0,0,0,0,0,0,0,0,0,0,26,20,46,8,10 มิถุนายน 2561
15,15,52030016,บ้านแม่ตา,0,0,0,0,1,2,3,1,0,0,0,0,1,2,3,1,1,2,3,1,2,2,4,1,2,2,4,1,2,3,5,1,1,6,7,1,0,1,1,1,8,16,24,6,1,3,4,1,5,3,8,1,3,4,7,1,9,10,19,3,0,0,0,0,0,0,0,0,0,0,0,0,0,0,0,0,0,0,0,0,0,0,0,0,0,0,0,0,18,28,46,10,10 มิถุนายน 2561
16,16,52030017,บ้านแม่ตาใน,0,0,0,0,2,0,2,1,1,0,1,1,3,0,3,2,2,0,2,1,1,2,3,1,1,1,2,1,3,1,4,1,2,0,2,1,1,0,1,1,10,4,14,6,0,0,0,0,0,0,0,0,0,0,0,0,0,0,0,0,0,0,0,0,0,0,0,0,0,0,0,0,0,0,0,0,0,0,0,0,0,0,0,0,0,0,0,0,13,4,17,8,10 มิถุนายน 2561
17,17,52030019,บ้านปงดอน,0,0,0,0,0,2,2,1,0,0,0,0,0,2,2,1,3,0,3,1,0,1,1,1,1,0,1,1,0,0,0,0,0,0,0,0,5,3,8,1,9,4,13,4,0,0,0,0,0,0,0,0,0,0,0,0,0,0,0,0,0,0,0,0,0,0,0,0,0,0,0,0,0,0,0,0,0,0,0,0,0,0,0,0,0,0,0,0,9,6,15,5,10 มิถุนายน 2561
18,18,52030020,บ้านไฮ,0,0,0,0,0,0,0,0,1,2,3,1,1,2,3,1,1,1,2,1,0,0,0,0,4,2,6,1,0,1,1,1,2,2,4,1,1,1,2,1,8,7,15,5,0,0,0,0,0,0,0,0,0,0,0,0,0,0,0,0,0,0,0,0,0,0,0,0,0,0,0,0,0,0,0,0,0,0,0,0,0,0,0,0,0,0,0,0,9,9,18,6,10 มิถุนายน 2561
19,19,52030021,บ้านเปียงใจ,0,0,0,0,1,2,3,1,0,5,5,1,1,7,8,2,0,2,2,1,1,2,3,1,1,1,2,1,1,0,1,1,2,0,2,1,2,2,4,1,7,7,14,6,0,0,0,0,0,0,0,0,0,0,0,0,0,0,0,0,0,0,0,0,0,0,0,0,0,0,0,0,0,0,0,0,0,0,0,0,0,0,0,0,0,0,0,0,8,14,22,8,10 มิถุนายน 2561
20,20,52030022,บ้านเลาสู,0,0,0,0,0,0,0,0,0,0,0,0,0,0,0,0,0,0,0,0,0,1,1,1,3,1,4,1,2,4,6,1,2,1,3,1,1,1,2,1,8,8,16,5,0,0,0,0,0,0,0,0,0,0,0,0,0,0,0,0,0,0,0,0,0,0,0,0,0,0,0,0,0,0,0,0,0,0,0,0,0,0,0,0,0,0,0,0,8,8,16,5,10 มิถุนายน 2561
21,21,52030023,ไผ่งามวิทยา,0,0,0,0,6,10,16,1,7,7,14,1,13,17,30,2,11,10,21,1,8,7,15,1,6,10,16,1,12,5,17,1,11,11,22,1,11,8,19,1,59,51,110,6,13,13,26,1,12,10,22,1,14,8,22,1,39,31,70,3,0,0,0,0,0,0,0,0,0,0,0,0,0,0,0,0,0,0,0,0,0,0,0,0,0,0,0,0,111,99,210,11,10 มิถุนายน 2561
22,22,52030024,บ้านนางาม,0,0,0,0,0,1,1,1,1,2,3,1,1,3,4,2,1,1,2,1,1,2,3,1,1,1,2,1,2,1,3,1,0,0,0,0,2,0,2,1,7,5,12,5,0,0,0,0,0,0,0,0,0,0,0,0,0,0,0,0,0,0,0,0,0,0,0,0,0,0,0,0,0,0,0,0,0,0,0,0,0,0,0,0,0,0,0,0,8,8,16,7,10 มิถุนายน 2561
23,23,52030025,บ้านแม่เบิน,0,0,0,0,0,0,0,0,1,0,1,1,1,0,1,1,2,0,2,1,1,1,2,1,1,1,2,1,0,1,1,1,3,0,3,1,2,1,3,1,9,4,13,6,0,0,0,0,0,0,0,0,0,0,0,0,0,0,0,0,0,0,0,0,0,0,0,0,0,0,0,0,0,0,0,0,0,0,0,0,0,0,0,0,0,0,0,0,10,4,14,7,10 มิถุนายน 2561
24,24,52030026,บ้านนาไหม้,0,0,0,0,0,0,0,0,0,0,0,0,0,0,0,0,0,0,0,0,1,3,4,1,1,4,5,1,1,1,2,1,0,2,2,1,3,1,4,1,6,11,17,5,0,0,0,0,0,0,0,0,0,0,0,0,0,0,0,0,0,0,0,0,0,0,0,0,0,0,0,0,0,0,0,0,0,0,0,0,0,0,0,0,0,0,0,0,6,11,17,5,10 มิถุนายน 2561
25,25,52030029,ผาช่อวิทยา,0,0,0,0,8,11,19,1,8,11,19,1,16,22,38,2,13,12,25,1,4,10,14,1,11,14,25,1,11,10,21,1,10,16,26,1,11,10,21,1,60,72,132,6,10,16,26,1,10,5,15,1,14,6,20,1,34,27,61,3,0,0,0,0,0,0,0,0,0,0,0,0,0,0,0,0,0,0,0,0,0,0,0,0,0,0,0,0,110,121,231,11,10 มิถุนายน 2561
26,26,52030030,บ้านใหม่สามัคคี,0,0,0,0,0,0,0,0,0,0,0,0,0,0,0,0,1,1,2,1,1,1,2,1,1,0,1,1,0,4,4,1,0,3,3,1,0,1,1,1,3,10,13,6,0,0,0,0,0,0,0,0,0,0,0,0,0,0,0,0,0,0,0,0,0,0,0,0,0,0,0,0,0,0,0,0,0,0,0,0,0,0,0,0,0,0,0,0,3,10,13,6,10 มิถุนายน 2561
27,27,52030031,บ้านศรีบุญเรือง,0,0,0,0,2,2,4,1,11,5,16,1,13,7,20,2,7,4,11,1,2,3,5,1,5,5,10,1,6,4,10,1,4,3,7,1,6,6,12,1,30,25,55,6,0,0,0,0,0,0,0,0,0,0,0,0,0,0,0,0,0,0,0,0,0,0,0,0,0,0,0,0,0,0,0,0,0,0,0,0,0,0,0,0,0,0,0,0,43,32,75,8,10 มิถุนายน 2561
28,28,52030032,บ้านหนองกอก,0,0,0,0,0,0,0,0,0,0,0,0,0,0,0,0,0,0,0,0,0,2,2,1,0,0,0,0,0,0,0,0,1,0,1,1,1,0,1,1,2,2,4,3,0,0,0,0,0,0,0,0,0,0,0,0,0,0,0,0,0,0,0,0,0,0,0,0,0,0,0,0,0,0,0,0,0,0,0,0,0,0,0,0,0,0,0,0,2,2,4,3,10 มิถุนายน 2561
29,29,52030033,บ้านแม่สุก,0,0,0,0,2,2,4,1,4,1,5,1,6,3,9,2,2,3,5,1,2,4,6,1,5,0,5,1,4,2,6,1,2,3,5,1,4,3,7,1,19,15,34,6,0,0,0,0,0,0,0,0,0,0,0,0,0,0,0,0,0,0,0,0,0,0,0,0,0,0,0,0,0,0,0,0,0,0,0,0,0,0,0,0,0,0,0,0,25,18,43,8,10 มิถุนายน 2561
30,30,52030035,ทุ่งคาวิทยา,0,0,0,0,5,7,12,1,5,8,13,1,10,15,25,2,9,10,19,1,10,7,17,1,5,10,15,1,10,8,18,1,9,9,18,1,2,4,6,1,45,48,93,6,2,4,6,1,4,6,10,1,4,4,8,1,10,14,24,3,0,0,0,0,0,0,0,0,0,0,0,0,0,0,0,0,0,0,0,0,0,0,0,0,0,0,0,0,65,77,142,11,10 มิถุนายน 2561
31,31,52030036,บ้านปงคอบ,0,0,0,0,5,2,7,1,0,3,3,1,5,5,10,2,2,3,5,1,0,0,0,0,3,1,4,1,1,1,2,1,1,0,1,1,4,4,8,1,11,9,20,5,0,0,0,0,0,0,0,0,0,0,0,0,0,0,0,0,0,0,0,0,0,0,0,0,0,0,0,0,0,0,0,0,0,0,0,0,0,0,0,0,0,0,0,0,16,14,30,7,10 มิถุนายน 2561
32,32,52030037,บ้านสวนดอกคำ,0,0,0,0,1,1,2,1,4,2,6,1,5,3,8,2,0,0,0,0,1,1,2,1,3,2,5,1,3,2,5,1,4,4,8,1,6,2,8,1,17,11,28,5,0,0,0,0,0,0,0,0,0,0,0,0,0,0,0,0,0,0,0,0,0,0,0,0,0,0,0,0,0,0,0,0,0,0,0,0,0,0,0,0,0,0,0,0,22,14,36,7,10 มิถุนายน 2561
33,33,52030038,บ้านสันมะเกลือ,0,0,0,0,6,2,8,1,3,1,4,1,9,3,12,2,6,5,11,1,5,5,10,1,7,3,10,1,1,6,7,1,6,4,10,1,2,3,5,1,27,26,53,6,0,0,0,0,0,0,0,0,0,0,0,0,0,0,0,0,0,0,0,0,0,0,0,0,0,0,0,0,0,0,0,0,0,0,0,0,0,0,0,0,0,0,0,0,36,29,65,8,10 มิถุนายน 2561
34,34,52030039,บ้านใหม่เหล่ายาว,0,0,0,0,0,0,0,0,2,3,5,1,2,3,5,1,5,3,8,1,0,2,2,1,2,2,4,1,6,1,7,1,5,1,6,1,8,1,9,1,26,10,36,6,0,0,0,0,0,0,0,0,0,0,0,0,0,0,0,0,0,0,0,0,0,0,0,0,0,0,0,0,0,0,0,0,0,0,0,0,0,0,0,0,0,0,0,0,28,13,41,7,10 มิถุนายน 2561
35,35,52030040,บ้านใหม่ผ้าขาว,0,0,0,0,2,2,4,1,4,2,6,1,6,4,10,2,2,8,10,1,3,3,6,1,4,2,6,1,2,2,4,1,6,4,10,1,4,5,9,1,21,24,45,6,0,0,0,0,0,0,0,0,0,0,0,0,0,0,0,0,0,0,0,0,0,0,0,0,0,0,0,0,0,0,0,0,0,0,0,0,0,0,0,0,0,0,0,0,27,28,55,8,10 มิถุนายน 2561
36,36,52030042,ทุ่งฮั้ววิทยา,0,0,0,0,17,3,20,1,13,10,23,1,30,13,43,2,5,9,14,1,10,6,16,1,12,4,16,1,3,11,14,1,10,8,18,1,11,8,19,1,51,46,97,6,12,6,18,1,9,9,18,1,6,0,6,1,27,15,42,3,0,0,0,0,0,0,0,0,0,0,0,0,0,0,0,0,0,0,0,0,0,0,0,0,0,0,0,0,108,74,182,11,10 มิถุนายน 2561
37,37,52030045,บ้านทุ่งปี้,0,0,0,0,0,0,0,0,6,3,9,1,6,3,9,1,3,1,4,1,5,2,7,1,4,2,6,1,0,5,5,1,6,2,8,1,3,2,5,1,21,14,35,6,0,0,0,0,0,0,0,0,0,0,0,0,0,0,0,0,0,0,0,0,0,0,0,0,0,0,0,0,0,0,0,0,0,0,0,0,0,0,0,0,0,0,0,0,27,17,44,7,10 มิถุนายน 2561
38,38,52030046,บ้านวังมน,0,0,0,0,1,0,1,1,3,4,7,1,4,4,8,2,3,2,5,1,9,3,12,1,2,0,2,1,5,4,9,1,1,1,2,1,6,3,9,1,26,13,39,6,0,0,0,0,0,0,0,0,0,0,0,0,0,0,0,0,0,0,0,0,0,0,0,0,0,0,0,0,0,0,0,0,0,0,0,0,0,0,0,0,0,0,0,0,30,17,47,8,10 มิถุนายน 2561
39,39,52030047,บ้านแม่ม่า,0,0,0,0,0,0,0,0,1,1,2,1,1,1,2,1,0,0,0,0,4,3,7,1,2,1,3,1,3,2,5,1,1,5,6,1,2,3,5,1,12,14,26,5,0,0,0,0,0,0,0,0,0,0,0,0,0,0,0,0,0,0,0,0,0,0,0,0,0,0,0,0,0,0,0,0,0,0,0,0,0,0,0,0,0,0,0,0,13,15,28,6,10 มิถุนายน 2561
40,40,52030048,บ้านดอนแก้ว,0,0,0,0,4,3,7,1,3,6,9,1,7,9,16,2,8,10,18,1,7,4,11,1,2,7,9,1,11,7,18,1,3,4,7,1,7,6,13,1,38,38,76,6,0,0,0,0,0,0,0,0,0,0,0,0,0,0,0,0,0,0,0,0,0,0,0,0,0,0,0,0,0,0,0,0,0,0,0,0,0,0,0,0,0,0,0,0,45,47,92,8,10 มิถุนายน 2561
41,41,52030050,บ้านวังใหม่,0,0,0,0,9,9,18,1,8,9,17,1,17,18,35,2,7,7,14,1,4,6,10,1,8,2,10,1,8,4,12,1,7,11,18,1,12,8,20,1,46,38,84,6,0,0,0,0,0,0,0,0,0,0,0,0,0,0,0,0,0,0,0,0,0,0,0,0,0,0,0,0,0,0,0,0,0,0,0,0,0,0,0,0,0,0,0,0,63,56,119,8,10 มิถุนายน 2561
42,42,52030052,บ้านทุ่งฝูง,0,0,0,0,0,0,0,0,0,0,0,0,0,0,0,0,0,0,0,0,0,0,0,0,0,0,0,0,0,0,0,0,0,0,0,0,0,0,0,0,0,0,0,0,0,0,0,0,0,0,0,0,0,0,0,0,0,0,0,0,0,0,0,0,0,0,0,0,0,0,0,0,0,0,0,0,0,0,0,0,0,0,0,0,0,0,0,0,0,0,0,0,10 มิถุนายน 2561
43,43,52030055,ร่องเคาะวิทยา,0,0,0,0,3,3,6,1,5,5,10,1,8,8,16,2,5,3,8,1,12,7,19,1,6,15,21,1,9,13,22,1,12,13,25,1,6,11,17,1,50,62,112,6,17,14,31,1,14,12,26,1,17,11,28,1,48,37,85,3,0,0,0,0,0,0,0,0,0,0,0,0,0,0,0,0,0,0,0,0,0,0,0,0,0,0,0,0,106,107,213,11,10 มิถุนายน 2561
44,44,52030059,บ้านแม่หีด,0,0,0,0,0,0,0,0,0,0,0,0,0,0,0,0,0,0,0,0,0,0,0,0,2,0,2,1,2,1,3,1,3,1,4,1,5,2,7,1,12,4,16,4,0,0,0,0,0,0,0,0,0,0,0,0,0,0,0,0,0,0,0,0,0,0,0,0,0,0,0,0,0,0,0,0,0,0,0,0,0,0,0,0,0,0,0,0,12,4,16,4,10 มิถุนายน 2561
45,45,52030060,วังแก้ววิทยา,0,0,0,0,11,8,19,1,10,9,19,1,21,17,38,2,10,19,29,1,6,9,15,1,8,6,14,1,11,7,18,1,7,4,11,1,4,7,11,1,46,52,98,6,10,6,16,1,9,14,23,1,7,6,13,1,26,26,52,3,0,0,0,0,0,0,0,0,0,0,0,0,0,0,0,0,0,0,0,0,0,0,0,0,0,0,0,0,93,95,188,11,10 มิถุนายน 2561
46,46,52030062,บ้านแม่สุขใน,0,0,0,0,3,4,7,1,6,3,9,1,9,7,16,2,2,1,3,1,5,2,7,1,6,3,9,1,6,2,8,1,3,7,10,1,3,4,7,1,25,19,44,6,0,0,0,0,0,0,0,0,0,0,0,0,0,0,0,0,0,0,0,0,0,0,0,0,0,0,0,0,0,0,0,0,0,0,0,0,0,0,0,0,0,0,0,0,34,26,60,8,10 มิถุนายน 2561
47,47,52030063,บ้านป่าแขม,0,0,0,0,9,6,15,1,4,8,12,1,13,14,27,2,6,4,10,1,6,3,9,1,6,4,10,1,5,8,13,1,5,3,8,1,7,6,13,1,35,28,63,6,0,0,0,0,0,0,0,0,0,0,0,0,0,0,0,0,0,0,0,0,0,0,0,0,0,0,0,0,0,0,0,0,0,0,0,0,0,0,0,0,0,0,0,0,48,42,90,8,10 มิถุนายน 2561
48,48,52030064,บ้านหัวทุ่ง,0,0,0,0,2,1,3,1,11,3,14,1,13,4,17,2,2,3,5,1,5,7,12,1,7,5,12,1,8,3,11,1,2,2,4,1,8,8,16,1,32,28,60,6,0,0,0,0,0,0,0,0,0,0,0,0,0,0,0,0,0,0,0,0,0,0,0,0,0,0,0,0,0,0,0,0,0,0,0,0,0,0,0,0,0,0,0,0,45,32,77,8,10 มิถุนายน 2561
49,49,52030065,บ้านแม่สุขวังเหนือ,0,0,0,0,3,4,7,1,4,3,7,1,7,7,14,2,8,12,20,1,9,3,12,1,5,1,6,1,5,3,8,1,8,8,16,1,10,7,17,1,45,34,79,6,0,0,0,0,0,0,0,0,0,0,0,0,0,0,0,0,0,0,0,0,0,0,0,0,0,0,0,0,0,0,0,0,0,0,0,0,0,0,0,0,0,0,0,0,52,41,93,8,10 มิถุนายน 2561
50,50,52030067,บ้านวังโป่ง,0,0,0,0,8,1,9,1,10,11,21,1,18,12,30,2,9,7,16,1,9,5,14,1,3,9,12,1,8,4,12,1,9,6,15,1,7,11,18,1,45,42,87,6,0,0,0,0,0,0,0,0,0,0,0,0,0,0,0,0,0,0,0,0,0,0,0,0,0,0,0,0,0,0,0,0,0,0,0,0,0,0,0,0,0,0,0,0,63,54,117,8,10 มิถุนายน 2561
51,51,52030068,บ้านแม่พริก,0,0,0,0,4,3,7,1,3,3,6,1,7,6,13,2,3,0,3,1,5,5,10,1,2,3,5,1,6,2,8,1,3,4,7,1,4,4,8,1,23,18,41,6,0,0,0,0,0,0,0,0,0,0,0,0,0,0,0,0,0,0,0,0,0,0,0,0,0,0,0,0,0,0,0,0,0,0,0,0,0,0,0,0,0,0,0,0,30,24,54,8,10 มิถุนายน 2561
52,52,52030070,บ้านก่อ,0,0,0,0,4,0,4,1,14,17,31,1,18,17,35,2,3,6,9,1,14,8,22,1,12,6,18,1,8,9,17,1,8,13,21,1,10,7,17,1,55,49,104,6,0,0,0,0,0,0,0,0,0,0,0,0,0,0,0,0,0,0,0,0,0,0,0,0,0,0,0,0,0,0,0,0,0,0,0,0,0,0,0,0,0,0,0,0,73,66,139,8,10 มิถุนายน 2561
53,53,52030071,บ้านทุ่งฮี,0,0,0,0,4,3,7,1,0,0,0,0,4,3,7,1,2,2,4,1,0,3,3,1,1,2,3,1,5,1,6,1,2,2,4,1,1,4,5,1,11,14,25,6,0,0,0,0,0,0,0,0,0,0,0,0,0,0,0,0,0,0,0,0,0,0,0,0,0,0,0,0,0,0,0,0,0,0,0,0,0,0,0,0,0,0,0,0,15,17,32,7,10 มิถุนายน 2561
54,54,52030074,วังทรายคำวิทยา(ปงวังอนุสรณ์),0,0,0,0,0,4,4,1,1,2,3,1,1,6,7,2,2,5,7,1,3,2,5,1,0,8,8,1,2,4,6,1,0,0,0,0,8,4,12,1,15,23,38,5,10,7,17,1,7,3,10,1,9,6,15,1,26,16,42,3,0,0,0,0,0,0,0,0,0,0,0,0,0,0,0,0,0,0,0,0,0,0,0,0,0,0,0,0,42,45,87,10,10 มิถุนายน 2561
55,55,52030075,บ้านปงถ้ำ,0,0,0,0,3,2,5,1,6,5,11,1,9,7,16,2,6,7,13,1,13,8,21,1,5,10,15,1,6,9,15,1,8,10,18,1,11,2,13,1,49,46,95,6,0,0,0,0,0,0,0,0,0,0,0,0,0,0,0,0,0,0,0,0,0,0,0,0,0,0,0,0,0,0,0,0,0,0,0,0,0,0,0,0,0,0,0,0,58,53,111,8,10 มิถุนายน 2561
56,56,52030076,บ้านแม่เย็น,0,0,0,0,5,3,8,1,7,3,10,1,12,6,18,2,3,4,7,1,4,0,4,1,0,1,1,1,5,1,6,1,0,5,5,1,5,1,6,1,17,12,29,6,0,0,0,0,0,0,0,0,0,0,0,0,0,0,0,0,0,0,0,0,0,0,0,0,0,0,0,0,0,0,0,0,0,0,0,0,0,0,0,0,0,0,0,0,29,18,47,8,10 มิถุนายน 2561
57,57,52030077,บ้านเมืองตึง,0,0,0,0,4,2,6,1,8,2,10,1,12,4,16,2,4,3,7,1,4,11,15,1,7,5,12,1,6,2,8,1,7,4,11,1,7,5,12,1,35,30,65,6,0,0,0,0,0,0,0,0,0,0,0,0,0,0,0,0,0,0,0,0,0,0,0,0,0,0,0,0,0,0,0,0,0,0,0,0,0,0,0,0,0,0,0,0,47,34,81,8,10 มิถุนายน 2561
58,58,52030078,วังทองวิทยา,0,0,0,0,6,6,12,1,6,5,11,1,12,11,23,2,9,9,18,1,6,7,13,1,4,6,10,1,5,4,9,1,4,7,11,1,5,5,10,1,33,38,71,6,8,4,12,1,9,9,18,1,12,9,21,1,29,22,51,3,0,0,0,0,0,0,0,0,0,0,0,0,0,0,0,0,0,0,0,0,0,0,0,0,0,0,0,0,74,71,145,11,10 มิถุนายน 2561
59,59,52030081,อนุบาลวังเหนือ,0,0,0,0,28,21,49,2,16,20,36,2,44,41,85,4,30,26,56,2,26,22,48,2,25,21,46,2,29,42,71,2,21,30,51,2,36,29,65,2,167,170,337,12,0,0,0,0,0,0,0,0,0,0,0,0,0,0,0,0,0,0,0,0,0,0,0,0,0,0,0,0,0,0,0,0,0,0,0,0,0,0,0,0,0,0,0,0,211,211,422,16,10 มิถุนายน 2561
60,60,52030082,ชุมชนบ้านใหม่,0,0,0,0,9,11,20,1,9,14,23,1,18,25,43,2,10,10,20,1,10,6,16,1,8,15,23,1,6,2,8,1,4,6,10,1,6,11,17,1,44,50,94,6,0,0,0,0,0,0,0,0,0,0,0,0,0,0,0,0,0,0,0,0,0,0,0,0,0,0,0,0,0,0,0,0,0,0,0,0,0,0,0,0,0,0,0,0,62,75,137,8,10 มิถุนายน 2561
61,61,52030083,บ้านทัพป่าเส้า,0,0,0,0,1,0,1,1,3,1,4,1,4,1,5,2,0,0,0,0,2,0,2,1,1,0,1,1,3,1,4,1,3,0,3,1,3,1,4,1,12,2,14,5,0,0,0,0,0,0,0,0,0,0,0,0,0,0,0,0,0,0,0,0,0,0,0,0,0,0,0,0,0,0,0,0,0,0,0,0,0,0,0,0,0,0,0,0,16,3,19,7,10 มิถุนายน 2561
62,62,52030084,บ้านป่าเหมี้ยง,0,0,0,0,1,2,3,1,1,2,3,1,2,4,6,2,0,2,2,1,2,1,3,1,0,4,4,1,1,1,2,1,1,2,3,1,1,3,4,1,5,13,18,6,0,0,0,0,0,0,0,0,0,0,0,0,0,0,0,0,0,0,0,0,0,0,0,0,0,0,0,0,0,0,0,0,0,0,0,0,0,0,0,0,0,0,0,0,7,17,24,8,10 มิถุนายน 2561
63,63,52030085,บ้านทุ่ง,0,0,0,0,2,0,2,1,1,3,4,1,3,3,6,2,2,2,4,1,1,2,3,1,2,1,3,1,2,4,6,1,4,1,5,1,3,1,4,1,14,11,25,6,0,0,0,0,0,0,0,0,0,0,0,0,0,0,0,0,0,0,0,0,0,0,0,0,0,0,0,0,0,0,0,0,0,0,0,0,0,0,0,0,0,0,0,0,17,14,31,8,10 มิถุนายน 2561
64,64,52030086,บ้านใหม่พัฒนา,0,0,0,0,6,8,14,1,6,9,15,1,12,17,29,2,14,11,25,1,13,14,27,1,15,4,19,1,7,18,25,1,13,8,21,1,12,7,19,1,74,62,136,6,0,0,0,0,0,0,0,0,0,0,0,0,0,0,0,0,0,0,0,0,0,0,0,0,0,0,0,0,0,0,0,0,0,0,0,0,0,0,0,0,0,0,0,0,86,79,165,8,10 มิถุนายน 2561
65,65,52030087,บ้านสบลี,0,0,0,0,5,5,10,1,9,4,13,1,14,9,23,2,7,2,9,1,5,4,9,1,3,5,8,1,4,5,9,1,1,4,5,1,8,9,17,1,28,29,57,6,0,0,0,0,0,0,0,0,0,0,0,0,0,0,0,0,0,0,0,0,0,0,0,0,0,0,0,0,0,0,0,0,0,0,0,0,0,0,0,0,0,0,0,0,42,38,80,8,10 มิถุนายน 2561
66,66,52030088,แจ้ซ้อนวิทยา,0,0,0,0,4,2,6,1,7,8,15,1,11,10,21,2,11,4,15,1,9,9,18,1,9,7,16,1,8,8,16,1,9,5,14,1,5,6,11,1,51,39,90,6,14,9,23,1,10,13,23,1,12,8,20,1,36,30,66,3,0,0,0,0,0,0,0,0,0,0,0,0,0,0,0,0,0,0,0,0,0,0,0,0,0,0,0,0,98,79,177,11,10 มิถุนายน 2561
67,67,52030089,บ้านหลวงแจ้ซ้อน,0,0,0,0,6,1,7,1,0,4,4,1,6,5,11,2,4,1,5,1,1,2,3,1,2,3,5,1,1,5,6,1,4,5,9,1,4,5,9,1,16,21,37,6,0,0,0,0,0,0,0,0,0,0,0,0,0,0,0,0,0,0,0,0,0,0,0,0,0,0,0,0,0,0,0,0,0,0,0,0,0,0,0,0,0,0,0,0,22,26,48,8,10 มิถุนายน 2561
68,68,52030091,บ้านแม่แจ๋ม,0,0,0,0,5,10,15,1,7,6,13,1,12,16,28,2,10,5,15,1,4,11,15,1,7,6,13,1,7,3,10,1,6,4,10,1,8,3,11,1,42,32,74,6,0,0,0,0,0,0,0,0,0,0,0,0,0,0,0,0,0,0,0,0,0,0,0,0,0,0,0,0,0,0,0,0,0,0,0,0,0,0,0,0,0,0,0,0,54,48,102,8,10 มิถุนายน 2561
69,69,52030092,บ้านทุ่งจี้,0,0,0,0,2,4,6,1,4,2,6,1,6,6,12,2,1,0,1,1,4,2,6,1,2,1,3,1,1,0,1,1,1,1,2,1,2,2,4,1,11,6,17,6,0,0,0,0,0,0,0,0,0,0,0,0,0,0,0,0,0,0,0,0,0,0,0,0,0,0,0,0,0,0,0,0,0,0,0,0,0,0,0,0,0,0,0,0,17,12,29,8,10 มิถุนายน 2561
70,70,52030093,บ้านทุ่งปง,0,0,0,0,1,1,2,1,1,0,1,1,2,1,3,2,0,3,3,1,0,1,1,1,0,1,1,1,4,1,5,1,0,0,0,0,6,0,6,1,10,6,16,5,0,0,0,0,0,0,0,0,0,0,0,0,0,0,0,0,0,0,0,0,0,0,0,0,0,0,0,0,0,0,0,0,0,0,0,0,0,0,0,0,0,0,0,0,12,7,19,7,10 มิถุนายน 2561
71,71,52030095,บ้านเฮี้ย,0,0,0,0,0,0,0,0,0,0,0,0,0,0,0,0,0,0,0,0,0,0,0,0,2,0,2,1,0,0,0,0,1,0,1,1,0,1,1,1,3,1,4,3,0,0,0,0,0,0,0,0,0,0,0,0,0,0,0,0,0,0,0,0,0,0,0,0,0,0,0,0,0,0,0,0,0,0,0,0,0,0,0,0,0,0,0,0,3,1,4,3,10 มิถุนายน 2561
72,72,52030096,ปลายนาวิทยา,0,0,0,0,3,4,7,1,4,4,8,1,7,8,15,2,8,4,12,1,0,1,1,1,1,3,4,1,2,3,5,1,3,5,8,1,6,3,9,1,20,19,39,6,0,0,0,0,0,0,0,0,0,0,0,0,0,0,0,0,0,0,0,0,0,0,0,0,0,0,0,0,0,0,0,0,0,0,0,0,0,0,0,0,0,0,0,0,27,27,54,8,10 มิถุนายน 2561
73,73,52030097,บ้านถ้ำ,0,0,0,0,1,0,1,1,3,1,4,1,4,1,5,2,2,1,3,1,1,2,3,1,2,3,5,1,3,2,5,1,2,1,3,1,4,3,7,1,14,12,26,6,0,0,0,0,0,0,0,0,0,0,0,0,0,0,0,0,0,0,0,0,0,0,0,0,0,0,0,0,0,0,0,0,0,0,0,0,0,0,0,0,0,0,0,0,18,13,31,8,10 มิถุนายน 2561
74,74,52030098,อนุบาลเมืองปาน (บ้านทุ่งกว๋าว),0,0,0,0,3,3,6,1,2,5,7,1,5,8,13,2,5,1,6,1,2,3,5,1,5,4,9,1,3,2,5,1,4,3,7,1,3,2,5,1,22,15,37,6,0,0,0,0,0,0,0,0,0,0,0,0,0,0,0,0,0,0,0,0,0,0,0,0,0,0,0,0,0,0,0,0,0,0,0,0,0,0,0,0,0,0,0,0,27,23,50,8,10 มิถุนายน 2561
75,75,52030099,บ้านจ๋ง,0,0,0,0,0,0,0,0,1,8,9,1,1,8,9,1,2,3,5,1,1,4,5,1,3,2,5,1,3,3,6,1,1,2,3,1,0,1,1,1,10,15,25,6,0,0,0,0,0,0,0,0,0,0,0,0,0,0,0,0,0,0,0,0,0,0,0,0,0,0,0,0,0,0,0,0,0,0,0,0,0,0,0,0,0,0,0,0,11,23,34,7,10 มิถุนายน 2561
76,76,52030100,บ้านทุ่งข่วง,0,0,0,0,3,0,3,1,0,4,4,1,3,4,7,2,2,0,2,1,2,2,4,1,2,2,4,1,1,1,2,1,3,4,7,1,1,0,1,1,11,9,20,6,0,0,0,0,0,0,0,0,0,0,0,0,0,0,0,0,0,0,0,0,0,0,0,0,0,0,0,0,0,0,0,0,0,0,0,0,0,0,0,0,0,0,0,0,14,13,27,8,10 มิถุนายน 2561
77,77,52030101,บ้านทุ่งส้าน,0,0,0,0,0,0,0,0,0,0,0,0,0,0,0,0,2,1,3,1,0,1,1,1,3,1,4,1,0,3,3,1,1,0,1,1,2,3,5,1,8,9,17,6,0,0,0,0,0,0,0,0,0,0,0,0,0,0,0,0,0,0,0,0,0,0,0,0,0,0,0,0,0,0,0,0,0,0,0,0,0,0,0,0,0,0,0,0,8,9,17,6,10 มิถุนายน 2561
78,78,52030102,บ้านหนอง,0,0,0,0,0,0,0,0,0,0,0,0,0,0,0,0,0,0,0,0,0,0,0,0,1,2,3,1,1,1,2,1,2,2,4,1,1,1,2,1,5,6,11,4,0,0,0,0,0,0,0,0,0,0,0,0,0,0,0,0,0,0,0,0,0,0,0,0,0,0,0,0,0,0,0,0,0,0,0,0,0,0,0,0,0,0,0,0,5,6,11,4,10 มิถุนายน 2561
79,79,52030103,บ้านแม่กองปิน,0,0,0,0,0,0,0,0,0,0,0,0,0,0,0,0,0,0,0,0,0,0,0,0,1,0,1,1,1,0,1,1,4,1,5,1,3,1,4,1,9,2,11,4,0,0,0,0,0,0,0,0,0,0,0,0,0,0,0,0,0,0,0,0,0,0,0,0,0,0,0,0,0,0,0,0,0,0,0,0,0,0,0,0,0,0,0,0,9,2,11,4,10 มิถุนายน 2561
80,80,52030104,บ้านขอวิทยา,0,0,0,0,0,0,0,0,1,2,3,1,1,2,3,1,3,4,7,1,6,4,10,1,5,2,7,1,2,2,4,1,2,2,4,1,3,2,5,1,21,16,37,6,3,6,9,1,0,0,0,0,0,0,0,0,3,6,9,1,0,0,0,0,0,0,0,0,0,0,0,0,0,0,0,0,0,0,0,0,0,0,0,0,0,0,0,0,25,24,49,8,10 มิถุนายน 2561
81,81,52030105,บ้านทุ่งสะแกง,0,0,0,0,0,0,0,0,3,0,3,1,3,0,3,1,3,2,5,1,6,3,9,1,3,1,4,1,1,4,5,1,2,1,3,1,4,2,6,1,19,13,32,6,0,0,0,0,0,0,0,0,0,0,0,0,0,0,0,0,0,0,0,0,0,0,0,0,0,0,0,0,0,0,0,0,0,0,0,0,0,0,0,0,0,0,0,0,22,13,35,7,10 มิถุนายน 2561
82,82,52030106,บ้านป่าเหว,0,0,0,0,5,4,9,1,6,3,9,1,11,7,18,2,16,5,21,1,9,15,24,1,9,8,17,1,6,4,10,1,6,4,10,1,2,5,7,1,48,41,89,6,0,0,0,0,0,0,0,0,0,0,0,0,0,0,0,0,0,0,0,0,0,0,0,0,0,0,0,0,0,0,0,0,0,0,0,0,0,0,0,0,0,0,0,0,59,48,107,8,10 มิถุนายน 2561
83,83,52030107,บ้านปางดะ,0,0,0,0,1,2,3,1,3,3,6,1,4,5,9,2,4,3,7,1,4,4,8,1,3,2,5,1,2,1,3,1,3,4,7,1,1,2,3,1,17,16,33,6,0,0,0,0,0,0,0,0,0,0,0,0,0,0,0,0,0,0,0,0,0,0,0,0,0,0,0,0,0,0,0,0,0,0,0,0,0,0,0,0,0,0,0,0,21,21,42,8,10 มิถุนายน 2561
84,84,52030108,บ้านม่วง,0,0,0,0,1,0,1,1,2,0,2,1,3,0,3,2,3,5,8,1,7,7,14,1,2,3,5,1,1,1,2,1,3,4,7,1,0,3,3,1,16,23,39,6,0,0,0,0,0,0,0,0,0,0,0,0,0,0,0,0,0,0,0,0,0,0,0,0,0,0,0,0,0,0,0,0,0,0,0,0,0,0,0,0,0,0,0,0,19,23,42,8,10 มิถุนายน 2561
85,85,52030110,บ้านดอนแก้ว,0,0,0,0,1,3,4,1,3,4,7,1,4,7,11,2,0,0,0,0,5,3,8,1,5,4,9,1,6,0,6,1,1,4,5,1,2,4,6,1,19,15,34,5,0,0,0,0,0,0,0,0,0,0,0,0,0,0,0,0,0,0,0,0,0,0,0,0,0,0,0,0,0,0,0,0,0,0,0,0,0,0,0,0,0,0,0,0,23,22,45,7,10 มิถุนายน 2561
86,86,52030111,บ้านดอนไชย,0,0,0,0,0,0,0,0,0,0,0,0,0,0,0,0,1,1,2,2,0,1,1,1,2,1,3,3,0,1,1,1,2,1,3,3,2,0,2,2,7,5,12,12,0,0,0,0,0,0,0,0,0,0,0,0,0,0,0,0,0,0,0,0,0,0,0,0,0,0,0,0,0,0,0,0,0,0,0,0,0,0,0,0,0,0,0,0,7,5,12,12,10 มิถุนายน 2561
87,87,52030112,บ้านน้ำจำ,0,0,0,0,1,6,7,1,1,0,1,1,2,6,8,2,6,3,9,1,1,2,3,1,7,2,9,1,1,6,7,1,6,5,11,1,4,3,7,1,25,21,46,6,0,0,0,0,0,0,0,0,0,0,0,0,0,0,0,0,0,0,0,0,0,0,0,0,0,0,0,0,0,0,0,0,0,0,0,0,0,0,0,0,0,0,0,0,27,27,54,8,10 มิถุนายน 2561
88,88,52030113,บ้านแพะ,0,0,0,0,3,6,9,1,10,10,20,1,13,16,29,2,2,6,8,1,6,3,9,1,7,2,9,1,5,0,5,1,6,4,10,1,6,7,13,1,32,22,54,6,0,0,0,0,0,0,0,0,0,0,0,0,0,0,0,0,0,0,0,0,0,0,0,0,0,0,0,0,0,0,0,0,0,0,0,0,0,0,0,0,0,0,0,0,45,38,83,8,10 มิถุนายน 2561
89,89,52030114,บ้านทุ่งโป่ง,0,0,0,0,2,2,4,1,0,5,5,1,2,7,9,2,3,1,4,1,5,7,12,1,6,0,6,1,3,2,5,1,7,3,10,1,9,7,16,1,33,20,53,6,0,0,0,0,0,0,0,0,0,0,0,0,0,0,0,0,0,0,0,0,0,0,0,0,0,0,0,0,0,0,0,0,0,0,0,0,0,0,0,0,0,0,0,0,35,27,62,8,10 มิถุนายน 2561
90,90,52030116,บ้านต้นงุ้น,0,0,0,0,5,7,12,1,5,3,8,1,10,10,20,2,4,5,9,1,0,0,0,0,4,4,8,1,3,4,7,1,1,2,3,1,4,3,7,1,16,18,34,5,0,0,0,0,0,0,0,0,0,0,0,0,0,0,0,0,0,0,0,0,0,0,0,0,0,0,0,0,0,0,0,0,0,0,0,0,0,0,0,0,0,0,0,0,26,28,54,7,10 มิถุนายน 2561
91,91,52030117,บ้านขาม,0,0,0,0,2,3,5,1,7,3,10,1,9,6,15,2,0,2,2,1,5,3,8,1,0,4,4,1,4,2,6,1,3,0,3,1,3,3,6,1,15,14,29,6,0,0,0,0,0,0,0,0,0,0,0,0,0,0,0,0,0,0,0,0,0,0,0,0,0,0,0,0,0,0,0,0,0,0,0,0,0,0,0,0,0,0,0,0,24,20,44,8,10 มิถุนายน 2561
92,92,52030118,บ้านกล้วย,0,0,0,0,2,3,5,1,2,1,3,1,4,4,8,2,2,3,5,1,3,7,10,1,1,4,5,1,2,5,7,1,4,5,9,1,3,7,10,1,15,31,46,6,0,0,0,0,0,0,0,0,0,0,0,0,0,0,0,0,0,0,0,0,0,0,0,0,0,0,0,0,0,0,0,0,0,0,0,0,0,0,0,0,0,0,0,0,19,35,54,8,10 มิถุนายน 2561
93,93,52030119,บ้านหัวเมือง,0,0,0,0,4,8,12,1,6,8,14,1,10,16,26,2,8,5,13,1,4,5,9,1,10,2,12,1,2,1,3,1,4,3,7,1,2,4,6,1,30,20,50,6,0,0,0,0,0,0,0,0,0,0,0,0,0,0,0,0,0,0,0,0,0,0,0,0,0,0,0,0,0,0,0,0,0,0,0,0,0,0,0,0,0,0,0,0,40,36,76,8,10 มิถุนายน 2561
94,94,52030120,บ้านไร่,0,0,0,0,0,3,3,1,3,4,7,1,3,7,10,2,3,2,5,1,9,5,14,1,4,7,11,1,3,2,5,1,6,7,13,1,5,3,8,1,30,26,56,6,0,0,0,0,0,0,0,0,0,0,0,0,0,0,0,0,0,0,0,0,0,0,0,0,0,0,0,0,0,0,0,0,0,0,0,0,0,0,0,0,0,0,0,0,33,33,66,8,10 มิถุนายน 2561
