,0,1,2,3,4,5,6,7,8,9,10,11,12,13,14,15,16,17,18,19,20,21,22,23,24,25,26,27,28,29,30,31,32,33,34,35,36,37,38,39,40,41,42,43,44,45,46,47,48,49,50,51,52,53,54,55,56,57,58,59,60,61,62,63,64,65,66,67,68,69,70,71,72,73,74,75,76,77,78,79,80,81,82,83,84,85,86,87,88,89,90,91,92,93,94,95
0,ลำดับ,รหัส SMIS,โรงเรียน,อ.3 ขวบ ชาย,อ.3 ขวบ หญิง,รวมอ.3 ขวบ,อ.3 ขวบ ห้อง,อ.1 ชาย,อ.1 หญิง,รวมอ.1,อ.1 ห้อง,อ.2 ชาย,อ.2 หญิง,รวมอ.2,อ.2 ห้อง,รวมก่อนประถม ชาย,รวมก่อนประถม หญิง,รวมก่อนประถม,รวมห้องก่อนประถม,ป.1 ชาย,ป.1 หญิง,รวมป.1,ป.1 ห้อง,ป.2 ชาย,ป.2 หญิง,รวมป.2,ป.2 ห้อง,ป.3 ชาย,ป.3 หญิง,รวมป.3,ป.3 ห้อง,ป.4 ชาย,ป.4 หญิง,รวมป.4,ป.4 ห้อง,ป.5 ชาย,ป.5 หญิง,รวมป.5,ป.5 ห้อง,ป.6 ชาย,ป.6 หญิง,รวมป.6,ป.6 ห้อง,รวมประถม ชาย,รวมประถม หญิง,รวมประถม,รวมห้องประถม,ม.1 ชาย,ม.1 หญิง,รวมม.1,ม.1 ห้อง,ม.2 ชาย,ม.2 หญิง,รวมม.2,ม.2 ห้อง,ม.3 ชาย,ม.3 หญิง,รวมม.3,ม.3 ห้อง,รวมม.ต้น ชาย,รวมม.ต้น หญิง,รวมม.ต้น,รวมห้องม.ต้น,ม.4 ชาย,ม.4 หญิง,รวมม.4,ม.4 ห้อง,ม.5 ชาย,ม.5 หญิง,รวมม.5,ม.5 ห้อง,ม.6 ชาย,ม.6 หญิง,รวมม.6,ม.6 ห้อง,ปวช.1 ชาย,ปวช.1 หญิง,รวมปวช.1,ปวช.1 ห้อง,ปวช.2 ชาย,ปวช.2 หญิง,รวมปวช.2,ปวช.2 ห้อง,ปวช.3 ชาย,ปวช.3 หญิง,รวมปวช.3,ปวช.3 ห้อง,รวมม.ปลายและเทียบเท่า ชาย,รวมม.ปลายและเทียบเท่า หญิง,รวมม.ปลายและเทียบเท่า,รวมห้องม.ปลายและเทียบเท่า,รวมทั้งหมด ชาย,รวมทั้งหมด หญิง,รวมทั้งหมด,รวมห้องทั้งหมด,ข้อมูล ณ วันที่
1,1,54010001,บ้านหัวฝาย(ประชาสารสงเคราะห์),0,0,0,0,0,0,0,0,2,0,2,1,2,0,2,1,0,0,0,0,0,0,0,0,0,0,0,0,0,0,0,0,0,0,0,0,0,0,0,0,0,0,0,0,0,0,0,0,0,0,0,0,0,0,0,0,0,0,0,0,0,0,0,0,0,0,0,0,0,0,0,0,0,0,0,0,0,0,0,0,0,0,0,0,0,0,0,0,2,0,2,1,10 มิถุนายน 2561
2,2,54010002,บ้านดอนดี(ประชานุกูล),0,0,0,0,1,0,1,1,0,1,1,1,1,1,2,2,0,0,0,0,1,0,1,1,0,0,0,0,0,0,0,0,0,0,0,0,3,1,4,1,4,1,5,2,0,0,0,0,0,0,0,0,0,0,0,0,0,0,0,0,0,0,0,0,0,0,0,0,0,0,0,0,0,0,0,0,0,0,0,0,0,0,0,0,0,0,0,0,5,2,7,4,10 มิถุนายน 2561
3,3,54010003,วัดกาญจนาราม(ประชาชนูทิศ),0,0,0,0,1,4,5,1,4,1,5,1,5,5,10,2,0,2,2,1,4,3,7,1,4,2,6,1,2,3,5,1,10,5,15,1,7,3,10,1,27,18,45,6,5,6,11,1,4,6,10,1,4,3,7,1,13,15,28,3,0,0,0,0,0,0,0,0,0,0,0,0,0,0,0,0,0,0,0,0,0,0,0,0,0,0,0,0,45,38,83,11,10 มิถุนายน 2561
4,4,54010004,บ้านพันเชิง(วงศ์หล้าราษฎร์บำรุง),0,0,0,0,0,0,0,0,0,0,0,0,0,0,0,0,7,2,9,1,3,0,3,1,1,3,4,1,2,3,5,1,6,0,6,1,5,6,11,1,24,14,38,6,0,0,0,0,0,0,0,0,0,0,0,0,0,0,0,0,0,0,0,0,0,0,0,0,0,0,0,0,0,0,0,0,0,0,0,0,0,0,0,0,0,0,0,0,24,14,38,6,10 มิถุนายน 2561
5,5,54010005,วัดต้นไคร้,0,0,0,0,0,0,0,0,0,0,0,0,0,0,0,0,17,14,31,1,15,12,27,1,10,14,24,1,10,7,17,1,13,9,22,1,10,8,18,1,75,64,139,6,0,0,0,0,0,0,0,0,0,0,0,0,0,0,0,0,0,0,0,0,0,0,0,0,0,0,0,0,0,0,0,0,0,0,0,0,0,0,0,0,0,0,0,0,75,64,139,6,10 มิถุนายน 2561
6,6,54010006,บ้านใน(อินทราษฎร์บำรุง),0,0,0,0,0,0,0,0,0,0,0,0,0,0,0,0,0,0,0,0,0,0,0,0,2,1,3,1,2,2,4,1,1,3,4,1,5,2,7,1,10,8,18,4,0,0,0,0,0,0,0,0,0,0,0,0,0,0,0,0,0,0,0,0,0,0,0,0,0,0,0,0,0,0,0,0,0,0,0,0,0,0,0,0,0,0,0,0,10,8,18,4,10 มิถุนายน 2561
7,7,54010008,บ้านนาตอง(นาตองสามัคคี),0,0,0,0,0,0,0,0,0,0,0,0,0,0,0,0,1,0,1,1,0,1,1,1,0,0,0,0,1,1,2,1,0,0,0,0,1,5,6,1,3,7,10,4,0,0,0,0,0,0,0,0,0,0,0,0,0,0,0,0,0,0,0,0,0,0,0,0,0,0,0,0,0,0,0,0,0,0,0,0,0,0,0,0,0,0,0,0,3,7,10,4,10 มิถุนายน 2561
8,8,54010009,บ้านท่าขวัญ(ราษฎร์บำรุง),0,0,0,0,1,0,1,1,0,2,2,1,1,2,3,2,2,0,2,1,1,0,1,1,1,3,4,1,1,2,3,1,3,2,5,1,1,2,3,1,9,9,18,6,0,0,0,0,0,0,0,0,0,0,0,0,0,0,0,0,0,0,0,0,0,0,0,0,0,0,0,0,0,0,0,0,0,0,0,0,0,0,0,0,0,0,0,0,10,11,21,8,10 มิถุนายน 2561
9,9,54010010,รัฐราษฎร์บำรุง,2,5,7,1,4,2,6,1,4,5,9,1,10,12,22,3,5,2,7,1,1,3,4,1,4,4,8,1,5,3,8,1,3,4,7,1,3,4,7,1,21,20,41,6,0,0,0,0,0,0,0,0,0,0,0,0,0,0,0,0,0,0,0,0,0,0,0,0,0,0,0,0,0,0,0,0,0,0,0,0,0,0,0,0,0,0,0,0,31,32,63,9,10 มิถุนายน 2561
10,10,54010011,บ้านนาแหลม(กองแก้วราษฎร์อุปถัมภ์),0,0,0,0,0,0,0,0,0,0,0,0,0,0,0,0,0,0,0,0,1,0,1,1,1,0,1,1,0,2,2,1,1,1,2,1,3,1,4,1,6,4,10,5,0,0,0,0,0,0,0,0,0,0,0,0,0,0,0,0,0,0,0,0,0,0,0,0,0,0,0,0,0,0,0,0,0,0,0,0,0,0,0,0,0,0,0,0,6,4,10,5,10 มิถุนายน 2561
11,11,54010013,บ้านทุ่งโฮ้ง(อภิวังวิทยาลัย),0,0,0,0,0,0,0,0,0,0,0,0,0,0,0,0,9,7,16,1,8,5,13,1,6,5,11,1,11,8,19,1,10,8,18,1,5,3,8,1,49,36,85,6,11,7,18,1,12,4,16,1,6,12,18,1,29,23,52,3,0,0,0,0,0,0,0,0,0,0,0,0,0,0,0,0,0,0,0,0,0,0,0,0,0,0,0,0,78,59,137,9,10 มิถุนายน 2561
12,12,54010015,อนุบาลแพร่,22,22,44,2,48,52,100,5,62,70,132,5,132,144,276,12,90,117,207,7,101,105,206,7,114,131,245,7,103,140,243,7,129,139,268,7,130,153,283,8,667,785,1452,43,0,0,0,0,0,0,0,0,0,0,0,0,0,0,0,0,0,0,0,0,0,0,0,0,0,0,0,0,0,0,0,0,0,0,0,0,0,0,0,0,0,0,0,0,799,929,1728,55,10 มิถุนายน 2561
13,13,54010016,บ้านแต(กวีรัตน์ราษฎร์บำรุง),0,0,0,0,0,0,0,0,0,0,0,0,0,0,0,0,0,0,0,0,0,0,0,0,0,0,0,0,0,0,0,0,0,0,0,0,0,0,0,0,0,0,0,0,0,0,0,0,0,0,0,0,0,0,0,0,0,0,0,0,0,0,0,0,0,0,0,0,0,0,0,0,0,0,0,0,0,0,0,0,0,0,0,0,0,0,0,0,0,0,0,0,10 มิถุนายน 2561
14,14,54010018,บ้านนาจักร(จักรราษฎร์บำรุง),0,0,0,0,6,3,9,1,5,1,6,1,11,4,15,2,4,1,5,1,3,1,4,1,1,3,4,1,3,1,4,1,5,1,6,1,4,1,5,1,20,8,28,6,0,0,0,0,0,0,0,0,0,0,0,0,0,0,0,0,0,0,0,0,0,0,0,0,0,0,0,0,0,0,0,0,0,0,0,0,0,0,0,0,0,0,0,0,31,12,43,8,10 มิถุนายน 2561
15,15,54010019,บ้านน้ำชำ(วิชัยชนานุเคราะห์),0,0,0,0,6,5,11,1,4,0,4,1,10,5,15,2,1,3,4,1,1,4,5,1,2,3,5,1,3,2,5,1,1,1,2,1,5,2,7,1,13,15,28,6,0,0,0,0,0,0,0,0,0,0,0,0,0,0,0,0,0,0,0,0,0,0,0,0,0,0,0,0,0,0,0,0,0,0,0,0,0,0,0,0,0,0,0,0,23,20,43,8,10 มิถุนายน 2561
16,16,54010020,โรงเรียนวัดเมธังกราวาส(เทศรัฐราษฎร์นุกูล),0,0,0,0,13,17,30,2,24,25,49,2,37,42,79,4,80,93,173,5,99,110,209,6,91,121,212,6,115,122,237,6,127,117,244,6,119,114,233,7,631,677,1308,36,0,0,0,0,0,0,0,0,0,0,0,0,0,0,0,0,0,0,0,0,0,0,0,0,0,0,0,0,0,0,0,0,0,0,0,0,0,0,0,0,0,0,0,0,668,719,1387,40,10 มิถุนายน 2561
17,17,54010021,บ้านในเวียง,0,0,0,0,1,0,1,1,0,1,1,1,1,1,2,2,3,6,9,1,3,3,6,1,4,1,5,1,2,6,8,1,5,5,10,1,5,3,8,1,22,24,46,6,0,0,0,0,0,0,0,0,0,0,0,0,0,0,0,0,0,0,0,0,0,0,0,0,0,0,0,0,0,0,0,0,0,0,0,0,0,0,0,0,0,0,0,0,23,25,48,8,10 มิถุนายน 2561
18,18,54010022,บ้านถิ่น(ถิ่นวิทยาคาร),0,0,0,0,12,5,17,1,11,4,15,1,23,9,32,2,9,9,18,1,10,4,14,1,4,8,12,1,4,8,12,1,15,7,22,1,7,3,10,1,49,39,88,6,0,0,0,0,0,0,0,0,0,0,0,0,0,0,0,0,0,0,0,0,0,0,0,0,0,0,0,0,0,0,0,0,0,0,0,0,0,0,0,0,0,0,0,0,72,48,120,8,10 มิถุนายน 2561
19,19,54010024,บ้านแม่ลัว(วิริยะราษฎร์สงเคราะห์),0,0,0,0,1,1,2,1,0,0,0,0,1,1,2,1,0,2,2,1,2,1,3,1,1,2,3,1,4,1,5,1,2,0,2,1,1,0,1,1,10,6,16,6,0,0,0,0,0,0,0,0,0,0,0,0,0,0,0,0,0,0,0,0,0,0,0,0,0,0,0,0,0,0,0,0,0,0,0,0,0,0,0,0,0,0,0,0,11,7,18,7,10 มิถุนายน 2561
20,20,54010027,บ้านหนองแขม(หนองแขมประชาสรรค์),0,0,0,0,2,1,3,1,0,1,1,1,2,2,4,2,4,2,6,1,3,2,5,1,0,1,1,1,4,1,5,1,3,2,5,1,7,2,9,1,21,10,31,6,0,0,0,0,0,0,0,0,0,0,0,0,0,0,0,0,0,0,0,0,0,0,0,0,0,0,0,0,0,0,0,0,0,0,0,0,0,0,0,0,0,0,0,0,23,12,35,8,10 มิถุนายน 2561
21,21,54010028,บ้านป่าแดง(วันรัตตวิทยา),0,0,0,0,2,2,4,1,2,3,5,1,4,5,9,2,4,5,9,1,6,4,10,1,6,2,8,1,8,4,12,1,5,4,9,1,5,4,9,1,34,23,57,6,0,0,0,0,0,0,0,0,0,0,0,0,0,0,0,0,0,0,0,0,0,0,0,0,0,0,0,0,0,0,0,0,0,0,0,0,0,0,0,0,0,0,0,0,38,28,66,8,10 มิถุนายน 2561
22,22,54010029,บ้านน้ำชำ(ประชาราษฎร์สามัคคี),0,0,0,0,0,0,0,0,0,0,0,0,0,0,0,0,0,0,0,0,0,0,0,0,0,0,0,0,0,0,0,0,0,0,0,0,0,0,0,0,0,0,0,0,0,0,0,0,0,0,0,0,0,0,0,0,0,0,0,0,0,0,0,0,0,0,0,0,0,0,0,0,0,0,0,0,0,0,0,0,0,0,0,0,0,0,0,0,0,0,0,0,10 มิถุนายน 2561
23,23,54010030,บ้านสุพรรณ(คุรุราษฎร์วิทยา),0,0,0,0,0,0,0,0,0,0,0,0,0,0,0,0,3,0,3,1,3,0,3,1,6,5,11,1,2,2,4,1,4,5,9,1,5,2,7,1,23,14,37,6,3,3,6,1,5,2,7,1,4,0,4,1,12,5,17,3,0,0,0,0,0,0,0,0,0,0,0,0,0,0,0,0,0,0,0,0,0,0,0,0,0,0,0,0,35,19,54,9,10 มิถุนายน 2561
24,24,54010031,วัดมณีวรรณ(ประชารัฐวิทยาคาร),0,0,0,0,0,0,0,0,0,0,0,0,0,0,0,0,0,0,0,0,0,0,0,0,0,0,0,0,0,0,0,0,0,0,0,0,0,0,0,0,0,0,0,0,0,0,0,0,0,0,0,0,0,0,0,0,0,0,0,0,0,0,0,0,0,0,0,0,0,0,0,0,0,0,0,0,0,0,0,0,0,0,0,0,0,0,0,0,0,0,0,0,10 มิถุนายน 2561
25,25,54010033,วัดน้ำโค้ง(คำหล้าราษฎร์นุกูล),0,0,0,0,1,0,1,1,0,0,0,0,1,0,1,1,1,1,2,1,0,2,2,1,2,1,3,1,1,1,2,1,2,1,3,1,3,0,3,1,9,6,15,6,0,0,0,0,0,0,0,0,0,0,0,0,0,0,0,0,0,0,0,0,0,0,0,0,0,0,0,0,0,0,0,0,0,0,0,0,0,0,0,0,0,0,0,0,10,6,16,7,10 มิถุนายน 2561
26,26,54010035,วัดศรีภูมิ(ศึกษาประชานุสรณ์),0,0,0,0,1,4,5,1,5,5,10,1,6,9,15,2,1,4,5,1,6,4,10,1,7,2,9,1,8,4,12,1,5,5,10,1,6,4,10,1,33,23,56,6,0,0,0,0,0,0,0,0,0,0,0,0,0,0,0,0,0,0,0,0,0,0,0,0,0,0,0,0,0,0,0,0,0,0,0,0,0,0,0,0,0,0,0,0,39,32,71,8,10 มิถุนายน 2561
27,27,54010036,บ้านวังช้าง(ธีรราษฎร์รังสฤษฏ์),0,0,0,0,4,3,7,1,8,12,20,1,12,15,27,2,4,8,12,1,7,9,16,1,7,9,16,1,5,8,13,1,4,11,15,1,7,8,15,1,34,53,87,6,0,0,0,0,0,0,0,0,0,0,0,0,0,0,0,0,0,0,0,0,0,0,0,0,0,0,0,0,0,0,0,0,0,0,0,0,0,0,0,0,0,0,0,0,46,68,114,8,10 มิถุนายน 2561
28,28,54010038,บ้านสันป่าสัก,0,0,0,0,3,1,4,1,0,0,0,0,3,1,4,1,0,0,0,0,0,0,0,0,0,0,0,0,0,0,0,0,0,0,0,0,0,0,0,0,0,0,0,0,0,0,0,0,0,0,0,0,0,0,0,0,0,0,0,0,0,0,0,0,0,0,0,0,0,0,0,0,0,0,0,0,0,0,0,0,0,0,0,0,0,0,0,0,3,1,4,1,10 มิถุนายน 2561
29,29,54010039,บ้านนันทาราม(นันทราษฎร์วิทยา),0,0,0,0,2,4,6,1,3,4,7,1,5,8,13,2,3,2,5,1,0,0,0,0,1,3,4,1,4,4,8,1,5,1,6,1,7,2,9,1,20,12,32,5,0,0,0,0,0,0,0,0,0,0,0,0,0,0,0,0,0,0,0,0,0,0,0,0,0,0,0,0,0,0,0,0,0,0,0,0,0,0,0,0,0,0,0,0,25,20,45,7,10 มิถุนายน 2561
30,30,54010041,บ้านแม่หล่ายกาซ้อง(ลือราษฎร์อุปถัมภ์),0,0,0,0,3,2,5,1,1,1,2,1,4,3,7,2,1,0,1,1,0,2,2,1,2,2,4,1,0,1,1,1,2,0,2,1,2,1,3,1,7,6,13,6,0,0,0,0,0,0,0,0,0,0,0,0,0,0,0,0,0,0,0,0,0,0,0,0,0,0,0,0,0,0,0,0,0,0,0,0,0,0,0,0,0,0,0,0,11,9,20,8,10 มิถุนายน 2561
31,31,54010042,บ้านแม่หล่าย(ประชานุสรณ์),0,0,0,0,10,3,13,1,2,6,8,1,12,9,21,2,4,3,7,1,3,4,7,1,3,10,13,1,8,2,10,1,4,3,7,1,9,10,19,1,31,32,63,6,3,1,4,1,6,4,10,1,2,7,9,1,11,12,23,3,0,0,0,0,0,0,0,0,0,0,0,0,0,0,0,0,0,0,0,0,0,0,0,0,0,0,0,0,54,53,107,11,10 มิถุนายน 2561
32,32,54010043,บ้านร่องฟอง,0,0,0,0,2,3,5,1,5,5,10,1,7,8,15,2,7,4,11,1,1,5,6,1,3,4,7,1,8,8,16,1,6,8,14,1,8,3,11,1,33,32,65,6,0,0,0,0,0,0,0,0,0,0,0,0,0,0,0,0,0,0,0,0,0,0,0,0,0,0,0,0,0,0,0,0,0,0,0,0,0,0,0,0,0,0,0,0,40,40,80,8,10 มิถุนายน 2561
33,33,54010044,บ้านเวียงตั้ง(คำวรรณประชานุกูล),0,0,0,0,0,0,0,0,0,3,3,1,0,3,3,1,0,0,0,0,1,2,3,1,0,5,5,1,4,0,4,1,2,0,2,1,2,3,5,1,9,10,19,5,0,0,0,0,0,0,0,0,0,0,0,0,0,0,0,0,0,0,0,0,0,0,0,0,0,0,0,0,0,0,0,0,0,0,0,0,0,0,0,0,0,0,0,0,9,13,22,6,10 มิถุนายน 2561
34,34,54010045,บ้านปากห้วย,0,0,0,0,0,0,0,0,1,0,1,1,1,0,1,1,0,0,0,0,0,0,0,0,0,0,0,0,0,0,0,0,2,0,2,1,1,0,1,1,3,0,3,2,0,0,0,0,0,0,0,0,0,0,0,0,0,0,0,0,0,0,0,0,0,0,0,0,0,0,0,0,0,0,0,0,0,0,0,0,0,0,0,0,0,0,0,0,4,0,4,3,10 มิถุนายน 2561
35,35,54010046,บ้านวังหงส์(วังหงส์วิทยาคาร),0,0,0,0,6,3,9,1,6,3,9,1,12,6,18,2,4,4,8,1,3,6,9,1,2,3,5,1,3,1,4,1,2,4,6,1,4,2,6,1,18,20,38,6,0,0,0,0,0,0,0,0,0,0,0,0,0,0,0,0,0,0,0,0,0,0,0,0,0,0,0,0,0,0,0,0,0,0,0,0,0,0,0,0,0,0,0,0,30,26,56,8,10 มิถุนายน 2561
36,36,54010047,บ้านสวนเขื่อน(ราษฎร์บูรณวิทยา),0,0,0,0,2,3,5,1,3,3,6,1,5,6,11,2,4,7,11,1,4,1,5,1,5,3,8,1,7,2,9,1,4,5,9,1,7,2,9,1,31,20,51,6,0,0,0,0,0,0,0,0,0,0,0,0,0,0,0,0,0,0,0,0,0,0,0,0,0,0,0,0,0,0,0,0,0,0,0,0,0,0,0,0,0,0,0,0,36,26,62,8,10 มิถุนายน 2561
37,37,54010048,บ้านทุ่งเหนือ(ราษฎร์สามัคคี),0,0,0,0,0,1,1,1,0,3,3,1,0,4,4,2,2,1,3,1,5,1,6,1,1,0,1,1,1,1,2,1,1,2,3,1,2,0,2,1,12,5,17,6,0,0,0,0,0,0,0,0,0,0,0,0,0,0,0,0,0,0,0,0,0,0,0,0,0,0,0,0,0,0,0,0,0,0,0,0,0,0,0,0,0,0,0,0,12,9,21,8,10 มิถุนายน 2561
38,38,54010049,บ้านแม่แคม,0,0,0,0,1,1,2,1,1,1,2,1,2,2,4,2,6,2,8,1,1,1,2,1,1,0,1,1,0,1,1,1,2,1,3,1,1,2,3,1,11,7,18,6,0,0,0,0,0,0,0,0,0,0,0,0,0,0,0,0,0,0,0,0,0,0,0,0,0,0,0,0,0,0,0,0,0,0,0,0,0,0,0,0,0,0,0,0,13,9,22,8,10 มิถุนายน 2561
39,39,54010050,บ้านนาคูหา,0,0,0,0,0,1,1,1,3,2,5,1,3,3,6,2,1,1,2,1,1,0,1,1,3,0,3,1,0,5,5,1,3,2,5,1,4,3,7,1,12,11,23,6,0,0,0,0,0,0,0,0,0,0,0,0,0,0,0,0,0,0,0,0,0,0,0,0,0,0,0,0,0,0,0,0,0,0,0,0,0,0,0,0,0,0,0,0,15,14,29,8,10 มิถุนายน 2561
40,40,54010052,บ้านดง(ธรรมาราษฎร์นุสรณ์),0,0,0,0,0,0,0,0,0,0,0,0,0,0,0,0,2,1,3,1,2,2,4,1,2,1,3,1,2,4,6,1,2,4,6,1,6,2,8,1,16,14,30,6,0,0,0,0,0,0,0,0,0,0,0,0,0,0,0,0,0,0,0,0,0,0,0,0,0,0,0,0,0,0,0,0,0,0,0,0,0,0,0,0,0,0,0,0,16,14,30,6,10 มิถุนายน 2561
41,41,54010053,บ้านปง(ป้อมประชานุกูล),0,0,0,0,1,1,2,1,7,3,10,1,8,4,12,2,7,1,8,1,6,3,9,1,2,1,3,1,7,5,12,1,9,3,12,1,3,9,12,1,34,22,56,6,0,0,0,0,0,0,0,0,0,0,0,0,0,0,0,0,0,0,0,0,0,0,0,0,0,0,0,0,0,0,0,0,0,0,0,0,0,0,0,0,0,0,0,0,42,26,68,8,10 มิถุนายน 2561
42,42,54010054,วัดทุ่งล้อม(ทองประชานุเคราะห์),0,0,0,0,3,5,8,1,5,5,10,1,8,10,18,2,0,3,3,1,3,2,5,1,3,1,4,1,5,1,6,1,5,7,12,1,2,7,9,1,18,21,39,6,0,0,0,0,0,0,0,0,0,0,0,0,0,0,0,0,0,0,0,0,0,0,0,0,0,0,0,0,0,0,0,0,0,0,0,0,0,0,0,0,0,0,0,0,26,31,57,8,10 มิถุนายน 2561
43,43,54010055,บ้านศรีสิทธิ์(ใจมาอนุเคราะห์),0,0,0,0,0,1,1,1,3,1,4,1,3,2,5,2,2,2,4,1,0,0,0,0,2,0,2,1,0,1,1,1,1,0,1,1,1,0,1,1,6,3,9,5,0,0,0,0,0,0,0,0,0,0,0,0,0,0,0,0,0,0,0,0,0,0,0,0,0,0,0,0,0,0,0,0,0,0,0,0,0,0,0,0,0,0,0,0,9,5,14,7,10 มิถุนายน 2561
44,44,54010056,บ้านห้วยม้า(สุนทรนิวาส),0,0,0,0,4,3,7,1,3,1,4,1,7,4,11,2,2,5,7,1,3,4,7,1,9,6,15,1,7,1,8,1,6,0,6,1,4,4,8,1,31,20,51,6,0,0,0,0,0,0,0,0,0,0,0,0,0,0,0,0,0,0,0,0,0,0,0,0,0,0,0,0,0,0,0,0,0,0,0,0,0,0,0,0,0,0,0,0,38,24,62,8,10 มิถุนายน 2561
45,45,54010057,บ้านกาซ้อง,0,0,0,0,5,0,5,1,2,7,9,1,7,7,14,2,2,1,3,1,0,2,2,1,3,3,6,1,3,1,4,1,1,1,2,1,4,2,6,1,13,10,23,6,0,0,0,0,0,0,0,0,0,0,0,0,0,0,0,0,0,0,0,0,0,0,0,0,0,0,0,0,0,0,0,0,0,0,0,0,0,0,0,0,0,0,0,0,20,17,37,8,10 มิถุนายน 2561
46,46,54010058,ชุมชนบ้านเหมืองหม้อ(เหมืองหม้อสามัคคี),0,0,0,0,5,2,7,1,4,5,9,1,9,7,16,2,1,1,2,1,6,1,7,1,2,6,8,1,5,1,6,1,3,1,4,1,4,3,7,1,21,13,34,6,0,0,0,0,0,0,0,0,0,0,0,0,0,0,0,0,0,0,0,0,0,0,0,0,0,0,0,0,0,0,0,0,0,0,0,0,0,0,0,0,0,0,0,0,30,20,50,8,10 มิถุนายน 2561
47,47,54010059,บ้านปทุม(ถาวรราษฎร์ศึกษา),0,0,0,0,0,0,0,0,0,0,0,0,0,0,0,0,0,0,0,0,0,0,0,0,0,0,0,0,0,0,0,0,0,0,0,0,0,0,0,0,0,0,0,0,0,0,0,0,0,0,0,0,0,0,0,0,0,0,0,0,0,0,0,0,0,0,0,0,0,0,0,0,0,0,0,0,0,0,0,0,0,0,0,0,0,0,0,0,0,0,0,0,10 มิถุนายน 2561
48,48,54010060,วัดเหมืองค่า(ประชารัฐอุปถัมภ์),0,0,0,0,2,1,3,1,1,3,4,1,3,4,7,2,2,2,4,1,3,1,4,1,1,1,2,1,6,0,6,1,1,4,5,1,4,4,8,1,17,12,29,6,0,0,0,0,0,0,0,0,0,0,0,0,0,0,0,0,0,0,0,0,0,0,0,0,0,0,0,0,0,0,0,0,0,0,0,0,0,0,0,0,0,0,0,0,20,16,36,8,10 มิถุนายน 2561
49,49,54010061,บ้านผารางวังหม้อ(มิตรประชา),0,0,0,0,0,0,0,0,0,0,0,0,0,0,0,0,4,4,8,1,4,1,5,1,4,2,6,1,5,5,10,1,2,4,6,1,7,1,8,1,26,17,43,6,0,0,0,0,0,0,0,0,0,0,0,0,0,0,0,0,0,0,0,0,0,0,0,0,0,0,0,0,0,0,0,0,0,0,0,0,0,0,0,0,0,0,0,0,26,17,43,6,10 มิถุนายน 2561
50,50,54010062,ชุมชนบ้านทุ่งศรี(ราษฎร์รังสฤษฎ์),0,0,0,0,0,0,0,0,0,0,0,0,0,0,0,0,0,1,1,1,0,0,0,0,2,0,2,1,0,1,1,1,0,2,2,1,1,2,3,1,3,6,9,5,0,0,0,0,0,0,0,0,0,0,0,0,0,0,0,0,0,0,0,0,0,0,0,0,0,0,0,0,0,0,0,0,0,0,0,0,0,0,0,0,0,0,0,0,3,6,9,5,10 มิถุนายน 2561
51,51,54010063,บ้านน้ำเลา(น้ำเลาวิทยาคาร),0,0,0,0,2,2,4,1,1,0,1,1,3,2,5,2,2,1,3,1,1,4,5,1,0,2,2,1,2,1,3,1,4,1,5,1,1,3,4,1,10,12,22,6,0,0,0,0,0,0,0,0,0,0,0,0,0,0,0,0,0,0,0,0,0,0,0,0,0,0,0,0,0,0,0,0,0,0,0,0,0,0,0,0,0,0,0,0,13,14,27,8,10 มิถุนายน 2561
52,52,54010064,บ้านน้ำเลาเหนือ(เหรียญราษฎร์อนุสรณ์),0,0,0,0,2,2,4,1,3,2,5,1,5,4,9,2,3,1,4,1,1,0,1,1,4,4,8,1,10,1,11,1,5,3,8,1,2,2,4,1,25,11,36,6,0,0,0,0,0,0,0,0,0,0,0,0,0,0,0,0,0,0,0,0,0,0,0,0,0,0,0,0,0,0,0,0,0,0,0,0,0,0,0,0,0,0,0,0,30,15,45,8,10 มิถุนายน 2561
53,53,54010065,บ้านบุญแจ่ม(ประชาสามัคคี),0,0,0,0,0,0,0,0,1,5,6,1,1,5,6,1,1,2,3,1,3,1,4,1,1,0,1,1,0,0,0,0,0,0,0,0,0,0,0,0,5,3,8,3,0,0,0,0,0,0,0,0,0,0,0,0,0,0,0,0,0,0,0,0,0,0,0,0,0,0,0,0,0,0,0,0,0,0,0,0,0,0,0,0,0,0,0,0,6,8,14,4,10 มิถุนายน 2561
54,54,54010068,บ้านห้วยฮ่อม,0,0,0,0,13,12,25,1,18,11,29,1,31,23,54,2,5,11,16,1,4,9,13,1,13,6,19,1,4,10,14,1,6,3,9,1,9,9,18,1,41,48,89,6,5,5,10,1,6,5,11,1,1,1,2,1,12,11,23,3,0,0,0,0,0,0,0,0,0,0,0,0,0,0,0,0,0,0,0,0,0,0,0,0,0,0,0,0,84,82,166,11,10 มิถุนายน 2561
55,55,54010069,บ้านอ้อยวิทยาคาร,0,0,0,0,2,3,5,1,8,3,11,1,10,6,16,2,5,5,10,1,7,6,13,1,2,4,6,1,8,1,9,1,5,3,8,1,2,3,5,1,29,22,51,6,19,13,32,1,14,4,18,1,10,17,27,1,43,34,77,3,0,0,0,0,0,0,0,0,0,0,0,0,0,0,0,0,0,0,0,0,0,0,0,0,0,0,0,0,82,62,144,11,10 มิถุนายน 2561
56,56,54010070,บ้านเวียง(เวียงราษฎร์บำรุง),0,0,0,0,4,4,8,1,4,4,8,1,8,8,16,2,0,0,0,0,0,0,0,0,3,1,4,1,2,1,3,1,1,0,1,1,0,1,1,1,6,3,9,4,0,0,0,0,0,0,0,0,0,0,0,0,0,0,0,0,0,0,0,0,0,0,0,0,0,0,0,0,0,0,0,0,0,0,0,0,0,0,0,0,0,0,0,0,14,11,25,6,10 มิถุนายน 2561
57,57,54010071,บ้านป่ากล้วย,0,0,0,0,0,4,4,1,3,1,4,1,3,5,8,2,4,3,7,1,0,1,1,1,4,3,7,1,0,1,1,1,1,1,2,1,4,1,5,1,13,10,23,6,0,0,0,0,0,0,0,0,0,0,0,0,0,0,0,0,0,0,0,0,0,0,0,0,0,0,0,0,0,0,0,0,0,0,0,0,0,0,0,0,0,0,0,0,16,15,31,8,10 มิถุนายน 2561
58,58,54010072,บ้านห้วยอ้อย,0,0,0,0,3,4,7,1,2,1,3,1,5,5,10,2,1,2,3,1,2,2,4,1,4,1,5,1,1,4,5,1,4,1,5,1,0,0,0,0,12,10,22,5,0,0,0,0,0,0,0,0,0,0,0,0,0,0,0,0,0,0,0,0,0,0,0,0,0,0,0,0,0,0,0,0,0,0,0,0,0,0,0,0,0,0,0,0,17,15,32,7,10 มิถุนายน 2561
59,59,54010073,บ้านบุญเริง(ประชานุสรณ์),0,0,0,0,6,4,10,1,1,2,3,1,7,6,13,2,4,2,6,1,4,0,4,1,0,0,0,0,1,0,1,1,2,1,3,1,2,3,5,1,13,6,19,5,0,0,0,0,0,0,0,0,0,0,0,0,0,0,0,0,0,0,0,0,0,0,0,0,0,0,0,0,0,0,0,0,0,0,0,0,0,0,0,0,0,0,0,0,20,12,32,7,10 มิถุนายน 2561
60,60,54010074,บ้านไผ่โทน(นวลราษฎร์วิทยา),2,1,3,1,3,3,6,1,2,0,2,1,7,4,11,3,2,3,5,1,7,2,9,1,2,4,6,1,5,3,8,1,2,6,8,1,9,4,13,1,27,22,49,6,6,7,13,1,9,6,15,1,8,3,11,1,23,16,39,3,0,0,0,0,0,0,0,0,0,0,0,0,0,0,0,0,0,0,0,0,0,0,0,0,0,0,0,0,57,42,99,12,10 มิถุนายน 2561
61,61,54010075,บ้านปางยาว(รัฐราษฎร์ผดุงวิทย์),0,0,0,0,0,0,0,0,2,0,2,1,2,0,2,1,1,0,1,1,0,0,0,0,1,0,1,1,0,0,0,0,0,0,0,0,1,2,3,1,3,2,5,3,0,0,0,0,0,0,0,0,0,0,0,0,0,0,0,0,0,0,0,0,0,0,0,0,0,0,0,0,0,0,0,0,0,0,0,0,0,0,0,0,0,0,0,0,5,2,7,4,10 มิถุนายน 2561
62,62,54010078,บ้านแม่กระทิง,0,0,0,0,0,0,0,0,0,1,1,1,0,1,1,1,0,1,1,1,0,0,0,0,0,0,0,0,0,1,1,1,0,0,0,0,0,3,3,1,0,5,5,3,0,0,0,0,0,0,0,0,0,0,0,0,0,0,0,0,0,0,0,0,0,0,0,0,0,0,0,0,0,0,0,0,0,0,0,0,0,0,0,0,0,0,0,0,0,6,6,4,10 มิถุนายน 2561
63,63,54010079,บ้านวังปึ้ง,1,3,4,1,6,5,11,1,1,2,3,1,8,10,18,3,1,3,4,1,1,2,3,1,2,4,6,1,2,1,3,1,4,2,6,1,2,2,4,1,12,14,26,6,1,3,4,1,0,0,0,0,2,5,7,1,3,8,11,2,0,0,0,0,0,0,0,0,0,0,0,0,0,0,0,0,0,0,0,0,0,0,0,0,0,0,0,0,23,32,55,11,10 มิถุนายน 2561
64,64,54010080,บ้านทุ่งคัวะ,0,0,0,0,2,3,5,1,4,3,7,1,6,6,12,2,5,2,7,1,2,6,8,1,4,3,7,1,1,3,4,1,2,5,7,1,1,5,6,1,15,24,39,6,0,0,0,0,0,0,0,0,0,0,0,0,0,0,0,0,0,0,0,0,0,0,0,0,0,0,0,0,0,0,0,0,0,0,0,0,0,0,0,0,0,0,0,0,21,30,51,8,10 มิถุนายน 2561
65,65,54010082,บ้านแม่ทราย(คุรุราษฎร์เจริญวิทย์),0,0,0,0,7,6,13,1,5,4,9,1,12,10,22,2,6,1,7,1,8,5,13,1,10,8,18,1,4,3,7,1,6,7,13,1,6,2,8,1,40,26,66,6,8,9,17,1,7,9,16,1,10,5,15,1,25,23,48,3,0,0,0,0,0,0,0,0,0,0,0,0,0,0,0,0,0,0,0,0,0,0,0,0,0,0,0,0,77,59,136,11,10 มิถุนายน 2561
66,66,54010083,บ้านแม่ยางกาด(มิตรภาพที่ 13),0,0,0,0,0,2,2,1,0,2,2,1,0,4,4,2,2,0,2,1,2,1,3,1,0,0,0,0,7,4,11,1,1,4,5,1,3,6,9,1,15,15,30,5,0,0,0,0,0,0,0,0,0,0,0,0,0,0,0,0,0,0,0,0,0,0,0,0,0,0,0,0,0,0,0,0,0,0,0,0,0,0,0,0,0,0,0,0,15,19,34,7,10 มิถุนายน 2561
67,67,54010084,บ้านโทน(ราษฎร์อุทิศ),0,0,0,0,0,0,0,0,0,0,0,0,0,0,0,0,0,2,2,1,1,0,1,1,0,1,1,1,2,1,3,1,0,2,2,1,0,0,0,0,3,6,9,5,0,0,0,0,0,0,0,0,0,0,0,0,0,0,0,0,0,0,0,0,0,0,0,0,0,0,0,0,0,0,0,0,0,0,0,0,0,0,0,0,0,0,0,0,3,6,9,5,10 มิถุนายน 2561
68,68,54010085,บ้านหนองเจริญ(ประชาพัฒนา),0,0,0,0,2,1,3,1,1,2,3,1,3,3,6,2,0,3,3,1,1,1,2,1,1,1,2,1,2,3,5,1,1,2,3,1,2,0,2,1,7,10,17,6,0,0,0,0,0,0,0,0,0,0,0,0,0,0,0,0,0,0,0,0,0,0,0,0,0,0,0,0,0,0,0,0,0,0,0,0,0,0,0,0,0,0,0,0,10,13,23,8,10 มิถุนายน 2561
69,69,54010086,บ้านแม่ยางตาล(กิตติประชานุกูล),0,0,0,0,6,4,10,1,7,3,10,1,13,7,20,2,3,5,8,1,3,1,4,1,2,3,5,1,3,6,9,1,3,5,8,1,7,0,7,1,21,20,41,6,4,2,6,1,3,4,7,1,4,2,6,1,11,8,19,3,0,0,0,0,0,0,0,0,0,0,0,0,0,0,0,0,0,0,0,0,0,0,0,0,0,0,0,0,45,35,80,11,10 มิถุนายน 2561
70,70,54010087,บ้านดอนชุม(พิริยเทพวงศ์อนุสรณ์),0,0,0,0,0,0,0,0,0,1,1,1,0,1,1,1,0,1,1,1,0,2,2,1,2,1,3,1,1,3,4,1,1,1,2,1,1,1,2,1,5,9,14,6,0,0,0,0,0,0,0,0,0,0,0,0,0,0,0,0,0,0,0,0,0,0,0,0,0,0,0,0,0,0,0,0,0,0,0,0,0,0,0,0,0,0,0,0,5,10,15,7,10 มิถุนายน 2561
71,71,54010088,บ้านแม่ยางร้อง(แม่ยางประชานุเคราะห์),0,0,0,0,2,5,7,1,5,7,12,1,7,12,19,2,2,7,9,1,2,8,10,1,6,7,13,1,5,4,9,1,6,5,11,1,9,8,17,1,30,39,69,6,0,0,0,0,0,0,0,0,0,0,0,0,0,0,0,0,0,0,0,0,0,0,0,0,0,0,0,0,0,0,0,0,0,0,0,0,0,0,0,0,0,0,0,0,37,51,88,8,10 มิถุนายน 2561
72,72,54010090,บ้านแม่ยางยวง(ลูนราษฎร์สงเคราะห์),0,0,0,0,4,1,5,1,4,2,6,1,8,3,11,2,1,1,2,1,2,0,2,1,1,3,4,1,1,3,4,1,1,2,3,1,4,4,8,1,10,13,23,6,0,0,0,0,0,0,0,0,0,0,0,0,0,0,0,0,0,0,0,0,0,0,0,0,0,0,0,0,0,0,0,0,0,0,0,0,0,0,0,0,0,0,0,0,18,16,34,8,10 มิถุนายน 2561
73,73,54010091,บ้านแม่ยางเปี้ยว(แก้วพิสณฑ์ประชานุกูล),0,0,0,0,9,5,14,1,13,11,24,1,22,16,38,2,12,9,21,1,13,10,23,1,12,9,21,1,9,4,13,1,10,9,19,1,9,10,19,1,65,51,116,6,15,13,28,1,9,7,16,1,7,8,15,1,31,28,59,3,0,0,0,0,0,0,0,0,0,0,0,0,0,0,0,0,0,0,0,0,0,0,0,0,0,0,0,0,118,95,213,11,10 มิถุนายน 2561
74,74,54010092,บ้านแม่ยางโพธิ์(โพธิ์ราษฎร์รังสรรค์),0,0,0,0,0,0,0,0,0,0,0,0,0,0,0,0,0,0,0,0,1,3,4,1,0,0,0,0,0,0,0,0,0,0,0,0,0,0,0,0,1,3,4,1,0,0,0,0,0,0,0,0,0,0,0,0,0,0,0,0,0,0,0,0,0,0,0,0,0,0,0,0,0,0,0,0,0,0,0,0,0,0,0,0,0,0,0,0,1,3,4,1,10 มิถุนายน 2561
75,75,54010093,บ้านวังโป่ง(ประชาบำรุง),0,0,0,0,0,0,0,0,0,0,0,0,0,0,0,0,0,0,0,0,0,1,1,1,0,0,0,0,0,0,0,0,0,0,0,0,0,0,0,0,0,1,1,1,0,0,0,0,0,0,0,0,0,0,0,0,0,0,0,0,0,0,0,0,0,0,0,0,0,0,0,0,0,0,0,0,0,0,0,0,0,0,0,0,0,0,0,0,0,1,1,1,10 มิถุนายน 2561
76,76,54010095,บ้านร้องกวาง(จันทิมาคม),16,23,39,2,18,19,37,2,20,20,40,2,54,62,116,6,32,19,51,2,21,16,37,2,31,21,52,2,18,25,43,2,29,25,54,2,28,27,55,2,159,133,292,12,0,0,0,0,0,0,0,0,0,0,0,0,0,0,0,0,0,0,0,0,0,0,0,0,0,0,0,0,0,0,0,0,0,0,0,0,0,0,0,0,0,0,0,0,213,195,408,18,10 มิถุนายน 2561
77,77,54010097,ชุมชนบ้านร้องเข็ม(ร้องเข็มวิทยาคาร),8,4,12,1,6,2,8,1,6,9,15,1,20,15,35,3,4,8,12,1,1,2,3,1,9,4,13,1,2,2,4,1,8,5,13,1,9,8,17,1,33,29,62,6,0,0,0,0,0,0,0,0,0,0,0,0,0,0,0,0,0,0,0,0,0,0,0,0,0,0,0,0,0,0,0,0,0,0,0,0,0,0,0,0,0,0,0,0,53,44,97,9,10 มิถุนายน 2561
78,78,54010098,บ้านใหม่จัดสรร,2,1,3,1,2,1,3,1,1,2,3,1,5,4,9,3,1,1,2,1,3,2,5,1,1,0,1,1,3,1,4,1,3,0,3,1,2,0,2,1,13,4,17,6,0,0,0,0,0,0,0,0,0,0,0,0,0,0,0,0,0,0,0,0,0,0,0,0,0,0,0,0,0,0,0,0,0,0,0,0,0,0,0,0,0,0,0,0,18,8,26,9,10 มิถุนายน 2561
79,79,54010099,บ้านน้ำโค้ง(ประชานิมิตร),1,0,1,1,0,2,2,1,0,1,1,1,1,3,4,3,3,2,5,1,4,0,4,1,5,0,5,1,1,2,3,1,3,0,3,1,3,3,6,1,19,7,26,6,0,0,0,0,0,0,0,0,0,0,0,0,0,0,0,0,0,0,0,0,0,0,0,0,0,0,0,0,0,0,0,0,0,0,0,0,0,0,0,0,0,0,0,0,20,10,30,9,10 มิถุนายน 2561
80,80,54010100,บ้านห้วยโรงนอก,15,9,24,1,15,10,25,1,11,22,33,1,41,41,82,3,23,12,35,1,21,20,41,1,14,12,26,1,21,13,34,1,16,6,22,1,16,17,33,1,111,80,191,6,8,15,23,1,12,10,22,1,19,10,29,1,39,35,74,3,0,0,0,0,0,0,0,0,0,0,0,0,0,0,0,0,0,0,0,0,0,0,0,0,0,0,0,0,191,156,347,12,10 มิถุนายน 2561
81,81,54010105,บ้านแดนชุมพล(ประชานุกูล),0,0,0,0,2,1,3,1,3,3,6,1,5,4,9,2,4,2,6,1,5,1,6,1,6,0,6,1,2,1,3,1,2,2,4,1,1,1,2,1,20,7,27,6,0,0,0,0,0,0,0,0,0,0,0,0,0,0,0,0,0,0,0,0,0,0,0,0,0,0,0,0,0,0,0,0,0,0,0,0,0,0,0,0,0,0,0,0,25,11,36,8,10 มิถุนายน 2561
82,82,54010106,บ้านโทกค่า(สหราษฎร์บำรุง),0,0,0,0,1,0,1,1,3,2,5,1,4,2,6,2,1,0,1,1,2,0,2,1,0,0,0,0,1,0,1,1,1,2,3,1,3,1,4,1,8,3,11,5,0,0,0,0,0,0,0,0,0,0,0,0,0,0,0,0,0,0,0,0,0,0,0,0,0,0,0,0,0,0,0,0,0,0,0,0,0,0,0,0,0,0,0,0,12,5,17,7,10 มิถุนายน 2561
83,83,54010107,บ้านเตาปูน(พิไชยาประชานุกูล),8,3,11,1,5,7,12,1,7,8,15,1,20,18,38,3,11,8,19,1,6,10,16,1,9,6,15,1,6,10,16,1,9,8,17,1,11,10,21,1,52,52,104,6,0,0,0,0,0,0,0,0,0,0,0,0,0,0,0,0,0,0,0,0,0,0,0,0,0,0,0,0,0,0,0,0,0,0,0,0,0,0,0,0,0,0,0,0,72,70,142,9,10 มิถุนายน 2561
84,84,54010109,บ้านแม่แรม,13,14,27,1,23,27,50,2,15,15,30,1,51,56,107,4,26,20,46,2,6,11,17,1,15,17,32,1,11,12,23,1,19,15,34,1,18,12,30,1,95,87,182,7,13,12,25,1,13,12,25,1,9,11,20,1,35,35,70,3,0,0,0,0,0,0,0,0,0,0,0,0,0,0,0,0,0,0,0,0,0,0,0,0,0,0,0,0,181,178,359,14,10 มิถุนายน 2561
85,85,54010110,บ้านป่าแดง(รัฐราษฎร์รังสรรค์),0,0,0,0,5,3,8,1,2,2,4,1,7,5,12,2,10,11,21,1,9,5,14,1,7,7,14,1,13,5,18,1,11,6,17,1,15,3,18,1,65,37,102,6,4,6,10,1,9,16,25,1,9,9,18,1,22,31,53,3,0,0,0,0,0,0,0,0,0,0,0,0,0,0,0,0,0,0,0,0,0,0,0,0,0,0,0,0,94,73,167,11,10 มิถุนายน 2561
86,86,54010111,วัดร่องเย็น(สารแก้วประชาสงเคราะห์),5,3,8,1,0,3,3,1,4,4,8,1,9,10,19,3,4,9,13,1,1,2,3,1,5,5,10,1,6,4,10,1,3,8,11,1,5,4,9,1,24,32,56,6,0,0,0,0,0,0,0,0,0,0,0,0,0,0,0,0,0,0,0,0,0,0,0,0,0,0,0,0,0,0,0,0,0,0,0,0,0,0,0,0,0,0,0,0,33,42,75,9,10 มิถุนายน 2561
87,87,54010112,ไทยรัฐวิทยา 31,4,6,10,1,2,2,4,1,8,4,12,1,14,12,26,3,7,6,13,1,5,7,12,1,6,5,11,1,5,8,13,1,8,8,16,1,8,7,15,1,39,41,80,6,3,4,7,1,5,2,7,1,6,7,13,1,14,13,27,3,0,0,0,0,0,0,0,0,0,0,0,0,0,0,0,0,0,0,0,0,0,0,0,0,0,0,0,0,67,66,133,12,10 มิถุนายน 2561
88,88,54010113,บ้านวังดิน(วังดินราษฎร์บำรุง),0,0,0,0,3,1,4,1,4,1,5,1,7,2,9,2,5,3,8,1,4,1,5,1,2,3,5,1,0,0,0,0,2,1,3,2,1,0,1,2,14,8,22,7,0,0,0,0,0,0,0,0,0,0,0,0,0,0,0,0,0,0,0,0,0,0,0,0,0,0,0,0,0,0,0,0,0,0,0,0,0,0,0,0,0,0,0,0,21,10,31,9,10 มิถุนายน 2561
89,89,54010115,ชุมชนบ้านกลาง(สนิทวิทยาการ),6,3,9,1,10,12,22,1,8,7,15,1,24,22,46,3,10,10,20,1,14,7,21,1,9,5,14,1,11,6,17,1,11,9,20,1,10,17,27,1,65,54,119,6,0,0,0,0,0,0,0,0,0,0,0,0,0,0,0,0,0,0,0,0,0,0,0,0,0,0,0,0,0,0,0,0,0,0,0,0,0,0,0,0,0,0,0,0,89,76,165,9,10 มิถุนายน 2561
90,90,54010116,อนุบาลเทพสุนทรินทร์,12,19,31,2,20,21,41,2,21,23,44,2,53,63,116,6,49,38,87,3,48,59,107,3,37,37,74,3,38,49,87,3,55,60,115,3,46,54,100,3,273,297,570,18,0,0,0,0,0,0,0,0,0,0,0,0,0,0,0,0,0,0,0,0,0,0,0,0,0,0,0,0,0,0,0,0,0,0,0,0,0,0,0,0,0,0,0,0,326,360,686,24,10 มิถุนายน 2561
91,91,54010118,บ้านคุ้ม(ประสารราษฎร์วิทยา),4,5,9,1,6,8,14,1,9,7,16,1,19,20,39,3,9,13,22,1,7,5,12,1,9,11,20,1,11,13,24,1,21,10,31,2,29,12,41,2,86,64,150,8,0,0,0,0,0,0,0,0,0,0,0,0,0,0,0,0,0,0,0,0,0,0,0,0,0,0,0,0,0,0,0,0,0,0,0,0,0,0,0,0,0,0,0,0,105,84,189,11,10 มิถุนายน 2561
92,92,54010119,ชุมชนบ้านหนุนเหนือ(แสงศรีวิทยา),0,0,0,0,11,5,16,1,3,6,9,1,14,11,25,2,1,3,4,1,6,2,8,1,4,3,7,1,8,8,16,1,8,6,14,1,7,6,13,1,34,28,62,6,7,6,13,1,10,8,18,1,7,7,14,1,24,21,45,3,0,0,0,0,0,0,0,0,0,0,0,0,0,0,0,0,0,0,0,0,0,0,0,0,0,0,0,0,72,60,132,11,10 มิถุนายน 2561
93,93,54010121,บ้านศรีมูลเรือง(วัลลภราษฎร์รังสรรค์),0,0,0,0,6,5,11,1,5,6,11,1,11,11,22,2,11,6,17,1,3,5,8,1,7,7,14,1,13,7,20,1,10,9,19,1,10,8,18,1,54,42,96,6,0,0,0,0,0,0,0,0,0,0,0,0,0,0,0,0,0,0,0,0,0,0,0,0,0,0,0,0,0,0,0,0,0,0,0,0,0,0,0,0,0,0,0,0,65,53,118,8,10 มิถุนายน 2561
94,94,54010122,บ้านลอง(ฟองจันทร์ราษฎร์อุปถัมภ์),9,6,15,1,5,6,11,1,4,6,10,1,18,18,36,3,5,11,16,1,8,7,15,1,5,8,13,1,5,7,12,1,10,6,16,1,7,3,10,1,40,42,82,6,0,0,0,0,0,0,0,0,0,0,0,0,0,0,0,0,0,0,0,0,0,0,0,0,0,0,0,0,0,0,0,0,0,0,0,0,0,0,0,0,0,0,0,0,58,60,118,9,10 มิถุนายน 2561
95,95,54010123,บ้านแม่พร้าว,0,0,0,0,0,2,2,1,9,2,11,1,9,4,13,2,2,1,3,1,4,2,6,1,3,2,5,1,4,1,5,1,0,0,0,0,4,4,8,1,17,10,27,5,0,0,0,0,0,0,0,0,0,0,0,0,0,0,0,0,0,0,0,0,0,0,0,0,0,0,0,0,0,0,0,0,0,0,0,0,0,0,0,0,0,0,0,0,26,14,40,7,10 มิถุนายน 2561
96,96,54010124,บ้านท่าวะ(ราษฎร์บำรุง),0,0,0,0,2,4,6,1,2,1,3,1,4,5,9,2,5,3,8,1,3,3,6,1,0,1,1,1,2,0,2,1,4,0,4,1,2,1,3,1,16,8,24,6,0,0,0,0,0,0,0,0,0,0,0,0,0,0,0,0,0,0,0,0,0,0,0,0,0,0,0,0,0,0,0,0,0,0,0,0,0,0,0,0,0,0,0,0,20,13,33,8,10 มิถุนายน 2561
97,97,54010125,บ้านห้วยโป่ง(ประชานุเคราะห์),0,0,0,0,0,1,1,1,1,1,2,1,1,2,3,2,0,1,1,1,1,1,2,1,1,0,1,1,0,0,0,0,1,2,3,1,1,1,2,1,4,5,9,5,0,0,0,0,0,0,0,0,0,0,0,0,0,0,0,0,0,0,0,0,0,0,0,0,0,0,0,0,0,0,0,0,0,0,0,0,0,0,0,0,0,0,0,0,5,7,12,7,10 มิถุนายน 2561
98,98,54010126,บ้านดอนชัย(ประชาอุทิศ),10,12,22,1,7,13,20,1,16,12,28,1,33,37,70,3,7,5,12,1,20,8,28,1,7,5,12,1,7,12,19,1,6,4,10,1,6,9,15,1,53,43,96,6,2,1,3,1,4,5,9,1,3,1,4,1,9,7,16,3,0,0,0,0,0,0,0,0,0,0,0,0,0,0,0,0,0,0,0,0,0,0,0,0,0,0,0,0,95,87,182,12,10 มิถุนายน 2561
99,99,54010128,บ้านนาฝาย(ประชาสงเคราะห์),0,0,0,0,0,2,2,1,2,0,2,1,2,2,4,2,3,1,4,1,2,1,3,1,1,0,1,1,1,0,1,1,2,0,2,1,0,2,2,1,9,4,13,6,0,0,0,0,0,0,0,0,0,0,0,0,0,0,0,0,0,0,0,0,0,0,0,0,0,0,0,0,0,0,0,0,0,0,0,0,0,0,0,0,0,0,0,0,11,6,17,8,10 มิถุนายน 2561
100,100,54010129,บ้านนาหลวง(ประชาพัฒนา),0,2,2,1,2,2,4,1,2,7,9,1,4,11,15,3,3,3,6,1,0,0,0,0,3,4,7,1,2,1,3,1,3,2,5,1,2,2,4,1,13,12,25,5,6,9,15,1,16,10,26,1,4,7,11,1,26,26,52,3,0,0,0,0,0,0,0,0,0,0,0,0,0,0,0,0,0,0,0,0,0,0,0,0,0,0,0,0,43,49,92,11,10 มิถุนายน 2561
101,101,54010130,บ้านป่าเลา(ประชานุสรณ์),0,0,0,0,10,5,15,1,8,5,13,1,18,10,28,2,6,1,7,1,1,5,6,1,7,2,9,1,1,5,6,1,4,3,7,1,3,2,5,1,22,18,40,6,6,4,10,1,4,0,4,1,3,5,8,1,13,9,22,3,0,0,0,0,0,0,0,0,0,0,0,0,0,0,0,0,0,0,0,0,0,0,0,0,0,0,0,0,53,37,90,11,10 มิถุนายน 2561
102,102,54010132,บ้านลู(คำภีร์ราษฎร์บำรุง),0,0,0,0,3,2,5,1,6,2,8,1,9,4,13,2,7,2,9,1,3,4,7,1,4,2,6,1,0,4,4,1,3,6,9,1,7,2,9,1,24,20,44,6,0,0,0,0,0,0,0,0,0,0,0,0,0,0,0,0,0,0,0,0,0,0,0,0,0,0,0,0,0,0,0,0,0,0,0,0,0,0,0,0,0,0,0,0,33,24,57,8,10 มิถุนายน 2561
103,103,54010133,วัดห้วยหม้าย(หมายประชากร),0,0,0,0,4,3,7,1,4,8,12,1,8,11,19,2,3,1,4,1,4,5,9,1,6,10,16,1,4,2,6,1,4,4,8,1,5,7,12,1,26,29,55,6,0,0,0,0,0,0,0,0,0,0,0,0,0,0,0,0,0,0,0,0,0,0,0,0,0,0,0,0,0,0,0,0,0,0,0,0,0,0,0,0,0,0,0,0,34,40,74,8,10 มิถุนายน 2561
104,104,54010134,บ้านห้วยขอน(ญาณศรัทธาสามัคคี),9,8,17,1,11,7,18,1,4,13,17,1,24,28,52,3,8,11,19,1,7,8,15,1,10,5,15,1,9,8,17,1,5,8,13,1,10,6,16,1,49,46,95,6,0,0,0,0,0,0,0,0,0,0,0,0,0,0,0,0,0,0,0,0,0,0,0,0,0,0,0,0,0,0,0,0,0,0,0,0,0,0,0,0,0,0,0,0,73,74,147,9,10 มิถุนายน 2561
105,105,54010135,บ้านดอนแก้ว(อาสาฯ),0,0,0,0,1,2,3,1,0,1,1,1,1,3,4,2,5,0,5,1,3,2,5,1,2,0,2,1,2,1,3,1,4,1,5,1,0,1,1,1,16,5,21,6,0,0,0,0,0,0,0,0,0,0,0,0,0,0,0,0,0,0,0,0,0,0,0,0,0,0,0,0,0,0,0,0,0,0,0,0,0,0,0,0,0,0,0,0,17,8,25,8,10 มิถุนายน 2561
106,106,54010136,บ้านห้วยกาน(รัฐราษฎร์อุปถัมภ์),0,0,0,0,1,0,1,1,1,1,2,1,2,1,3,2,2,1,3,1,3,0,3,1,0,2,2,1,1,1,2,1,2,4,6,1,3,1,4,1,11,9,20,6,0,0,0,0,0,0,0,0,0,0,0,0,0,0,0,0,0,0,0,0,0,0,0,0,0,0,0,0,0,0,0,0,0,0,0,0,0,0,0,0,0,0,0,0,13,10,23,8,10 มิถุนายน 2561
107,107,54010137,บ้านต้นหนุน(หนุนราษฎร์สามัคคี),0,0,0,0,2,3,5,1,2,1,3,1,4,4,8,2,3,1,4,1,3,1,4,1,1,0,1,1,0,0,0,0,2,5,7,1,0,0,0,0,9,7,16,4,0,0,0,0,0,0,0,0,0,0,0,0,0,0,0,0,0,0,0,0,0,0,0,0,0,0,0,0,0,0,0,0,0,0,0,0,0,0,0,0,0,0,0,0,13,11,24,6,10 มิถุนายน 2561
108,108,54010138,บ้านสันปู่สี(ราษฎร์วิทยากุล),0,0,0,0,0,0,0,0,0,0,0,0,0,0,0,0,0,0,0,0,0,0,0,0,0,0,0,0,0,0,0,0,0,0,0,0,0,0,0,0,0,0,0,0,0,0,0,0,0,0,0,0,0,0,0,0,0,0,0,0,0,0,0,0,0,0,0,0,0,0,0,0,0,0,0,0,0,0,0,0,0,0,0,0,0,0,0,0,0,0,0,0,10 มิถุนายน 2561
109,109,54010139,บ้านหนองเสี้ยว(ประชาสรรค์),0,0,0,0,6,2,8,1,6,2,8,1,12,4,16,2,3,4,7,1,2,4,6,1,6,1,7,1,2,2,4,1,8,5,13,1,4,2,6,1,25,18,43,6,0,0,0,0,0,0,0,0,0,0,0,0,0,0,0,0,0,0,0,0,0,0,0,0,0,0,0,0,0,0,0,0,0,0,0,0,0,0,0,0,0,0,0,0,37,22,59,8,10 มิถุนายน 2561
110,110,54010140,บ้านวังฟ่อน(สิทธิราษฎร์บำรุง),0,0,0,0,13,7,20,1,6,7,13,1,19,14,33,2,5,10,15,1,7,11,18,1,9,9,18,1,8,3,11,1,12,8,20,1,3,6,9,1,44,47,91,6,7,8,15,1,10,7,17,1,4,5,9,1,21,20,41,3,0,0,0,0,0,0,0,0,0,0,0,0,0,0,0,0,0,0,0,0,0,0,0,0,0,0,0,0,84,81,165,11,10 มิถุนายน 2561
111,111,54010141,บ้านดงเจริญ(วงค์ประชานุกูล),0,0,0,0,5,3,8,1,3,0,3,1,8,3,11,2,5,4,9,1,1,0,1,1,3,1,4,1,3,1,4,1,1,1,2,1,3,2,5,1,16,9,25,6,0,0,0,0,0,0,0,0,0,0,0,0,0,0,0,0,0,0,0,0,0,0,0,0,0,0,0,0,0,0,0,0,0,0,0,0,0,0,0,0,0,0,0,0,24,12,36,8,10 มิถุนายน 2561
112,112,54010142,บ้านหัวเมือง(แหวนวังประชาบำรุง),0,0,0,0,0,0,0,0,0,0,0,0,0,0,0,0,0,0,0,0,0,0,0,0,0,0,0,0,3,4,7,1,0,0,0,0,1,1,2,1,4,5,9,2,0,0,0,0,0,0,0,0,0,0,0,0,0,0,0,0,0,0,0,0,0,0,0,0,0,0,0,0,0,0,0,0,0,0,0,0,0,0,0,0,0,0,0,0,4,5,9,2,10 มิถุนายน 2561
113,113,54010143,วัดแม่ทะ(ดำรงประชานุเคราะห์),0,0,0,0,3,3,6,1,2,5,7,1,5,8,13,2,1,1,2,1,4,3,7,1,3,4,7,1,2,7,9,1,1,4,5,1,0,2,2,1,11,21,32,6,0,0,0,0,0,0,0,0,0,0,0,0,0,0,0,0,0,0,0,0,0,0,0,0,0,0,0,0,0,0,0,0,0,0,0,0,0,0,0,0,0,0,0,0,16,29,45,8,10 มิถุนายน 2561
114,114,54010144,แม่คำมีตำหนัก(ตำหนักธรรมวิทยาคาร),0,0,0,0,4,3,7,1,0,3,3,1,4,6,10,2,4,2,6,1,2,4,6,1,2,3,5,1,0,4,4,1,2,2,4,1,1,5,6,1,11,20,31,6,4,3,7,1,7,2,9,1,9,3,12,1,20,8,28,3,0,0,0,0,0,0,0,0,0,0,0,0,0,0,0,0,0,0,0,0,0,0,0,0,0,0,0,0,35,34,69,11,10 มิถุนายน 2561
115,115,54010145,บ้านสะเลียม(ปัญญาราษฎร์รังสรรค์),0,0,0,0,4,3,7,1,2,3,5,1,6,6,12,2,5,4,9,1,6,10,16,1,3,3,6,1,9,2,11,1,1,4,5,1,7,4,11,1,31,27,58,6,0,0,0,0,0,0,0,0,0,0,0,0,0,0,0,0,0,0,0,0,0,0,0,0,0,0,0,0,0,0,0,0,0,0,0,0,0,0,0,0,0,0,0,0,37,33,70,8,10 มิถุนายน 2561
116,116,54010147,บ้านทุ่งแค้ว (คันธวงค์วิทยาคาร),0,0,0,0,4,3,7,1,2,2,4,1,6,5,11,2,2,4,6,1,2,6,8,1,9,7,16,1,4,7,11,1,9,7,16,1,8,1,9,1,34,32,66,6,0,0,0,0,0,0,0,0,0,0,0,0,0,0,0,0,0,0,0,0,0,0,0,0,0,0,0,0,0,0,0,0,0,0,0,0,0,0,0,0,0,0,0,0,40,37,77,8,10 มิถุนายน 2561
117,117,54010148,บ้านหนองน้ำรัด (พรหมาประชาสงเคราะห์),0,0,0,0,2,2,4,1,3,3,6,1,5,5,10,2,0,3,3,1,3,2,5,1,2,3,5,1,8,6,14,1,4,2,6,1,6,2,8,1,23,18,41,6,0,0,0,0,0,0,0,0,0,0,0,0,0,0,0,0,0,0,0,0,0,0,0,0,0,0,0,0,0,0,0,0,0,0,0,0,0,0,0,0,0,0,0,0,28,23,51,8,10 มิถุนายน 2561
118,118,54010149,บ้านย่านยาว(ย่านยาวประชาสรรค์),0,0,0,0,0,4,4,1,1,0,1,1,1,4,5,2,4,2,6,1,3,0,3,1,0,0,0,0,4,1,5,1,1,3,4,1,2,3,5,1,14,9,23,5,0,0,0,0,0,0,0,0,0,0,0,0,0,0,0,0,0,0,0,0,0,0,0,0,0,0,0,0,0,0,0,0,0,0,0,0,0,0,0,0,0,0,0,0,15,13,28,7,10 มิถุนายน 2561
119,119,54010150,บ้านแม่คำมี (รัตนปัญญา),0,0,0,0,1,3,4,1,0,3,3,1,1,6,7,2,3,1,4,1,6,6,12,1,5,1,6,1,2,2,4,1,2,1,3,1,4,2,6,1,22,13,35,6,0,0,0,0,0,0,0,0,0,0,0,0,0,0,0,0,0,0,0,0,0,0,0,0,0,0,0,0,0,0,0,0,0,0,0,0,0,0,0,0,0,0,0,0,23,19,42,8,10 มิถุนายน 2561
120,120,54010151,บ้านวังหลวง(วังมาประชาสามัคคี),0,0,0,0,0,0,0,0,0,2,2,1,0,2,2,1,2,0,2,1,3,3,6,1,0,0,0,0,1,1,2,1,2,3,5,1,1,3,4,1,9,10,19,5,0,0,0,0,0,0,0,0,0,0,0,0,0,0,0,0,0,0,0,0,0,0,0,0,0,0,0,0,0,0,0,0,0,0,0,0,0,0,0,0,0,0,0,0,9,12,21,6,10 มิถุนายน 2561
121,121,54010152,บ้านหนองม่วงไข่,0,0,0,0,0,0,0,0,0,0,0,0,0,0,0,0,24,17,41,2,21,17,38,2,19,20,39,2,14,11,25,1,13,10,23,1,9,17,26,1,100,92,192,9,0,0,0,0,0,0,0,0,0,0,0,0,0,0,0,0,0,0,0,0,0,0,0,0,0,0,0,0,0,0,0,0,0,0,0,0,0,0,0,0,0,0,0,0,100,92,192,9,10 มิถุนายน 2561
