,0,1,2,3,4,5,6,7,8,9,10,11,12,13,14,15,16,17,18,19,20,21,22,23,24,25,26,27,28,29,30,31,32,33,34,35,36,37,38,39,40,41,42,43,44,45,46,47,48,49,50,51,52,53,54,55,56,57,58,59,60,61,62,63,64,65,66,67,68,69,70,71,72,73,74,75,76,77,78,79,80,81,82,83,84,85,86,87,88,89,90,91,92,93,94,95
0,ลำดับ,รหัส SMIS,โรงเรียน,อ.3 ขวบ ชาย,อ.3 ขวบ หญิง,รวมอ.3 ขวบ,อ.3 ขวบ ห้อง,อ.1 ชาย,อ.1 หญิง,รวมอ.1,อ.1 ห้อง,อ.2 ชาย,อ.2 หญิง,รวมอ.2,อ.2 ห้อง,รวมก่อนประถม ชาย,รวมก่อนประถม หญิง,รวมก่อนประถม,รวมห้องก่อนประถม,ป.1 ชาย,ป.1 หญิง,รวมป.1,ป.1 ห้อง,ป.2 ชาย,ป.2 หญิง,รวมป.2,ป.2 ห้อง,ป.3 ชาย,ป.3 หญิง,รวมป.3,ป.3 ห้อง,ป.4 ชาย,ป.4 หญิง,รวมป.4,ป.4 ห้อง,ป.5 ชาย,ป.5 หญิง,รวมป.5,ป.5 ห้อง,ป.6 ชาย,ป.6 หญิง,รวมป.6,ป.6 ห้อง,รวมประถม ชาย,รวมประถม หญิง,รวมประถม,รวมห้องประถม,ม.1 ชาย,ม.1 หญิง,รวมม.1,ม.1 ห้อง,ม.2 ชาย,ม.2 หญิง,รวมม.2,ม.2 ห้อง,ม.3 ชาย,ม.3 หญิง,รวมม.3,ม.3 ห้อง,รวมม.ต้น ชาย,รวมม.ต้น หญิง,รวมม.ต้น,รวมห้องม.ต้น,ม.4 ชาย,ม.4 หญิง,รวมม.4,ม.4 ห้อง,ม.5 ชาย,ม.5 หญิง,รวมม.5,ม.5 ห้อง,ม.6 ชาย,ม.6 หญิง,รวมม.6,ม.6 ห้อง,ปวช.1 ชาย,ปวช.1 หญิง,รวมปวช.1,ปวช.1 ห้อง,ปวช.2 ชาย,ปวช.2 หญิง,รวมปวช.2,ปวช.2 ห้อง,ปวช.3 ชาย,ปวช.3 หญิง,รวมปวช.3,ปวช.3 ห้อง,รวมม.ปลายและเทียบเท่า ชาย,รวมม.ปลายและเทียบเท่า หญิง,รวมม.ปลายและเทียบเท่า,รวมห้องม.ปลายและเทียบเท่า,รวมทั้งหมด ชาย,รวมทั้งหมด หญิง,รวมทั้งหมด,รวมห้องทั้งหมด,ข้อมูล ณ วันที่
1,1,57040001,บ้านศรีลานนา,0,0,0,0,5,4,9,1,1,1,2,1,6,5,11,2,2,4,6,1,2,1,3,1,1,1,2,1,2,1,3,1,2,2,4,1,4,4,8,1,13,13,26,6,0,0,0,0,0,0,0,0,0,0,0,0,0,0,0,0,0,0,0,0,0,0,0,0,0,0,0,0,0,0,0,0,0,0,0,0,0,0,0,0,0,0,0,0,19,18,37,8,10 มิถุนายน 2561
2,2,57040002,บ้านหลวง,0,0,0,0,9,6,15,1,8,9,17,1,17,15,32,2,7,6,13,1,4,2,6,1,6,5,11,1,6,5,11,1,7,13,20,1,7,5,12,1,37,36,73,6,0,0,0,0,0,0,0,0,0,0,0,0,0,0,0,0,0,0,0,0,0,0,0,0,0,0,0,0,0,0,0,0,0,0,0,0,0,0,0,0,0,0,0,0,54,51,105,8,10 มิถุนายน 2561
3,3,57040003,บ้านครึ่ง,0,0,0,0,3,2,5,1,2,1,3,1,5,3,8,2,0,0,0,0,2,0,2,1,4,2,6,1,1,0,1,1,0,1,1,1,2,1,3,1,9,4,13,5,0,0,0,0,0,0,0,0,0,0,0,0,0,0,0,0,0,0,0,0,0,0,0,0,0,0,0,0,0,0,0,0,0,0,0,0,0,0,0,0,0,0,0,0,14,7,21,7,10 มิถุนายน 2561
4,4,57040004,บ้านครึ่งใต้,0,0,0,0,0,2,2,1,3,1,4,1,3,3,6,2,2,1,3,1,5,1,6,1,4,1,5,1,3,3,6,1,3,1,4,1,4,2,6,1,21,9,30,6,0,0,0,0,0,0,0,0,0,0,0,0,0,0,0,0,0,0,0,0,0,0,0,0,0,0,0,0,0,0,0,0,0,0,0,0,0,0,0,0,0,0,0,0,24,12,36,8,10 มิถุนายน 2561
5,5,57040005,บ้านส้าน,0,0,0,0,0,2,2,1,3,2,5,1,3,4,7,2,2,6,8,1,2,3,5,1,4,1,5,1,1,3,4,1,2,1,3,1,1,2,3,1,12,16,28,6,0,0,0,0,0,0,0,0,0,0,0,0,0,0,0,0,0,0,0,0,0,0,0,0,0,0,0,0,0,0,0,0,0,0,0,0,0,0,0,0,0,0,0,0,15,20,35,8,10 มิถุนายน 2561
6,6,57040006,บ้านตองม่วงชุม,0,0,0,0,1,4,5,1,1,5,6,1,2,9,11,2,3,3,6,1,4,2,6,1,3,1,4,1,3,2,5,1,1,2,3,1,3,5,8,1,17,15,32,6,0,0,0,0,0,0,0,0,0,0,0,0,0,0,0,0,0,0,0,0,0,0,0,0,0,0,0,0,0,0,0,0,0,0,0,0,0,0,0,0,0,0,0,0,19,24,43,8,10 มิถุนายน 2561
7,7,57040007,บ้านหก,0,0,0,0,3,2,5,1,3,5,8,1,6,7,13,2,3,2,5,1,1,2,3,1,4,0,4,1,3,1,4,1,2,2,4,1,5,2,7,1,18,9,27,6,0,0,0,0,0,0,0,0,0,0,0,0,0,0,0,0,0,0,0,0,0,0,0,0,0,0,0,0,0,0,0,0,0,0,0,0,0,0,0,0,0,0,0,0,24,16,40,8,10 มิถุนายน 2561
8,8,57040008,บ้านบุญเรือง,3,1,4,1,7,0,7,1,3,3,6,1,13,4,17,3,4,1,5,1,6,5,11,1,5,3,8,1,6,3,9,1,3,2,5,1,6,4,10,1,30,18,48,6,0,0,0,0,0,0,0,0,0,0,0,0,0,0,0,0,0,0,0,0,0,0,0,0,0,0,0,0,0,0,0,0,0,0,0,0,0,0,0,0,0,0,0,0,43,22,65,9,10 มิถุนายน 2561
9,9,57040009,บ้านต้นปล้องแดนเมือง,0,0,0,0,7,6,13,1,11,9,20,1,18,15,33,2,10,11,21,1,9,5,14,1,7,6,13,1,7,8,15,1,6,6,12,1,4,5,9,1,43,41,84,6,0,0,0,0,0,0,0,0,0,0,0,0,0,0,0,0,0,0,0,0,0,0,0,0,0,0,0,0,0,0,0,0,0,0,0,0,0,0,0,0,0,0,0,0,61,56,117,8,10 มิถุนายน 2561
10,10,57040010,บ้านเมืองกาญจน์,13,6,19,1,9,22,31,2,25,26,51,2,47,54,101,5,17,14,31,2,10,13,23,1,12,11,23,1,24,17,41,2,9,15,24,1,23,15,38,2,95,85,180,9,31,29,60,2,26,34,60,2,39,36,75,2,96,99,195,6,0,0,0,0,0,0,0,0,0,0,0,0,0,0,0,0,0,0,0,0,0,0,0,0,0,0,0,0,238,238,476,20,10 มิถุนายน 2561
11,11,57040011,บ้านสองพี่น้อง,0,0,0,0,10,7,17,1,12,2,14,1,22,9,31,2,12,12,24,1,7,13,20,1,7,11,18,1,8,8,16,1,5,11,16,1,4,8,12,1,43,63,106,6,0,0,0,0,0,0,0,0,0,0,0,0,0,0,0,0,0,0,0,0,0,0,0,0,0,0,0,0,0,0,0,0,0,0,0,0,0,0,0,0,0,0,0,0,65,72,137,8,10 มิถุนายน 2561
12,12,57040012,ริมโขงวิทยา,0,0,0,0,12,5,17,1,6,8,14,1,18,13,31,2,13,6,19,1,7,4,11,1,5,7,12,1,4,11,15,1,5,6,11,1,9,7,16,1,43,41,84,6,1,5,6,1,7,5,12,1,4,3,7,1,12,13,25,3,0,0,0,0,0,0,0,0,0,0,0,0,0,0,0,0,0,0,0,0,0,0,0,0,0,0,0,0,73,67,140,11,10 มิถุนายน 2561
13,13,57040013,บ้านหัวเวียง(โกศัลย์วิทย์),0,0,0,0,9,6,15,1,15,9,24,1,24,15,39,2,21,13,34,1,12,11,23,1,12,11,23,1,17,16,33,1,12,14,26,1,12,11,23,1,86,76,162,6,0,0,0,0,0,0,0,0,0,0,0,0,0,0,0,0,0,0,0,0,0,0,0,0,0,0,0,0,0,0,0,0,0,0,0,0,0,0,0,0,0,0,0,0,110,91,201,8,10 มิถุนายน 2561
14,14,57040014,อนุบาลเชียงของ,27,18,45,2,40,56,96,3,33,57,90,3,100,131,231,8,68,65,133,4,65,68,133,5,57,64,121,4,60,73,133,4,61,59,120,4,49,50,99,4,360,379,739,25,50,64,114,3,49,61,110,3,41,55,96,3,140,180,320,9,0,0,0,0,0,0,0,0,0,0,0,0,0,0,0,0,0,0,0,0,0,0,0,0,0,0,0,0,600,690,1290,42,10 มิถุนายน 2561
15,15,57040015,อนุบาลทุ่งทรายพัฒนา,0,0,0,0,9,9,18,1,11,16,27,1,20,25,45,2,15,10,25,1,12,6,18,1,14,17,31,1,14,11,25,1,15,17,32,1,16,14,30,1,86,75,161,6,0,0,0,0,0,0,0,0,0,0,0,0,0,0,0,0,0,0,0,0,0,0,0,0,0,0,0,0,0,0,0,0,0,0,0,0,0,0,0,0,0,0,0,0,106,100,206,8,10 มิถุนายน 2561
16,16,57040016,บ้านทุ่งนาน้อย,0,0,0,0,20,20,40,2,24,21,45,2,44,41,85,4,18,21,39,2,9,10,19,1,18,11,29,1,16,16,32,2,10,14,24,1,5,11,16,1,76,83,159,8,15,17,32,1,19,8,27,1,4,12,16,1,38,37,75,3,0,0,0,0,0,0,0,0,0,0,0,0,0,0,0,0,0,0,0,0,0,0,0,0,0,0,0,0,158,161,319,15,10 มิถุนายน 2561
17,17,57040017,บ้านดอนมหาวัน,0,0,0,0,5,2,7,1,2,3,5,1,7,5,12,2,4,4,8,1,2,4,6,1,4,5,9,1,2,2,4,1,6,5,11,1,3,2,5,1,21,22,43,6,0,0,0,0,0,0,0,0,0,0,0,0,0,0,0,0,0,0,0,0,0,0,0,0,0,0,0,0,0,0,0,0,0,0,0,0,0,0,0,0,0,0,0,0,28,27,55,8,10 มิถุนายน 2561
18,18,57040018,บ้านห้วยเม็ง(ประสาทวิทย์),0,0,0,0,2,3,5,1,4,2,6,1,6,5,11,2,6,0,6,1,6,5,11,1,7,3,10,1,3,7,10,1,3,5,8,1,1,5,6,1,26,25,51,6,0,0,0,0,0,0,0,0,0,0,0,0,0,0,0,0,0,0,0,0,0,0,0,0,0,0,0,0,0,0,0,0,0,0,0,0,0,0,0,0,0,0,0,0,32,30,62,8,10 มิถุนายน 2561
19,19,57040019,บ้านปากอิง,0,0,0,0,6,2,8,1,4,7,11,1,10,9,19,2,2,5,7,1,2,4,6,1,4,3,7,1,5,1,6,1,5,4,9,1,12,3,15,1,30,20,50,6,0,0,0,0,0,0,0,0,0,0,0,0,0,0,0,0,0,0,0,0,0,0,0,0,0,0,0,0,0,0,0,0,0,0,0,0,0,0,0,0,0,0,0,0,40,29,69,8,10 มิถุนายน 2561
20,20,57040020,บ้านหวาย,0,0,0,0,10,5,15,1,6,2,8,1,16,7,23,2,4,4,8,1,6,4,10,1,8,4,12,1,12,6,18,1,8,2,10,1,5,5,10,1,43,25,68,6,0,0,0,0,0,0,0,0,0,0,0,0,0,0,0,0,0,0,0,0,0,0,0,0,0,0,0,0,0,0,0,0,0,0,0,0,0,0,0,0,0,0,0,0,59,32,91,8,10 มิถุนายน 2561
21,21,57040022,ชุมชนบ้านศรีดอนชัย,0,0,0,0,10,4,14,1,7,6,13,1,17,10,27,2,4,6,10,1,2,5,7,1,7,0,7,1,5,8,13,1,4,4,8,1,6,3,9,1,28,26,54,6,9,2,11,1,5,6,11,1,6,7,13,1,20,15,35,3,0,0,0,0,0,0,0,0,0,0,0,0,0,0,0,0,0,0,0,0,0,0,0,0,0,0,0,0,65,51,116,11,10 มิถุนายน 2561
22,22,57040023,บ้านลุงท่าเจริญ,0,0,0,0,6,3,9,1,2,5,7,1,8,8,16,2,4,5,9,1,2,4,6,1,1,1,2,1,3,4,7,1,6,2,8,1,4,4,8,1,20,20,40,6,0,0,0,0,0,0,0,0,0,0,0,0,0,0,0,0,0,0,0,0,0,0,0,0,0,0,0,0,0,0,0,0,0,0,0,0,0,0,0,0,0,0,0,0,28,28,56,8,10 มิถุนายน 2561
23,23,57040024,บ้านทุ่งซางดงหลวง,0,0,0,0,8,3,11,1,9,3,12,1,17,6,23,2,3,2,5,1,3,1,4,1,2,2,4,1,5,6,11,1,3,1,4,1,4,5,9,1,20,17,37,6,0,0,0,0,0,0,0,0,0,0,0,0,0,0,0,0,0,0,0,0,0,0,0,0,0,0,0,0,0,0,0,0,0,0,0,0,0,0,0,0,0,0,0,0,37,23,60,8,10 มิถุนายน 2561
24,24,57040025,บ้านเขียะ,0,0,0,0,3,5,8,1,6,2,8,1,9,7,16,2,4,3,7,1,7,2,9,1,3,2,5,1,7,0,7,1,4,2,6,1,5,5,10,1,30,14,44,6,0,0,0,0,0,0,0,0,0,0,0,0,0,0,0,0,0,0,0,0,0,0,0,0,0,0,0,0,0,0,0,0,0,0,0,0,0,0,0,0,0,0,0,0,39,21,60,8,10 มิถุนายน 2561
25,25,57040026,บ้านทุ่งงิ้ว(ประชาสงเคราะห์2),0,0,0,0,1,8,9,1,5,5,10,1,6,13,19,2,3,2,5,1,4,2,6,1,10,2,12,1,1,6,7,1,7,4,11,1,5,2,7,1,30,18,48,6,0,0,0,0,0,0,0,0,0,0,0,0,0,0,0,0,0,0,0,0,0,0,0,0,0,0,0,0,0,0,0,0,0,0,0,0,0,0,0,0,0,0,0,0,36,31,67,8,10 มิถุนายน 2561
26,26,57040027,บ้านเชียงคาน (ราษฎร์ประสานมิตร),0,0,0,0,3,3,6,1,1,5,6,1,4,8,12,2,2,4,6,1,4,2,6,1,8,4,12,1,5,5,10,1,3,6,9,1,6,5,11,1,28,26,54,6,0,0,0,0,0,0,0,0,0,0,0,0,0,0,0,0,0,0,0,0,0,0,0,0,0,0,0,0,0,0,0,0,0,0,0,0,0,0,0,0,0,0,0,0,32,34,66,8,10 มิถุนายน 2561
27,27,57040028,บ้านทุ่งอ่าง,0,0,0,0,6,8,14,1,3,7,10,1,9,15,24,2,2,5,7,1,5,11,16,1,6,9,15,1,4,6,10,1,5,4,9,1,6,6,12,1,28,41,69,6,0,0,0,0,0,0,0,0,0,0,0,0,0,0,0,0,0,0,0,0,0,0,0,0,0,0,0,0,0,0,0,0,0,0,0,0,0,0,0,0,0,0,0,0,37,56,93,8,10 มิถุนายน 2561
28,28,57040029,บ้านน้ำม้า,0,0,0,0,10,6,16,1,8,6,14,1,18,12,30,2,8,7,15,1,7,5,12,1,8,9,17,1,8,2,10,1,7,5,12,1,8,4,12,1,46,32,78,6,0,0,0,0,0,0,0,0,0,0,0,0,0,0,0,0,0,0,0,0,0,0,0,0,0,0,0,0,0,0,0,0,0,0,0,0,0,0,0,0,0,0,0,0,64,44,108,8,10 มิถุนายน 2561
29,29,57040030,ชุมชนสถาน(ราษฎร์ดรุณวิทย์),0,0,0,0,12,9,21,1,2,8,10,1,14,17,31,2,9,6,15,1,2,1,3,1,6,7,13,1,6,13,19,1,9,9,18,1,3,11,14,1,35,47,82,6,7,4,11,1,6,6,12,1,5,2,7,1,18,12,30,3,0,0,0,0,0,0,0,0,0,0,0,0,0,0,0,0,0,0,0,0,0,0,0,0,0,0,0,0,67,76,143,11,10 มิถุนายน 2561
30,30,57040031,บ้านแก่นวิทยา,0,0,0,0,8,9,17,1,17,9,26,1,25,18,43,2,9,9,18,1,6,11,17,1,7,14,21,1,10,4,14,1,8,6,14,1,12,11,23,1,52,55,107,6,0,0,0,0,0,0,0,0,0,0,0,0,0,0,0,0,0,0,0,0,0,0,0,0,0,0,0,0,0,0,0,0,0,0,0,0,0,0,0,0,0,0,0,0,77,73,150,8,10 มิถุนายน 2561
31,31,57040032,บ้านเกี๋ยง,13,11,24,1,7,7,14,1,13,19,32,1,33,37,70,3,15,6,21,1,15,7,22,1,9,15,24,1,7,7,14,1,6,9,15,1,15,15,30,1,67,59,126,6,0,0,0,0,0,0,0,0,0,0,0,0,0,0,0,0,0,0,0,0,0,0,0,0,0,0,0,0,0,0,0,0,0,0,0,0,0,0,0,0,0,0,0,0,100,96,196,9,10 มิถุนายน 2561
32,32,57040034,บ้านห้วยซ้อ,0,0,0,0,14,7,21,1,4,11,15,1,18,18,36,2,10,8,18,1,7,7,14,1,7,4,11,1,4,7,11,1,11,8,19,1,7,9,16,1,46,43,89,6,0,0,0,0,0,0,0,0,0,0,0,0,0,0,0,0,0,0,0,0,0,0,0,0,0,0,0,0,0,0,0,0,0,0,0,0,0,0,0,0,0,0,0,0,64,61,125,8,10 มิถุนายน 2561
33,33,57040035,บ้านเวียงหมอก,0,0,0,0,4,2,6,1,5,3,8,1,9,5,14,2,4,6,10,1,10,8,18,1,10,9,19,1,8,10,18,1,10,7,17,1,17,8,25,1,59,48,107,6,19,7,26,1,13,6,19,1,7,21,28,2,39,34,73,4,0,0,0,0,0,0,0,0,0,0,0,0,0,0,0,0,0,0,0,0,0,0,0,0,0,0,0,0,107,87,194,12,10 มิถุนายน 2561
34,34,57040037,ศรีสว่าง,0,0,0,0,1,0,1,1,5,2,7,1,6,2,8,2,2,0,2,1,1,3,4,1,2,1,3,1,6,0,6,1,1,3,4,1,5,7,12,1,17,14,31,6,0,0,0,0,0,0,0,0,0,0,0,0,0,0,0,0,0,0,0,0,0,0,0,0,0,0,0,0,0,0,0,0,0,0,0,0,0,0,0,0,0,0,0,0,23,16,39,8,10 มิถุนายน 2561
35,35,57040038,สักสันเชียงใหม่วิทยาคม,10,6,16,1,2,5,7,1,9,9,18,1,21,20,41,3,14,9,23,1,6,5,11,1,7,9,16,1,5,5,10,1,5,6,11,1,7,9,16,1,44,43,87,6,6,3,9,1,8,8,16,1,3,6,9,1,17,17,34,3,0,0,0,0,0,0,0,0,0,0,0,0,0,0,0,0,0,0,0,0,0,0,0,0,0,0,0,0,82,80,162,12,10 มิถุนายน 2561
36,36,57040039,บ้านงิ้วใหม่,0,1,1,1,2,2,4,1,4,2,6,1,6,5,11,3,3,2,5,1,1,1,2,1,0,0,0,0,4,2,6,1,2,7,9,1,4,5,9,1,14,17,31,5,0,0,0,0,0,0,0,0,0,0,0,0,0,0,0,0,0,0,0,0,0,0,0,0,0,0,0,0,0,0,0,0,0,0,0,0,0,0,0,0,0,0,0,0,20,22,42,8,10 มิถุนายน 2561
37,37,57040040,บ้านงิ้วป่าไผ่(ราษฎร์นุกูล),0,0,0,0,10,11,21,1,5,6,11,1,15,17,32,2,8,7,15,1,6,3,9,1,6,5,11,1,6,9,15,1,6,8,14,1,3,11,14,1,35,43,78,6,0,0,0,0,0,0,0,0,0,0,0,0,0,0,0,0,0,0,0,0,0,0,0,0,0,0,0,0,0,0,0,0,0,0,0,0,0,0,0,0,0,0,0,0,50,60,110,8,10 มิถุนายน 2561
38,38,57040041,บ้านตุ้มเหนือ,0,0,0,0,1,5,6,1,1,1,2,1,2,6,8,2,5,5,10,1,6,3,9,1,4,3,7,1,3,1,4,1,3,2,5,1,6,1,7,1,27,15,42,6,0,0,0,0,3,1,4,1,8,3,11,1,11,4,15,2,0,0,0,0,0,0,0,0,0,0,0,0,0,0,0,0,0,0,0,0,0,0,0,0,0,0,0,0,40,25,65,10,10 มิถุนายน 2561
39,39,57040042,บ้านห้วยตุ้ม(ตุ้มใต้ตระการคุณ),0,0,0,0,0,3,3,1,0,1,1,1,0,4,4,2,0,1,1,1,2,0,2,1,3,3,6,1,0,2,2,1,3,3,6,1,0,2,2,1,8,11,19,6,0,0,0,0,0,0,0,0,0,0,0,0,0,0,0,0,0,0,0,0,0,0,0,0,0,0,0,0,0,0,0,0,0,0,0,0,0,0,0,0,0,0,0,0,8,15,23,8,10 มิถุนายน 2561
40,40,57040043,บ้านขอนซุง,1,2,3,1,1,3,4,1,1,3,4,1,3,8,11,3,2,2,4,1,2,2,4,1,3,2,5,1,2,1,3,1,3,6,9,1,0,2,2,1,12,15,27,6,0,0,0,0,0,0,0,0,0,0,0,0,0,0,0,0,0,0,0,0,0,0,0,0,0,0,0,0,0,0,0,0,0,0,0,0,0,0,0,0,0,0,0,0,15,23,38,9,10 มิถุนายน 2561
41,41,57040044,บ้านเชียงเคี่ยน(คณาราษฎร์บำรุง),0,0,0,0,2,2,4,1,4,2,6,1,6,4,10,2,16,6,22,1,7,6,13,1,4,11,15,1,8,8,16,1,14,7,21,1,13,9,22,1,62,47,109,6,0,0,0,0,0,0,0,0,0,0,0,0,0,0,0,0,0,0,0,0,0,0,0,0,0,0,0,0,0,0,0,0,0,0,0,0,0,0,0,0,0,0,0,0,68,51,119,8,10 มิถุนายน 2561
42,42,57040045,บ้านสันชุม(สหราษฎร์บำรุง),0,0,0,0,1,2,3,1,7,0,7,1,8,2,10,2,4,6,10,1,2,7,9,1,4,3,7,1,2,3,5,1,3,4,7,1,3,3,6,1,18,26,44,6,3,4,7,1,6,4,10,1,7,8,15,1,16,16,32,3,0,0,0,0,0,0,0,0,0,0,0,0,0,0,0,0,0,0,0,0,0,0,0,0,0,0,0,0,42,44,86,11,10 มิถุนายน 2561
43,43,57040046,บ้านก๊อ,0,0,0,0,4,2,6,1,1,3,4,1,5,5,10,2,1,5,6,1,3,3,6,1,5,1,6,1,3,3,6,1,6,2,8,1,2,3,5,1,20,17,37,6,0,0,0,0,0,0,0,0,0,0,0,0,0,0,0,0,0,0,0,0,0,0,0,0,0,0,0,0,0,0,0,0,0,0,0,0,0,0,0,0,0,0,0,0,25,22,47,8,10 มิถุนายน 2561
44,44,57040048,บ้านขุนห้วยไคร้,0,0,0,0,6,8,14,1,10,9,19,1,16,17,33,2,5,7,12,1,3,4,7,1,3,8,11,1,6,2,8,1,5,10,15,1,2,2,4,1,24,33,57,6,0,0,0,0,0,0,0,0,0,0,0,0,0,0,0,0,0,0,0,0,0,0,0,0,0,0,0,0,0,0,0,0,0,0,0,0,0,0,0,0,0,0,0,0,40,50,90,8,10 มิถุนายน 2561
45,45,57040049,เพียงหลวง 16,0,0,0,0,13,19,32,2,21,17,38,2,34,36,70,4,13,16,29,1,12,13,25,1,10,15,25,1,10,7,17,1,13,10,23,1,10,11,21,1,68,72,140,6,10,8,18,1,11,5,16,1,9,12,21,1,30,25,55,3,0,0,0,0,0,0,0,0,0,0,0,0,0,0,0,0,0,0,0,0,0,0,0,0,0,0,0,0,132,133,265,13,10 มิถุนายน 2561
46,46,57040050,เพียงหลวง ๑๖ สาขาบ้านขุนต้า,0,0,0,0,8,8,16,1,5,9,14,1,13,17,30,2,7,7,14,1,7,5,12,1,4,3,7,1,2,2,4,1,2,4,6,1,2,1,3,1,24,22,46,6,0,0,0,0,0,0,0,0,0,0,0,0,0,0,0,0,0,0,0,0,0,0,0,0,0,0,0,0,0,0,0,0,0,0,0,0,0,0,0,0,0,0,0,0,37,39,76,8,10 มิถุนายน 2561
47,47,57040051,เพียงหลวง 16 ห้องเรียนบ้านร่มฟ้าไทย,0,0,0,0,3,1,4,1,3,1,4,1,6,2,8,2,1,2,3,1,2,1,3,1,0,0,0,0,1,1,2,1,0,0,0,0,4,0,4,1,8,4,12,4,0,0,0,0,0,0,0,0,0,0,0,0,0,0,0,0,0,0,0,0,0,0,0,0,0,0,0,0,0,0,0,0,0,0,0,0,0,0,0,0,0,0,0,0,14,6,20,6,10 มิถุนายน 2561
48,48,57040052,เพียงหลวง 16 ห้องเรียนบ้านพิทักษ์ไทย,0,0,0,0,3,10,13,1,2,3,5,1,5,13,18,2,5,1,6,1,4,0,4,1,1,1,2,1,4,1,5,1,1,2,3,1,0,5,5,1,15,10,25,6,0,0,0,0,0,0,0,0,0,0,0,0,0,0,0,0,0,0,0,0,0,0,0,0,0,0,0,0,0,0,0,0,0,0,0,0,0,0,0,0,0,0,0,0,20,23,43,8,10 มิถุนายน 2561
49,49,57040053,บ้านรักแผ่นดิน,0,0,0,0,10,16,26,1,18,13,31,1,28,29,57,2,9,10,19,1,16,11,27,1,10,7,17,1,8,9,17,1,8,15,23,1,11,9,20,1,62,61,123,6,4,10,14,1,4,5,9,1,4,6,10,1,12,21,33,3,0,0,0,0,0,0,0,0,0,0,0,0,0,0,0,0,0,0,0,0,0,0,0,0,0,0,0,0,102,111,213,11,10 มิถุนายน 2561
50,50,57040054,บ้านแผ่นดินทอง,0,0,0,0,15,20,35,2,27,15,42,2,42,35,77,4,20,20,40,2,21,12,33,2,18,20,38,2,12,22,34,2,18,18,36,2,17,21,38,2,106,113,219,12,11,13,24,1,14,9,23,1,11,13,24,1,36,35,71,3,0,0,0,0,0,0,0,0,0,0,0,0,0,0,0,0,0,0,0,0,0,0,0,0,0,0,0,0,184,183,367,19,10 มิถุนายน 2561
51,51,57040055,บ้านราษฏ์ภักดี,0,0,0,0,36,32,68,3,17,37,54,3,53,69,122,6,24,20,44,2,33,22,55,2,16,20,36,2,22,14,36,2,18,16,34,2,14,10,24,2,127,102,229,12,12,9,21,1,6,7,13,1,5,5,10,1,23,21,44,3,0,0,0,0,0,0,0,0,0,0,0,0,0,0,0,0,0,0,0,0,0,0,0,0,0,0,0,0,203,192,395,21,10 มิถุนายน 2561
52,52,57040056,อนุบาลตับเต่า(ไคร้สามัคคีวิทยา),0,0,0,0,2,5,7,1,2,5,7,1,4,10,14,2,5,2,7,1,1,5,6,1,4,4,8,1,7,6,13,1,3,4,7,1,10,8,18,1,30,29,59,6,3,11,14,1,6,8,14,1,5,2,7,1,14,21,35,3,0,0,0,0,0,0,0,0,0,0,0,0,0,0,0,0,0,0,0,0,0,0,0,0,0,0,0,0,48,60,108,11,10 มิถุนายน 2561
53,53,57040057,บ้านต้นเขืองโจ้โก้สามัคคี,0,0,0,0,4,4,8,1,1,4,5,1,5,8,13,2,5,2,7,1,4,4,8,1,5,3,8,1,6,4,10,1,5,1,6,1,7,4,11,1,32,18,50,6,0,0,0,0,0,0,0,0,0,0,0,0,0,0,0,0,0,0,0,0,0,0,0,0,0,0,0,0,0,0,0,0,0,0,0,0,0,0,0,0,0,0,0,0,37,26,63,8,10 มิถุนายน 2561
54,54,57040058,บ้านตีนเป็ด,0,0,0,0,16,4,20,1,9,7,16,1,25,11,36,2,11,11,22,1,13,14,27,1,11,8,19,1,15,7,22,1,8,11,19,1,6,5,11,1,64,56,120,6,0,0,0,0,0,0,0,0,0,0,0,0,0,0,0,0,0,0,0,0,0,0,0,0,0,0,0,0,0,0,0,0,0,0,0,0,0,0,0,0,0,0,0,0,89,67,156,8,10 มิถุนายน 2561
55,55,57040059,บ้านปางค่า,0,0,0,0,0,0,0,0,0,0,0,0,0,0,0,0,0,0,0,0,0,0,0,0,0,0,0,0,0,0,0,0,0,0,0,0,0,0,0,0,0,0,0,0,0,0,0,0,0,0,0,0,0,0,0,0,0,0,0,0,0,0,0,0,0,0,0,0,0,0,0,0,0,0,0,0,0,0,0,0,0,0,0,0,0,0,0,0,0,0,0,0,10 มิถุนายน 2561
56,56,57040061,บ้านดอนดินแดง,0,0,0,0,2,3,5,1,2,2,4,1,4,5,9,2,2,0,2,1,3,0,3,1,3,2,5,1,2,3,5,1,5,0,5,1,5,1,6,1,20,6,26,6,0,0,0,0,0,0,0,0,0,0,0,0,0,0,0,0,0,0,0,0,0,0,0,0,0,0,0,0,0,0,0,0,0,0,0,0,0,0,0,0,0,0,0,0,24,11,35,8,10 มิถุนายน 2561
57,57,57040063,บ้านปล้องตลาด,0,0,0,0,0,2,2,1,1,0,1,1,1,2,3,2,13,2,15,1,8,6,14,1,12,3,15,1,13,7,20,1,12,8,20,1,7,10,17,1,65,36,101,6,0,0,0,0,0,0,0,0,0,0,0,0,0,0,0,0,0,0,0,0,0,0,0,0,0,0,0,0,0,0,0,0,0,0,0,0,0,0,0,0,0,0,0,0,66,38,104,8,10 มิถุนายน 2561
58,58,57040064,จำไฮบ้านเหล่า,0,0,0,0,4,3,7,1,4,4,8,1,8,7,15,2,4,2,6,1,3,3,6,1,4,4,8,1,11,4,15,1,9,4,13,1,6,4,10,1,37,21,58,6,0,0,0,0,0,0,0,0,0,0,0,0,0,0,0,0,0,0,0,0,0,0,0,0,0,0,0,0,0,0,0,0,0,0,0,0,0,0,0,0,0,0,0,0,45,28,73,8,10 มิถุนายน 2561
59,59,57040065,บ้านปล้องใต้,0,0,0,0,5,1,6,1,4,3,7,1,9,4,13,2,7,6,13,1,6,6,12,1,10,3,13,1,9,4,13,1,6,6,12,1,4,9,13,1,42,34,76,6,0,0,0,0,0,0,0,0,0,0,0,0,0,0,0,0,0,0,0,0,0,0,0,0,0,0,0,0,0,0,0,0,0,0,0,0,0,0,0,0,0,0,0,0,51,38,89,8,10 มิถุนายน 2561
60,60,57040066,บ้านปล้องส้าน,0,0,0,0,1,3,4,1,3,1,4,1,4,4,8,2,3,4,7,1,2,6,8,1,7,1,8,1,5,1,6,1,4,1,5,1,2,0,2,1,23,13,36,6,0,0,0,0,0,0,0,0,0,0,0,0,0,0,0,0,0,0,0,0,0,0,0,0,0,0,0,0,0,0,0,0,0,0,0,0,0,0,0,0,0,0,0,0,27,17,44,8,10 มิถุนายน 2561
61,61,57040067,บ้านเกี๋ยง(คุรุราษฎร์วิทยา),0,0,0,0,8,4,12,1,10,11,21,1,18,15,33,2,9,10,19,1,9,12,21,1,11,4,15,1,12,10,22,1,12,8,20,1,8,8,16,1,61,52,113,6,5,11,16,1,9,9,18,1,2,5,7,1,16,25,41,3,0,0,0,0,0,0,0,0,0,0,0,0,0,0,0,0,0,0,0,0,0,0,0,0,0,0,0,0,95,92,187,11,10 มิถุนายน 2561
62,62,57040068,บ้านแม่ลอยไร่,0,0,0,0,4,2,6,1,10,11,21,1,14,13,27,2,3,2,5,1,4,4,8,1,2,5,7,1,5,3,8,1,3,3,6,1,5,2,7,1,22,19,41,6,0,0,0,0,0,0,0,0,0,0,0,0,0,0,0,0,0,0,0,0,0,0,0,0,0,0,0,0,0,0,0,0,0,0,0,0,0,0,0,0,0,0,0,0,36,32,68,8,10 มิถุนายน 2561
63,63,57040069,บ้านเกี๋ยงใต้,0,0,0,0,6,6,12,1,4,4,8,1,10,10,20,2,4,2,6,1,4,7,11,1,8,4,12,1,8,4,12,1,6,3,9,1,3,5,8,1,33,25,58,6,0,0,0,0,0,0,0,0,0,0,0,0,0,0,0,0,0,0,0,0,0,0,0,0,0,0,0,0,0,0,0,0,0,0,0,0,0,0,0,0,0,0,0,0,43,35,78,8,10 มิถุนายน 2561
64,64,57040070,วัดพระเกิดคงคาราม,0,0,0,0,5,4,9,1,9,4,13,1,14,8,22,2,23,27,50,2,23,14,37,1,19,10,29,1,22,23,45,2,19,9,28,1,15,16,31,1,121,99,220,8,0,0,0,0,0,0,0,0,0,0,0,0,0,0,0,0,0,0,0,0,0,0,0,0,0,0,0,0,0,0,0,0,0,0,0,0,0,0,0,0,0,0,0,0,135,107,242,10,10 มิถุนายน 2561
65,65,57040071,เวียงเทิง(เทิงทำนุประชา),0,0,0,0,27,14,41,2,22,24,46,2,49,38,87,4,74,86,160,6,60,75,135,5,80,57,137,4,61,69,130,4,57,55,112,3,60,49,109,3,392,391,783,25,0,0,0,0,0,0,0,0,0,0,0,0,0,0,0,0,0,0,0,0,0,0,0,0,0,0,0,0,0,0,0,0,0,0,0,0,0,0,0,0,0,0,0,0,441,429,870,29,10 มิถุนายน 2561
66,66,57040072,บ้านใหม่,0,0,0,0,2,2,4,1,3,2,5,1,5,4,9,2,4,3,7,1,4,2,6,1,4,5,9,1,4,4,8,1,9,4,13,1,0,5,5,1,25,23,48,6,0,0,0,0,0,0,0,0,0,0,0,0,0,0,0,0,0,0,0,0,0,0,0,0,0,0,0,0,0,0,0,0,0,0,0,0,0,0,0,0,0,0,0,0,30,27,57,8,10 มิถุนายน 2561
67,67,57040073,บ้านร่องแช่,0,0,0,0,6,8,14,1,6,9,15,1,12,17,29,2,7,7,14,1,12,11,23,1,9,5,14,1,8,7,15,1,10,8,18,1,7,9,16,1,53,47,100,6,13,3,16,1,7,8,15,1,11,2,13,1,31,13,44,3,0,0,0,0,0,0,0,0,0,0,0,0,0,0,0,0,0,0,0,0,0,0,0,0,0,0,0,0,96,77,173,11,10 มิถุนายน 2561
68,68,57040074,บ้านทุ่งโห้ง,0,0,0,0,1,3,4,1,12,7,19,1,13,10,23,2,3,3,6,1,5,7,12,1,4,4,8,1,6,5,11,1,4,5,9,1,8,4,12,1,30,28,58,6,0,0,0,0,0,0,0,0,0,0,0,0,0,0,0,0,0,0,0,0,0,0,0,0,0,0,0,0,0,0,0,0,0,0,0,0,0,0,0,0,0,0,0,0,43,38,81,8,10 มิถุนายน 2561
69,69,57040075,บ้านห้วยไคร้,0,0,0,0,9,12,21,1,11,10,21,1,20,22,42,2,4,5,9,1,14,9,23,1,10,7,17,1,5,11,16,1,12,3,15,1,10,7,17,1,55,42,97,6,6,8,14,1,8,8,16,1,3,4,7,1,17,20,37,3,0,0,0,0,0,0,0,0,0,0,0,0,0,0,0,0,0,0,0,0,0,0,0,0,0,0,0,0,92,84,176,11,10 มิถุนายน 2561
70,70,57040076,บ้านป่าตึงงาม,0,0,0,0,2,2,4,1,3,1,4,1,5,3,8,2,7,1,8,1,3,4,7,1,4,3,7,1,5,4,9,1,3,0,3,1,4,6,10,1,26,18,44,6,0,0,0,0,0,0,0,0,0,0,0,0,0,0,0,0,0,0,0,0,0,0,0,0,0,0,0,0,0,0,0,0,0,0,0,0,0,0,0,0,0,0,0,0,31,21,52,8,10 มิถุนายน 2561
71,71,57040077,บ้านป่ารวก,0,0,0,0,6,2,8,1,0,1,1,1,6,3,9,2,0,4,4,1,6,3,9,1,3,1,4,1,0,1,1,1,2,4,6,1,0,2,2,1,11,15,26,6,0,0,0,0,0,0,0,0,0,0,0,0,0,0,0,0,0,0,0,0,0,0,0,0,0,0,0,0,0,0,0,0,0,0,0,0,0,0,0,0,0,0,0,0,17,18,35,8,10 มิถุนายน 2561
72,72,57040078,ศรีดอนไชยวิทยา,0,0,0,0,10,8,18,1,8,9,17,1,18,17,35,2,9,3,12,1,8,9,17,1,4,9,13,1,13,6,19,1,5,14,19,1,8,9,17,1,47,50,97,6,1,3,4,1,3,8,11,1,3,5,8,1,7,16,23,3,0,0,0,0,0,0,0,0,0,0,0,0,0,0,0,0,0,0,0,0,0,0,0,0,0,0,0,0,72,83,155,11,10 มิถุนายน 2561
73,73,57040079,บ้านสันทรายมูล,0,0,0,0,3,2,5,1,1,4,5,1,4,6,10,2,8,1,9,1,3,3,6,1,3,4,7,1,3,4,7,1,3,2,5,1,7,6,13,1,27,20,47,6,0,0,0,0,0,0,0,0,0,0,0,0,0,0,0,0,0,0,0,0,0,0,0,0,0,0,0,0,0,0,0,0,0,0,0,0,0,0,0,0,0,0,0,0,31,26,57,8,10 มิถุนายน 2561
74,74,57040080,สันทรายงามวิทยา,0,0,0,0,5,8,13,1,13,14,27,1,18,22,40,2,2,4,6,1,8,4,12,1,7,3,10,1,7,5,12,1,5,5,10,1,10,5,15,1,39,26,65,6,3,3,6,1,7,5,12,1,7,4,11,1,17,12,29,3,0,0,0,0,0,0,0,0,0,0,0,0,0,0,0,0,0,0,0,0,0,0,0,0,0,0,0,0,74,60,134,11,10 มิถุนายน 2561
75,75,57040081,บ้านหนองบัว,0,0,0,0,2,1,3,1,0,1,1,1,2,2,4,2,2,1,3,1,3,2,5,1,2,1,3,1,1,1,2,1,1,2,3,1,3,0,3,1,12,7,19,6,0,0,0,0,0,0,0,0,0,0,0,0,0,0,0,0,0,0,0,0,0,0,0,0,0,0,0,0,0,0,0,0,0,0,0,0,0,0,0,0,0,0,0,0,14,9,23,8,10 มิถุนายน 2561
76,76,57040083,บ้านสันป่าบง,0,0,0,0,0,0,0,0,0,0,0,0,0,0,0,0,0,0,0,0,0,0,0,0,0,0,0,0,0,0,0,0,0,0,0,0,0,0,0,0,0,0,0,0,0,0,0,0,0,0,0,0,0,0,0,0,0,0,0,0,0,0,0,0,0,0,0,0,0,0,0,0,0,0,0,0,0,0,0,0,0,0,0,0,0,0,0,0,0,0,0,0,10 มิถุนายน 2561
77,77,57040084,บ้านเอียน(สหราษฎร์บำรุง),0,0,0,0,0,0,0,0,0,0,0,0,0,0,0,0,0,0,0,0,0,0,0,0,0,0,0,0,0,0,0,0,0,0,0,0,0,0,0,0,0,0,0,0,0,0,0,0,0,0,0,0,0,0,0,0,0,0,0,0,0,0,0,0,0,0,0,0,0,0,0,0,0,0,0,0,0,0,0,0,0,0,0,0,0,0,0,0,0,0,0,0,10 มิถุนายน 2561
78,78,57040085,บ้านบุญนาค,4,1,5,1,4,5,9,1,5,6,11,1,13,12,25,3,15,9,24,2,12,9,21,1,8,5,13,1,11,8,19,1,8,4,12,1,4,8,12,1,58,43,101,7,9,4,13,1,2,7,9,1,7,4,11,1,18,15,33,3,0,0,0,0,0,0,0,0,0,0,0,0,0,0,0,0,0,0,0,0,0,0,0,0,0,0,0,0,89,70,159,13,10 มิถุนายน 2561
79,79,57040086,บ้านดอนแยง,0,4,4,1,1,1,2,1,7,2,9,1,8,7,15,3,12,2,14,1,10,4,14,1,7,1,8,1,5,2,7,1,5,4,9,1,9,5,14,1,48,18,66,6,0,0,0,0,0,0,0,0,0,0,0,0,0,0,0,0,0,0,0,0,0,0,0,0,0,0,0,0,0,0,0,0,0,0,0,0,0,0,0,0,0,0,0,0,56,25,81,9,10 มิถุนายน 2561
80,80,57040087,บ้านป่าจี้,0,0,0,0,0,0,0,0,0,0,0,0,0,0,0,0,0,0,0,0,0,0,0,0,0,0,0,0,0,0,0,0,0,0,0,0,0,0,0,0,0,0,0,0,0,0,0,0,0,0,0,0,0,0,0,0,0,0,0,0,0,0,0,0,0,0,0,0,0,0,0,0,0,0,0,0,0,0,0,0,0,0,0,0,0,0,0,0,0,0,0,0,10 มิถุนายน 2561
81,81,57040088,บ้านท่าข้าม,0,0,0,0,0,0,0,0,0,0,0,0,0,0,0,0,0,0,0,0,0,0,0,0,0,0,0,0,0,0,0,0,0,0,0,0,0,0,0,0,0,0,0,0,0,0,0,0,0,0,0,0,0,0,0,0,0,0,0,0,0,0,0,0,0,0,0,0,0,0,0,0,0,0,0,0,0,0,0,0,0,0,0,0,0,0,0,0,0,0,0,0,10 มิถุนายน 2561
82,82,57040089,บ้านดอนไชย,0,0,0,0,4,1,5,1,8,5,13,1,12,6,18,2,8,5,13,1,3,1,4,1,4,2,6,1,9,9,18,1,6,7,13,1,5,2,7,1,35,26,61,6,0,0,0,0,0,0,0,0,0,0,0,0,0,0,0,0,0,0,0,0,0,0,0,0,0,0,0,0,0,0,0,0,0,0,0,0,0,0,0,0,0,0,0,0,47,32,79,8,10 มิถุนายน 2561
83,83,57040091,หนองแรดวิทยา,0,0,0,0,7,6,13,1,11,9,20,1,18,15,33,2,11,11,22,1,6,3,9,1,10,5,15,1,5,9,14,1,6,4,10,1,8,7,15,1,46,39,85,6,12,9,21,1,11,6,17,1,9,5,14,1,32,20,52,3,0,0,0,0,0,0,0,0,0,0,0,0,0,0,0,0,0,0,0,0,0,0,0,0,0,0,0,0,96,74,170,11,10 มิถุนายน 2561
84,84,57040092,บ้านม่อนป่ายาง,0,0,0,0,9,2,11,1,10,4,14,1,19,6,25,2,15,8,23,1,7,3,10,1,5,11,16,1,7,11,18,1,3,5,8,1,9,3,12,1,46,41,87,6,0,0,0,0,0,0,0,0,0,0,0,0,0,0,0,0,0,0,0,0,0,0,0,0,0,0,0,0,0,0,0,0,0,0,0,0,0,0,0,0,0,0,0,0,65,47,112,8,10 มิถุนายน 2561
85,85,57040093,อนุบาลตาดควัน,0,0,0,0,4,5,9,1,5,5,10,1,9,10,19,2,7,5,12,1,10,7,17,1,2,11,13,1,10,10,20,1,7,16,23,1,10,9,19,1,46,58,104,6,0,0,0,0,0,0,0,0,0,0,0,0,0,0,0,0,0,0,0,0,0,0,0,0,0,0,0,0,0,0,0,0,0,0,0,0,0,0,0,0,0,0,0,0,55,68,123,8,10 มิถุนายน 2561
86,86,57040094,บ้านใหม่สุขสันต์,0,0,0,0,11,9,20,1,11,8,19,1,22,17,39,2,10,3,13,1,5,4,9,1,6,4,10,1,14,4,18,1,5,8,13,1,3,3,6,1,43,26,69,6,0,0,0,0,0,0,0,0,0,0,0,0,0,0,0,0,0,0,0,0,0,0,0,0,0,0,0,0,0,0,0,0,0,0,0,0,0,0,0,0,0,0,0,0,65,43,108,8,10 มิถุนายน 2561
87,87,57040096,บ้านใหม่โชคชัย,0,0,0,0,4,3,7,1,5,4,9,1,9,7,16,2,9,6,15,1,6,5,11,1,6,6,12,1,10,4,14,1,7,6,13,1,6,8,14,1,44,35,79,6,0,0,0,0,0,0,0,0,0,0,0,0,0,0,0,0,0,0,0,0,0,0,0,0,0,0,0,0,0,0,0,0,0,0,0,0,0,0,0,0,0,0,0,0,53,42,95,8,10 มิถุนายน 2561
88,88,57040097,บ้านศรีสะอาด,0,0,0,0,0,0,0,0,0,0,0,0,0,0,0,0,0,0,0,0,0,0,0,0,0,0,0,0,0,0,0,0,0,0,0,0,0,0,0,0,0,0,0,0,0,0,0,0,0,0,0,0,0,0,0,0,0,0,0,0,0,0,0,0,0,0,0,0,0,0,0,0,0,0,0,0,0,0,0,0,0,0,0,0,0,0,0,0,0,0,0,0,10 มิถุนายน 2561
89,89,57040098,บ้านเวียงหวาย,4,6,10,1,3,7,10,1,5,4,9,1,12,17,29,3,5,5,10,1,11,8,19,1,5,8,13,1,7,3,10,1,3,5,8,1,8,8,16,1,39,37,76,6,0,0,0,0,0,0,0,0,0,0,0,0,0,0,0,0,0,0,0,0,0,0,0,0,0,0,0,0,0,0,0,0,0,0,0,0,0,0,0,0,0,0,0,0,51,54,105,9,10 มิถุนายน 2561
90,90,57040099,บ้านหนองบัวคำ,0,0,0,0,7,7,14,1,10,2,12,1,17,9,26,2,9,7,16,1,8,10,18,1,5,14,19,1,8,11,19,1,5,5,10,1,8,7,15,1,43,54,97,6,0,0,0,0,0,0,0,0,0,0,0,0,0,0,0,0,0,0,0,0,0,0,0,0,0,0,0,0,0,0,0,0,0,0,0,0,0,0,0,0,0,0,0,0,60,63,123,8,10 มิถุนายน 2561
91,91,57040100,บ้านหนองเสา,0,0,0,0,4,5,9,1,6,10,16,1,10,15,25,2,3,6,9,1,7,3,10,1,0,1,1,1,2,1,3,1,4,2,6,1,4,4,8,1,20,17,37,6,0,0,0,0,0,0,0,0,0,0,0,0,0,0,0,0,0,0,0,0,0,0,0,0,0,0,0,0,0,0,0,0,0,0,0,0,0,0,0,0,0,0,0,0,30,32,62,8,10 มิถุนายน 2561
92,92,57040101,บ้านสันป่าสัก,0,0,0,0,0,0,0,0,0,0,0,0,0,0,0,0,0,0,0,0,0,0,0,0,0,0,0,0,0,0,0,0,0,0,0,0,0,0,0,0,0,0,0,0,0,0,0,0,0,0,0,0,0,0,0,0,0,0,0,0,0,0,0,0,0,0,0,0,0,0,0,0,0,0,0,0,0,0,0,0,0,0,0,0,0,0,0,0,0,0,0,0,10 มิถุนายน 2561
93,93,57040102,สันสะลีกวิทยา,0,0,0,0,11,10,21,1,9,10,19,1,20,20,40,2,14,9,23,1,15,10,25,1,14,12,26,1,11,8,19,1,19,15,34,1,11,8,19,1,84,62,146,6,0,0,0,0,0,0,0,0,0,0,0,0,0,0,0,0,0,0,0,0,0,0,0,0,0,0,0,0,0,0,0,0,0,0,0,0,0,0,0,0,0,0,0,0,104,82,186,8,10 มิถุนายน 2561
94,94,57040103,บ้านป่าซาง,3,2,5,1,0,7,7,1,1,2,3,1,4,11,15,3,1,4,5,1,8,2,10,1,3,2,5,1,7,2,9,1,1,4,5,1,4,1,5,1,24,15,39,6,0,0,0,0,0,0,0,0,0,0,0,0,0,0,0,0,0,0,0,0,0,0,0,0,0,0,0,0,0,0,0,0,0,0,0,0,0,0,0,0,0,0,0,0,28,26,54,9,10 มิถุนายน 2561
95,95,57040105,บ้านป่าม่วง,2,3,5,1,4,4,8,1,4,2,6,1,10,9,19,3,2,4,6,1,3,3,6,1,2,5,7,1,3,2,5,1,4,2,6,1,3,6,9,1,17,22,39,6,0,0,0,0,0,0,0,0,0,0,0,0,0,0,0,0,0,0,0,0,0,0,0,0,0,0,0,0,0,0,0,0,0,0,0,0,0,0,0,0,0,0,0,0,27,31,58,9,10 มิถุนายน 2561
96,96,57040106,บ้านแม่ต๋ำกลาง,6,7,13,1,3,2,5,1,9,6,15,1,18,15,33,3,5,9,14,1,7,4,11,1,3,4,7,1,10,4,14,1,9,5,14,1,8,5,13,1,42,31,73,6,0,0,0,0,0,0,0,0,0,0,0,0,0,0,0,0,0,0,0,0,0,0,0,0,0,0,0,0,0,0,0,0,0,0,0,0,0,0,0,0,0,0,0,0,60,46,106,9,10 มิถุนายน 2561
97,97,57040107,บ้านบ่อแสง,0,0,0,0,12,9,21,1,4,6,10,1,16,15,31,2,4,9,13,1,6,6,12,1,14,8,22,1,8,10,18,1,11,7,18,1,4,16,20,1,47,56,103,6,0,0,0,0,0,0,0,0,0,0,0,0,0,0,0,0,0,0,0,0,0,0,0,0,0,0,0,0,0,0,0,0,0,0,0,0,0,0,0,0,0,0,0,0,63,71,134,8,10 มิถุนายน 2561
98,98,57040108,บ้านทุ่งเจ้า,0,0,0,0,4,3,7,1,3,4,7,1,7,7,14,2,5,5,10,1,6,1,7,1,2,3,5,1,10,4,14,1,7,6,13,1,9,3,12,1,39,22,61,6,0,0,0,0,0,0,0,0,0,0,0,0,0,0,0,0,0,0,0,0,0,0,0,0,0,0,0,0,0,0,0,0,0,0,0,0,0,0,0,0,0,0,0,0,46,29,75,8,10 มิถุนายน 2561
99,99,57040109,บ้านแม่เปา,0,0,0,0,15,8,23,1,5,19,24,1,20,27,47,2,13,10,23,1,9,8,17,1,5,13,18,1,9,5,14,1,13,11,24,1,18,9,27,1,67,56,123,6,0,0,0,0,0,0,0,0,0,0,0,0,0,0,0,0,0,0,0,0,0,0,0,0,0,0,0,0,0,0,0,0,0,0,0,0,0,0,0,0,0,0,0,0,87,83,170,8,10 มิถุนายน 2561
100,100,57040110,ชุมชนบ้านสบเปา,0,0,0,0,15,13,28,1,8,14,22,1,23,27,50,2,8,14,22,1,10,6,16,1,13,10,23,1,18,9,27,1,12,8,20,1,17,15,32,1,78,62,140,6,16,20,36,1,10,25,35,1,12,12,24,1,38,57,95,3,0,0,0,0,0,0,0,0,0,0,0,0,0,0,0,0,0,0,0,0,0,0,0,0,0,0,0,0,139,146,285,11,10 มิถุนายน 2561
101,101,57040111,แม่หลวงอุปถัมภ์ไทยคีรี,0,0,0,0,26,29,55,2,31,26,57,2,57,55,112,4,38,31,69,3,37,35,72,3,25,28,53,2,32,19,51,2,22,14,36,2,23,16,39,2,177,143,320,14,16,12,28,1,13,10,23,1,12,10,22,1,41,32,73,3,0,0,0,0,0,0,0,0,0,0,0,0,0,0,0,0,0,0,0,0,0,0,0,0,0,0,0,0,275,230,505,21,10 มิถุนายน 2561
102,102,57040112,บ้านกระแล,0,0,0,0,10,10,20,1,11,10,21,1,21,20,41,2,11,14,25,1,7,7,14,1,15,8,23,1,11,8,19,1,14,14,28,1,8,14,22,1,66,65,131,6,0,0,0,0,0,0,0,0,0,0,0,0,0,0,0,0,0,0,0,0,0,0,0,0,0,0,0,0,0,0,0,0,0,0,0,0,0,0,0,0,0,0,0,0,87,85,172,8,10 มิถุนายน 2561
103,103,57040113,บ้านสันหลวงสามัคคี,0,0,0,0,3,0,3,1,2,0,2,1,5,0,5,2,2,2,4,1,2,0,2,1,1,1,2,1,5,0,5,1,2,2,4,1,2,2,4,1,14,7,21,6,0,0,0,0,0,0,0,0,0,0,0,0,0,0,0,0,0,0,0,0,0,0,0,0,0,0,0,0,0,0,0,0,0,0,0,0,0,0,0,0,0,0,0,0,19,7,26,8,10 มิถุนายน 2561
104,104,57040114,ห้วยก้างราษฎร์วิทยา,0,0,0,0,16,13,29,1,10,4,14,1,26,17,43,2,9,4,13,1,5,9,14,1,5,8,13,1,9,14,23,1,11,7,18,1,10,10,20,1,49,52,101,6,0,0,0,0,0,0,0,0,0,0,0,0,0,0,0,0,0,0,0,0,0,0,0,0,0,0,0,0,0,0,0,0,0,0,0,0,0,0,0,0,0,0,0,0,75,69,144,8,10 มิถุนายน 2561
105,105,57040116,บ้านไม้ยามิตรภาพที่168,0,0,0,0,8,5,13,1,8,13,21,1,16,18,34,2,9,9,18,1,10,12,22,1,13,16,29,1,12,17,29,1,19,16,35,1,17,18,35,1,80,88,168,6,0,0,0,0,0,0,0,0,0,0,0,0,0,0,0,0,0,0,0,0,0,0,0,0,0,0,0,0,0,0,0,0,0,0,0,0,0,0,0,0,0,0,0,0,96,106,202,8,10 มิถุนายน 2561
106,106,57040117,บ้านร่องกอก,0,0,0,0,0,0,0,0,0,0,0,0,0,0,0,0,0,0,0,0,0,0,0,0,0,0,0,0,0,0,0,0,0,0,0,0,0,0,0,0,0,0,0,0,0,0,0,0,0,0,0,0,0,0,0,0,0,0,0,0,0,0,0,0,0,0,0,0,0,0,0,0,0,0,0,0,0,0,0,0,0,0,0,0,0,0,0,0,0,0,0,0,10 มิถุนายน 2561
107,107,57040118,บ้านห้วยเดื่อ,0,0,0,0,0,0,0,0,0,0,0,0,0,0,0,0,0,0,0,0,0,0,0,0,0,0,0,0,0,0,0,0,0,0,0,0,0,0,0,0,0,0,0,0,0,0,0,0,0,0,0,0,0,0,0,0,0,0,0,0,0,0,0,0,0,0,0,0,0,0,0,0,0,0,0,0,0,0,0,0,0,0,0,0,0,0,0,0,0,0,0,0,10 มิถุนายน 2561
108,108,57040119,"บ้านห้วยก้าง ""รัฐประชาสงเคราะห์""",0,0,0,0,9,5,14,1,7,3,10,1,16,8,24,2,9,7,16,1,5,8,13,1,8,1,9,1,1,0,1,1,9,4,13,1,2,8,10,1,34,28,62,6,0,0,0,0,0,0,0,0,0,0,0,0,0,0,0,0,0,0,0,0,0,0,0,0,0,0,0,0,0,0,0,0,0,0,0,0,0,0,0,0,0,0,0,0,50,36,86,8,10 มิถุนายน 2561
109,109,57040120,ขุนขวากพิทยา,0,0,0,0,24,14,38,2,32,18,50,2,56,32,88,4,22,18,40,2,19,31,50,2,24,24,48,2,35,16,51,2,24,20,44,2,18,20,38,2,142,129,271,12,15,27,42,2,35,30,65,3,24,58,82,3,74,115,189,8,0,0,0,0,0,0,0,0,0,0,0,0,0,0,0,0,0,0,0,0,0,0,0,0,0,0,0,0,272,276,548,24,10 มิถุนายน 2561
110,110,57040121,บ้านท่าข้าม,8,2,10,1,8,7,15,1,8,8,16,1,24,17,41,3,7,3,10,1,8,5,13,1,12,9,21,1,7,10,17,1,6,15,21,1,8,12,20,1,48,54,102,6,0,0,0,0,0,0,0,0,0,0,0,0,0,0,0,0,0,0,0,0,0,0,0,0,0,0,0,0,0,0,0,0,0,0,0,0,0,0,0,0,0,0,0,0,72,71,143,9,10 มิถุนายน 2561
111,111,57040122,ปางหัดสหศาสตร์,0,0,0,0,26,28,54,2,24,32,56,2,50,60,110,4,26,28,54,2,32,20,52,2,20,22,42,2,20,16,36,1,23,24,47,2,15,19,34,1,136,129,265,10,34,32,66,2,32,30,62,2,31,35,66,2,97,97,194,6,0,0,0,0,0,0,0,0,0,0,0,0,0,0,0,0,0,0,0,0,0,0,0,0,0,0,0,0,283,286,569,20,10 มิถุนายน 2561
112,112,57040123,บ้านโล๊ะวังผา,0,0,0,0,2,3,5,1,8,1,9,1,10,4,14,2,3,3,6,1,5,3,8,1,5,1,6,1,2,2,4,1,5,1,6,1,1,2,3,1,21,12,33,6,0,0,0,0,0,0,0,0,0,0,0,0,0,0,0,0,0,0,0,0,0,0,0,0,0,0,0,0,0,0,0,0,0,0,0,0,0,0,0,0,0,0,0,0,31,16,47,8,10 มิถุนายน 2561
113,113,57040124,บ้านผาแล,0,0,0,0,7,0,7,1,5,4,9,1,12,4,16,2,8,2,10,1,6,8,14,1,10,4,14,1,7,8,15,1,8,5,13,1,6,8,14,1,45,35,80,6,0,0,0,0,0,0,0,0,0,0,0,0,0,0,0,0,0,0,0,0,0,0,0,0,0,0,0,0,0,0,0,0,0,0,0,0,0,0,0,0,0,0,0,0,57,39,96,8,10 มิถุนายน 2561
114,114,57040125,บ้านห้วยหาน,0,0,0,0,23,35,58,2,29,28,57,2,52,63,115,4,23,22,45,2,18,26,44,2,22,16,38,2,17,18,35,2,18,17,35,2,10,14,24,2,108,113,221,12,11,10,21,2,14,9,23,2,12,16,28,2,37,35,72,6,0,0,0,0,0,0,0,0,0,0,0,0,0,0,0,0,0,0,0,0,0,0,0,0,0,0,0,0,197,211,408,22,10 มิถุนายน 2561
115,115,57040127,บ้านห้วยคุ,0,0,0,0,37,39,76,3,33,35,68,3,70,74,144,6,21,26,47,2,14,14,28,2,20,26,46,2,13,12,25,1,13,12,25,1,9,11,20,1,90,101,191,9,14,11,25,1,9,8,17,1,10,13,23,1,33,32,65,3,0,0,0,0,0,0,0,0,0,0,0,0,0,0,0,0,0,0,0,0,0,0,0,0,0,0,0,0,193,207,400,18,10 มิถุนายน 2561
116,116,57040128,ปอวิทยา,0,0,0,0,13,14,27,1,22,20,42,2,35,34,69,3,24,24,48,2,13,20,33,1,16,11,27,1,16,14,30,1,22,15,37,1,14,14,28,1,105,98,203,7,23,28,51,2,15,18,33,1,22,18,40,1,60,64,124,4,0,0,0,0,0,0,0,0,0,0,0,0,0,0,0,0,0,0,0,0,0,0,0,0,0,0,0,0,200,196,396,14,10 มิถุนายน 2561
117,117,57040129,บ้านหนองเตา,0,0,0,0,7,9,16,1,7,6,13,1,14,15,29,2,4,8,12,1,10,6,16,1,6,6,12,1,2,11,13,1,6,5,11,1,7,8,15,1,35,44,79,6,0,0,0,0,0,0,0,0,0,0,0,0,0,0,0,0,0,0,0,0,0,0,0,0,0,0,0,0,0,0,0,0,0,0,0,0,0,0,0,0,0,0,0,0,49,59,108,8,10 มิถุนายน 2561
118,118,57040132,ไตรมิตรวิทยา,0,0,0,0,20,20,40,1,10,17,27,1,30,37,67,2,15,21,36,1,22,12,34,1,19,7,26,1,20,15,35,1,16,11,27,1,7,10,17,1,99,76,175,6,6,13,19,1,10,9,19,1,9,10,19,1,25,32,57,3,0,0,0,0,0,0,0,0,0,0,0,0,0,0,0,0,0,0,0,0,0,0,0,0,0,0,0,0,154,145,299,11,10 มิถุนายน 2561
119,119,57040133,บรรพตวิทยา,3,3,6,1,24,21,45,1,14,22,36,2,41,46,87,4,30,19,49,2,16,21,37,2,17,20,37,1,20,17,37,2,19,12,31,1,21,17,38,2,123,106,229,10,24,24,48,2,12,18,30,1,10,15,25,1,46,57,103,4,0,0,0,0,0,0,0,0,0,0,0,0,0,0,0,0,0,0,0,0,0,0,0,0,0,0,0,0,210,209,419,18,10 มิถุนายน 2561
120,120,57040134,บ้านทรายทอง,0,0,0,0,14,11,25,1,20,28,48,1,34,39,73,2,22,6,28,2,17,16,33,2,20,15,35,2,15,10,25,1,9,16,25,1,10,15,25,1,93,78,171,9,0,0,0,0,0,0,0,0,0,0,0,0,0,0,0,0,0,0,0,0,0,0,0,0,0,0,0,0,0,0,0,0,0,0,0,0,0,0,0,0,0,0,0,0,127,117,244,11,10 มิถุนายน 2561
121,121,57040135,บ้านห้วยลึก,0,0,0,0,12,10,22,1,8,11,19,1,20,21,41,2,20,12,32,1,11,17,28,1,13,8,21,1,11,10,21,1,9,7,16,1,10,3,13,1,74,57,131,6,5,7,12,1,10,7,17,1,5,9,14,1,20,23,43,3,0,0,0,0,0,0,0,0,0,0,0,0,0,0,0,0,0,0,0,0,0,0,0,0,0,0,0,0,114,101,215,11,10 มิถุนายน 2561
122,122,57040136,บ้านหลู้,0,0,0,0,6,12,18,1,6,11,17,1,12,23,35,2,15,6,21,2,8,5,13,1,7,9,16,1,12,8,20,1,10,5,15,1,8,9,17,1,60,42,102,7,0,0,0,0,0,0,0,0,0,0,0,0,0,0,0,0,0,0,0,0,0,0,0,0,0,0,0,0,0,0,0,0,0,0,0,0,0,0,0,0,0,0,0,0,72,65,137,9,10 มิถุนายน 2561
123,123,57040137,บ้านไทยสมบูรณ์,0,0,0,0,13,9,22,1,7,13,20,1,20,22,42,2,10,9,19,1,10,6,16,1,6,7,13,1,10,3,13,1,7,9,16,1,8,9,17,1,51,43,94,6,0,0,0,0,0,0,0,0,0,0,0,0,0,0,0,0,0,0,0,0,0,0,0,0,0,0,0,0,0,0,0,0,0,0,0,0,0,0,0,0,0,0,0,0,71,65,136,8,10 มิถุนายน 2561
124,124,57040138,บ้านม่วงยาย,11,4,15,1,4,4,8,1,7,7,14,1,22,15,37,3,8,7,15,1,8,3,11,1,11,5,16,1,10,2,12,1,5,10,15,1,9,4,13,1,51,31,82,6,0,0,0,0,0,0,0,0,0,0,0,0,0,0,0,0,0,0,0,0,0,0,0,0,0,0,0,0,0,0,0,0,0,0,0,0,0,0,0,0,0,0,0,0,73,46,119,9,10 มิถุนายน 2561
125,125,57040139,บ้านแจมป๋อง,0,0,0,0,3,1,4,1,5,4,9,1,8,5,13,2,3,0,3,1,1,5,6,1,3,3,6,1,2,0,2,1,1,2,3,1,3,3,6,1,13,13,26,6,0,0,0,0,0,0,0,0,0,0,0,0,0,0,0,0,0,0,0,0,0,0,0,0,0,0,0,0,0,0,0,0,0,0,0,0,0,0,0,0,0,0,0,0,21,18,39,8,10 มิถุนายน 2561
126,126,57040140,อนุบาลเวียงแก่น,16,15,31,1,31,21,52,2,34,37,71,2,81,73,154,5,23,28,51,2,21,29,50,2,25,26,51,2,22,21,43,2,17,16,33,2,17,14,31,2,125,134,259,12,0,0,0,0,0,0,0,0,0,0,0,0,0,0,0,0,0,0,0,0,0,0,0,0,0,0,0,0,0,0,0,0,0,0,0,0,0,0,0,0,0,0,0,0,206,207,413,17,10 มิถุนายน 2561
127,127,57040141,บ้านทุ่งคำ,0,0,0,0,3,4,7,1,5,10,15,1,8,14,22,2,3,1,4,1,3,4,7,1,4,7,11,1,6,1,7,1,4,6,10,1,4,4,8,1,24,23,47,6,0,0,0,0,0,0,0,0,0,0,0,0,0,0,0,0,0,0,0,0,0,0,0,0,0,0,0,0,0,0,0,0,0,0,0,0,0,0,0,0,0,0,0,0,32,37,69,8,10 มิถุนายน 2561
128,128,57040142,บ้านห้วยเอียน,0,0,0,0,3,3,6,1,4,3,7,1,7,6,13,2,4,1,5,1,2,6,8,1,1,4,5,1,5,1,6,1,0,5,5,1,1,3,4,1,13,20,33,6,0,0,0,0,0,0,0,0,0,0,0,0,0,0,0,0,0,0,0,0,0,0,0,0,0,0,0,0,0,0,0,0,0,0,0,0,0,0,0,0,0,0,0,0,20,26,46,8,10 มิถุนายน 2561
129,129,57040143,บ้านห้วยโป่ง,0,0,0,0,3,5,8,1,8,0,8,1,11,5,16,2,4,4,8,1,3,6,9,1,5,2,7,1,3,3,6,1,5,6,11,1,3,3,6,1,23,24,47,6,0,0,0,0,0,0,0,0,0,0,0,0,0,0,0,0,0,0,0,0,0,0,0,0,0,0,0,0,0,0,0,0,0,0,0,0,0,0,0,0,0,0,0,0,34,29,63,8,10 มิถุนายน 2561
130,130,57040144,อนุบาลบ้านพระเนตร(แก้วสุวรรณประสิทธิ์),0,0,0,0,13,8,21,1,16,8,24,1,29,16,45,2,9,16,25,1,14,15,29,1,24,15,39,2,10,13,23,1,12,12,24,1,14,8,22,1,83,79,162,7,4,11,15,1,8,11,19,1,6,14,20,1,18,36,54,3,0,0,0,0,0,0,0,0,0,0,0,0,0,0,0,0,0,0,0,0,0,0,0,0,0,0,0,0,130,131,261,12,10 มิถุนายน 2561
131,131,57040146,ชุมชนบ้านต้าตลาด,0,0,0,0,5,6,11,1,6,4,10,1,11,10,21,2,11,9,20,1,11,6,17,1,9,9,18,1,3,12,15,1,11,13,24,1,7,8,15,1,52,57,109,6,12,25,37,1,20,6,26,1,14,10,24,1,46,41,87,3,0,0,0,0,0,0,0,0,0,0,0,0,0,0,0,0,0,0,0,0,0,0,0,0,0,0,0,0,109,108,217,11,10 มิถุนายน 2561
132,132,57040147,บ้านต้าหลวง(ต้าประชานุกูล),0,0,0,0,3,2,5,1,5,2,7,1,8,4,12,2,4,4,8,1,4,6,10,1,5,5,10,1,13,6,19,1,14,7,21,1,6,9,15,1,46,37,83,6,0,0,0,0,0,0,0,0,0,0,0,0,0,0,0,0,0,0,0,0,0,0,0,0,0,0,0,0,0,0,0,0,0,0,0,0,0,0,0,0,0,0,0,0,54,41,95,8,10 มิถุนายน 2561
133,133,57040148,บ้านต้านาล้อม,0,0,0,0,2,2,4,1,13,6,19,1,15,8,23,2,4,4,8,1,6,7,13,1,6,1,7,1,6,5,11,1,4,6,10,1,10,10,20,1,36,33,69,6,0,0,0,0,0,0,0,0,0,0,0,0,0,0,0,0,0,0,0,0,0,0,0,0,0,0,0,0,0,0,0,0,0,0,0,0,0,0,0,0,0,0,0,0,51,41,92,8,10 มิถุนายน 2561
134,134,57040149,บ้านร่องขุ่นป่าข่า,0,0,0,0,6,5,11,1,0,7,7,1,6,12,18,2,2,4,6,1,3,3,6,1,5,2,7,1,1,4,5,1,3,4,7,1,3,5,8,1,17,22,39,6,0,0,0,0,0,0,0,0,0,0,0,0,0,0,0,0,0,0,0,0,0,0,0,0,0,0,0,0,0,0,0,0,0,0,0,0,0,0,0,0,0,0,0,0,23,34,57,8,10 มิถุนายน 2561
135,135,57040150,บ้านห้วยห้อม(ราษฎร์สามัคคี),0,0,0,0,4,3,7,1,2,2,4,1,6,5,11,2,2,2,4,1,2,3,5,1,3,2,5,1,3,3,6,1,1,1,2,1,2,0,2,1,13,11,24,6,0,0,0,0,0,0,0,0,0,0,0,0,0,0,0,0,0,0,0,0,0,0,0,0,0,0,0,0,0,0,0,0,0,0,0,0,0,0,0,0,0,0,0,0,19,16,35,8,10 มิถุนายน 2561
136,136,57040151,อนุบาลขุนตาล(ป่าตาลเจดีย์),6,4,10,1,3,9,12,1,5,7,12,1,14,20,34,3,2,3,5,1,6,4,10,1,9,11,20,1,2,8,10,1,10,10,20,1,6,7,13,1,35,43,78,6,0,0,0,0,0,0,0,0,0,0,0,0,0,0,0,0,0,0,0,0,0,0,0,0,0,0,0,0,0,0,0,0,0,0,0,0,0,0,0,0,0,0,0,0,49,63,112,9,10 มิถุนายน 2561
137,137,57040153,บ้านห้วยสัก(ประชานุกูล),0,0,0,0,3,6,9,1,3,7,10,1,6,13,19,2,0,6,6,1,5,3,8,1,6,2,8,1,1,0,1,1,7,4,11,1,1,6,7,1,20,21,41,6,0,0,0,0,0,0,0,0,0,0,0,0,0,0,0,0,0,0,0,0,0,0,0,0,0,0,0,0,0,0,0,0,0,0,0,0,0,0,0,0,0,0,0,0,26,34,60,8,10 มิถุนายน 2561
138,138,57040154,อนุบาลยางฮอม,0,0,0,0,2,1,3,1,3,9,12,1,5,10,15,2,6,6,12,1,2,9,11,1,8,5,13,1,6,4,10,1,10,11,21,1,6,9,15,1,38,44,82,6,0,0,0,0,0,0,0,0,0,0,0,0,0,0,0,0,0,0,0,0,0,0,0,0,0,0,0,0,0,0,0,0,0,0,0,0,0,0,0,0,0,0,0,0,43,54,97,8,10 มิถุนายน 2561
139,139,57040155,บ้านพญาพิภักดิ์,0,0,0,0,5,9,14,1,8,9,17,1,13,18,31,2,6,5,11,1,4,2,6,1,10,7,17,1,5,5,10,1,2,8,10,1,5,2,7,1,32,29,61,6,7,8,15,1,3,1,4,1,2,0,2,1,12,9,21,3,0,0,0,0,0,0,0,0,0,0,0,0,0,0,0,0,0,0,0,0,0,0,0,0,0,0,0,0,57,56,113,11,10 มิถุนายน 2561
140,140,57040156,บ้านทุ่งน้ำแพร่ป่าบง,0,0,0,0,2,4,6,1,2,4,6,1,4,8,12,2,4,2,6,1,4,0,4,1,5,6,11,1,5,3,8,1,7,2,9,1,7,5,12,1,32,18,50,6,0,0,0,0,0,0,0,0,0,0,0,0,0,0,0,0,0,0,0,0,0,0,0,0,0,0,0,0,0,0,0,0,0,0,0,0,0,0,0,0,0,0,0,0,36,26,62,8,10 มิถุนายน 2561
141,141,57040157,บ้านชมภู,0,0,0,0,4,6,10,1,3,4,7,1,7,10,17,2,4,9,13,1,5,4,9,1,9,5,14,1,5,5,10,1,7,3,10,1,8,9,17,1,38,35,73,6,0,0,0,0,0,0,0,0,0,0,0,0,0,0,0,0,0,0,0,0,0,0,0,0,0,0,0,0,0,0,0,0,0,0,0,0,0,0,0,0,0,0,0,0,45,45,90,8,10 มิถุนายน 2561
142,142,57040158,บ้านป่าแดงห้วยหลวง,0,0,0,0,1,8,9,1,5,4,9,1,6,12,18,2,5,4,9,1,6,11,17,1,5,5,10,1,5,5,10,1,11,5,16,1,7,7,14,1,39,37,76,6,2,3,5,1,5,6,11,1,7,7,14,1,14,16,30,3,0,0,0,0,0,0,0,0,0,0,0,0,0,0,0,0,0,0,0,0,0,0,0,0,0,0,0,0,59,65,124,11,10 มิถุนายน 2561
143,143,57040159,เพียงหลวง 16 สาขาห้องเรียนบ้านร่มโพธิ์ทอง,0,0,0,0,2,5,7,1,6,8,14,1,8,13,21,2,5,0,5,1,2,4,6,1,1,0,1,1,0,0,0,0,0,1,1,1,1,1,2,1,9,6,15,5,0,0,0,0,0,0,0,0,0,0,0,0,0,0,0,0,0,0,0,0,0,0,0,0,0,0,0,0,0,0,0,0,0,0,0,0,0,0,0,0,0,0,0,0,17,19,36,7,10 มิถุนายน 2561
144,144,57040160,เพียงหลวง 16 ห้องเรียนสาขาบ้านเล่าตาขาว,0,0,0,0,14,8,22,1,3,9,12,1,17,17,34,2,8,4,12,1,2,8,10,1,8,3,11,1,4,4,8,1,1,0,1,1,3,3,6,1,26,22,48,6,0,0,0,0,0,0,0,0,0,0,0,0,0,0,0,0,0,0,0,0,0,0,0,0,0,0,0,0,0,0,0,0,0,0,0,0,0,0,0,0,0,0,0,0,43,39,82,8,10 มิถุนายน 2561
145,145,57040161,สมถวิลจินตมัยบ้านห้วยแล้ง(ต.ช.ด.อนุสรณ์),12,7,19,1,11,15,26,1,5,6,11,1,28,28,56,3,4,17,21,1,8,10,18,1,1,3,4,1,4,9,13,1,10,3,13,1,7,1,8,1,34,43,77,6,0,0,0,0,0,0,0,0,0,0,0,0,0,0,0,0,0,0,0,0,0,0,0,0,0,0,0,0,0,0,0,0,0,0,0,0,0,0,0,0,0,0,0,0,62,71,133,9,10 มิถุนายน 2561
