,0,1,2,3,4,5,6,7,8,9,10,11,12,13,14,15,16,17,18,19,20,21,22,23,24,25,26,27,28,29,30,31,32,33,34,35,36,37,38,39,40,41,42,43,44,45,46,47,48,49,50,51,52,53,54,55,56,57,58,59,60,61,62,63,64,65,66,67,68,69,70,71,72,73,74,75,76,77,78,79,80,81,82,83,84,85,86,87,88,89,90,91,92,93,94,95
0,ลำดับ,รหัส SMIS,โรงเรียน,อ.3 ขวบ ชาย,อ.3 ขวบ หญิง,รวมอ.3 ขวบ,อ.3 ขวบ ห้อง,อ.1 ชาย,อ.1 หญิง,รวมอ.1,อ.1 ห้อง,อ.2 ชาย,อ.2 หญิง,รวมอ.2,อ.2 ห้อง,รวมก่อนประถม ชาย,รวมก่อนประถม หญิง,รวมก่อนประถม,รวมห้องก่อนประถม,ป.1 ชาย,ป.1 หญิง,รวมป.1,ป.1 ห้อง,ป.2 ชาย,ป.2 หญิง,รวมป.2,ป.2 ห้อง,ป.3 ชาย,ป.3 หญิง,รวมป.3,ป.3 ห้อง,ป.4 ชาย,ป.4 หญิง,รวมป.4,ป.4 ห้อง,ป.5 ชาย,ป.5 หญิง,รวมป.5,ป.5 ห้อง,ป.6 ชาย,ป.6 หญิง,รวมป.6,ป.6 ห้อง,รวมประถม ชาย,รวมประถม หญิง,รวมประถม,รวมห้องประถม,ม.1 ชาย,ม.1 หญิง,รวมม.1,ม.1 ห้อง,ม.2 ชาย,ม.2 หญิง,รวมม.2,ม.2 ห้อง,ม.3 ชาย,ม.3 หญิง,รวมม.3,ม.3 ห้อง,รวมม.ต้น ชาย,รวมม.ต้น หญิง,รวมม.ต้น,รวมห้องม.ต้น,ม.4 ชาย,ม.4 หญิง,รวมม.4,ม.4 ห้อง,ม.5 ชาย,ม.5 หญิง,รวมม.5,ม.5 ห้อง,ม.6 ชาย,ม.6 หญิง,รวมม.6,ม.6 ห้อง,ปวช.1 ชาย,ปวช.1 หญิง,รวมปวช.1,ปวช.1 ห้อง,ปวช.2 ชาย,ปวช.2 หญิง,รวมปวช.2,ปวช.2 ห้อง,ปวช.3 ชาย,ปวช.3 หญิง,รวมปวช.3,ปวช.3 ห้อง,รวมม.ปลายและเทียบเท่า ชาย,รวมม.ปลายและเทียบเท่า หญิง,รวมม.ปลายและเทียบเท่า,รวมห้องม.ปลายและเทียบเท่า,รวมทั้งหมด ชาย,รวมทั้งหมด หญิง,รวมทั้งหมด,รวมห้องทั้งหมด,ข้อมูล ณ วันที่
1,1,62020001,บ้านคลองใหญ่ใต้,0,0,0,0,1,3,4,1,1,2,3,1,2,5,7,2,1,2,3,1,0,6,6,1,3,1,4,1,1,2,3,1,6,1,7,1,3,0,3,1,14,12,26,6,0,0,0,0,0,0,0,0,0,0,0,0,0,0,0,0,0,0,0,0,0,0,0,0,0,0,0,0,0,0,0,0,0,0,0,0,0,0,0,0,0,0,0,0,16,17,33,8,10 มิถุนายน 2561
2,2,62020002,รอดนิลวิทยา,0,0,0,0,10,8,18,1,14,8,22,1,24,16,40,2,8,9,17,1,7,6,13,1,6,6,12,1,11,5,16,1,11,6,17,1,11,9,20,1,54,41,95,6,0,0,0,0,0,0,0,0,0,0,0,0,0,0,0,0,0,0,0,0,0,0,0,0,0,0,0,0,0,0,0,0,0,0,0,0,0,0,0,0,0,0,0,0,78,57,135,8,10 มิถุนายน 2561
3,3,62020003,บ้านใหม่เจริญสุข สาขาบ้านคลองปิ่นโตประชาสามัคคี,2,2,4,1,4,6,10,1,1,1,2,1,7,9,16,3,1,2,3,1,1,1,2,1,3,3,6,1,4,2,6,1,1,3,4,1,2,4,6,1,12,15,27,6,0,0,0,0,0,0,0,0,0,0,0,0,0,0,0,0,0,0,0,0,0,0,0,0,0,0,0,0,0,0,0,0,0,0,0,0,0,0,0,0,0,0,0,0,19,24,43,9,10 มิถุนายน 2561
4,4,62020004,บ้านสุขสำราญ,4,4,8,1,6,5,11,1,3,8,11,1,13,17,30,3,7,5,12,1,7,3,10,1,11,10,21,1,9,8,17,1,6,6,12,1,6,10,16,1,46,42,88,6,15,18,33,1,35,13,48,2,14,22,36,2,64,53,117,5,0,0,0,0,0,0,0,0,0,0,0,0,0,0,0,0,0,0,0,0,0,0,0,0,0,0,0,0,123,112,235,14,10 มิถุนายน 2561
5,5,62020005,บ้านคลองพลูประชาสรรค์,2,1,3,1,5,2,7,1,2,6,8,1,9,9,18,3,4,5,9,1,9,2,11,1,12,7,19,1,5,5,10,1,8,6,14,1,2,5,7,1,40,30,70,6,0,0,0,0,0,0,0,0,0,0,0,0,0,0,0,0,0,0,0,0,0,0,0,0,0,0,0,0,0,0,0,0,0,0,0,0,0,0,0,0,0,0,0,0,49,39,88,9,10 มิถุนายน 2561
6,6,62020006,อนุบาลคลองลาน,0,0,0,0,32,37,69,3,35,28,63,3,67,65,132,6,40,43,83,3,39,41,80,3,36,40,76,3,38,46,84,3,39,42,81,3,53,34,87,3,245,246,491,18,0,0,0,0,0,0,0,0,0,0,0,0,0,0,0,0,0,0,0,0,0,0,0,0,0,0,0,0,0,0,0,0,0,0,0,0,0,0,0,0,0,0,0,0,312,311,623,24,10 มิถุนายน 2561
7,7,62020007,บ้านบึงหล่ม,0,0,0,0,4,8,12,1,6,4,10,1,10,12,22,2,8,9,17,1,7,5,12,1,13,13,26,1,11,6,17,1,6,3,9,1,8,1,9,1,53,37,90,6,19,14,33,1,15,10,25,1,11,4,15,1,45,28,73,3,0,0,0,0,0,0,0,0,0,0,0,0,0,0,0,0,0,0,0,0,0,0,0,0,0,0,0,0,108,77,185,11,10 มิถุนายน 2561
8,8,62020008,บ้านมอแดง(สิงห์ทองประชาสรรค์),1,1,2,1,4,1,5,1,4,1,5,1,9,3,12,3,4,4,8,1,4,5,9,1,1,2,3,1,2,1,3,1,2,4,6,1,1,3,4,1,14,19,33,6,0,0,0,0,0,0,0,0,0,0,0,0,0,0,0,0,0,0,0,0,0,0,0,0,0,0,0,0,0,0,0,0,0,0,0,0,0,0,0,0,0,0,0,0,23,22,45,9,10 มิถุนายน 2561
9,9,62020009,บ้านท่าช้าง,0,0,0,0,6,5,11,1,8,10,18,1,14,15,29,2,12,6,18,1,12,3,15,1,10,7,17,1,6,7,13,1,7,9,16,1,3,11,14,1,50,43,93,6,0,0,0,0,0,0,0,0,0,0,0,0,0,0,0,0,0,0,0,0,0,0,0,0,0,0,0,0,0,0,0,0,0,0,0,0,0,0,0,0,0,0,0,0,64,58,122,8,10 มิถุนายน 2561
10,10,62020010,บ้านใหม่เจริญสุข,7,6,13,1,5,5,10,1,7,2,9,1,19,13,32,3,5,3,8,1,6,10,16,1,2,6,8,1,9,7,16,1,0,4,4,1,5,11,16,1,27,41,68,6,13,11,24,1,9,11,20,1,6,5,11,1,28,27,55,3,0,0,0,0,0,0,0,0,0,0,0,0,0,0,0,0,0,0,0,0,0,0,0,0,0,0,0,0,74,81,155,12,10 มิถุนายน 2561
11,11,62020011,บ้านพรหมมาสามัคคี,0,0,0,0,7,13,20,1,21,8,29,1,28,21,49,2,9,10,19,1,8,9,17,1,6,7,13,1,13,12,25,1,11,3,14,1,9,11,20,1,56,52,108,6,0,0,0,0,0,0,0,0,0,0,0,0,0,0,0,0,0,0,0,0,0,0,0,0,0,0,0,0,0,0,0,0,0,0,0,0,0,0,0,0,0,0,0,0,84,73,157,8,10 มิถุนายน 2561
12,12,62020012,บ้านคลองน้ำไหลใต้,0,0,0,0,8,5,13,1,8,10,18,1,16,15,31,2,8,4,12,1,8,6,14,1,10,12,22,1,5,9,14,1,10,11,21,1,14,10,24,1,55,52,107,6,15,7,22,1,6,9,15,1,8,6,14,1,29,22,51,3,0,0,0,0,0,0,0,0,0,0,0,0,0,0,0,0,0,0,0,0,0,0,0,0,0,0,0,0,100,89,189,11,10 มิถุนายน 2561
13,13,62020013,บ้านโชคชัยพัฒนา,0,0,0,0,10,7,17,1,9,6,15,1,19,13,32,2,11,6,17,1,4,9,13,1,12,7,19,1,7,6,13,1,9,11,20,1,7,12,19,1,50,51,101,6,14,18,32,1,12,8,20,1,13,10,23,1,39,36,75,3,0,0,0,0,0,0,0,0,0,0,0,0,0,0,0,0,0,0,0,0,0,0,0,0,0,0,0,0,108,100,208,11,10 มิถุนายน 2561
14,14,62020014,บ้านทะเลพัฒนา,0,0,0,0,4,9,13,1,3,1,4,1,7,10,17,2,4,4,8,1,3,1,4,1,6,6,12,1,4,2,6,1,3,2,5,1,4,2,6,1,24,17,41,6,0,0,0,0,0,0,0,0,0,0,0,0,0,0,0,0,0,0,0,0,0,0,0,0,0,0,0,0,0,0,0,0,0,0,0,0,0,0,0,0,0,0,0,0,31,27,58,8,10 มิถุนายน 2561
15,15,62020015,บ้านท่าข้ามสามัคคี,0,0,0,0,11,10,21,1,10,6,16,1,21,16,37,2,9,11,20,1,3,5,8,1,4,5,9,1,6,8,14,1,6,9,15,1,7,13,20,1,35,51,86,6,0,0,0,0,0,0,0,0,0,0,0,0,0,0,0,0,0,0,0,0,0,0,0,0,0,0,0,0,0,0,0,0,0,0,0,0,0,0,0,0,0,0,0,0,56,67,123,8,10 มิถุนายน 2561
16,16,62020016,ชุมชนบ้านคลองลาน,0,0,0,0,39,45,84,3,47,63,110,3,86,108,194,6,49,56,105,3,38,47,85,3,45,45,90,3,55,41,96,3,41,49,90,3,38,50,88,3,266,288,554,18,0,0,0,0,0,0,0,0,0,0,0,0,0,0,0,0,0,0,0,0,0,0,0,0,0,0,0,0,0,0,0,0,0,0,0,0,0,0,0,0,0,0,0,0,352,396,748,24,10 มิถุนายน 2561
17,17,62020017,บ้านปากคลองลาน,0,0,0,0,6,3,9,1,6,13,19,1,12,16,28,2,9,7,16,1,14,8,22,1,14,8,22,1,8,9,17,1,9,11,20,1,13,11,24,1,67,54,121,6,10,9,19,1,11,10,21,1,18,7,25,1,39,26,65,3,0,0,0,0,0,0,0,0,0,0,0,0,0,0,0,0,0,0,0,0,0,0,0,0,0,0,0,0,118,96,214,11,10 มิถุนายน 2561
18,18,62020018,บ้านใหม่ธงชัย,0,0,0,0,11,10,21,1,16,14,30,1,27,24,51,2,10,11,21,1,16,11,27,1,21,11,32,1,16,9,25,1,11,9,20,1,5,7,12,1,79,58,137,6,0,0,0,0,0,0,0,0,0,0,0,0,0,0,0,0,0,0,0,0,0,0,0,0,0,0,0,0,0,0,0,0,0,0,0,0,0,0,0,0,0,0,0,0,106,82,188,8,10 มิถุนายน 2561
19,19,62020019,บ้านแปลงสี่,0,0,0,0,14,9,23,1,11,14,25,1,25,23,48,2,3,7,10,1,12,10,22,1,17,10,27,1,8,7,15,1,11,16,27,1,8,8,16,1,59,58,117,6,15,5,20,1,12,15,27,1,12,1,13,1,39,21,60,3,0,0,0,0,0,0,0,0,0,0,0,0,0,0,0,0,0,0,0,0,0,0,0,0,0,0,0,0,123,102,225,11,10 มิถุนายน 2561
20,20,62020020,บ้านคลองเตย,0,0,0,0,9,3,12,1,4,16,20,1,13,19,32,2,11,11,22,1,10,9,19,1,8,6,14,1,12,8,20,1,9,8,17,1,10,6,16,1,60,48,108,6,0,0,0,0,0,0,0,0,0,0,0,0,0,0,0,0,0,0,0,0,0,0,0,0,0,0,0,0,0,0,0,0,0,0,0,0,0,0,0,0,0,0,0,0,73,67,140,8,10 มิถุนายน 2561
21,21,62020021,บ้านโป่งน้ำร้อน,0,0,0,0,18,11,29,1,15,15,30,1,33,26,59,2,17,7,24,1,19,10,29,1,10,9,19,1,15,11,26,1,14,16,30,1,8,16,24,1,83,69,152,6,12,5,17,1,12,13,25,1,13,11,24,1,37,29,66,3,0,0,0,0,0,0,0,0,0,0,0,0,0,0,0,0,0,0,0,0,0,0,0,0,0,0,0,0,153,124,277,11,10 มิถุนายน 2561
22,22,62020022,บ้านคลองไพร,0,0,0,0,4,5,9,1,6,5,11,1,10,10,20,2,6,2,8,1,8,4,12,1,12,3,15,1,6,4,10,1,4,4,8,1,4,10,14,1,40,27,67,6,0,0,0,0,0,0,0,0,0,0,0,0,0,0,0,0,0,0,0,0,0,0,0,0,0,0,0,0,0,0,0,0,0,0,0,0,0,0,0,0,0,0,0,0,50,37,87,8,10 มิถุนายน 2561
23,23,62020023,บ้านคลองสมบูรณ์,0,0,0,0,2,2,4,1,3,1,4,1,5,3,8,2,0,0,0,0,2,3,5,1,4,7,11,1,3,1,4,1,3,1,4,1,6,4,10,1,18,16,34,5,0,0,0,0,0,0,0,0,0,0,0,0,0,0,0,0,0,0,0,0,0,0,0,0,0,0,0,0,0,0,0,0,0,0,0,0,0,0,0,0,0,0,0,0,23,19,42,7,10 มิถุนายน 2561
24,24,62020024,บ้านคลองสมบูรณ์ สาขาบ้านคลองสมุย,0,0,0,0,3,1,4,1,5,4,9,1,8,5,13,2,3,0,3,1,6,1,7,1,1,1,2,1,2,2,4,1,4,3,7,1,5,4,9,1,21,11,32,6,0,0,0,0,0,0,0,0,0,0,0,0,0,0,0,0,0,0,0,0,0,0,0,0,0,0,0,0,0,0,0,0,0,0,0,0,0,0,0,0,0,0,0,0,29,16,45,8,10 มิถุนายน 2561
25,25,62020025,บ้านคลองมดแดง,0,0,0,0,5,5,10,1,7,4,11,1,12,9,21,2,11,10,21,1,5,4,9,1,8,9,17,1,8,5,13,1,5,6,11,1,4,6,10,1,41,40,81,6,6,8,14,1,5,10,15,1,13,8,21,1,24,26,50,3,0,0,0,0,0,0,0,0,0,0,0,0,0,0,0,0,0,0,0,0,0,0,0,0,0,0,0,0,77,75,152,11,10 มิถุนายน 2561
26,26,62020026,บ้านคลองมดแดง สาขาบ้านใหม่ชุมนุมไทร,0,0,0,0,7,9,16,1,13,8,21,1,20,17,37,2,11,8,19,1,9,6,15,1,8,14,22,1,4,8,12,1,3,7,10,1,3,4,7,1,38,47,85,6,0,0,0,0,0,0,0,0,0,0,0,0,0,0,0,0,0,0,0,0,0,0,0,0,0,0,0,0,0,0,0,0,0,0,0,0,0,0,0,0,0,0,0,0,58,64,122,8,10 มิถุนายน 2561
27,27,62020027,บ้านคลองมดแดง สาขาป่าคา,0,0,0,0,23,8,31,1,16,22,38,1,39,30,69,2,21,20,41,1,10,10,20,1,6,11,17,1,8,10,18,1,6,8,14,1,10,8,18,1,61,67,128,6,0,0,0,0,0,0,0,0,0,0,0,0,0,0,0,0,0,0,0,0,0,0,0,0,0,0,0,0,0,0,0,0,0,0,0,0,0,0,0,0,0,0,0,0,100,97,197,8,10 มิถุนายน 2561
28,28,62020028,บ้านท่ามะเขือ,0,0,0,0,4,7,11,1,8,5,13,1,12,12,24,2,3,4,7,1,8,10,18,1,7,5,12,1,3,5,8,1,7,3,10,1,4,6,10,1,32,33,65,6,0,0,0,0,0,0,0,0,0,0,0,0,0,0,0,0,0,0,0,0,0,0,0,0,0,0,0,0,0,0,0,0,0,0,0,0,0,0,0,0,0,0,0,0,44,45,89,8,10 มิถุนายน 2561
29,29,62020029,บ้านเพชรนิยม,0,0,0,0,4,14,18,1,7,6,13,1,11,20,31,2,6,8,14,1,11,8,19,1,2,10,12,1,6,8,14,1,5,4,9,1,9,6,15,1,39,44,83,6,0,0,0,0,0,0,0,0,0,0,0,0,0,0,0,0,0,0,0,0,0,0,0,0,0,0,0,0,0,0,0,0,0,0,0,0,0,0,0,0,0,0,0,0,50,64,114,8,10 มิถุนายน 2561
30,30,62020030,บ้านมอสมบูรณ์มิตรภาพที่ 189,0,0,0,0,7,7,14,1,10,12,22,1,17,19,36,2,7,8,15,1,6,8,14,1,12,12,24,1,10,4,14,1,8,15,23,1,14,9,23,1,57,56,113,6,16,6,22,1,5,5,10,1,7,10,17,1,28,21,49,3,0,0,0,0,0,0,0,0,0,0,0,0,0,0,0,0,0,0,0,0,0,0,0,0,0,0,0,0,102,96,198,11,10 มิถุนายน 2561
31,31,62020031,บ้านหนองปรือ,0,0,0,0,7,4,11,1,4,9,13,1,11,13,24,2,5,4,9,1,5,5,10,1,8,4,12,1,8,3,11,1,3,6,9,1,4,6,10,1,33,28,61,6,0,0,0,0,0,0,0,0,0,0,0,0,0,0,0,0,0,0,0,0,0,0,0,0,0,0,0,0,0,0,0,0,0,0,0,0,0,0,0,0,0,0,0,0,44,41,85,8,10 มิถุนายน 2561
32,32,62020032,บ้านคลองแขยงวิทยา,0,0,0,0,8,8,16,1,10,7,17,1,18,15,33,2,9,8,17,1,8,14,22,1,6,7,13,1,13,8,21,1,9,7,16,1,8,10,18,1,53,54,107,6,15,5,20,1,8,9,17,1,7,6,13,1,30,20,50,3,0,0,0,0,0,0,0,0,0,0,0,0,0,0,0,0,0,0,0,0,0,0,0,0,0,0,0,0,101,89,190,11,10 มิถุนายน 2561
33,33,62020033,สักงามประชาสรรค์(เกษตรศาสตร์อนุสรณ์37),0,0,0,0,15,8,23,1,5,9,14,1,20,17,37,2,6,11,17,1,11,7,18,1,6,6,12,1,10,3,13,1,11,10,21,1,6,7,13,1,50,44,94,6,6,6,12,1,9,9,18,1,5,5,10,1,20,20,40,3,0,0,0,0,0,0,0,0,0,0,0,0,0,0,0,0,0,0,0,0,0,0,0,0,0,0,0,0,90,81,171,11,10 มิถุนายน 2561
34,34,62020034,บ้านปางลับแล,3,3,6,1,4,0,4,1,0,1,1,1,7,4,11,3,5,7,12,1,1,3,4,1,3,1,4,1,3,1,4,1,5,4,9,1,6,4,10,1,23,20,43,6,0,0,0,0,0,0,0,0,0,0,0,0,0,0,0,0,0,0,0,0,0,0,0,0,0,0,0,0,0,0,0,0,0,0,0,0,0,0,0,0,0,0,0,0,30,24,54,9,10 มิถุนายน 2561
35,35,62020035,,0,0,0,0,0,0,0,0,0,0,0,0,0,0,0,0,0,0,0,0,0,0,0,0,0,0,0,0,0,0,0,0,0,0,0,0,0,0,0,0,0,0,0,0,0,0,0,0,0,0,0,0,0,0,0,0,0,0,0,0,0,0,0,0,0,0,0,0,0,0,0,0,0,0,0,0,0,0,0,0,0,0,0,0,0,0,0,0,0,0,0,0,10 มิถุนายน 2561
36,36,62020036,บ้านโนนตารอด,0,0,0,0,4,1,5,1,2,9,11,1,6,10,16,2,4,2,6,1,5,3,8,1,6,6,12,1,6,2,8,1,12,4,16,1,3,4,7,1,36,21,57,6,0,0,0,0,0,0,0,0,0,0,0,0,0,0,0,0,0,0,0,0,0,0,0,0,0,0,0,0,0,0,0,0,0,0,0,0,0,0,0,0,0,0,0,0,42,31,73,8,10 มิถุนายน 2561
37,37,62020037,บ้านเกาะตาล,2,0,2,1,6,5,11,1,2,1,3,1,10,6,16,3,3,3,6,1,3,4,7,1,6,5,11,1,1,2,3,1,5,4,9,1,2,2,4,1,20,20,40,6,0,0,0,0,0,0,0,0,0,0,0,0,0,0,0,0,0,0,0,0,0,0,0,0,0,0,0,0,0,0,0,0,0,0,0,0,0,0,0,0,0,0,0,0,30,26,56,9,10 มิถุนายน 2561
38,38,62020038,ชุมชนบ้านโค้งไผ่,0,0,0,0,10,2,12,1,5,6,11,1,15,8,23,2,13,7,20,1,13,7,20,1,10,7,17,1,6,8,14,1,9,8,17,1,6,7,13,1,57,44,101,6,0,0,0,0,0,0,0,0,0,0,0,0,0,0,0,0,0,0,0,0,0,0,0,0,0,0,0,0,0,0,0,0,0,0,0,0,0,0,0,0,0,0,0,0,72,52,124,8,10 มิถุนายน 2561
39,39,62020039,บ้านหัวรัง,7,3,10,1,7,6,13,1,8,8,16,1,22,17,39,3,11,10,21,1,12,10,22,1,12,8,20,1,10,6,16,1,15,8,23,1,5,4,9,1,65,46,111,6,0,0,0,0,0,0,0,0,0,0,0,0,0,0,0,0,0,0,0,0,0,0,0,0,0,0,0,0,0,0,0,0,0,0,0,0,0,0,0,0,0,0,0,0,87,63,150,9,10 มิถุนายน 2561
40,40,62020040,บ้านวังโป่งพัฒนา,0,0,0,0,4,4,8,1,3,7,10,1,7,11,18,2,3,7,10,1,3,3,6,1,5,4,9,1,9,1,10,1,7,6,13,1,5,5,10,1,32,26,58,6,0,0,0,0,0,0,0,0,0,0,0,0,0,0,0,0,0,0,0,0,0,0,0,0,0,0,0,0,0,0,0,0,0,0,0,0,0,0,0,0,0,0,0,0,39,37,76,8,10 มิถุนายน 2561
41,41,62020042,บ้านสระตาพรม,5,0,5,1,7,6,13,1,4,8,12,1,16,14,30,3,4,3,7,1,4,2,6,1,3,1,4,1,3,3,6,1,1,4,5,1,2,3,5,1,17,16,33,6,0,0,0,0,0,0,0,0,0,0,0,0,0,0,0,0,0,0,0,0,0,0,0,0,0,0,0,0,0,0,0,0,0,0,0,0,0,0,0,0,0,0,0,0,33,30,63,9,10 มิถุนายน 2561
42,42,62020043,บ้านดงดำมิตรภาพที่ 88,0,6,6,1,4,5,9,1,2,1,3,1,6,12,18,3,4,7,11,1,3,5,8,1,5,6,11,1,6,3,9,1,5,4,9,1,3,5,8,1,26,30,56,6,0,0,0,0,0,0,0,0,0,0,0,0,0,0,0,0,0,0,0,0,0,0,0,0,0,0,0,0,0,0,0,0,0,0,0,0,0,0,0,0,0,0,0,0,32,42,74,9,10 มิถุนายน 2561
43,43,62020044,บ้านโคกเลาะ,8,10,18,1,5,6,11,1,6,6,12,1,19,22,41,3,5,4,9,1,8,5,13,1,4,4,8,1,5,8,13,1,7,5,12,1,7,5,12,1,36,31,67,6,0,0,0,0,0,0,0,0,0,0,0,0,0,0,0,0,0,0,0,0,0,0,0,0,0,0,0,0,0,0,0,0,0,0,0,0,0,0,0,0,0,0,0,0,55,53,108,9,10 มิถุนายน 2561
44,44,62020046,วัดคูหาสวรรค์,0,0,0,0,12,6,18,1,9,10,19,1,21,16,37,2,11,9,20,1,10,2,12,1,4,9,13,1,6,8,14,1,7,10,17,1,15,3,18,1,53,41,94,6,17,12,29,1,5,6,11,1,3,7,10,1,25,25,50,3,0,0,0,0,0,0,0,0,0,0,0,0,0,0,0,0,0,0,0,0,0,0,0,0,0,0,0,0,99,82,181,11,10 มิถุนายน 2561
45,45,62020048,ประชาราษฎร์สามัคคี,7,10,17,1,6,3,9,1,4,5,9,1,17,18,35,3,6,2,8,1,2,3,5,1,9,3,12,1,1,1,2,1,3,3,6,1,1,1,2,1,22,13,35,6,0,0,0,0,0,0,0,0,0,0,0,0,0,0,0,0,0,0,0,0,0,0,0,0,0,0,0,0,0,0,0,0,0,0,0,0,0,0,0,0,0,0,0,0,39,31,70,9,10 มิถุนายน 2561
46,46,62020049,บ้านเปาะสวอง,4,4,8,1,3,3,6,1,2,2,4,1,9,9,18,3,4,5,9,1,7,3,10,1,0,5,5,1,6,2,8,1,6,9,15,1,3,6,9,1,26,30,56,6,0,0,0,0,0,0,0,0,0,0,0,0,0,0,0,0,0,0,0,0,0,0,0,0,0,0,0,0,0,0,0,0,0,0,0,0,0,0,0,0,0,0,0,0,35,39,74,9,10 มิถุนายน 2561
47,47,62020050,บ้านใหม่หนองยาง,12,5,17,1,8,13,21,1,10,14,24,1,30,32,62,3,6,10,16,1,14,9,23,1,14,6,20,1,11,9,20,1,7,9,16,1,12,9,21,1,64,52,116,6,0,0,0,0,0,0,0,0,0,0,0,0,0,0,0,0,0,0,0,0,0,0,0,0,0,0,0,0,0,0,0,0,0,0,0,0,0,0,0,0,0,0,0,0,94,84,178,9,10 มิถุนายน 2561
48,48,62020052,บ้านหนองบอน,6,7,13,1,12,6,18,1,4,8,12,1,22,21,43,3,10,5,15,1,4,6,10,1,9,9,18,1,5,7,12,1,10,8,18,1,3,4,7,1,41,39,80,6,0,0,0,0,0,0,0,0,0,0,0,0,0,0,0,0,0,0,0,0,0,0,0,0,0,0,0,0,0,0,0,0,0,0,0,0,0,0,0,0,0,0,0,0,63,60,123,9,10 มิถุนายน 2561
49,49,62020053,บ้านศรีเกษตรพัฒนา,4,3,7,1,3,2,5,1,7,3,10,1,14,8,22,3,12,10,22,1,3,5,8,1,9,3,12,1,4,7,11,1,2,3,5,1,6,7,13,1,36,35,71,6,0,0,0,0,0,0,0,0,0,0,0,0,0,0,0,0,0,0,0,0,0,0,0,0,0,0,0,0,0,0,0,0,0,0,0,0,0,0,0,0,0,0,0,0,50,43,93,9,10 มิถุนายน 2561
50,50,62020054,บ้านศรีสมบูรณ์พัฒนา,5,2,7,1,4,7,11,1,4,12,16,1,13,21,34,3,10,9,19,1,8,6,14,1,6,10,16,1,4,13,17,1,5,8,13,1,13,6,19,1,46,52,98,6,0,0,0,0,0,0,0,0,0,0,0,0,0,0,0,0,0,0,0,0,0,0,0,0,0,0,0,0,0,0,0,0,0,0,0,0,0,0,0,0,0,0,0,0,59,73,132,9,10 มิถุนายน 2561
51,51,62020055,คีรีวงศ์วัฒนา,1,0,1,1,1,2,3,1,5,4,9,1,7,6,13,3,7,5,12,1,8,3,11,1,7,4,11,1,3,8,11,1,9,4,13,1,4,4,8,1,38,28,66,6,0,0,0,0,0,0,0,0,0,0,0,0,0,0,0,0,0,0,0,0,0,0,0,0,0,0,0,0,0,0,0,0,0,0,0,0,0,0,0,0,0,0,0,0,45,34,79,9,10 มิถุนายน 2561
52,52,62020056,บ้านปางมะนาว,11,4,15,1,5,8,13,1,7,4,11,1,23,16,39,3,4,6,10,1,8,4,12,1,6,3,9,1,4,4,8,1,5,4,9,1,1,1,2,1,28,22,50,6,0,0,0,0,0,0,0,0,0,0,0,0,0,0,0,0,0,0,0,0,0,0,0,0,0,0,0,0,0,0,0,0,0,0,0,0,0,0,0,0,0,0,0,0,51,38,89,9,10 มิถุนายน 2561
53,53,62020057,อนุบาลปางมะค่า,7,6,13,1,11,11,22,1,10,7,17,1,28,24,52,3,10,13,23,1,15,19,34,1,17,13,30,1,12,16,28,1,16,15,31,1,11,12,23,1,81,88,169,6,0,0,0,0,0,0,0,0,0,0,0,0,0,0,0,0,0,0,0,0,0,0,0,0,0,0,0,0,0,0,0,0,0,0,0,0,0,0,0,0,0,0,0,0,109,112,221,9,10 มิถุนายน 2561
54,54,62020058,บ้านพัดโบก,6,4,10,1,5,8,13,1,8,6,14,1,19,18,37,3,8,6,14,1,12,9,21,1,14,5,19,1,9,8,17,1,14,11,25,1,11,5,16,1,68,44,112,6,24,14,38,1,25,31,56,2,9,12,21,1,58,57,115,4,0,0,0,0,0,0,0,0,0,0,0,0,0,0,0,0,0,0,0,0,0,0,0,0,0,0,0,0,145,119,264,13,10 มิถุนายน 2561
55,55,62020059,บ้านหนองน้ำแดง,10,1,11,1,5,7,12,1,16,13,29,1,31,21,52,3,15,14,29,1,12,16,28,1,16,10,26,1,19,9,28,1,12,14,26,1,13,9,22,1,87,72,159,6,11,16,27,1,14,18,32,1,14,16,30,1,39,50,89,3,0,0,0,0,0,0,0,0,0,0,0,0,0,0,0,0,0,0,0,0,0,0,0,0,0,0,0,0,157,143,300,12,10 มิถุนายน 2561
56,56,62020060,บ้านเขาพริกไทย,0,0,0,0,6,4,10,1,9,1,10,1,15,5,20,2,5,6,11,1,6,9,15,1,8,5,13,1,5,9,14,1,7,11,18,1,9,9,18,1,40,49,89,6,0,0,0,0,0,0,0,0,0,0,0,0,0,0,0,0,0,0,0,0,0,0,0,0,0,0,0,0,0,0,0,0,0,0,0,0,0,0,0,0,0,0,0,0,55,54,109,8,10 มิถุนายน 2561
57,57,62020061,บ้านศรีไพศาล,1,3,4,1,2,2,4,1,2,5,7,1,5,10,15,3,3,2,5,1,2,3,5,1,5,2,7,1,3,3,6,1,2,4,6,1,4,5,9,1,19,19,38,6,0,0,0,0,0,0,0,0,0,0,0,0,0,0,0,0,0,0,0,0,0,0,0,0,0,0,0,0,0,0,0,0,0,0,0,0,0,0,0,0,0,0,0,0,24,29,53,9,10 มิถุนายน 2561
58,58,62020062,บ้านคลองสะพานช้าง,4,11,15,1,4,4,8,1,5,5,10,1,13,20,33,3,6,7,13,1,5,8,13,1,9,4,13,1,7,6,13,1,9,3,12,1,17,7,24,1,53,35,88,6,0,0,0,0,0,0,0,0,0,0,0,0,0,0,0,0,0,0,0,0,0,0,0,0,0,0,0,0,0,0,0,0,0,0,0,0,0,0,0,0,0,0,0,0,66,55,121,9,10 มิถุนายน 2561
59,59,62020063,บ้านส่องตาแล,3,5,8,1,6,4,10,1,13,4,17,1,22,13,35,3,11,12,23,1,8,7,15,1,5,13,18,1,9,16,25,1,13,12,25,1,7,11,18,1,53,71,124,6,18,15,33,1,15,21,36,1,10,7,17,1,43,43,86,3,0,0,0,0,0,0,0,0,0,0,0,0,0,0,0,0,0,0,0,0,0,0,0,0,0,0,0,0,118,127,245,12,10 มิถุนายน 2561
60,60,62020064,บ้านโป่งแต้,2,7,9,1,0,5,5,1,1,0,1,1,3,12,15,3,2,1,3,1,1,3,4,1,6,3,9,1,1,1,2,1,1,1,2,1,2,6,8,1,13,15,28,6,0,0,0,0,0,0,0,0,0,0,0,0,0,0,0,0,0,0,0,0,0,0,0,0,0,0,0,0,0,0,0,0,0,0,0,0,0,0,0,0,0,0,0,0,16,27,43,9,10 มิถุนายน 2561
61,61,62020065,บ้านวังน้ำพัฒนา,1,3,4,1,1,4,5,1,4,8,12,1,6,15,21,3,3,6,9,1,10,9,19,1,8,7,15,1,4,10,14,1,19,9,28,1,5,5,10,1,49,46,95,6,12,9,21,1,10,3,13,1,2,5,7,1,24,17,41,3,0,0,0,0,0,0,0,0,0,0,0,0,0,0,0,0,0,0,0,0,0,0,0,0,0,0,0,0,79,78,157,12,10 มิถุนายน 2561
62,62,62020066,บ้านวังน้ำพัฒนา สาขาบ้านบ่อหิน,0,0,0,0,0,0,0,0,0,1,1,1,0,1,1,1,1,0,1,1,2,2,4,1,1,0,1,1,4,0,4,1,1,0,1,1,1,3,4,1,10,5,15,6,0,0,0,0,0,0,0,0,0,0,0,0,0,0,0,0,0,0,0,0,0,0,0,0,0,0,0,0,0,0,0,0,0,0,0,0,0,0,0,0,0,0,0,0,10,6,16,7,10 มิถุนายน 2561
63,63,62020067,บ้านเกาะแก้วอนุสรณ์,3,3,6,1,6,8,14,1,15,16,31,1,24,27,51,3,13,12,25,1,5,4,9,1,8,7,15,1,12,14,26,1,12,5,17,1,12,12,24,1,62,54,116,6,23,18,41,1,17,22,39,1,16,21,37,1,56,61,117,3,0,0,0,0,0,0,0,0,0,0,0,0,0,0,0,0,0,0,0,0,0,0,0,0,0,0,0,0,142,142,284,12,10 มิถุนายน 2561
64,64,62020068,อนุบาลขาณุวรลักษบุรี,0,0,0,0,2,5,7,1,5,1,6,1,7,6,13,2,3,2,5,1,5,6,11,1,1,4,5,1,6,5,11,1,2,7,9,1,4,4,8,1,21,28,49,6,0,0,0,0,0,0,0,0,0,0,0,0,0,0,0,0,0,0,0,0,0,0,0,0,0,0,0,0,0,0,0,0,0,0,0,0,0,0,0,0,0,0,0,0,28,34,62,8,10 มิถุนายน 2561
65,65,62020069,บ้านหนองกระทุ่ม,4,0,4,1,3,2,5,1,2,2,4,1,9,4,13,3,2,2,4,1,1,2,3,1,1,6,7,1,3,3,6,1,3,0,3,1,5,0,5,1,15,13,28,6,0,0,0,0,0,0,0,0,0,0,0,0,0,0,0,0,0,0,0,0,0,0,0,0,0,0,0,0,0,0,0,0,0,0,0,0,0,0,0,0,0,0,0,0,24,17,41,9,10 มิถุนายน 2561
66,66,62020071,บ้านอุดมสามัคคี,5,7,12,1,3,6,9,1,10,5,15,1,18,18,36,3,10,5,15,1,6,5,11,1,9,2,11,1,11,11,22,1,6,9,15,1,8,8,16,1,50,40,90,6,0,0,0,0,0,0,0,0,0,0,0,0,0,0,0,0,0,0,0,0,0,0,0,0,0,0,0,0,0,0,0,0,0,0,0,0,0,0,0,0,0,0,0,0,68,58,126,9,10 มิถุนายน 2561
67,67,62020072,บ้านวังพลับ,2,4,6,1,4,6,10,1,9,4,13,1,15,14,29,3,8,8,16,1,6,6,12,1,3,4,7,1,1,6,7,1,12,5,17,1,4,9,13,1,34,38,72,6,0,0,0,0,0,0,0,0,0,0,0,0,0,0,0,0,0,0,0,0,0,0,0,0,0,0,0,0,0,0,0,0,0,0,0,0,0,0,0,0,0,0,0,0,49,52,101,9,10 มิถุนายน 2561
68,68,62020073,บ้านหนองตะเคียน,0,0,0,0,2,4,6,1,3,2,5,1,5,6,11,2,5,1,6,1,8,4,12,1,4,8,12,1,9,4,13,1,8,5,13,1,9,8,17,1,43,30,73,6,16,9,25,1,6,7,13,1,4,6,10,1,26,22,48,3,0,0,0,0,0,0,0,0,0,0,0,0,0,0,0,0,0,0,0,0,0,0,0,0,0,0,0,0,74,58,132,11,10 มิถุนายน 2561
69,69,62020074,วัดพัฒนราษฎร์บำรุง,1,1,2,1,1,1,2,1,2,1,3,1,4,3,7,3,2,1,3,1,2,4,6,1,3,3,6,1,7,5,12,1,2,7,9,1,6,6,12,1,22,26,48,6,0,0,0,0,0,0,0,0,0,0,0,0,0,0,0,0,0,0,0,0,0,0,0,0,0,0,0,0,0,0,0,0,0,0,0,0,0,0,0,0,0,0,0,0,26,29,55,9,10 มิถุนายน 2561
70,70,62020075,บ้านเกาะฝ้าย (ราษฎร์อุทิศวิทยาคาร),0,0,0,0,2,0,2,1,6,5,11,1,8,5,13,2,2,3,5,1,8,6,14,1,5,3,8,1,4,4,8,1,3,2,5,1,3,7,10,1,25,25,50,6,0,0,0,0,0,0,0,0,0,0,0,0,0,0,0,0,0,0,0,0,0,0,0,0,0,0,0,0,0,0,0,0,0,0,0,0,0,0,0,0,0,0,0,0,33,30,63,8,10 มิถุนายน 2561
71,71,62020076,บ้านบึงเสือเต้น,0,0,0,0,9,7,16,1,6,7,13,1,15,14,29,2,14,4,18,1,7,12,19,1,6,11,17,1,10,6,16,1,11,5,16,1,9,8,17,1,57,46,103,6,0,0,0,0,0,0,0,0,0,0,0,0,0,0,0,0,0,0,0,0,0,0,0,0,0,0,0,0,0,0,0,0,0,0,0,0,0,0,0,0,0,0,0,0,72,60,132,8,10 มิถุนายน 2561
72,72,62020077,วัดปรีชาราษฎร์บำรุง,8,7,15,1,8,6,14,1,2,8,10,1,18,21,39,3,12,9,21,1,8,9,17,1,6,8,14,1,10,11,21,1,11,6,17,1,8,4,12,1,55,47,102,6,0,0,0,0,0,0,0,0,0,0,0,0,0,0,0,0,0,0,0,0,0,0,0,0,0,0,0,0,0,0,0,0,0,0,0,0,0,0,0,0,0,0,0,0,73,68,141,9,10 มิถุนายน 2561
73,73,62020078,บ้านบึงหล่มสามัคคี,7,8,15,1,9,7,16,1,7,4,11,1,23,19,42,3,8,12,20,1,13,14,27,1,7,9,16,1,10,5,15,1,13,10,23,1,7,11,18,1,58,61,119,6,0,0,0,0,0,0,0,0,0,0,0,0,0,0,0,0,0,0,0,0,0,0,0,0,0,0,0,0,0,0,0,0,0,0,0,0,0,0,0,0,0,0,0,0,81,80,161,9,10 มิถุนายน 2561
74,74,62020079,บ้านหัวเสลา,3,4,7,1,7,10,17,1,7,7,14,1,17,21,38,3,9,7,16,1,16,6,22,1,6,7,13,1,13,14,27,1,9,8,17,1,10,8,18,1,63,50,113,6,0,0,0,0,0,0,0,0,0,0,0,0,0,0,0,0,0,0,0,0,0,0,0,0,0,0,0,0,0,0,0,0,0,0,0,0,0,0,0,0,0,0,0,0,80,71,151,9,10 มิถุนายน 2561
75,75,62020080,บ้านโป่งดู่ประชาอุทิศ,10,7,17,1,13,14,27,1,8,9,17,1,31,30,61,3,13,11,24,1,8,10,18,1,11,6,17,1,10,13,23,1,12,7,19,1,12,16,28,1,66,63,129,6,19,12,31,1,16,10,26,1,17,8,25,1,52,30,82,3,0,0,0,0,0,0,0,0,0,0,0,0,0,0,0,0,0,0,0,0,0,0,0,0,0,0,0,0,149,123,272,12,10 มิถุนายน 2561
76,76,62020082,บ้านวังน้ำซึม,6,4,10,1,4,4,8,1,9,9,18,1,19,17,36,3,6,4,10,1,3,2,5,1,4,3,7,1,5,4,9,1,5,6,11,1,3,5,8,1,26,24,50,6,0,0,0,0,0,0,0,0,0,0,0,0,0,0,0,0,0,0,0,0,0,0,0,0,0,0,0,0,0,0,0,0,0,0,0,0,0,0,0,0,0,0,0,0,45,41,86,9,10 มิถุนายน 2561
77,77,62020083,บ้านวังตาช่วย,11,9,20,1,9,5,14,1,10,8,18,1,30,22,52,3,9,8,17,1,12,13,25,1,6,11,17,1,12,14,26,1,10,7,17,1,12,9,21,1,61,62,123,6,17,5,22,1,11,11,22,1,13,10,23,1,41,26,67,3,0,0,0,0,0,0,0,0,0,0,0,0,0,0,0,0,0,0,0,0,0,0,0,0,0,0,0,0,132,110,242,12,10 มิถุนายน 2561
78,78,62020085,บ้านหนองชุมแสง,2,2,4,1,3,4,7,1,1,1,2,1,6,7,13,3,12,6,18,1,8,3,11,1,6,4,10,1,3,7,10,1,5,3,8,1,6,5,11,1,40,28,68,6,0,0,0,0,0,0,0,0,0,0,0,0,0,0,0,0,0,0,0,0,0,0,0,0,0,0,0,0,0,0,0,0,0,0,0,0,0,0,0,0,0,0,0,0,46,35,81,9,10 มิถุนายน 2561
79,79,62020086,บ้านช่องลม,0,0,0,0,5,2,7,1,5,4,9,1,10,6,16,2,3,3,6,1,2,2,4,1,5,5,10,1,2,1,3,1,4,2,6,1,7,3,10,1,23,16,39,6,0,0,0,0,0,0,0,0,0,0,0,0,0,0,0,0,0,0,0,0,0,0,0,0,0,0,0,0,0,0,0,0,0,0,0,0,0,0,0,0,0,0,0,0,33,22,55,8,10 มิถุนายน 2561
80,80,62020087,บ้านนาเหนือ,0,0,0,0,0,0,0,1,2,0,2,1,2,0,2,2,2,0,2,1,0,2,2,1,2,0,2,1,0,0,0,0,2,0,2,1,3,2,5,1,9,4,13,5,0,0,0,0,0,0,0,0,0,0,0,0,0,0,0,0,0,0,0,0,0,0,0,0,0,0,0,0,0,0,0,0,0,0,0,0,0,0,0,0,0,0,0,0,11,4,15,7,10 มิถุนายน 2561
81,81,62020088,บ้านห้วยแก้วสามัคคีธรรม,4,3,7,1,4,6,10,1,2,4,6,1,10,13,23,3,5,5,10,1,5,0,5,1,4,2,6,1,4,4,8,1,5,5,10,1,4,4,8,1,27,20,47,6,0,0,0,0,0,0,0,0,0,0,0,0,0,0,0,0,0,0,0,0,0,0,0,0,0,0,0,0,0,0,0,0,0,0,0,0,0,0,0,0,0,0,0,0,37,33,70,9,10 มิถุนายน 2561
82,82,62020089,บ้านไร่ดอนแตง,0,0,0,0,5,6,11,1,8,7,15,1,13,13,26,2,8,10,18,1,11,6,17,1,12,9,21,1,8,10,18,1,13,6,19,1,7,6,13,1,59,47,106,6,15,12,27,1,13,8,21,1,6,12,18,1,34,32,66,3,0,0,0,0,0,0,0,0,0,0,0,0,0,0,0,0,0,0,0,0,0,0,0,0,0,0,0,0,106,92,198,11,10 มิถุนายน 2561
83,83,62020090,บ้านเขาพริกอนุสรณ์,5,4,9,1,5,3,8,1,2,3,5,1,12,10,22,3,6,6,12,1,7,8,15,1,7,4,11,1,1,8,9,1,6,9,15,1,4,5,9,1,31,40,71,6,0,0,0,0,0,0,0,0,0,0,0,0,0,0,0,0,0,0,0,0,0,0,0,0,0,0,0,0,0,0,0,0,0,0,0,0,0,0,0,0,0,0,0,0,43,50,93,9,10 มิถุนายน 2561
84,84,62020091,บ้านหนองช้างงาม,3,7,10,1,4,5,9,1,3,4,7,1,10,16,26,3,7,7,14,1,6,7,13,1,1,6,7,1,5,4,9,1,1,5,6,1,2,5,7,1,22,34,56,6,0,0,0,0,0,0,0,0,0,0,0,0,0,0,0,0,0,0,0,0,0,0,0,0,0,0,0,0,0,0,0,0,0,0,0,0,0,0,0,0,0,0,0,0,32,50,82,9,10 มิถุนายน 2561
85,85,62020092,บ้านหนองปล้อง,1,0,1,1,1,0,1,1,1,3,4,1,3,3,6,3,5,0,5,1,2,0,2,1,2,1,3,1,2,1,3,1,3,1,4,1,0,0,0,0,14,3,17,5,0,0,0,0,0,0,0,0,0,0,0,0,0,0,0,0,0,0,0,0,0,0,0,0,0,0,0,0,0,0,0,0,0,0,0,0,0,0,0,0,0,0,0,0,17,6,23,8,10 มิถุนายน 2561
86,86,62020093,บ้านวังล้อมรำลึก,2,2,4,1,0,3,3,1,1,4,5,1,3,9,12,3,2,0,2,1,0,2,2,1,0,0,0,0,0,3,3,1,0,1,1,1,3,0,3,1,5,6,11,5,0,0,0,0,0,0,0,0,0,0,0,0,0,0,0,0,0,0,0,0,0,0,0,0,0,0,0,0,0,0,0,0,0,0,0,0,0,0,0,0,0,0,0,0,8,15,23,8,10 มิถุนายน 2561
87,87,62020094,บ้านวังหามแห,2,1,3,1,1,2,3,1,2,1,3,1,5,4,9,3,3,2,5,1,3,2,5,1,0,0,0,0,3,3,6,1,0,2,2,1,1,1,2,1,10,10,20,5,0,0,0,0,0,0,0,0,0,0,0,0,0,0,0,0,0,0,0,0,0,0,0,0,0,0,0,0,0,0,0,0,0,0,0,0,0,0,0,0,0,0,0,0,15,14,29,8,10 มิถุนายน 2561
88,88,62020095,บ้านจิตตมาสพัฒนา,0,0,0,0,9,13,22,1,5,4,9,1,14,17,31,2,6,7,13,1,4,5,9,1,7,7,14,1,3,1,4,1,6,4,10,1,6,4,10,1,32,28,60,6,0,0,0,0,0,0,0,0,0,0,0,0,0,0,0,0,0,0,0,0,0,0,0,0,0,0,0,0,0,0,0,0,0,0,0,0,0,0,0,0,0,0,0,0,46,45,91,8,10 มิถุนายน 2561
89,89,62020096,บ้านวังหัวแหวนพัฒนา,3,6,9,1,5,1,6,1,6,4,10,1,14,11,25,3,4,2,6,1,3,2,5,1,4,4,8,1,4,5,9,1,7,4,11,1,1,2,3,1,23,19,42,6,0,0,0,0,0,0,0,0,0,0,0,0,0,0,0,0,0,0,0,0,0,0,0,0,0,0,0,0,0,0,0,0,0,0,0,0,0,0,0,0,0,0,0,0,37,30,67,9,10 มิถุนายน 2561
90,90,62020097,บ้านหนองชะแอน,1,4,5,1,9,6,15,1,4,9,13,1,14,19,33,3,4,4,8,1,7,9,16,1,8,2,10,1,9,6,15,1,5,9,14,1,5,8,13,1,38,38,76,6,8,7,15,1,15,13,28,1,10,6,16,1,33,26,59,3,0,0,0,0,0,0,0,0,0,0,0,0,0,0,0,0,0,0,0,0,0,0,0,0,0,0,0,0,85,83,168,12,10 มิถุนายน 2561
91,91,62020098,ชุมชนบ้านสลกบาตร(วันครู 2504),3,1,4,1,3,3,6,1,6,6,12,1,12,10,22,3,3,3,6,1,4,5,9,1,3,3,6,1,4,2,6,1,8,7,15,1,3,8,11,1,25,28,53,6,14,7,21,1,11,12,23,1,2,0,2,1,27,19,46,3,0,0,0,0,0,0,0,0,0,0,0,0,0,0,0,0,0,0,0,0,0,0,0,0,0,0,0,0,64,57,121,12,10 มิถุนายน 2561
92,92,62020100,บ้านรังแถว,0,0,0,0,3,1,4,1,2,6,8,1,5,7,12,2,2,2,4,1,4,1,5,1,5,3,8,1,1,6,7,1,2,2,4,1,4,4,8,1,18,18,36,6,0,0,0,0,0,0,0,0,0,0,0,0,0,0,0,0,0,0,0,0,0,0,0,0,0,0,0,0,0,0,0,0,0,0,0,0,0,0,0,0,0,0,0,0,23,25,48,8,10 มิถุนายน 2561
93,93,62020101,วชิรสารศึกษา,9,11,20,1,10,5,15,1,5,8,13,1,24,24,48,3,7,8,15,1,8,9,17,1,10,8,18,1,10,5,15,1,8,6,14,1,6,5,11,1,49,41,90,6,0,0,0,0,0,0,0,0,0,0,0,0,0,0,0,0,0,0,0,0,0,0,0,0,0,0,0,0,0,0,0,0,0,0,0,0,0,0,0,0,0,0,0,0,73,65,138,9,10 มิถุนายน 2561
94,94,62020102,วัดสว่างอารมณ์,1,2,3,1,4,5,9,1,3,4,7,1,8,11,19,3,7,4,11,1,11,5,16,1,15,10,25,1,10,9,19,1,6,16,22,1,7,5,12,1,56,49,105,6,0,0,0,0,0,0,0,0,0,0,0,0,0,0,0,0,0,0,0,0,0,0,0,0,0,0,0,0,0,0,0,0,0,0,0,0,0,0,0,0,0,0,0,0,64,60,124,9,10 มิถุนายน 2561
95,95,62020103,บ้านหาดชะอม,2,0,2,1,1,2,3,1,1,2,3,1,4,4,8,3,6,2,8,1,9,3,12,1,7,0,7,1,4,9,13,1,3,5,8,1,1,2,3,1,30,21,51,6,0,0,0,0,0,0,0,0,0,0,0,0,0,0,0,0,0,0,0,0,0,0,0,0,0,0,0,0,0,0,0,0,0,0,0,0,0,0,0,0,0,0,0,0,34,25,59,9,10 มิถุนายน 2561
96,96,62020104,วัดน้อยวรลักษณ์,2,3,5,1,1,3,4,1,2,2,4,1,5,8,13,3,3,0,3,1,2,5,7,1,2,4,6,1,4,4,8,1,3,2,5,1,4,1,5,1,18,16,34,6,0,0,0,0,0,0,0,0,0,0,0,0,0,0,0,0,0,0,0,0,0,0,0,0,0,0,0,0,0,0,0,0,0,0,0,0,0,0,0,0,0,0,0,0,23,24,47,9,10 มิถุนายน 2561
97,97,62020105,วัดหนองเหมือด,0,0,0,0,9,3,12,1,5,12,17,1,14,15,29,2,7,7,14,1,5,7,12,1,12,7,19,1,10,5,15,1,7,7,14,1,10,12,22,1,51,45,96,6,0,0,0,0,0,0,0,0,0,0,0,0,0,0,0,0,0,0,0,0,0,0,0,0,0,0,0,0,0,0,0,0,0,0,0,0,0,0,0,0,0,0,0,0,65,60,125,8,10 มิถุนายน 2561
98,98,62020106,ชุมชนประชาสามัคคี,0,0,0,0,18,8,26,1,15,9,24,1,33,17,50,2,18,21,39,1,20,9,29,1,10,23,33,1,20,21,41,1,14,22,36,1,20,15,35,1,102,111,213,6,23,12,35,1,16,19,35,1,15,12,27,1,54,43,97,3,0,0,0,0,0,0,0,0,0,0,0,0,0,0,0,0,0,0,0,0,0,0,0,0,0,0,0,0,189,171,360,11,10 มิถุนายน 2561
99,99,62020107,พิบูลวิทยาคาร,6,8,14,1,4,5,9,1,3,5,8,1,13,18,31,3,7,8,15,1,7,6,13,1,6,5,11,1,12,6,18,1,4,2,6,1,4,4,8,1,40,31,71,6,0,0,0,0,0,0,0,0,0,0,0,0,0,0,0,0,0,0,0,0,0,0,0,0,0,0,0,0,0,0,0,0,0,0,0,0,0,0,0,0,0,0,0,0,53,49,102,9,10 มิถุนายน 2561
100,100,62020108,บ้านถนนงาม (มิตรภาพที่ 27),0,0,0,0,10,11,21,1,7,9,16,1,17,20,37,2,7,10,17,1,5,8,13,1,9,7,16,1,9,9,18,1,6,4,10,1,7,5,12,1,43,43,86,6,0,0,0,0,0,0,0,0,0,0,0,0,0,0,0,0,0,0,0,0,0,0,0,0,0,0,0,0,0,0,0,0,0,0,0,0,0,0,0,0,0,0,0,0,60,63,123,8,10 มิถุนายน 2561
101,101,62020110,ทุ่งน้อยพัฒนา,0,0,0,0,2,2,4,1,6,5,11,1,8,7,15,2,4,3,7,1,5,5,10,1,7,8,15,1,2,2,4,1,7,1,8,1,5,5,10,1,30,24,54,6,0,0,0,0,0,0,0,0,0,0,0,0,0,0,0,0,0,0,0,0,0,0,0,0,0,0,0,0,0,0,0,0,0,0,0,0,0,0,0,0,0,0,0,0,38,31,69,8,10 มิถุนายน 2561
102,102,62020111,หนองปรือประชาสรรค์,0,0,0,0,2,3,5,1,2,5,7,1,4,8,12,2,5,11,16,1,5,8,13,1,6,6,12,1,6,9,15,1,6,5,11,1,9,8,17,1,37,47,84,6,0,0,0,0,0,0,0,0,0,0,0,0,0,0,0,0,0,0,0,0,0,0,0,0,0,0,0,0,0,0,0,0,0,0,0,0,0,0,0,0,0,0,0,0,41,55,96,8,10 มิถุนายน 2561
103,103,62020112,ประชารักษ์ศึกษา,0,0,0,0,1,4,5,1,4,2,6,1,5,6,11,2,3,4,7,1,5,3,8,1,0,0,0,0,3,7,10,1,3,1,4,1,3,3,6,1,17,18,35,5,5,2,7,1,3,3,6,1,8,1,9,1,16,6,22,3,0,0,0,0,0,0,0,0,0,0,0,0,0,0,0,0,0,0,0,0,0,0,0,0,0,0,0,0,38,30,68,10,10 มิถุนายน 2561
104,104,62020113,บ้านหนองผักหนาม,1,5,6,1,4,6,10,1,5,5,10,1,10,16,26,3,4,3,7,1,4,3,7,1,1,6,7,1,4,4,8,1,11,5,16,1,5,4,9,1,29,25,54,6,0,0,0,0,0,0,0,0,0,0,0,0,0,0,0,0,0,0,0,0,0,0,0,0,0,0,0,0,0,0,0,0,0,0,0,0,0,0,0,0,0,0,0,0,39,41,80,9,10 มิถุนายน 2561
105,105,62020114,บ้านท่าพุทรา,0,0,0,0,9,8,17,1,5,14,19,1,14,22,36,2,13,13,26,1,8,7,15,1,8,7,15,1,11,7,18,1,15,13,28,1,8,5,13,1,63,52,115,6,15,4,19,1,17,13,30,1,17,10,27,1,49,27,76,3,0,0,0,0,0,0,0,0,0,0,0,0,0,0,0,0,0,0,0,0,0,0,0,0,0,0,0,0,126,101,227,11,10 มิถุนายน 2561
106,106,62020115,วัดคลองเจริญ,12,2,14,1,4,4,8,1,5,5,10,1,21,11,32,3,6,6,12,1,6,8,14,1,11,7,18,1,8,6,14,1,8,8,16,1,7,8,15,1,46,43,89,6,0,0,0,0,0,0,0,0,0,0,0,0,0,0,0,0,0,0,0,0,0,0,0,0,0,0,0,0,0,0,0,0,0,0,0,0,0,0,0,0,0,0,0,0,67,54,121,9,10 มิถุนายน 2561
107,107,62020116,บ้านคลองแขยง,0,0,0,0,5,1,6,1,5,3,8,1,10,4,14,2,6,5,11,1,5,3,8,1,6,4,10,1,4,0,4,1,5,1,6,1,2,3,5,1,28,16,44,6,0,0,0,0,0,0,0,0,0,0,0,0,0,0,0,0,0,0,0,0,0,0,0,0,0,0,0,0,0,0,0,0,0,0,0,0,0,0,0,0,0,0,0,0,38,20,58,8,10 มิถุนายน 2561
108,108,62020117,บ้านป่าเหียง,4,6,10,1,1,5,6,1,3,3,6,1,8,14,22,3,2,4,6,1,2,1,3,1,8,1,9,1,5,6,11,1,1,2,3,1,5,2,7,1,23,16,39,6,0,0,0,0,0,0,0,0,0,0,0,0,0,0,0,0,0,0,0,0,0,0,0,0,0,0,0,0,0,0,0,0,0,0,0,0,0,0,0,0,0,0,0,0,31,30,61,9,10 มิถุนายน 2561
109,109,62020118,บ้านวังบัว,0,0,0,0,14,12,26,1,14,14,28,1,28,26,54,2,15,15,30,1,13,8,21,1,12,12,24,1,14,14,28,1,13,15,28,1,11,8,19,1,78,72,150,6,10,7,17,1,7,10,17,1,6,13,19,1,23,30,53,3,0,0,0,0,0,0,0,0,0,0,0,0,0,0,0,0,0,0,0,0,0,0,0,0,0,0,0,0,129,128,257,11,10 มิถุนายน 2561
110,110,62020119,วัดแสงอุทัย,0,0,0,0,2,5,7,1,2,7,9,1,4,12,16,2,1,4,5,1,6,0,6,1,5,2,7,1,3,4,7,1,8,5,13,1,2,9,11,1,25,24,49,6,0,0,0,0,0,0,0,0,0,0,0,0,0,0,0,0,0,0,0,0,0,0,0,0,0,0,0,0,0,0,0,0,0,0,0,0,0,0,0,0,0,0,0,0,29,36,65,8,10 มิถุนายน 2561
111,111,62020120,บ้านสามแยก,0,0,0,0,3,3,6,1,5,6,11,1,8,9,17,2,6,4,10,1,5,5,10,1,3,2,5,1,4,2,6,1,5,7,12,1,5,3,8,1,28,23,51,6,0,0,0,0,0,0,0,0,0,0,0,0,0,0,0,0,0,0,0,0,0,0,0,0,0,0,0,0,0,0,0,0,0,0,0,0,0,0,0,0,0,0,0,0,36,32,68,8,10 มิถุนายน 2561
112,112,62020121,อนุบาลคลองขลุง,1,2,3,1,11,2,13,1,6,11,17,1,18,15,33,3,10,17,27,1,9,12,21,1,16,12,28,1,21,15,36,1,11,18,29,1,14,18,32,1,81,92,173,6,24,7,31,1,24,16,40,2,12,10,22,1,60,33,93,4,0,0,0,0,0,0,0,0,0,0,0,0,0,0,0,0,0,0,0,0,0,0,0,0,0,0,0,0,159,140,299,13,10 มิถุนายน 2561
113,113,62020122,บ้านหนองจอก,0,0,0,0,11,10,21,1,10,3,13,1,21,13,34,2,11,8,19,1,7,7,14,1,10,10,20,1,6,8,14,1,11,12,23,1,8,5,13,1,53,50,103,6,0,0,0,0,0,0,0,0,0,0,0,0,0,0,0,0,0,0,0,0,0,0,0,0,0,0,0,0,0,0,0,0,0,0,0,0,0,0,0,0,0,0,0,0,74,63,137,8,10 มิถุนายน 2561
114,114,62020124,บ้านแม่ลาด,0,0,0,0,0,2,2,1,2,2,4,1,2,4,6,2,1,2,3,1,3,3,6,1,1,3,4,1,6,2,8,1,6,2,8,1,4,3,7,1,21,15,36,6,0,0,0,0,0,0,0,0,0,0,0,0,0,0,0,0,0,0,0,0,0,0,0,0,0,0,0,0,0,0,0,0,0,0,0,0,0,0,0,0,0,0,0,0,23,19,42,8,10 มิถุนายน 2561
115,115,62020126,วัดพรหมประดิษฐ์,5,6,11,1,5,10,15,1,7,4,11,1,17,20,37,3,10,11,21,1,11,9,20,1,9,9,18,1,12,6,18,1,11,11,22,1,20,10,30,1,73,56,129,6,15,10,25,1,9,9,18,1,13,9,22,1,37,28,65,3,0,0,0,0,0,0,0,0,0,0,0,0,0,0,0,0,0,0,0,0,0,0,0,0,0,0,0,0,127,104,231,12,10 มิถุนายน 2561
116,116,62020128,บ้านห้วยน้อย,6,3,9,1,3,2,5,1,2,3,5,1,11,8,19,3,6,3,9,1,5,3,8,1,4,2,6,1,5,1,6,1,2,1,3,1,3,3,6,1,25,13,38,6,0,0,0,0,0,0,0,0,0,0,0,0,0,0,0,0,0,0,0,0,0,0,0,0,0,0,0,0,0,0,0,0,0,0,0,0,0,0,0,0,0,0,0,0,36,21,57,9,10 มิถุนายน 2561
117,117,62020129,บ้านร้อยไร่,0,0,0,0,3,2,5,1,4,3,7,1,7,5,12,2,5,3,8,1,4,1,5,1,7,4,11,1,6,1,7,1,1,5,6,1,2,8,10,1,25,22,47,6,0,0,0,0,0,0,0,0,0,0,0,0,0,0,0,0,0,0,0,0,0,0,0,0,0,0,0,0,0,0,0,0,0,0,0,0,0,0,0,0,0,0,0,0,32,27,59,8,10 มิถุนายน 2561
118,118,62020130,บ้านมาบคล้า,0,0,0,0,5,4,9,1,1,5,6,1,6,9,15,2,4,3,7,1,2,4,6,1,1,2,3,1,7,3,10,1,1,6,7,1,5,5,10,1,20,23,43,6,0,0,0,0,0,0,0,0,0,0,0,0,0,0,0,0,0,0,0,0,0,0,0,0,0,0,0,0,0,0,0,0,0,0,0,0,0,0,0,0,0,0,0,0,26,32,58,8,10 มิถุนายน 2561
119,119,62020131,บ้านวังหันน้ำดึง,6,5,11,1,7,6,13,1,5,6,11,1,18,17,35,3,7,3,10,1,10,6,16,1,9,4,13,1,13,7,20,1,9,5,14,1,12,8,20,1,60,33,93,6,8,3,11,1,11,6,17,1,3,5,8,1,22,14,36,3,0,0,0,0,0,0,0,0,0,0,0,0,0,0,0,0,0,0,0,0,0,0,0,0,0,0,0,0,100,64,164,12,10 มิถุนายน 2561
120,120,62020132,บ้านทุ่งหันตรา,5,0,5,1,3,2,5,1,2,4,6,1,10,6,16,3,4,5,9,1,5,1,6,1,4,4,8,1,7,3,10,1,5,5,10,1,4,5,9,1,29,23,52,6,0,0,0,0,0,0,0,0,0,0,0,0,0,0,0,0,0,0,0,0,0,0,0,0,0,0,0,0,0,0,0,0,0,0,0,0,0,0,0,0,0,0,0,0,39,29,68,9,10 มิถุนายน 2561
121,121,62020133,บ้านวังแขม (สว่างชัยวงษ์),5,5,10,1,7,4,11,1,4,7,11,1,16,16,32,3,14,20,34,1,16,10,26,1,20,11,31,1,14,10,24,1,16,13,29,1,9,13,22,1,89,77,166,6,0,0,0,0,0,0,0,0,0,0,0,0,0,0,0,0,0,0,0,0,0,0,0,0,0,0,0,0,0,0,0,0,0,0,0,0,0,0,0,0,0,0,0,0,105,93,198,9,10 มิถุนายน 2561
122,122,62020134,บ้านไร่ใหม่,3,6,9,1,4,4,8,1,7,5,12,1,14,15,29,3,8,4,12,1,7,7,14,1,5,4,9,1,4,7,11,1,4,6,10,1,6,7,13,1,34,35,69,6,0,0,0,0,0,0,0,0,0,0,0,0,0,0,0,0,0,0,0,0,0,0,0,0,0,0,0,0,0,0,0,0,0,0,0,0,0,0,0,0,0,0,0,0,48,50,98,9,10 มิถุนายน 2561
123,123,62020136,บ้านบ่อทอง,1,6,7,1,0,3,3,1,3,0,3,1,4,9,13,3,2,2,4,1,1,1,2,1,5,3,8,1,3,5,8,1,1,2,3,1,4,3,7,1,16,16,32,6,0,0,0,0,0,0,0,0,0,0,0,0,0,0,0,0,0,0,0,0,0,0,0,0,0,0,0,0,0,0,0,0,0,0,0,0,0,0,0,0,0,0,0,0,20,25,45,9,10 มิถุนายน 2561
124,124,62020137,บ้านบึงลาด,0,0,0,0,2,3,5,1,7,6,13,1,9,9,18,2,5,4,9,1,2,2,4,1,3,1,4,1,4,4,8,1,4,2,6,1,2,2,4,1,20,15,35,6,0,0,0,0,0,0,0,0,0,0,0,0,0,0,0,0,0,0,0,0,0,0,0,0,0,0,0,0,0,0,0,0,0,0,0,0,0,0,0,0,0,0,0,0,29,24,53,8,10 มิถุนายน 2561
125,125,62020138,อนุบาลวังไทร,0,0,0,0,14,16,30,1,19,13,32,1,33,29,62,2,18,13,31,1,17,19,36,1,14,10,24,1,13,14,27,1,18,16,34,1,7,12,19,1,87,84,171,6,0,0,0,0,0,0,0,0,0,0,0,0,0,0,0,0,0,0,0,0,0,0,0,0,0,0,0,0,0,0,0,0,0,0,0,0,0,0,0,0,0,0,0,0,120,113,233,8,10 มิถุนายน 2561
126,126,62020139,บ้านสามเรือน,0,0,0,0,5,4,9,1,11,11,22,1,16,15,31,2,10,10,20,1,7,5,12,1,9,8,17,1,12,5,17,1,12,8,20,1,11,7,18,1,61,43,104,6,0,0,0,0,0,0,0,0,0,0,0,0,0,0,0,0,0,0,0,0,0,0,0,0,0,0,0,0,0,0,0,0,0,0,0,0,0,0,0,0,0,0,0,0,77,58,135,8,10 มิถุนายน 2561
127,127,62020140,อ่างทองราษฎร์วิทยา,1,3,4,1,2,4,6,1,3,1,4,1,6,8,14,3,5,5,10,1,5,6,11,1,5,3,8,1,9,6,15,1,7,3,10,1,9,6,15,1,40,29,69,6,0,0,0,0,0,0,0,0,0,0,0,0,0,0,0,0,0,0,0,0,0,0,0,0,0,0,0,0,0,0,0,0,0,0,0,0,0,0,0,0,0,0,0,0,46,37,83,9,10 มิถุนายน 2561
128,128,62020141,บ้านกระโดนเตี้ย,4,4,8,1,1,2,3,1,4,6,10,1,9,12,21,3,3,6,9,1,8,4,12,1,3,5,8,1,3,2,5,1,2,4,6,1,10,10,20,1,29,31,60,6,0,0,0,0,0,0,0,0,0,0,0,0,0,0,0,0,0,0,0,0,0,0,0,0,0,0,0,0,0,0,0,0,0,0,0,0,0,0,0,0,0,0,0,0,38,43,81,9,10 มิถุนายน 2561
129,129,62020143,บ้านหนองทองหล่อ,0,0,0,0,10,10,20,1,12,11,23,1,22,21,43,2,4,6,10,1,9,12,21,1,3,6,9,1,10,9,19,1,6,5,11,1,3,8,11,1,35,46,81,6,0,0,0,0,0,0,0,0,0,0,0,0,0,0,0,0,0,0,0,0,0,0,0,0,0,0,0,0,0,0,0,0,0,0,0,0,0,0,0,0,0,0,0,0,57,67,124,8,10 มิถุนายน 2561
130,130,62020144,บ้านช้างคับ,5,4,9,1,4,4,8,1,3,2,5,1,12,10,22,3,5,5,10,1,3,2,5,1,5,12,17,1,9,5,14,1,5,1,6,1,7,8,15,1,34,33,67,6,3,8,11,1,7,1,8,1,4,9,13,1,14,18,32,3,0,0,0,0,0,0,0,0,0,0,0,0,0,0,0,0,0,0,0,0,0,0,0,0,0,0,0,0,60,61,121,12,10 มิถุนายน 2561
131,131,62020145,บ้านทรัพย์มะนาว,0,0,0,0,6,15,21,1,5,8,13,1,11,23,34,2,8,10,18,1,5,6,11,1,6,9,15,1,4,8,12,1,5,13,18,1,8,6,14,1,36,52,88,6,10,9,19,1,7,7,14,1,1,8,9,1,18,24,42,3,0,0,0,0,0,0,0,0,0,0,0,0,0,0,0,0,0,0,0,0,0,0,0,0,0,0,0,0,65,99,164,11,10 มิถุนายน 2561
132,132,62020147,บ้านนิคม,4,2,6,1,3,2,5,1,3,1,4,1,10,5,15,3,2,4,6,1,6,2,8,1,5,3,8,1,6,6,12,1,2,3,5,1,3,3,6,1,24,21,45,6,0,0,0,0,0,0,0,0,0,0,0,0,0,0,0,0,0,0,0,0,0,0,0,0,0,0,0,0,0,0,0,0,0,0,0,0,0,0,0,0,0,0,0,0,34,26,60,9,10 มิถุนายน 2561
133,133,62020148,บ้านวังตะล่อม,7,4,11,1,3,8,11,1,4,3,7,1,14,15,29,3,5,8,13,1,7,1,8,1,4,2,6,1,4,6,10,1,6,5,11,1,7,4,11,1,33,26,59,6,0,0,0,0,0,0,0,0,0,0,0,0,0,0,0,0,0,0,0,0,0,0,0,0,0,0,0,0,0,0,0,0,0,0,0,0,0,0,0,0,0,0,0,0,47,41,88,9,10 มิถุนายน 2561
134,134,62020150,บ้านวังน้ำ,0,0,0,0,7,1,8,1,4,5,9,1,11,6,17,2,4,5,9,1,5,3,8,1,7,6,13,1,4,6,10,1,5,7,12,1,7,5,12,1,32,32,64,6,0,0,0,0,0,0,0,0,0,0,0,0,0,0,0,0,0,0,0,0,0,0,0,0,0,0,0,0,0,0,0,0,0,0,0,0,0,0,0,0,0,0,0,0,43,38,81,8,10 มิถุนายน 2561
135,135,62020151,บ้านคลองยาง,3,2,5,1,3,2,5,1,3,4,7,1,9,8,17,3,2,6,8,1,2,3,5,1,4,5,9,1,6,3,9,1,1,3,4,1,1,7,8,1,16,27,43,6,0,0,0,0,0,0,0,0,0,0,0,0,0,0,0,0,0,0,0,0,0,0,0,0,0,0,0,0,0,0,0,0,0,0,0,0,0,0,0,0,0,0,0,0,25,35,60,9,10 มิถุนายน 2561
136,136,62020152,วัดฤกษ์หร่ายสามัคคี,4,6,10,1,4,6,10,1,3,4,7,1,11,16,27,3,3,5,8,1,0,5,5,1,10,5,15,1,6,0,6,1,6,2,8,1,4,3,7,1,29,20,49,6,0,0,0,0,0,0,0,0,0,0,0,0,0,0,0,0,0,0,0,0,0,0,0,0,0,0,0,0,0,0,0,0,0,0,0,0,0,0,0,0,0,0,0,0,40,36,76,9,10 มิถุนายน 2561
137,137,62020153,วัดพิกุลทอง,2,3,5,1,7,4,11,1,5,8,13,1,14,15,29,3,7,6,13,1,4,5,9,1,8,3,11,1,7,4,11,1,1,8,9,1,5,7,12,1,32,33,65,6,0,0,0,0,0,0,0,0,0,0,0,0,0,0,0,0,0,0,0,0,0,0,0,0,0,0,0,0,0,0,0,0,0,0,0,0,0,0,0,0,0,0,0,0,46,48,94,9,10 มิถุนายน 2561
138,138,62020154,วัดอุเบกขาราม,1,4,5,1,4,4,8,1,6,10,16,1,11,18,29,3,7,2,9,1,3,8,11,1,2,2,4,1,7,8,15,1,4,8,12,1,5,4,9,1,28,32,60,6,5,4,9,1,9,5,14,1,6,7,13,1,20,16,36,3,0,0,0,0,0,0,0,0,0,0,0,0,0,0,0,0,0,0,0,0,0,0,0,0,0,0,0,0,59,66,125,12,10 มิถุนายน 2561
139,139,62020156,บ้านหนองโมก,0,0,0,0,8,0,8,1,8,4,12,1,16,4,20,2,2,4,6,1,7,2,9,1,8,4,12,1,4,5,9,1,8,5,13,1,7,2,9,1,36,22,58,6,0,0,0,0,0,0,0,0,0,0,0,0,0,0,0,0,0,0,0,0,0,0,0,0,0,0,0,0,0,0,0,0,0,0,0,0,0,0,0,0,0,0,0,0,52,26,78,8,10 มิถุนายน 2561
140,140,62020157,บ้านถาวรวัฒนา,0,0,0,0,7,6,13,1,12,6,18,1,19,12,31,2,5,7,12,1,17,2,19,1,8,7,15,1,8,4,12,1,5,8,13,1,6,7,13,1,49,35,84,6,4,10,14,1,8,4,12,1,2,1,3,1,14,15,29,3,0,0,0,0,0,0,0,0,0,0,0,0,0,0,0,0,0,0,0,0,0,0,0,0,0,0,0,0,82,62,144,11,10 มิถุนายน 2561
141,141,62020158,บ้านบึงสำราญ,0,0,0,0,14,11,25,1,9,11,20,1,23,22,45,2,13,10,23,1,7,9,16,1,12,10,22,1,19,11,30,1,14,14,28,1,10,12,22,1,75,66,141,6,10,9,19,1,4,10,14,1,12,9,21,1,26,28,54,3,0,0,0,0,0,0,0,0,0,0,0,0,0,0,0,0,0,0,0,0,0,0,0,0,0,0,0,0,124,116,240,11,10 มิถุนายน 2561
142,142,62020159,บ้านหนองไผ่,0,0,0,0,6,1,7,1,4,0,4,1,10,1,11,2,3,10,13,1,10,4,14,1,3,5,8,1,3,6,9,1,2,6,8,1,12,4,16,1,33,35,68,6,0,0,0,0,0,0,0,0,0,0,0,0,0,0,0,0,0,0,0,0,0,0,0,0,0,0,0,0,0,0,0,0,0,0,0,0,0,0,0,0,0,0,0,0,43,36,79,8,10 มิถุนายน 2561
143,143,62020160,บ้านศรีอุดมธัญญะ,0,0,0,0,3,3,6,1,4,0,4,1,7,3,10,2,4,5,9,1,2,2,4,1,2,2,4,1,3,1,4,1,2,3,5,1,1,2,3,1,14,15,29,6,0,0,0,0,0,0,0,0,0,0,0,0,0,0,0,0,0,0,0,0,0,0,0,0,0,0,0,0,0,0,0,0,0,0,0,0,0,0,0,0,0,0,0,0,21,18,39,8,10 มิถุนายน 2561
144,144,62020161,อนุบาลทรายทองวัฒนา,0,0,0,0,12,12,24,1,18,17,35,1,30,29,59,2,24,7,31,1,16,10,26,1,11,10,21,2,15,17,32,2,18,17,35,2,16,18,34,2,100,79,179,10,0,0,0,0,0,0,0,0,0,0,0,0,0,0,0,0,0,0,0,0,0,0,0,0,0,0,0,0,0,0,0,0,0,0,0,0,0,0,0,0,0,0,0,0,130,108,238,12,10 มิถุนายน 2561
145,145,62020162,บ้านวังน้ำแดง,0,0,0,0,10,7,17,1,7,4,11,1,17,11,28,2,9,7,16,1,4,9,13,1,7,11,18,1,9,6,15,1,8,9,17,1,9,9,18,1,46,51,97,6,0,0,0,0,0,0,0,0,0,0,0,0,0,0,0,0,0,0,0,0,0,0,0,0,0,0,0,0,0,0,0,0,0,0,0,0,0,0,0,0,0,0,0,0,63,62,125,8,10 มิถุนายน 2561
146,146,62020163,อนุบาลทุ่งทราย(บ้านหนองนกชุม),0,0,0,0,11,11,22,1,12,3,15,1,23,14,37,2,5,7,12,1,10,5,15,1,7,12,19,1,10,11,21,1,6,7,13,1,5,5,10,1,43,47,90,6,0,0,0,0,0,0,0,0,0,0,0,0,0,0,0,0,0,0,0,0,0,0,0,0,0,0,0,0,0,0,0,0,0,0,0,0,0,0,0,0,0,0,0,0,66,61,127,8,10 มิถุนายน 2561
147,147,62020164,บ้านถนนน้อย,0,0,0,0,8,7,15,1,8,8,16,1,16,15,31,2,9,9,18,1,14,11,25,1,14,10,24,1,15,11,26,1,9,7,16,1,10,10,20,1,71,58,129,6,0,0,0,0,0,0,0,0,0,0,0,0,0,0,0,0,0,0,0,0,0,0,0,0,0,0,0,0,0,0,0,0,0,0,0,0,0,0,0,0,0,0,0,0,87,73,160,8,10 มิถุนายน 2561
148,148,62020165,บ้านชุมนาก,0,0,0,0,12,6,18,1,11,11,22,1,23,17,40,2,5,7,12,1,4,6,10,1,9,6,15,1,6,6,12,1,11,7,18,1,6,8,14,1,41,40,81,6,0,0,0,0,0,0,0,0,0,0,0,0,0,0,0,0,0,0,0,0,0,0,0,0,0,0,0,0,0,0,0,0,0,0,0,0,0,0,0,0,0,0,0,0,64,57,121,8,10 มิถุนายน 2561
149,149,62020166,บ้านคลองสุขใจ,0,0,0,0,14,19,33,1,12,10,22,1,26,29,55,2,11,5,16,1,10,11,21,1,6,13,19,1,15,10,25,1,5,6,11,1,14,13,27,1,61,58,119,6,9,8,17,1,5,11,16,1,13,0,13,1,27,19,46,3,0,0,0,0,0,0,0,0,0,0,0,0,0,0,0,0,0,0,0,0,0,0,0,0,0,0,0,0,114,106,220,11,10 มิถุนายน 2561
150,150,62020167,บ้านทุ่งทอง,0,0,0,0,16,13,29,1,13,12,25,1,29,25,54,2,13,10,23,1,18,12,30,1,12,13,25,1,14,11,25,1,15,15,30,1,9,15,24,1,81,76,157,6,8,6,14,1,8,5,13,1,12,3,15,1,28,14,42,3,0,0,0,0,0,0,0,0,0,0,0,0,0,0,0,0,0,0,0,0,0,0,0,0,0,0,0,0,138,115,253,11,10 มิถุนายน 2561
151,151,62020168,บ้านดงเจริญ,4,4,8,1,5,3,8,1,10,5,15,1,19,12,31,3,3,11,14,1,5,9,14,1,7,6,13,1,4,4,8,1,10,4,14,1,9,7,16,1,38,41,79,6,0,0,0,0,0,0,0,0,0,0,0,0,0,0,0,0,0,0,0,0,0,0,0,0,0,0,0,0,0,0,0,0,0,0,0,0,0,0,0,0,0,0,0,0,57,53,110,9,10 มิถุนายน 2561
152,152,62020169,บ้านเพชรมงคล,0,0,0,0,8,9,17,1,14,9,23,1,22,18,40,2,11,11,22,1,9,6,15,1,12,12,24,1,7,7,14,1,18,10,28,1,18,11,29,1,75,57,132,6,10,15,25,1,12,9,21,1,10,4,14,1,32,28,60,3,0,0,0,0,0,0,0,0,0,0,0,0,0,0,0,0,0,0,0,0,0,0,0,0,0,0,0,0,129,103,232,11,10 มิถุนายน 2561
153,153,62020170,บ้านไพรสวรรค์,0,0,0,0,9,9,18,1,10,3,13,1,19,12,31,2,11,14,25,1,10,10,20,1,8,2,10,1,9,7,16,1,11,2,13,1,6,6,12,1,55,41,96,6,0,0,0,0,0,0,0,0,0,0,0,0,0,0,0,0,0,0,0,0,0,0,0,0,0,0,0,0,0,0,0,0,0,0,0,0,0,0,0,0,0,0,0,0,74,53,127,8,10 มิถุนายน 2561
154,154,62020171,บ้านคลองปลาสร้อย,2,0,2,1,6,1,7,1,3,0,3,1,11,1,12,3,1,6,7,1,5,2,7,1,3,1,4,1,1,0,1,1,2,3,5,1,7,5,12,1,19,17,36,6,0,0,0,0,0,0,0,0,0,0,0,0,0,0,0,0,0,0,0,0,0,0,0,0,0,0,0,0,0,0,0,0,0,0,0,0,0,0,0,0,0,0,0,0,30,18,48,9,10 มิถุนายน 2561
155,155,62020172,บ้านปางตาไว,0,0,0,0,10,6,16,1,9,10,19,1,19,16,35,2,12,15,27,1,9,13,22,1,11,6,17,1,13,4,17,1,8,8,16,1,5,10,15,1,58,56,114,6,15,8,23,1,8,5,13,1,10,10,20,1,33,23,56,3,0,0,0,0,0,0,0,0,0,0,0,0,0,0,0,0,0,0,0,0,0,0,0,0,0,0,0,0,110,95,205,11,10 มิถุนายน 2561
156,156,62020173,บ้านตากฟ้าพัฒนา,3,4,7,1,4,4,8,1,7,8,15,1,14,16,30,3,5,4,9,1,5,3,8,1,4,5,9,1,1,3,4,1,5,4,9,1,5,4,9,1,25,23,48,6,0,0,0,0,0,0,0,0,0,0,0,0,0,0,0,0,0,0,0,0,0,0,0,0,0,0,0,0,0,0,0,0,0,0,0,0,0,0,0,0,0,0,0,0,39,39,78,9,10 มิถุนายน 2561
157,157,62020174,บ้านคลองลึกพัฒนา,0,0,0,0,8,6,14,1,7,11,18,1,15,17,32,2,8,8,16,1,8,10,18,1,5,7,12,1,13,3,16,1,6,15,21,1,9,6,15,1,49,49,98,6,9,11,20,1,7,10,17,1,6,9,15,1,22,30,52,3,0,0,0,0,0,0,0,0,0,0,0,0,0,0,0,0,0,0,0,0,0,0,0,0,0,0,0,0,86,96,182,11,10 มิถุนายน 2561
158,158,62020175,บ้านไผ่ยาวสามัคคี,0,0,0,0,4,5,9,1,9,4,13,1,13,9,22,2,5,3,8,1,7,5,12,1,3,5,8,1,6,1,7,1,6,3,9,1,6,7,13,1,33,24,57,6,0,0,0,0,0,0,0,0,0,0,0,0,0,0,0,0,0,0,0,0,0,0,0,0,0,0,0,0,0,0,0,0,0,0,0,0,0,0,0,0,0,0,0,0,46,33,79,8,10 มิถุนายน 2561
159,159,62020176,บ้านท่าขึ้น,4,6,10,1,10,10,20,1,9,9,18,1,23,25,48,3,10,9,19,1,14,8,22,1,10,11,21,1,6,14,20,1,9,17,26,1,12,15,27,1,61,74,135,6,9,12,21,1,9,8,17,1,7,9,16,1,25,29,54,3,0,0,0,0,0,0,0,0,0,0,0,0,0,0,0,0,0,0,0,0,0,0,0,0,0,0,0,0,109,128,237,12,10 มิถุนายน 2561
160,160,62020177,บ้านโพธิ์ทอง,5,1,6,1,4,2,6,1,3,6,9,1,12,9,21,3,5,2,7,1,4,5,9,1,5,2,7,1,3,1,4,1,5,4,9,1,4,3,7,1,26,17,43,6,0,0,0,0,0,0,0,0,0,0,0,0,0,0,0,0,0,0,0,0,0,0,0,0,0,0,0,0,0,0,0,0,0,0,0,0,0,0,0,0,0,0,0,0,38,26,64,9,10 มิถุนายน 2561
161,161,62020179,บ้านคลองขุด,0,4,4,1,4,4,8,1,6,3,9,1,10,11,21,3,1,3,4,1,0,3,3,1,3,3,6,1,3,1,4,1,8,2,10,1,4,2,6,1,19,14,33,6,0,0,0,0,0,0,0,0,0,0,0,0,0,0,0,0,0,0,0,0,0,0,0,0,0,0,0,0,0,0,0,0,0,0,0,0,0,0,0,0,0,0,0,0,29,25,54,9,10 มิถุนายน 2561
162,162,62020181,อนุบาลปางศิลาทอง,0,0,0,0,12,20,32,2,14,17,31,2,26,37,63,4,26,23,49,2,14,15,29,2,23,17,40,2,17,19,36,2,16,24,40,2,17,11,28,1,113,109,222,11,0,0,0,0,0,0,0,0,0,0,0,0,0,0,0,0,0,0,0,0,0,0,0,0,0,0,0,0,0,0,0,0,0,0,0,0,0,0,0,0,0,0,0,0,139,146,285,15,10 มิถุนายน 2561
163,163,62020182,บ้านหินดาตราษฎร์บำรุง,0,0,0,0,21,14,35,1,19,21,40,2,40,35,75,3,16,16,32,2,19,10,29,1,12,14,26,1,12,14,26,1,12,18,30,1,24,15,39,2,95,87,182,8,15,18,33,1,16,12,28,1,15,13,28,1,46,43,89,3,0,0,0,0,0,0,0,0,0,0,0,0,0,0,0,0,0,0,0,0,0,0,0,0,0,0,0,0,181,165,346,14,10 มิถุนายน 2561
164,164,62020183,บ้านหนองหิน,3,5,8,1,6,7,13,1,1,4,5,1,10,16,26,3,8,5,13,1,7,5,12,1,4,5,9,1,6,4,10,1,1,4,5,1,9,3,12,1,35,26,61,6,0,0,0,0,0,0,0,0,0,0,0,0,0,0,0,0,0,0,0,0,0,0,0,0,0,0,0,0,0,0,0,0,0,0,0,0,0,0,0,0,0,0,0,0,45,42,87,9,10 มิถุนายน 2561
165,165,62020184,บ้านเขาน้ำอุ่น,0,0,0,0,6,4,10,1,6,4,10,1,12,8,20,2,4,11,15,1,6,5,11,1,8,5,13,1,5,6,11,1,6,4,10,1,7,5,12,1,36,36,72,6,0,0,0,0,0,0,0,0,0,0,0,0,0,0,0,0,0,0,0,0,0,0,0,0,0,0,0,0,0,0,0,0,0,0,0,0,0,0,0,0,0,0,0,0,48,44,92,8,10 มิถุนายน 2561
166,166,62020185,บ้านมอเจริญ,0,0,0,0,17,11,28,1,7,7,14,1,24,18,42,2,4,8,12,1,5,7,12,1,7,3,10,1,9,10,19,1,12,8,20,1,5,7,12,1,42,43,85,6,4,11,15,1,11,4,15,1,3,7,10,1,18,22,40,3,0,0,0,0,0,0,0,0,0,0,0,0,0,0,0,0,0,0,0,0,0,0,0,0,0,0,0,0,84,83,167,11,10 มิถุนายน 2561
167,167,62020186,บ้านมอเจริญ สาขาบ้านใหม่เชียงราย,0,0,0,0,3,1,4,1,6,3,9,1,9,4,13,2,5,3,8,1,6,2,8,1,4,5,9,1,3,1,4,1,2,3,5,1,2,0,2,1,22,14,36,6,0,0,0,0,0,0,0,0,0,0,0,0,0,0,0,0,0,0,0,0,0,0,0,0,0,0,0,0,0,0,0,0,0,0,0,0,0,0,0,0,0,0,0,0,31,18,49,8,10 มิถุนายน 2561
168,168,62020187,บ้านจอมทองพัฒนา,0,0,0,0,5,4,9,1,6,4,10,1,11,8,19,2,8,5,13,1,6,7,13,1,4,11,15,1,8,7,15,1,7,9,16,1,6,8,14,1,39,47,86,6,0,0,0,0,0,0,0,0,0,0,0,0,0,0,0,0,0,0,0,0,0,0,0,0,0,0,0,0,0,0,0,0,0,0,0,0,0,0,0,0,0,0,0,0,50,55,105,8,10 มิถุนายน 2561
169,169,62020188,บ้านอุดมทรัพย์,0,0,0,0,7,8,15,1,15,9,24,1,22,17,39,2,6,10,16,1,11,11,22,1,3,10,13,1,8,8,16,1,7,6,13,1,7,6,13,1,42,51,93,6,14,11,25,1,12,10,22,1,2,3,5,1,28,24,52,3,0,0,0,0,0,0,0,0,0,0,0,0,0,0,0,0,0,0,0,0,0,0,0,0,0,0,0,0,92,92,184,11,10 มิถุนายน 2561
170,170,62020189,บ้านซับใหญ่ศึกษานารีอนุสรณ์ 5,0,0,0,0,0,5,5,1,1,7,8,1,1,12,13,2,4,2,6,1,3,3,6,1,4,3,7,1,2,6,8,1,5,1,6,1,5,5,10,1,23,20,43,6,0,0,0,0,0,0,0,0,0,0,0,0,0,0,0,0,0,0,0,0,0,0,0,0,0,0,0,0,0,0,0,0,0,0,0,0,0,0,0,0,0,0,0,0,24,32,56,8,10 มิถุนายน 2561
171,171,62020190,บ้านกระบวยทอง,1,2,3,1,5,1,6,1,4,5,9,1,10,8,18,3,1,0,1,1,2,2,4,1,3,0,3,1,0,1,1,1,1,1,2,1,1,0,1,1,8,4,12,6,0,0,0,0,0,0,0,0,0,0,0,0,0,0,0,0,0,0,0,0,0,0,0,0,0,0,0,0,0,0,0,0,0,0,0,0,0,0,0,0,0,0,0,0,18,12,30,9,10 มิถุนายน 2561
172,172,62020191,บ้านโนนพลวง,1,3,4,1,1,2,3,1,1,1,2,1,3,6,9,3,2,3,5,1,4,5,9,1,2,4,6,1,4,4,8,1,1,3,4,1,1,3,4,1,14,22,36,6,0,0,0,0,0,0,0,0,0,0,0,0,0,0,0,0,0,0,0,0,0,0,0,0,0,0,0,0,0,0,0,0,0,0,0,0,0,0,0,0,0,0,0,0,17,28,45,9,10 มิถุนายน 2561
173,173,62020192,บ้านสามขา,1,4,5,1,3,4,7,1,5,5,10,1,9,13,22,3,4,7,11,1,3,2,5,1,5,5,10,1,5,6,11,1,4,2,6,1,0,5,5,1,21,27,48,6,0,0,0,0,0,0,0,0,0,0,0,0,0,0,0,0,0,0,0,0,0,0,0,0,0,0,0,0,0,0,0,0,0,0,0,0,0,0,0,0,0,0,0,0,30,40,70,9,10 มิถุนายน 2561
174,174,62020193,บ้านวังเจ้า,0,0,0,0,6,4,10,1,5,4,9,1,11,8,19,2,6,5,11,1,6,5,11,1,3,4,7,1,3,3,6,1,6,3,9,1,4,6,10,1,28,26,54,6,0,0,0,0,0,0,0,0,0,0,0,0,0,0,0,0,0,0,0,0,0,0,0,0,0,0,0,0,0,0,0,0,0,0,0,0,0,0,0,0,0,0,0,0,39,34,73,8,10 มิถุนายน 2561
175,175,62020194,บ้านโพธิ์เอน,7,7,14,1,6,9,15,1,8,5,13,1,21,21,42,3,8,7,15,1,6,13,19,1,7,3,10,1,8,5,13,1,11,3,14,1,8,13,21,1,48,44,92,6,0,0,0,0,0,0,0,0,0,0,0,0,0,0,0,0,0,0,0,0,0,0,0,0,0,0,0,0,0,0,0,0,0,0,0,0,0,0,0,0,0,0,0,0,69,65,134,9,10 มิถุนายน 2561
176,176,62020195,บ้านทุ่งซ่าน,6,5,11,1,6,5,11,1,9,4,13,1,21,14,35,3,6,5,11,1,5,3,8,1,1,9,10,1,7,2,9,1,5,10,15,1,8,5,13,1,32,34,66,6,15,5,20,1,10,4,14,1,7,5,12,1,32,14,46,3,0,0,0,0,0,0,0,0,0,0,0,0,0,0,0,0,0,0,0,0,0,0,0,0,0,0,0,0,85,62,147,12,10 มิถุนายน 2561
177,177,62020196,บ้านหนองคล้าพงษ์ทอง,3,4,7,1,4,7,11,1,2,4,6,1,9,15,24,3,2,5,7,1,1,2,3,1,3,1,4,1,6,3,9,1,3,1,4,1,2,5,7,1,17,17,34,6,0,0,0,0,0,0,0,0,0,0,0,0,0,0,0,0,0,0,0,0,0,0,0,0,0,0,0,0,0,0,0,0,0,0,0,0,0,0,0,0,0,0,0,0,26,32,58,9,10 มิถุนายน 2561
178,178,62020197,อนุบาลบึงสามัคคี(บ้านทุ่งสนุ่น),0,0,0,0,12,9,21,1,10,13,23,1,22,22,44,2,8,9,17,1,13,3,16,1,13,7,20,1,14,11,25,1,8,10,18,1,9,9,18,1,65,49,114,6,0,0,0,0,0,0,0,0,0,0,0,0,0,0,0,0,0,0,0,0,0,0,0,0,0,0,0,0,0,0,0,0,0,0,0,0,0,0,0,0,0,0,0,0,87,71,158,8,10 มิถุนายน 2561
179,179,62020198,บ้านดงเย็น,0,0,0,0,3,5,8,1,8,4,12,1,11,9,20,2,3,8,11,1,2,5,7,1,6,6,12,1,3,10,13,1,5,3,8,1,1,7,8,1,20,39,59,6,0,0,0,0,0,0,0,0,0,0,0,0,0,0,0,0,0,0,0,0,0,0,0,0,0,0,0,0,0,0,0,0,0,0,0,0,0,0,0,0,0,0,0,0,31,48,79,8,10 มิถุนายน 2561
180,180,62020199,บ้านศรีทองสามัคคี,0,0,0,0,6,11,17,1,13,9,22,1,19,20,39,2,7,5,12,1,4,4,8,1,11,2,13,1,6,11,17,1,5,2,7,1,6,4,10,1,39,28,67,6,0,0,0,0,0,0,0,0,0,0,0,0,0,0,0,0,0,0,0,0,0,0,0,0,0,0,0,0,0,0,0,0,0,0,0,0,0,0,0,0,0,0,0,0,58,48,106,8,10 มิถุนายน 2561
181,181,62020200,บ้านชายเคือง,0,0,0,0,11,6,17,1,10,11,21,1,21,17,38,2,7,11,18,1,8,9,17,1,7,10,17,1,12,14,26,1,9,16,25,1,10,7,17,1,53,67,120,6,10,14,24,1,9,7,16,1,12,14,26,1,31,35,66,3,0,0,0,0,0,0,0,0,0,0,0,0,0,0,0,0,0,0,0,0,0,0,0,0,0,0,0,0,105,119,224,11,10 มิถุนายน 2561
182,182,62020201,บ้านวังชะโอน,0,0,0,0,5,8,13,1,10,11,21,1,15,19,34,2,9,10,19,1,9,6,15,1,7,9,16,1,7,11,18,1,12,9,21,1,9,5,14,1,53,50,103,6,10,11,21,1,8,8,16,1,12,9,21,1,30,28,58,3,0,0,0,0,0,0,0,0,0,0,0,0,0,0,0,0,0,0,0,0,0,0,0,0,0,0,0,0,98,97,195,11,10 มิถุนายน 2561
183,183,62020202,บ้านคอปล้อง,0,0,0,0,12,7,19,1,5,5,10,1,17,12,29,2,1,2,3,1,5,3,8,1,3,3,6,1,5,5,10,1,10,2,12,1,2,4,6,1,26,19,45,6,0,0,0,0,0,0,0,0,0,0,0,0,0,0,0,0,0,0,0,0,0,0,0,0,0,0,0,0,0,0,0,0,0,0,0,0,0,0,0,0,0,0,0,0,43,31,74,8,10 มิถุนายน 2561
184,184,62020203,บ้านไผ่งาม,4,1,5,1,6,8,14,1,0,3,3,1,10,12,22,3,4,2,6,1,3,3,6,1,5,2,7,1,3,3,6,1,3,2,5,1,5,3,8,1,23,15,38,6,0,0,0,0,0,0,0,0,0,0,0,0,0,0,0,0,0,0,0,0,0,0,0,0,0,0,0,0,0,0,0,0,0,0,0,0,0,0,0,0,0,0,0,0,33,27,60,9,10 มิถุนายน 2561
185,185,62020204,บ้านระหานประชาศึกษา,6,6,12,1,4,4,8,1,3,10,13,1,13,20,33,3,7,3,10,1,2,6,8,1,5,3,8,1,3,7,10,1,3,3,6,1,2,5,7,1,22,27,49,6,0,0,0,0,0,0,0,0,0,0,0,0,0,0,0,0,0,0,0,0,0,0,0,0,0,0,0,0,0,0,0,0,0,0,0,0,0,0,0,0,0,0,0,0,35,47,82,9,10 มิถุนายน 2561
186,186,62020205,บ้านบึงสามัคคีกำแพงเขต,0,0,0,0,12,7,19,1,18,13,31,1,30,20,50,2,17,11,28,1,20,17,37,1,14,6,20,1,12,15,27,1,8,9,17,1,15,13,28,1,86,71,157,6,11,12,23,1,22,10,32,1,14,7,21,1,47,29,76,3,0,0,0,0,0,0,0,0,0,0,0,0,0,0,0,0,0,0,0,0,0,0,0,0,0,0,0,0,163,120,283,11,10 มิถุนายน 2561
