,0,1,2,3,4,5,6,7,8,9,10,11,12,13,14,15,16,17,18,19,20,21,22,23,24,25,26,27,28,29,30,31,32,33,34,35,36,37,38,39,40,41,42,43,44,45,46,47,48,49,50,51,52,53,54,55,56,57,58,59,60,61,62,63,64,65,66,67,68,69,70,71,72,73,74,75,76,77,78,79,80,81,82,83,84,85,86,87,88,89,90,91,92,93,94,95
0,ลำดับ,รหัส SMIS,โรงเรียน,อ.3 ขวบ ชาย,อ.3 ขวบ หญิง,รวมอ.3 ขวบ,อ.3 ขวบ ห้อง,อ.1 ชาย,อ.1 หญิง,รวมอ.1,อ.1 ห้อง,อ.2 ชาย,อ.2 หญิง,รวมอ.2,อ.2 ห้อง,รวมก่อนประถม ชาย,รวมก่อนประถม หญิง,รวมก่อนประถม,รวมห้องก่อนประถม,ป.1 ชาย,ป.1 หญิง,รวมป.1,ป.1 ห้อง,ป.2 ชาย,ป.2 หญิง,รวมป.2,ป.2 ห้อง,ป.3 ชาย,ป.3 หญิง,รวมป.3,ป.3 ห้อง,ป.4 ชาย,ป.4 หญิง,รวมป.4,ป.4 ห้อง,ป.5 ชาย,ป.5 หญิง,รวมป.5,ป.5 ห้อง,ป.6 ชาย,ป.6 หญิง,รวมป.6,ป.6 ห้อง,รวมประถม ชาย,รวมประถม หญิง,รวมประถม,รวมห้องประถม,ม.1 ชาย,ม.1 หญิง,รวมม.1,ม.1 ห้อง,ม.2 ชาย,ม.2 หญิง,รวมม.2,ม.2 ห้อง,ม.3 ชาย,ม.3 หญิง,รวมม.3,ม.3 ห้อง,รวมม.ต้น ชาย,รวมม.ต้น หญิง,รวมม.ต้น,รวมห้องม.ต้น,ม.4 ชาย,ม.4 หญิง,รวมม.4,ม.4 ห้อง,ม.5 ชาย,ม.5 หญิง,รวมม.5,ม.5 ห้อง,ม.6 ชาย,ม.6 หญิง,รวมม.6,ม.6 ห้อง,ปวช.1 ชาย,ปวช.1 หญิง,รวมปวช.1,ปวช.1 ห้อง,ปวช.2 ชาย,ปวช.2 หญิง,รวมปวช.2,ปวช.2 ห้อง,ปวช.3 ชาย,ปวช.3 หญิง,รวมปวช.3,ปวช.3 ห้อง,รวมม.ปลายและเทียบเท่า ชาย,รวมม.ปลายและเทียบเท่า หญิง,รวมม.ปลายและเทียบเท่า,รวมห้องม.ปลายและเทียบเท่า,รวมทั้งหมด ชาย,รวมทั้งหมด หญิง,รวมทั้งหมด,รวมห้องทั้งหมด,ข้อมูล ณ วันที่
1,1,63020001,บ้านป่าไร่,5,5,10,1,8,3,11,1,9,8,17,1,22,16,38,3,49,23,72,2,21,29,50,2,16,10,26,1,14,15,29,1,18,8,26,1,15,9,24,1,133,94,227,8,0,0,0,0,0,0,0,0,0,0,0,0,0,0,0,0,0,0,0,0,0,0,0,0,0,0,0,0,0,0,0,0,0,0,0,0,0,0,0,0,0,0,0,0,155,110,265,11,10 มิถุนายน 2561
2,2,63020002,บ้านแม่ระมาดน้อย,0,0,0,0,12,14,26,1,15,19,34,1,27,33,60,2,11,14,25,1,20,21,41,2,8,9,17,1,24,12,36,1,11,13,24,1,11,18,29,1,85,87,172,7,32,44,76,2,21,40,61,2,24,37,61,2,77,121,198,6,0,0,0,0,0,0,0,0,0,0,0,0,0,0,0,0,0,0,0,0,0,0,0,0,0,0,0,0,189,241,430,15,10 มิถุนายน 2561
3,3,63020003,บ้านจกปก,3,4,7,1,0,6,6,1,6,4,10,1,9,14,23,3,3,4,7,1,5,3,8,1,7,4,11,1,5,4,9,1,7,3,10,1,5,3,8,1,32,21,53,6,0,0,0,0,0,0,0,0,0,0,0,0,0,0,0,0,0,0,0,0,0,0,0,0,0,0,0,0,0,0,0,0,0,0,0,0,0,0,0,0,0,0,0,0,41,35,76,9,10 มิถุนายน 2561
4,4,63020005,บ้านพะละ,5,3,8,1,5,3,8,1,6,3,9,1,16,9,25,3,3,10,13,1,1,3,4,1,5,3,8,1,4,7,11,1,8,5,13,1,1,7,8,1,22,35,57,6,0,0,0,0,0,0,0,0,0,0,0,0,0,0,0,0,0,0,0,0,0,0,0,0,0,0,0,0,0,0,0,0,0,0,0,0,0,0,0,0,0,0,0,0,38,44,82,9,10 มิถุนายน 2561
5,5,63020007,บ้านขะเนจื้อ,0,0,0,0,29,26,55,2,37,22,59,2,66,48,114,4,51,40,91,3,48,34,82,3,35,27,62,2,15,29,44,2,26,42,68,2,26,33,59,2,201,205,406,14,40,44,84,3,25,29,54,2,33,43,76,2,98,116,214,7,0,0,0,0,0,0,0,0,0,0,0,0,0,0,0,0,0,0,0,0,0,0,0,0,0,0,0,0,365,369,734,25,10 มิถุนายน 2561
6,6,63020008,กลาโหมราชเสนา,0,0,0,0,13,4,17,1,8,4,12,1,21,8,29,2,8,8,16,1,10,9,19,1,3,9,12,1,10,7,17,1,9,6,15,1,2,12,14,1,42,51,93,6,0,0,0,0,0,0,0,0,0,0,0,0,0,0,0,0,0,0,0,0,0,0,0,0,0,0,0,0,0,0,0,0,0,0,0,0,0,0,0,0,0,0,0,0,63,59,122,8,10 มิถุนายน 2561
7,7,63020009,บ้านป่าไร่เหนือ,0,0,0,0,12,7,19,1,17,14,31,1,29,21,50,2,19,11,30,1,7,13,20,1,12,6,18,1,13,6,19,1,5,5,10,1,9,6,15,1,65,47,112,6,0,0,0,0,0,0,0,0,0,0,0,0,0,0,0,0,0,0,0,0,0,0,0,0,0,0,0,0,0,0,0,0,0,0,0,0,0,0,0,0,0,0,0,0,94,68,162,8,10 มิถุนายน 2561
8,8,63020010,บ้านขุนห้วยนกแล,0,0,0,0,6,6,12,1,9,9,18,1,15,15,30,2,9,3,12,1,9,4,13,1,8,2,10,1,5,9,14,1,4,8,12,1,5,1,6,1,40,27,67,6,0,0,0,0,0,0,0,0,0,0,0,0,0,0,0,0,0,0,0,0,0,0,0,0,0,0,0,0,0,0,0,0,0,0,0,0,0,0,0,0,0,0,0,0,55,42,97,8,10 มิถุนายน 2561
9,9,63020011,บ้านทุ่งมะขามป้อม,0,0,0,0,7,13,20,1,1,3,4,1,8,16,24,2,8,3,11,1,7,4,11,1,4,4,8,1,6,3,9,1,7,2,9,1,3,6,9,1,35,22,57,6,0,0,0,0,0,0,0,0,0,0,0,0,0,0,0,0,0,0,0,0,0,0,0,0,0,0,0,0,0,0,0,0,0,0,0,0,0,0,0,0,0,0,0,0,43,38,81,8,10 มิถุนายน 2561
10,10,63020012,บ้านสันป่าไร่,2,3,5,1,3,5,8,1,5,4,9,1,10,12,22,3,5,2,7,1,1,4,5,1,1,4,5,1,7,5,12,1,9,4,13,1,0,2,2,1,23,21,44,6,12,8,20,1,18,18,36,1,10,14,24,1,40,40,80,3,0,0,0,0,0,0,0,0,0,0,0,0,0,0,0,0,0,0,0,0,0,0,0,0,0,0,0,0,73,73,146,12,10 มิถุนายน 2561
11,11,63020014,บ้านวังผา,0,0,0,0,14,13,27,1,31,14,45,2,45,27,72,3,9,15,24,1,16,10,26,1,18,8,26,1,16,15,31,1,12,18,30,1,14,17,31,1,85,83,168,6,0,0,0,0,0,0,0,0,0,0,0,0,0,0,0,0,0,0,0,0,0,0,0,0,0,0,0,0,0,0,0,0,0,0,0,0,0,0,0,0,0,0,0,0,130,110,240,9,10 มิถุนายน 2561
12,12,63020016,ชุมชนบ้านแม่จะเราบ้านทุ่ง,9,3,12,1,9,1,10,1,12,6,18,1,30,10,40,3,19,17,36,1,10,18,28,1,13,15,28,1,13,13,26,1,12,12,24,1,11,14,25,1,78,89,167,6,0,0,0,0,0,0,0,0,0,0,0,0,0,0,0,0,0,0,0,0,0,0,0,0,0,0,0,0,0,0,0,0,0,0,0,0,0,0,0,0,0,0,0,0,108,99,207,9,10 มิถุนายน 2561
13,13,63020017,บ้านแม่จะเราสองแคว,13,15,28,1,14,14,28,1,6,13,19,1,33,42,75,3,34,22,56,2,28,28,56,2,31,22,53,2,24,14,38,2,28,22,50,2,21,21,42,2,166,129,295,12,0,0,0,0,0,0,0,0,0,0,0,0,0,0,0,0,0,0,0,0,0,0,0,0,0,0,0,0,0,0,0,0,0,0,0,0,0,0,0,0,0,0,0,0,199,171,370,15,10 มิถุนายน 2561
14,14,63020018,บ้านห้วยบง,0,0,0,0,0,0,0,0,14,7,21,1,14,7,21,1,20,6,26,1,11,14,25,1,14,5,19,1,9,6,15,1,9,9,18,1,12,4,16,1,75,44,119,6,12,4,16,1,6,12,18,1,7,18,25,1,25,34,59,3,0,0,0,0,0,0,0,0,0,0,0,0,0,0,0,0,0,0,0,0,0,0,0,0,0,0,0,0,114,85,199,10,10 มิถุนายน 2561
15,15,63020019,บ้านห้วยโป่ง,0,0,0,0,3,1,4,1,5,4,9,1,8,5,13,2,7,8,15,1,4,3,7,1,4,3,7,1,6,1,7,1,3,7,10,1,7,7,14,1,31,29,60,6,0,0,0,0,0,0,0,0,0,0,0,0,0,0,0,0,0,0,0,0,0,0,0,0,0,0,0,0,0,0,0,0,0,0,0,0,0,0,0,0,0,0,0,0,39,34,73,8,10 มิถุนายน 2561
16,16,63020020,บ้านน้ำหอม,0,0,0,0,16,12,28,1,19,15,34,1,35,27,62,2,11,13,24,1,14,13,27,1,15,12,27,1,13,17,30,1,13,13,26,1,9,17,26,1,75,85,160,6,14,42,56,2,10,25,35,1,3,35,38,1,27,102,129,4,0,0,0,0,0,0,0,0,0,0,0,0,0,0,0,0,0,0,0,0,0,0,0,0,0,0,0,0,137,214,351,12,10 มิถุนายน 2561
17,17,63020021,บ้านต้นผึ้ง,7,11,18,1,14,2,16,1,11,9,20,1,32,22,54,3,14,9,23,1,5,9,14,1,7,10,17,1,6,13,19,1,5,3,8,1,8,5,13,1,45,49,94,6,0,0,0,0,0,0,0,0,0,0,0,0,0,0,0,0,0,0,0,0,0,0,0,0,0,0,0,0,0,0,0,0,0,0,0,0,0,0,0,0,0,0,0,0,77,71,148,9,10 มิถุนายน 2561
18,18,63020022,บ้านแม่ระมาดราษฎร์บำรุง,11,9,20,1,28,20,48,2,23,15,38,2,62,44,106,5,27,44,71,2,28,25,53,2,32,23,55,2,34,29,63,2,27,30,57,2,34,30,64,2,182,181,363,12,0,0,0,0,0,0,0,0,0,0,0,0,0,0,0,0,0,0,0,0,0,0,0,0,0,0,0,0,0,0,0,0,0,0,0,0,0,0,0,0,0,0,0,0,244,225,469,17,10 มิถุนายน 2561
19,19,63020023,บ้านห้วยนกแล,0,0,0,0,27,30,57,1,29,32,61,1,56,62,118,2,24,36,60,1,25,25,50,1,22,25,47,1,20,24,44,1,26,11,37,1,17,16,33,1,134,137,271,6,0,0,0,0,0,0,0,0,0,0,0,0,0,0,0,0,0,0,0,0,0,0,0,0,0,0,0,0,0,0,0,0,0,0,0,0,0,0,0,0,0,0,0,0,190,199,389,8,10 มิถุนายน 2561
20,20,63020024,บ้านขุนห้วยแม่ท้อ,0,0,0,0,12,15,27,1,15,14,29,1,27,29,56,2,28,16,44,1,13,15,28,1,6,12,18,1,10,13,23,1,17,7,24,1,14,14,28,1,88,77,165,6,9,9,18,1,15,12,27,1,12,8,20,1,36,29,65,3,0,0,0,0,0,0,0,0,0,0,0,0,0,0,0,0,0,0,0,0,0,0,0,0,0,0,0,0,151,135,286,11,10 มิถุนายน 2561
21,21,63020025,บ้านสามหมื่น,1,1,2,1,11,13,24,1,23,10,33,1,35,24,59,3,17,19,36,1,14,16,30,1,10,7,17,1,9,16,25,1,12,9,21,1,8,7,15,1,70,74,144,6,0,0,0,0,0,0,0,0,0,0,0,0,0,0,0,0,0,0,0,0,0,0,0,0,0,0,0,0,0,0,0,0,0,0,0,0,0,0,0,0,0,0,0,0,105,98,203,9,10 มิถุนายน 2561
22,22,63020026,ท่านผู้หญิงพรสม กุลฑลจินดา,0,0,0,0,21,17,38,2,23,28,51,2,44,45,89,4,26,26,52,2,33,21,54,2,36,24,60,2,18,19,37,2,21,21,42,2,21,14,35,1,155,125,280,11,25,38,63,2,19,32,51,2,20,24,44,1,64,94,158,5,0,0,0,0,0,0,0,0,0,0,0,0,0,0,0,0,0,0,0,0,0,0,0,0,0,0,0,0,263,264,527,20,10 มิถุนายน 2561
23,23,63020027,ชุมชนบ้านท่าสองยาง,0,0,0,0,47,50,97,3,49,50,99,3,96,100,196,6,58,60,118,3,50,60,110,3,51,38,89,2,49,61,110,3,33,59,92,2,42,50,92,2,283,328,611,15,58,83,141,4,37,70,107,3,32,56,88,3,127,209,336,10,0,0,0,0,0,0,0,0,0,0,0,0,0,0,0,0,0,0,0,0,0,0,0,0,0,0,0,0,506,637,1143,31,10 มิถุนายน 2561
24,24,63020028,บ้านแม่ตื่น,0,0,0,0,37,40,77,2,34,38,72,2,71,78,149,4,43,34,77,2,26,34,60,2,27,20,47,2,23,24,47,1,27,25,52,1,23,18,41,1,169,155,324,9,0,0,0,0,0,0,0,0,0,0,0,0,0,0,0,0,0,0,0,0,0,0,0,0,0,0,0,0,0,0,0,0,0,0,0,0,0,0,0,0,0,0,0,0,240,233,473,13,10 มิถุนายน 2561
25,25,63020029,บ้านทุ่งถ้ำ,0,0,0,0,28,12,40,1,37,35,72,2,65,47,112,3,26,23,49,2,21,16,37,2,28,19,47,2,20,24,44,2,11,25,36,1,11,16,27,2,117,123,240,11,0,0,0,0,0,0,0,0,0,0,0,0,0,0,0,0,0,0,0,0,0,0,0,0,0,0,0,0,0,0,0,0,0,0,0,0,0,0,0,0,0,0,0,0,182,170,352,14,10 มิถุนายน 2561
26,26,63020030,บ้านแม่โพ,0,0,0,0,7,5,12,1,9,7,16,1,16,12,28,2,9,13,22,1,7,11,18,1,4,9,13,1,7,11,18,1,13,12,25,1,6,5,11,1,46,61,107,6,0,0,0,0,0,0,0,0,0,0,0,0,0,0,0,0,0,0,0,0,0,0,0,0,0,0,0,0,0,0,0,0,0,0,0,0,0,0,0,0,0,0,0,0,62,73,135,8,10 มิถุนายน 2561
27,27,63020031,โรงเรียนบ้านอู่หู่,0,0,0,0,31,18,49,1,17,23,40,1,48,41,89,2,36,22,58,1,26,27,53,2,29,15,44,2,8,14,22,1,22,15,37,1,10,14,24,1,131,107,238,8,0,0,0,0,0,0,0,0,0,0,0,0,0,0,0,0,0,0,0,0,0,0,0,0,0,0,0,0,0,0,0,0,0,0,0,0,0,0,0,0,0,0,0,0,179,148,327,10,10 มิถุนายน 2561
28,28,63020032,ชุมชนบ้านแม่ต้านราษฎรบำรุง,0,0,0,0,45,37,82,3,54,37,91,3,99,74,173,6,35,57,92,3,47,39,86,3,32,22,54,2,41,39,80,2,32,28,60,2,33,29,62,3,220,214,434,15,0,0,0,0,0,0,0,0,0,0,0,0,0,0,0,0,0,0,0,0,0,0,0,0,0,0,0,0,0,0,0,0,0,0,0,0,0,0,0,0,0,0,0,0,319,288,607,21,10 มิถุนายน 2561
29,29,63020033,บ้านขุนห้วยแม่ต้าน,0,0,0,0,5,11,16,1,13,6,19,1,18,17,35,2,19,11,30,1,17,8,25,1,13,6,19,1,7,7,14,1,3,6,9,1,2,5,7,1,61,43,104,6,0,0,0,0,0,0,0,0,0,0,0,0,0,0,0,0,0,0,0,0,0,0,0,0,0,0,0,0,0,0,0,0,0,0,0,0,0,0,0,0,0,0,0,0,79,60,139,8,10 มิถุนายน 2561
30,30,63020034,บ้านแม่วะหลวง,15,8,23,1,7,7,14,1,6,14,20,1,28,29,57,3,12,15,27,1,8,14,22,1,11,10,21,1,13,9,22,1,14,12,26,1,13,11,24,1,71,71,142,6,18,23,41,1,7,19,26,1,10,19,29,1,35,61,96,3,0,0,0,0,0,0,0,0,0,0,0,0,0,0,0,0,0,0,0,0,0,0,0,0,0,0,0,0,134,161,295,12,10 มิถุนายน 2561
31,31,63020035,บ้านแม่อมกิ,0,0,0,0,60,47,107,1,55,53,108,1,115,100,215,2,85,75,160,1,75,59,134,1,61,51,112,1,45,53,98,2,44,34,78,2,31,47,78,2,341,319,660,9,11,39,50,2,17,39,56,2,12,33,45,1,40,111,151,5,0,0,0,0,0,0,0,0,0,0,0,0,0,0,0,0,0,0,0,0,0,0,0,0,0,0,0,0,496,530,1026,16,10 มิถุนายน 2561
32,32,63020036,บ้านแม่สลิดหลวงวิทยา,0,0,0,0,133,122,255,3,131,143,274,4,264,265,529,7,199,139,338,5,152,134,286,4,134,99,233,4,103,120,223,5,63,88,151,4,62,84,146,4,713,664,1377,26,48,67,115,4,44,53,97,3,36,38,74,2,128,158,286,9,12,44,56,2,13,33,46,2,6,33,39,2,0,0,0,0,0,0,0,0,0,0,0,0,31,110,141,6,1136,1197,2333,48,10 มิถุนายน 2561
33,33,63020037,บ้านแม่ระเมิง,13,11,24,1,24,45,69,1,64,60,124,1,101,116,217,3,74,79,153,2,72,46,118,2,56,61,117,1,56,54,110,2,61,54,115,2,52,55,107,2,371,349,720,11,39,91,130,4,39,61,100,3,32,73,105,3,110,225,335,10,26,52,78,3,25,32,57,3,14,45,59,3,0,0,0,0,0,0,0,0,0,0,0,0,65,129,194,9,647,819,1466,33,10 มิถุนายน 2561
34,34,63020038,บ้านแม่ระเมิงสาขาตะพิเดอ,1,0,1,1,1,2,3,1,2,5,7,1,4,7,11,3,7,1,8,1,4,2,6,1,4,5,9,1,11,8,19,1,10,13,23,1,8,12,20,1,44,41,85,6,0,0,0,0,0,0,0,0,0,0,0,0,0,0,0,0,0,0,0,0,0,0,0,0,0,0,0,0,0,0,0,0,0,0,0,0,0,0,0,0,0,0,0,0,48,48,96,9,10 มิถุนายน 2561
35,35,63020039,บ้านแม่สละเหนือ,0,0,0,0,24,23,47,1,31,32,63,2,55,55,110,3,18,14,32,1,12,10,22,1,13,13,26,1,7,13,20,1,13,5,18,1,14,16,30,1,77,71,148,6,0,0,0,0,0,0,0,0,0,0,0,0,0,0,0,0,0,0,0,0,0,0,0,0,0,0,0,0,0,0,0,0,0,0,0,0,0,0,0,0,0,0,0,0,132,126,258,9,10 มิถุนายน 2561
36,36,63020040,บ้านแม่ออกผารู,0,0,0,0,9,14,23,2,13,19,32,2,22,33,55,4,18,7,25,2,19,12,31,2,17,11,28,2,17,8,25,2,8,15,23,2,6,15,21,2,85,68,153,12,0,0,0,0,0,0,0,0,0,0,0,0,0,0,0,0,0,0,0,0,0,0,0,0,0,0,0,0,0,0,0,0,0,0,0,0,0,0,0,0,0,0,0,0,107,101,208,16,10 มิถุนายน 2561
37,37,63020041,บ้านแม่สละ,3,2,5,1,11,11,22,1,16,14,30,1,30,27,57,3,27,15,42,1,8,10,18,1,8,13,21,1,3,9,12,1,6,6,12,1,6,5,11,1,58,58,116,6,19,27,46,1,14,19,33,1,18,22,40,1,51,68,119,3,0,0,0,0,0,0,0,0,0,0,0,0,0,0,0,0,0,0,0,0,0,0,0,0,0,0,0,0,139,153,292,12,10 มิถุนายน 2561
38,38,63020042,บ้านห้วยนกกกสาขาบ้านจ่อคี,0,0,0,0,4,10,14,1,10,4,14,1,14,14,28,2,12,10,22,1,10,6,16,1,6,9,15,1,14,3,17,1,6,5,11,1,3,8,11,1,51,41,92,6,0,0,0,0,0,0,0,0,0,0,0,0,0,0,0,0,0,0,0,0,0,0,0,0,0,0,0,0,0,0,0,0,0,0,0,0,0,0,0,0,0,0,0,0,65,55,120,8,10 มิถุนายน 2561
39,39,63020043,บ้านห้วยนกกก,0,0,0,0,38,48,86,3,25,32,57,2,63,80,143,5,45,28,73,2,38,29,67,2,25,20,45,2,34,25,59,2,19,19,38,2,19,25,44,2,180,146,326,12,37,86,123,3,18,61,79,3,13,52,65,2,68,199,267,8,0,0,0,0,0,0,0,0,0,0,0,0,0,0,0,0,0,0,0,0,0,0,0,0,0,0,0,0,311,425,736,25,10 มิถุนายน 2561
40,40,63020044,บ้านแม่อุสุวิทยา,0,0,0,0,11,11,22,1,56,59,115,4,67,70,137,5,89,80,169,5,51,53,104,4,54,37,91,4,41,59,100,4,42,55,97,3,44,44,88,3,321,328,649,23,55,91,146,4,36,62,98,3,30,53,83,3,121,206,327,10,25,46,71,2,23,33,56,2,19,30,49,2,0,0,0,0,0,0,0,0,0,0,0,0,67,109,176,6,576,713,1289,44,10 มิถุนายน 2561
41,41,63020045,บ้านหนองบัว,0,0,0,0,26,23,49,2,66,68,134,4,92,91,183,6,108,80,188,5,65,48,113,3,78,56,134,4,51,66,117,3,46,53,99,3,48,63,111,3,396,366,762,21,28,42,70,3,28,63,91,3,35,50,85,2,91,155,246,8,0,0,0,0,0,0,0,0,0,0,0,0,0,0,0,0,0,0,0,0,0,0,0,0,0,0,0,0,579,612,1191,35,10 มิถุนายน 2561
42,42,63020046,บ้านแม่พลู,0,0,0,0,39,46,85,1,30,34,64,1,69,80,149,2,44,34,78,1,42,18,60,1,42,38,80,2,36,37,73,1,28,30,58,1,20,28,48,1,212,185,397,7,17,26,43,1,8,18,26,1,14,16,30,1,39,60,99,3,0,0,0,0,0,0,0,0,0,0,0,0,0,0,0,0,0,0,0,0,0,0,0,0,0,0,0,0,320,325,645,12,10 มิถุนายน 2561
43,43,63020047,บ้านปางส้าน,0,0,0,0,10,14,24,1,7,12,19,1,17,26,43,2,15,11,26,1,9,19,28,1,14,12,26,1,13,14,27,1,13,15,28,1,11,10,21,1,75,81,156,6,13,6,19,1,6,12,18,1,13,14,27,1,32,32,64,3,0,0,0,0,0,0,0,0,0,0,0,0,0,0,0,0,0,0,0,0,0,0,0,0,0,0,0,0,124,139,263,11,10 มิถุนายน 2561
44,44,63020048,ไทยรัฐวิทยา 61 (บ้านห้วยยะอุ),0,0,0,0,7,3,10,1,15,15,30,1,22,18,40,2,10,7,17,1,7,13,20,1,9,9,18,1,12,9,21,1,12,15,27,1,11,12,23,1,61,65,126,6,9,14,23,1,15,12,27,1,11,6,17,1,35,32,67,3,0,0,0,0,0,0,0,0,0,0,0,0,0,0,0,0,0,0,0,0,0,0,0,0,0,0,0,0,118,115,233,11,10 มิถุนายน 2561
45,45,63020049,บ้านห้วยปลาหลด,2,7,9,1,3,4,7,1,8,5,13,1,13,16,29,3,10,9,19,1,13,10,23,1,13,5,18,1,7,14,21,1,10,10,20,1,7,13,20,1,60,61,121,6,11,18,29,1,8,14,22,1,6,14,20,1,25,46,71,3,0,0,0,0,0,0,0,0,0,0,0,0,0,0,0,0,0,0,0,0,0,0,0,0,0,0,0,0,98,123,221,12,10 มิถุนายน 2561
46,46,63020050,บ้านธงชัย,0,0,0,0,15,14,29,1,16,16,32,1,31,30,61,2,10,11,21,1,9,6,15,1,18,7,25,1,8,5,13,1,8,7,15,1,6,11,17,1,59,47,106,6,0,0,0,0,0,0,0,0,0,0,0,0,0,0,0,0,0,0,0,0,0,0,0,0,0,0,0,0,0,0,0,0,0,0,0,0,0,0,0,0,0,0,0,0,90,77,167,8,10 มิถุนายน 2561
47,47,63020051,บ้านห้วยม่วง,0,0,0,0,6,14,20,1,19,8,27,2,25,22,47,3,22,15,37,1,11,15,26,1,28,16,44,1,9,17,26,1,8,10,18,1,12,10,22,1,90,83,173,6,17,11,28,1,7,3,10,1,6,6,12,1,30,20,50,3,0,0,0,0,0,0,0,0,0,0,0,0,0,0,0,0,0,0,0,0,0,0,0,0,0,0,0,0,145,125,270,12,10 มิถุนายน 2561
48,48,63020052,บ้านท่าอาจ,0,0,0,0,45,39,84,3,35,31,66,3,80,70,150,6,70,60,130,4,36,37,73,2,40,30,70,2,33,61,94,3,34,34,68,2,21,42,63,2,234,264,498,15,0,0,0,0,0,0,0,0,0,0,0,0,0,0,0,0,0,0,0,0,0,0,0,0,0,0,0,0,0,0,0,0,0,0,0,0,0,0,0,0,0,0,0,0,314,334,648,21,10 มิถุนายน 2561
49,49,63020053,บ้านวังตะเคียน,0,0,0,0,17,17,34,2,21,23,44,2,38,40,78,4,23,18,41,2,26,30,56,2,11,23,34,1,11,13,24,1,13,17,30,1,13,7,20,1,97,108,205,8,14,12,26,1,12,14,26,1,8,13,21,1,34,39,73,3,0,0,0,0,0,0,0,0,0,0,0,0,0,0,0,0,0,0,0,0,0,0,0,0,0,0,0,0,169,187,356,15,10 มิถุนายน 2561
50,50,63020054,บ้านแม่ตาว,11,14,25,1,18,9,27,1,19,14,33,1,48,37,85,3,37,25,62,2,27,14,41,1,25,17,42,1,22,15,37,1,21,18,39,1,21,20,41,1,153,109,262,7,53,34,87,2,36,38,74,2,26,24,50,2,115,96,211,6,0,0,0,0,0,0,0,0,0,0,0,0,0,0,0,0,0,0,0,0,0,0,0,0,0,0,0,0,316,242,558,16,10 มิถุนายน 2561
51,51,63020055,บ้านหัวฝาย,0,0,0,0,30,46,76,2,19,14,33,1,49,60,109,3,50,37,87,3,37,31,68,2,33,26,59,2,31,21,52,2,16,16,32,1,17,13,30,1,184,144,328,11,0,0,0,0,0,0,0,0,0,0,0,0,0,0,0,0,0,0,0,0,0,0,0,0,0,0,0,0,0,0,0,0,0,0,0,0,0,0,0,0,0,0,0,0,233,204,437,14,10 มิถุนายน 2561
52,52,63020056,บ้านค้างภิบาล,0,0,0,0,11,10,21,1,11,12,23,1,22,22,44,2,12,11,23,1,6,4,10,1,11,4,15,1,13,15,28,1,5,13,18,1,12,12,24,1,59,59,118,6,0,0,0,0,0,0,0,0,0,0,0,0,0,0,0,0,0,0,0,0,0,0,0,0,0,0,0,0,0,0,0,0,0,0,0,0,0,0,0,0,0,0,0,0,81,81,162,8,10 มิถุนายน 2561
53,53,63020057,บ้านแม่ตาวใหม่,0,0,0,0,17,12,29,1,6,8,14,1,23,20,43,2,15,12,27,1,8,13,21,1,8,7,15,1,5,5,10,1,4,5,9,1,6,7,13,1,46,49,95,6,0,0,0,0,0,0,0,0,0,0,0,0,0,0,0,0,0,0,0,0,0,0,0,0,0,0,0,0,0,0,0,0,0,0,0,0,0,0,0,0,0,0,0,0,69,69,138,8,10 มิถุนายน 2561
54,54,63020058,บ้านพะเด๊ะ,0,0,0,0,7,7,14,1,10,7,17,1,17,14,31,2,7,11,18,1,12,13,25,1,9,10,19,1,8,7,15,1,10,12,22,1,12,5,17,1,58,58,116,6,13,3,16,1,10,6,16,1,6,12,18,1,29,21,50,3,0,0,0,0,0,0,0,0,0,0,0,0,0,0,0,0,0,0,0,0,0,0,0,0,0,0,0,0,104,93,197,11,10 มิถุนายน 2561
55,55,63020059,บ้านปูแป้,0,0,0,0,5,8,13,1,8,4,12,1,13,12,25,2,3,8,11,1,4,3,7,1,3,6,9,1,3,2,5,1,3,2,5,1,2,0,2,1,18,21,39,6,0,0,0,0,0,0,0,0,0,0,0,0,0,0,0,0,0,0,0,0,0,0,0,0,0,0,0,0,0,0,0,0,0,0,0,0,0,0,0,0,0,0,0,0,31,33,64,8,10 มิถุนายน 2561
56,56,63020060,ญาณวิศิษฎ์,0,0,0,0,19,10,29,3,18,13,31,3,37,23,60,6,17,19,36,3,20,19,39,3,15,23,38,3,11,24,35,3,18,16,34,3,16,15,31,3,97,116,213,18,11,10,21,1,9,8,17,1,9,7,16,1,29,25,54,3,0,0,0,0,0,0,0,0,0,0,0,0,0,0,0,0,0,0,0,0,0,0,0,0,0,0,0,0,163,164,327,27,10 มิถุนายน 2561
57,57,63020061,วัดสว่างอารมณ์,0,0,0,0,16,15,31,1,15,9,24,1,31,24,55,2,6,10,16,1,6,2,8,1,4,3,7,1,7,6,13,1,5,5,10,1,4,2,6,1,32,28,60,6,0,0,0,0,0,0,0,0,0,0,0,0,0,0,0,0,0,0,0,0,0,0,0,0,0,0,0,0,0,0,0,0,0,0,0,0,0,0,0,0,0,0,0,0,63,52,115,8,10 มิถุนายน 2561
58,58,63020062,บ้านแม่ละเมา,7,14,21,1,7,11,18,1,9,8,17,1,23,33,56,3,15,10,25,1,14,8,22,1,7,6,13,1,18,9,27,1,11,15,26,1,14,9,23,1,79,57,136,6,0,0,0,0,0,0,0,0,0,0,0,0,0,0,0,0,0,0,0,0,0,0,0,0,0,0,0,0,0,0,0,0,0,0,0,0,0,0,0,0,0,0,0,0,102,90,192,9,10 มิถุนายน 2561
59,59,63020063,บ้านม่อนหินเหล็กไฟ,0,0,0,0,7,8,15,1,7,13,20,1,14,21,35,2,20,13,33,1,10,7,17,1,7,9,16,1,8,12,20,1,12,6,18,1,5,14,19,1,62,61,123,6,0,0,0,0,0,0,0,0,0,0,0,0,0,0,0,0,0,0,0,0,0,0,0,0,0,0,0,0,0,0,0,0,0,0,0,0,0,0,0,0,0,0,0,0,76,82,158,8,10 มิถุนายน 2561
60,60,63020064,บ้านเจดีย์โคะ,0,0,0,0,63,52,115,4,71,63,134,5,134,115,249,9,54,50,104,3,44,39,83,3,62,62,124,4,44,51,95,3,36,55,91,3,54,53,107,3,294,310,604,19,47,37,84,3,28,50,78,3,42,45,87,3,117,132,249,9,0,0,0,0,0,0,0,0,0,0,0,0,0,0,0,0,0,0,0,0,0,0,0,0,0,0,0,0,545,557,1102,37,10 มิถุนายน 2561
61,61,63020065,บ้านห้วยไม้แป้น,0,0,0,0,4,4,8,1,6,5,11,1,10,9,19,2,13,8,21,1,6,10,16,1,4,4,8,1,11,3,14,1,5,4,9,1,4,4,8,1,43,33,76,6,0,0,0,0,0,0,0,0,0,0,0,0,0,0,0,0,0,0,0,0,0,0,0,0,0,0,0,0,0,0,0,0,0,0,0,0,0,0,0,0,0,0,0,0,53,42,95,8,10 มิถุนายน 2561
62,62,63020066,บ้านแม่โกนเกน,0,0,0,0,17,24,41,1,24,11,35,1,41,35,76,2,14,19,33,1,27,23,50,2,16,21,37,1,20,20,40,1,21,15,36,1,17,18,35,1,115,116,231,7,19,16,35,1,17,15,32,1,14,17,31,1,50,48,98,3,0,0,0,0,0,0,0,0,0,0,0,0,0,0,0,0,0,0,0,0,0,0,0,0,0,0,0,0,206,199,405,12,10 มิถุนายน 2561
63,63,63020067,บ้านแม่กื้ดหลวงกัญไชยมิตรภาพที่ 182,0,0,0,0,0,0,0,0,0,0,0,0,0,0,0,0,23,25,48,2,22,22,44,2,24,27,51,2,25,25,50,2,26,25,51,2,17,17,34,1,137,141,278,11,16,33,49,1,17,18,35,1,14,19,33,1,47,70,117,3,0,0,0,0,0,0,0,0,0,0,0,0,0,0,0,0,0,0,0,0,0,0,0,0,0,0,0,0,184,211,395,14,10 มิถุนายน 2561
64,64,63020068,บ้านแม่กื้ดสามท่า,3,6,9,1,4,7,11,1,7,10,17,1,14,23,37,3,11,12,23,1,5,5,10,1,9,6,15,1,7,5,12,1,6,7,13,1,8,9,17,1,46,44,90,6,12,6,18,1,6,5,11,1,2,5,7,1,20,16,36,3,0,0,0,0,0,0,0,0,0,0,0,0,0,0,0,0,0,0,0,0,0,0,0,0,0,0,0,0,80,83,163,12,10 มิถุนายน 2561
65,65,63020069,บ้านแม่กาษา,0,0,0,0,17,16,33,1,12,13,25,1,29,29,58,2,18,11,29,1,14,13,27,1,12,5,17,1,16,13,29,1,15,14,29,1,19,12,31,1,94,68,162,6,14,10,24,1,16,19,35,1,16,16,32,1,46,45,91,3,0,0,0,0,0,0,0,0,0,0,0,0,0,0,0,0,0,0,0,0,0,0,0,0,0,0,0,0,169,142,311,11,10 มิถุนายน 2561
66,66,63020070,บ้านน้ำดิบ,0,0,0,0,11,10,21,1,8,13,21,1,19,23,42,2,7,7,14,1,7,5,12,1,9,11,20,1,12,10,22,1,6,4,10,1,11,7,18,1,52,44,96,6,0,0,0,0,0,0,0,0,0,0,0,0,0,0,0,0,0,0,0,0,0,0,0,0,0,0,0,0,0,0,0,0,0,0,0,0,0,0,0,0,0,0,0,0,71,67,138,8,10 มิถุนายน 2561
67,67,63020071,ชุมชนบ้านแม่กุน้อย,10,13,23,1,18,15,33,1,12,8,20,1,40,36,76,3,14,9,23,1,8,11,19,1,6,5,11,1,7,9,16,1,8,6,14,1,7,5,12,1,50,45,95,6,0,0,0,0,0,0,0,0,0,0,0,0,0,0,0,0,0,0,0,0,0,0,0,0,0,0,0,0,0,0,0,0,0,0,0,0,0,0,0,0,0,0,0,0,90,81,171,9,10 มิถุนายน 2561
68,68,63020072,บ้านแม่กุเหนือ,5,11,16,1,1,8,9,1,7,8,15,1,13,27,40,3,11,17,28,1,12,12,24,1,10,8,18,1,10,12,22,1,12,10,22,1,6,11,17,1,61,70,131,6,0,0,0,0,0,0,0,0,0,0,0,0,0,0,0,0,0,0,0,0,0,0,0,0,0,0,0,0,0,0,0,0,0,0,0,0,0,0,0,0,0,0,0,0,74,97,171,9,10 มิถุนายน 2561
69,69,63020073,บ้านแม่กุหลวง,1,6,7,1,10,9,19,1,5,12,17,1,16,27,43,3,6,6,12,1,4,8,12,1,4,7,11,1,5,8,13,1,3,5,8,1,5,6,11,1,27,40,67,6,0,0,0,0,0,0,0,0,0,0,0,0,0,0,0,0,0,0,0,0,0,0,0,0,0,0,0,0,0,0,0,0,0,0,0,0,0,0,0,0,0,0,0,0,43,67,110,9,10 มิถุนายน 2561
70,70,63020075,บ้านปูเต้อ,0,0,0,0,10,13,23,1,13,9,22,1,23,22,45,2,17,21,38,1,13,16,29,1,13,11,24,1,17,6,23,1,9,19,28,1,13,7,20,1,82,80,162,6,18,20,38,1,11,20,31,1,14,19,33,1,43,59,102,3,0,0,0,0,0,0,0,0,0,0,0,0,0,0,0,0,0,0,0,0,0,0,0,0,0,0,0,0,148,161,309,11,10 มิถุนายน 2561
71,71,63020076,โรงเรียนบ้านแม่ตาวแพะ,0,0,0,0,8,6,14,1,9,9,18,1,17,15,32,2,10,8,18,1,12,10,22,1,14,9,23,1,14,8,22,1,10,7,17,1,10,7,17,1,70,49,119,6,0,0,0,0,0,0,0,0,0,0,0,0,0,0,0,0,0,0,0,0,0,0,0,0,0,0,0,0,0,0,0,0,0,0,0,0,0,0,0,0,0,0,0,0,87,64,151,8,10 มิถุนายน 2561
72,72,63020077,บ้านแม่ตาวใต้,10,7,17,1,8,10,18,1,10,4,14,1,28,21,49,3,12,9,21,1,10,6,16,1,6,8,14,1,8,8,16,1,7,4,11,1,7,7,14,1,50,42,92,6,3,1,4,1,7,0,7,1,1,1,2,1,11,2,13,3,0,0,0,0,0,0,0,0,0,0,0,0,0,0,0,0,0,0,0,0,0,0,0,0,0,0,0,0,89,65,154,12,10 มิถุนายน 2561
73,73,63020078,ชุมชนบ้านแม่ตาวกลางมิตรภาพที่ 26,0,0,0,0,16,14,30,1,13,10,23,1,29,24,53,2,12,12,24,1,10,17,27,1,9,10,19,1,12,10,22,1,21,10,31,1,10,17,27,1,74,76,150,6,18,17,35,1,10,16,26,1,10,12,22,1,38,45,83,3,0,0,0,0,0,0,0,0,0,0,0,0,0,0,0,0,0,0,0,0,0,0,0,0,0,0,0,0,141,145,286,11,10 มิถุนายน 2561
74,74,63020079,บ้านแม่ปะ,0,0,0,0,7,7,14,1,13,7,20,1,20,14,34,2,11,6,17,1,11,11,22,1,14,14,28,1,12,7,19,1,12,4,16,1,14,7,21,1,74,49,123,6,0,0,0,0,0,0,0,0,0,0,0,0,0,0,0,0,0,0,0,0,0,0,0,0,0,0,0,0,0,0,0,0,0,0,0,0,0,0,0,0,0,0,0,0,94,63,157,8,10 มิถุนายน 2561
75,75,63020080,บ้านแม่ปะเหนือ,3,2,5,1,9,8,17,1,10,11,21,1,22,21,43,3,19,14,33,1,13,6,19,1,6,8,14,1,7,5,12,1,10,8,18,1,1,4,5,1,56,45,101,6,0,0,0,0,0,0,0,0,0,0,0,0,0,0,0,0,0,0,0,0,0,0,0,0,0,0,0,0,0,0,0,0,0,0,0,0,0,0,0,0,0,0,0,0,78,66,144,9,10 มิถุนายน 2561
76,76,63020081,บ้านแม่ปะใต้,0,0,0,0,11,6,17,1,13,14,27,1,24,20,44,2,22,22,44,1,16,19,35,1,18,10,28,1,12,6,18,1,6,8,14,1,10,9,19,1,84,74,158,6,0,0,0,0,0,0,0,0,0,0,0,0,0,0,0,0,0,0,0,0,0,0,0,0,0,0,0,0,0,0,0,0,0,0,0,0,0,0,0,0,0,0,0,0,108,94,202,8,10 มิถุนายน 2561
77,77,63020082,บ้านห้วยกะโหลก,15,6,21,1,23,12,35,1,24,25,49,2,62,43,105,4,44,47,91,3,38,37,75,2,35,19,54,2,15,19,34,1,31,34,65,2,20,26,46,2,183,182,365,12,20,13,33,1,16,16,32,1,6,14,20,1,42,43,85,3,0,0,0,0,0,0,0,0,0,0,0,0,0,0,0,0,0,0,0,0,0,0,0,0,0,0,0,0,287,268,555,19,10 มิถุนายน 2561
78,78,63020083,บ้านห้วยหินฝน,0,0,0,0,24,15,39,1,13,11,24,1,37,26,63,2,10,11,21,1,4,9,13,1,7,4,11,1,5,8,13,1,7,4,11,1,6,2,8,1,39,38,77,6,0,0,0,0,0,0,0,0,0,0,0,0,0,0,0,0,0,0,0,0,0,0,0,0,0,0,0,0,0,0,0,0,0,0,0,0,0,0,0,0,0,0,0,0,76,64,140,8,10 มิถุนายน 2561
79,79,63020084,แม่สอด,6,11,17,1,22,24,46,2,28,24,52,2,56,59,115,5,51,46,97,3,64,51,115,4,49,47,96,3,55,53,108,3,38,34,72,2,40,54,94,2,297,285,582,17,40,36,76,2,36,24,60,2,37,33,70,2,113,93,206,6,0,0,0,0,0,0,0,0,0,0,0,0,0,0,0,0,0,0,0,0,0,0,0,0,0,0,0,0,466,437,903,28,10 มิถุนายน 2561
80,80,63020085,ป่าไม้อุทิศ 4,0,0,0,0,57,54,111,4,72,61,133,5,129,115,244,9,73,59,132,4,58,63,121,4,50,65,115,4,46,48,94,3,42,48,90,3,50,49,99,3,319,332,651,21,53,56,109,3,59,71,130,4,43,64,107,3,155,191,346,10,62,95,157,4,45,84,129,4,60,61,121,4,0,0,0,0,0,0,0,0,0,0,0,0,167,240,407,12,770,878,1648,52,10 มิถุนายน 2561
81,81,63020086,บ้านร่มเกล้า 2,0,0,0,0,49,49,98,3,51,45,96,3,100,94,194,6,45,49,94,3,33,33,66,3,27,30,57,3,39,38,77,2,39,32,71,2,28,28,56,2,211,210,421,15,21,21,42,2,19,27,46,2,26,21,47,2,66,69,135,6,0,0,0,0,0,0,0,0,0,0,0,0,0,0,0,0,0,0,0,0,0,0,0,0,0,0,0,0,377,373,750,27,10 มิถุนายน 2561
82,82,63020087,บ้านร่มเกล้า 3,0,0,0,0,13,28,41,2,34,25,59,2,47,53,100,4,28,18,46,2,29,23,52,2,25,26,51,2,26,18,44,2,20,18,38,1,13,7,20,1,141,110,251,10,0,0,0,0,0,0,0,0,0,0,0,0,0,0,0,0,0,0,0,0,0,0,0,0,0,0,0,0,0,0,0,0,0,0,0,0,0,0,0,0,0,0,0,0,188,163,351,14,10 มิถุนายน 2561
83,83,63020088,บ้านร่มเกล้า 4,0,0,0,0,66,53,119,3,38,30,68,2,104,83,187,5,79,102,181,5,40,43,83,2,22,16,38,1,19,13,32,1,13,14,27,1,21,18,39,2,194,206,400,12,20,16,36,1,8,19,27,1,13,13,26,1,41,48,89,3,0,0,0,0,0,0,0,0,0,0,0,0,0,0,0,0,0,0,0,0,0,0,0,0,0,0,0,0,339,337,676,20,10 มิถุนายน 2561
84,84,63020089,บ้านป่าคาใหม่,0,0,0,0,27,39,66,1,46,31,77,1,73,70,143,2,36,39,75,2,27,28,55,1,19,28,47,1,21,13,34,2,13,11,24,1,23,20,43,2,139,139,278,9,18,13,31,2,26,17,43,2,18,13,31,1,62,43,105,5,0,0,0,0,0,0,0,0,0,0,0,0,0,0,0,0,0,0,0,0,0,0,0,0,0,0,0,0,274,252,526,16,10 มิถุนายน 2561
85,85,63020090,รวมไทยพัฒนา 3,0,0,0,0,31,40,71,2,36,28,64,2,67,68,135,4,36,32,68,3,33,31,64,3,36,23,59,3,35,22,57,2,23,26,49,2,33,23,56,2,196,157,353,15,14,34,48,2,27,23,50,2,25,27,52,2,66,84,150,6,0,0,0,0,0,0,0,0,0,0,0,0,0,0,0,0,0,0,0,0,0,0,0,0,0,0,0,0,329,309,638,25,10 มิถุนายน 2561
86,86,63020091,ไทยราษฎร์คีรี,21,12,33,1,52,58,110,4,46,54,100,3,119,124,243,8,35,36,71,3,24,22,46,2,25,17,42,2,16,22,38,2,18,18,36,2,21,15,36,2,139,130,269,13,28,23,51,2,21,21,42,2,22,6,28,1,71,50,121,5,0,0,0,0,0,0,0,0,0,0,0,0,0,0,0,0,0,0,0,0,0,0,0,0,0,0,0,0,329,304,633,26,10 มิถุนายน 2561
87,87,63020092,รวมไทยพัฒนา 6,0,0,0,0,15,19,34,1,17,11,28,1,32,30,62,2,16,15,31,1,9,8,17,1,7,17,24,1,7,11,18,1,9,7,16,1,11,9,20,1,59,67,126,6,7,17,24,1,11,8,19,1,7,12,19,1,25,37,62,3,0,0,0,0,0,0,0,0,0,0,0,0,0,0,0,0,0,0,0,0,0,0,0,0,0,0,0,0,116,134,250,11,10 มิถุนายน 2561
88,88,63020093,อรุณเมธา,0,0,0,0,43,19,62,2,23,30,53,2,66,49,115,4,27,24,51,2,38,34,72,2,27,31,58,2,41,27,68,2,30,34,64,2,23,22,45,2,186,172,358,12,24,27,51,2,27,29,56,2,15,19,34,1,66,75,141,5,0,0,0,0,0,0,0,0,0,0,0,0,0,0,0,0,0,0,0,0,0,0,0,0,0,0,0,0,318,296,614,21,10 มิถุนายน 2561
89,89,63020094,บ้านช่องแคบ,0,0,0,0,9,5,14,1,7,9,16,1,16,14,30,2,9,10,19,1,13,8,21,1,8,11,19,1,13,12,25,1,7,3,10,1,8,4,12,1,58,48,106,6,19,18,37,1,14,16,30,1,5,12,17,1,38,46,84,3,0,0,0,0,0,0,0,0,0,0,0,0,0,0,0,0,0,0,0,0,0,0,0,0,0,0,0,0,112,108,220,11,10 มิถุนายน 2561
90,90,63020095,บ้านขุนห้วยช่องแคบ,0,0,0,0,17,14,31,1,5,15,20,1,22,29,51,2,8,15,23,1,10,8,18,1,6,6,12,1,12,9,21,1,6,4,10,1,7,8,15,1,49,50,99,6,0,0,0,0,0,0,0,0,0,0,0,0,0,0,0,0,0,0,0,0,0,0,0,0,0,0,0,0,0,0,0,0,0,0,0,0,0,0,0,0,0,0,0,0,71,79,150,8,10 มิถุนายน 2561
91,91,63020096,บ้านทีกะเป่อ,6,8,14,1,8,10,18,1,7,10,17,1,21,28,49,3,13,6,19,1,3,8,11,1,5,4,9,1,3,1,4,1,7,7,14,1,7,5,12,1,38,31,69,6,0,0,0,0,0,0,0,0,0,0,0,0,0,0,0,0,0,0,0,0,0,0,0,0,0,0,0,0,0,0,0,0,0,0,0,0,0,0,0,0,0,0,0,0,59,59,118,9,10 มิถุนายน 2561
92,92,63020097,ชุมชนบ้านพบพระ,0,0,0,0,55,47,102,4,58,47,105,4,113,94,207,8,99,81,180,6,72,70,142,5,75,63,138,5,91,74,165,4,71,64,135,4,74,63,137,4,482,415,897,28,39,43,82,3,46,43,89,3,45,45,90,3,130,131,261,9,0,0,0,0,0,0,0,0,0,0,0,0,0,0,0,0,0,0,0,0,0,0,0,0,0,0,0,0,725,640,1365,45,10 มิถุนายน 2561
93,93,63020098,บ้านหมื่นฤาชัย,0,0,0,0,23,24,47,2,25,31,56,2,48,55,103,4,24,26,50,2,25,35,60,2,20,21,41,1,16,25,41,1,19,23,42,1,16,17,33,1,120,147,267,8,0,0,0,0,0,0,0,0,0,0,0,0,0,0,0,0,0,0,0,0,0,0,0,0,0,0,0,0,0,0,0,0,0,0,0,0,0,0,0,0,0,0,0,0,168,202,370,12,10 มิถุนายน 2561
94,94,63020099,ห้วยน้ำนักวิทยา,0,0,0,0,32,24,56,2,28,30,58,2,60,54,114,4,35,38,73,3,44,34,78,3,28,41,69,3,44,38,82,3,36,38,74,3,34,24,58,3,221,213,434,18,23,43,66,2,17,38,55,2,14,20,34,1,54,101,155,5,0,0,0,0,0,0,0,0,0,0,0,0,0,0,0,0,0,0,0,0,0,0,0,0,0,0,0,0,335,368,703,27,10 มิถุนายน 2561
95,95,63020100,รวมไทยพัฒนา 1,0,0,0,0,49,35,84,3,31,37,68,3,80,72,152,6,58,38,96,3,40,44,84,3,29,32,61,2,27,30,57,2,39,32,71,2,29,25,54,2,222,201,423,14,27,23,50,2,17,20,37,2,29,19,48,2,73,62,135,6,0,0,0,0,0,0,0,0,0,0,0,0,0,0,0,0,0,0,0,0,0,0,0,0,0,0,0,0,375,335,710,26,10 มิถุนายน 2561
96,96,63020101,รวมไทยพัฒนา 2,0,0,0,0,53,70,123,4,56,53,109,4,109,123,232,8,57,47,104,4,56,60,116,4,38,44,82,3,54,40,94,3,36,21,57,3,30,36,66,3,271,248,519,20,34,31,65,2,31,36,67,2,26,27,53,2,91,94,185,6,0,0,0,0,0,0,0,0,0,0,0,0,0,0,0,0,0,0,0,0,0,0,0,0,0,0,0,0,471,465,936,34,10 มิถุนายน 2561
97,97,63020102,รวมไทยพัฒนา 4,0,0,0,0,20,19,39,2,25,15,40,2,45,34,79,4,26,22,48,2,16,14,30,1,20,22,42,2,16,17,33,1,16,17,33,1,11,16,27,1,105,108,213,8,19,9,28,1,23,25,48,1,14,13,27,1,56,47,103,3,0,0,0,0,0,0,0,0,0,0,0,0,0,0,0,0,0,0,0,0,0,0,0,0,0,0,0,0,206,189,395,15,10 มิถุนายน 2561
98,98,63020103,รวมไทยพัฒนา 5,0,0,0,0,18,9,27,1,0,0,0,0,18,9,27,1,46,41,87,2,14,38,52,2,27,31,58,2,26,23,49,2,15,18,33,1,29,22,51,2,157,173,330,11,32,25,57,2,8,22,30,1,20,23,43,2,60,70,130,5,0,0,0,0,0,0,0,0,0,0,0,0,0,0,0,0,0,0,0,0,0,0,0,0,0,0,0,0,235,252,487,17,10 มิถุนายน 2561
99,99,63020104,บ้านวาเล่ย์,0,0,0,0,20,18,38,1,22,11,33,1,42,29,71,2,17,9,26,1,9,8,17,1,15,5,20,1,10,9,19,1,10,11,21,1,14,8,22,1,75,50,125,6,13,7,20,1,2,5,7,1,5,13,18,1,20,25,45,3,0,0,0,0,0,0,0,0,0,0,0,0,0,0,0,0,0,0,0,0,0,0,0,0,0,0,0,0,137,104,241,11,10 มิถุนายน 2561
100,100,63020105,บ้านมอเกอ,0,0,0,0,17,16,33,1,8,7,15,1,25,23,48,2,28,23,51,2,14,15,29,1,21,15,36,1,12,17,29,1,10,15,25,1,7,13,20,1,92,98,190,7,0,0,0,0,0,0,0,0,0,0,0,0,0,0,0,0,0,0,0,0,0,0,0,0,0,0,0,0,0,0,0,0,0,0,0,0,0,0,0,0,0,0,0,0,117,121,238,9,10 มิถุนายน 2561
101,101,63020106,ตำรวจตระเวนชายแดนบ้านแม่ออกฮู,0,0,0,0,31,22,53,2,43,51,94,3,74,73,147,5,56,27,83,3,28,26,54,2,29,27,56,2,25,28,53,2,17,27,44,2,24,12,36,1,179,147,326,12,0,0,0,0,0,0,0,0,0,0,0,0,0,0,0,0,0,0,0,0,0,0,0,0,0,0,0,0,0,0,0,0,0,0,0,0,0,0,0,0,0,0,0,0,253,220,473,17,10 มิถุนายน 2561
102,102,63020107,บ้านยะพอ,0,0,0,0,19,19,38,2,23,26,49,2,42,45,87,4,34,18,52,2,17,14,31,2,16,15,31,1,17,19,36,2,18,13,31,1,12,22,34,2,114,101,215,10,11,20,31,1,3,12,15,1,7,19,26,1,21,51,72,3,0,0,0,0,0,0,0,0,0,0,0,0,0,0,0,0,0,0,0,0,0,0,0,0,0,0,0,0,177,197,374,17,10 มิถุนายน 2561
103,103,63020108,บ้านแม่กลองใหม่,0,0,0,0,26,11,37,1,22,21,43,1,48,32,80,2,26,14,40,1,19,13,32,1,16,7,23,1,19,18,37,1,16,12,28,1,21,10,31,1,117,74,191,6,0,0,0,0,0,0,0,0,0,0,0,0,0,0,0,0,0,0,0,0,0,0,0,0,0,0,0,0,0,0,0,0,0,0,0,0,0,0,0,0,0,0,0,0,165,106,271,8,10 มิถุนายน 2561
104,104,63020109,บ้านแม่กลองเก่า,0,0,0,0,6,5,11,1,4,6,10,1,10,11,21,2,11,4,15,1,3,9,12,1,6,4,10,1,4,5,9,1,10,6,16,1,3,12,15,1,37,40,77,6,0,0,0,0,0,0,0,0,0,0,0,0,0,0,0,0,0,0,0,0,0,0,0,0,0,0,0,0,0,0,0,0,0,0,0,0,0,0,0,0,0,0,0,0,47,51,98,8,10 มิถุนายน 2561
105,105,63020110,บ้านกล้อทอ,0,0,0,0,48,54,102,3,47,40,87,2,95,94,189,5,55,50,105,2,41,29,70,2,50,40,90,2,31,38,69,2,29,31,60,2,29,35,64,2,235,223,458,12,24,52,76,2,19,44,63,2,18,34,52,2,61,130,191,6,10,36,46,2,13,35,48,3,11,31,42,2,0,0,0,0,0,0,0,0,0,0,0,0,34,102,136,7,425,549,974,30,10 มิถุนายน 2561
106,106,63020111,บ้านนุเซะโปล้,0,0,0,0,23,26,49,1,23,25,48,1,46,51,97,2,32,27,59,1,29,39,68,1,36,23,59,1,27,15,42,1,25,25,50,1,22,22,44,1,171,151,322,6,12,8,20,1,17,13,30,1,6,15,21,1,35,36,71,3,0,0,0,0,0,0,0,0,0,0,0,0,0,0,0,0,0,0,0,0,0,0,0,0,0,0,0,0,252,238,490,11,10 มิถุนายน 2561
107,107,63020112,ท่านผู้หญิงวิไล อมาตยกุล (บ้านเปิงเคลิ่ง),0,0,0,0,52,51,103,3,39,38,77,2,91,89,180,5,65,52,117,3,51,44,95,3,53,44,97,3,49,45,94,3,29,40,69,2,36,43,79,2,283,268,551,16,27,35,62,2,24,20,44,2,24,42,66,3,75,97,172,7,8,14,22,1,10,14,24,1,5,7,12,1,0,0,0,0,0,0,0,0,0,0,0,0,23,35,58,3,472,489,961,31,10 มิถุนายน 2561
108,108,63020113,บ้านแม่ละมุ้งวิทยา,0,0,0,0,12,8,20,1,13,7,20,1,25,15,40,2,12,10,22,1,12,16,28,1,12,8,20,1,13,8,21,1,8,12,20,1,4,15,19,1,61,69,130,6,12,16,28,1,14,14,28,1,12,6,18,1,38,36,74,3,0,0,0,0,0,0,0,0,0,0,0,0,0,0,0,0,0,0,0,0,0,0,0,0,0,0,0,0,124,120,244,11,10 มิถุนายน 2561
109,109,63020114,บ้านปรอผาโด้,0,0,0,0,4,2,6,1,8,3,11,1,12,5,17,2,27,38,65,2,21,27,48,2,22,23,45,2,18,19,37,1,17,18,35,2,13,14,27,1,118,139,257,10,10,13,23,1,12,16,28,1,8,16,24,1,30,45,75,3,0,0,0,0,0,0,0,0,0,0,0,0,0,0,0,0,0,0,0,0,0,0,0,0,0,0,0,0,160,189,349,15,10 มิถุนายน 2561
110,110,63020115,บ้านไม้กะพง,2,2,4,1,1,6,7,1,2,3,5,1,5,11,16,3,19,25,44,2,13,13,26,1,21,19,40,2,14,14,28,1,17,14,31,1,8,27,35,1,92,112,204,8,0,0,0,0,0,0,0,0,0,0,0,0,0,0,0,0,0,0,0,0,0,0,0,0,0,0,0,0,0,0,0,0,0,0,0,0,0,0,0,0,0,0,0,0,97,123,220,11,10 มิถุนายน 2561
111,111,63020116,บ้านแม่กลองน้อย,0,0,0,0,8,6,14,1,14,14,28,1,22,20,42,2,12,11,23,1,13,6,19,1,9,4,13,1,4,13,17,1,5,5,10,1,7,6,13,1,50,45,95,6,0,0,0,0,0,0,0,0,0,0,0,0,0,0,0,0,0,0,0,0,0,0,0,0,0,0,0,0,0,0,0,0,0,0,0,0,0,0,0,0,0,0,0,0,72,65,137,8,10 มิถุนายน 2561
112,112,63020117,ขุนห้วยบ้านรุ่ง,0,0,0,0,7,17,24,1,12,11,23,1,19,28,47,2,21,16,37,1,13,13,26,1,11,10,21,1,5,8,13,1,4,13,17,1,9,13,22,1,63,73,136,6,0,0,0,0,0,0,0,0,0,0,0,0,0,0,0,0,0,0,0,0,0,0,0,0,0,0,0,0,0,0,0,0,0,0,0,0,0,0,0,0,0,0,0,0,82,101,183,8,10 มิถุนายน 2561
113,113,63020118,บ้านหนองหลวง,0,0,0,0,0,0,0,0,0,0,0,0,0,0,0,0,13,15,28,1,10,8,18,1,8,10,18,1,4,12,16,1,3,15,18,1,17,15,32,1,55,75,130,6,9,21,30,1,13,13,26,1,16,12,28,1,38,46,84,3,0,0,0,0,0,0,0,0,0,0,0,0,0,0,0,0,0,0,0,0,0,0,0,0,0,0,0,0,93,121,214,9,10 มิถุนายน 2561
114,114,63020119,บ้านเซอทะ,10,6,16,1,15,7,22,1,13,8,21,1,38,21,59,3,11,14,25,1,6,12,18,1,10,8,18,1,11,8,19,1,12,10,22,1,9,10,19,1,59,62,121,6,0,0,0,0,0,0,0,0,0,0,0,0,0,0,0,0,0,0,0,0,0,0,0,0,0,0,0,0,0,0,0,0,0,0,0,0,0,0,0,0,0,0,0,0,97,83,180,9,10 มิถุนายน 2561
115,115,63020121,ชุมชนบ้านอุ้มผาง,0,0,0,0,25,23,48,2,27,26,53,2,52,49,101,4,38,41,79,2,45,29,74,2,34,17,51,2,32,19,51,2,45,38,83,2,28,36,64,2,222,180,402,12,0,0,0,0,0,0,0,0,0,0,0,0,0,0,0,0,0,0,0,0,0,0,0,0,0,0,0,0,0,0,0,0,0,0,0,0,0,0,0,0,0,0,0,0,274,229,503,16,10 มิถุนายน 2561
116,116,63020122,สามัคคีวิทยา,0,0,0,0,11,19,30,1,0,0,0,0,11,19,30,1,31,31,62,2,23,14,37,2,20,17,37,2,23,14,37,2,14,18,32,1,25,17,42,2,136,111,247,11,0,0,0,0,0,0,0,0,0,0,0,0,0,0,0,0,0,0,0,0,0,0,0,0,0,0,0,0,0,0,0,0,0,0,0,0,0,0,0,0,0,0,0,0,147,130,277,12,10 มิถุนายน 2561
117,117,63020124,รวมไทยพัฒนา 4 สาขาบ้านพะดี,0,0,0,0,10,12,22,1,15,12,27,1,25,24,49,2,9,15,24,1,12,10,22,1,9,9,18,1,9,12,21,1,12,4,16,1,6,7,13,1,57,57,114,6,0,0,0,0,0,0,0,0,0,0,0,0,0,0,0,0,0,0,0,0,0,0,0,0,0,0,0,0,0,0,0,0,0,0,0,0,0,0,0,0,0,0,0,0,82,81,163,8,10 มิถุนายน 2561
118,118,63020126,ไทยราษฎร์คีรี สาขาบ้านสามยอดดอย,0,0,0,0,25,20,45,1,20,21,41,1,45,41,86,2,13,14,27,1,23,13,36,1,4,15,19,1,5,11,16,1,12,13,25,1,10,5,15,1,67,71,138,6,0,0,0,0,0,0,0,0,0,0,0,0,0,0,0,0,0,0,0,0,0,0,0,0,0,0,0,0,0,0,0,0,0,0,0,0,0,0,0,0,0,0,0,0,112,112,224,8,10 มิถุนายน 2561
119,119,63020127,บ้านห้วยปลาหลด สาขาบ้านห้วยจะกือ,4,1,5,1,4,2,6,1,1,3,4,1,9,6,15,3,2,2,4,1,7,4,11,1,3,0,3,1,4,2,6,1,4,8,12,1,5,3,8,1,25,19,44,6,0,0,0,0,0,0,0,0,0,0,0,0,0,0,0,0,0,0,0,0,0,0,0,0,0,0,0,0,0,0,0,0,0,0,0,0,0,0,0,0,0,0,0,0,34,25,59,9,10 มิถุนายน 2561
120,120,63020128,บ้านถ้ำผาโด้,0,0,0,0,9,8,17,1,12,14,26,1,21,22,43,2,22,16,38,1,12,11,23,1,17,17,34,1,9,11,20,1,7,7,14,1,8,7,15,1,75,69,144,6,0,0,0,0,0,0,0,0,0,0,0,0,0,0,0,0,0,0,0,0,0,0,0,0,0,0,0,0,0,0,0,0,0,0,0,0,0,0,0,0,0,0,0,0,96,91,187,8,10 มิถุนายน 2561
121,121,63020129,บ้านแม่จวาง,0,0,0,0,16,21,37,2,26,21,47,2,42,42,84,4,34,23,57,2,30,23,53,2,30,21,51,2,25,17,42,1,14,20,34,1,12,17,29,1,145,121,266,9,0,0,0,0,0,0,0,0,0,0,0,0,0,0,0,0,0,0,0,0,0,0,0,0,0,0,0,0,0,0,0,0,0,0,0,0,0,0,0,0,0,0,0,0,187,163,350,13,10 มิถุนายน 2561
122,122,2147483647,,0,0,0,0,0,0,0,1,0,0,0,1,0,0,0,2,0,0,0,1,0,0,0,1,0,0,0,1,0,0,0,1,0,0,0,1,0,0,0,1,0,0,0,6,0,0,0,0,0,0,0,0,0,0,0,0,0,0,0,0,0,0,0,0,0,0,0,0,0,0,0,0,0,0,0,0,0,0,0,0,0,0,0,0,0,0,0,0,0,0,0,8,10 มิถุนายน 2561
123,123,2147483647,,0,0,0,0,0,0,0,1,0,0,0,0,0,0,0,1,0,0,0,1,0,0,0,1,0,0,0,1,0,0,0,1,0,0,0,1,0,0,0,1,0,0,0,6,0,0,0,0,0,0,0,0,0,0,0,0,0,0,0,0,0,0,0,0,0,0,0,0,0,0,0,0,0,0,0,0,0,0,0,0,0,0,0,0,0,0,0,0,0,0,0,7,10 มิถุนายน 2561
124,124,2147483647,,0,0,0,0,0,0,0,1,0,0,0,1,0,0,0,2,0,0,0,1,0,0,0,1,0,0,0,1,0,0,0,1,0,0,0,1,0,0,0,1,0,0,0,6,0,0,0,0,0,0,0,0,0,0,0,0,0,0,0,0,0,0,0,0,0,0,0,0,0,0,0,0,0,0,0,0,0,0,0,0,0,0,0,0,0,0,0,0,0,0,0,8,10 มิถุนายน 2561
125,125,2147483647,,0,0,0,0,0,0,0,1,0,0,0,1,0,0,0,2,0,0,0,1,0,0,0,1,0,0,0,1,0,0,0,1,0,0,0,1,0,0,0,1,0,0,0,6,0,0,0,0,0,0,0,0,0,0,0,0,0,0,0,0,0,0,0,0,0,0,0,0,0,0,0,0,0,0,0,0,0,0,0,0,0,0,0,0,0,0,0,0,0,0,0,8,10 มิถุนายน 2561
126,126,2147483647,,0,0,0,0,0,0,0,1,0,0,0,1,0,0,0,2,0,0,0,1,0,0,0,1,0,0,0,1,0,0,0,1,0,0,0,1,0,0,0,1,0,0,0,6,0,0,0,0,0,0,0,0,0,0,0,0,0,0,0,0,0,0,0,0,0,0,0,0,0,0,0,0,0,0,0,0,0,0,0,0,0,0,0,0,0,0,0,0,0,0,0,8,10 มิถุนายน 2561
127,127,2147483647,,0,0,0,0,0,0,0,1,0,0,0,1,0,0,0,2,0,0,0,1,0,0,0,1,0,0,0,1,0,0,0,1,0,0,0,1,0,0,0,1,0,0,0,6,0,0,0,0,0,0,0,0,0,0,0,0,0,0,0,0,0,0,0,0,0,0,0,0,0,0,0,0,0,0,0,0,0,0,0,0,0,0,0,0,0,0,0,0,0,0,0,8,10 มิถุนายน 2561
128,128,2147483647,,0,0,0,0,0,0,0,1,0,0,0,1,0,0,0,2,0,0,0,1,0,0,0,1,0,0,0,1,0,0,0,1,0,0,0,1,0,0,0,1,0,0,0,6,0,0,0,0,0,0,0,0,0,0,0,0,0,0,0,0,0,0,0,0,0,0,0,0,0,0,0,0,0,0,0,0,0,0,0,0,0,0,0,0,0,0,0,0,0,0,0,8,10 มิถุนายน 2561
129,129,2147483647,,0,0,0,0,0,0,0,1,0,0,0,1,0,0,0,2,0,0,0,1,0,0,0,1,0,0,0,1,0,0,0,0,0,0,0,0,0,0,0,0,0,0,0,3,0,0,0,0,0,0,0,0,0,0,0,0,0,0,0,0,0,0,0,0,0,0,0,0,0,0,0,0,0,0,0,0,0,0,0,0,0,0,0,0,0,0,0,0,0,0,0,5,10 มิถุนายน 2561
130,130,2147483647,,0,0,0,0,0,0,0,1,0,0,0,1,0,0,0,2,0,0,0,1,0,0,0,1,0,0,0,1,0,0,0,1,0,0,0,1,0,0,0,0,0,0,0,5,0,0,0,0,0,0,0,0,0,0,0,0,0,0,0,0,0,0,0,0,0,0,0,0,0,0,0,0,0,0,0,0,0,0,0,0,0,0,0,0,0,0,0,0,0,0,0,7,10 มิถุนายน 2561
131,131,2147483647,,0,0,0,0,0,0,0,1,0,0,0,1,0,0,0,2,0,0,0,1,0,0,0,1,0,0,0,1,0,0,0,0,0,0,0,0,0,0,0,0,0,0,0,3,0,0,0,0,0,0,0,0,0,0,0,0,0,0,0,0,0,0,0,0,0,0,0,0,0,0,0,0,0,0,0,0,0,0,0,0,0,0,0,0,0,0,0,0,0,0,0,5,10 มิถุนายน 2561
132,132,2147483647,,0,0,0,0,0,0,0,1,0,0,0,1,0,0,0,2,0,0,0,1,0,0,0,1,0,0,0,1,0,0,0,0,0,0,0,0,0,0,0,0,0,0,0,3,0,0,0,0,0,0,0,0,0,0,0,0,0,0,0,0,0,0,0,0,0,0,0,0,0,0,0,0,0,0,0,0,0,0,0,0,0,0,0,0,0,0,0,0,0,0,0,5,10 มิถุนายน 2561
133,133,2147483647,,0,0,0,0,0,0,0,1,0,0,0,1,0,0,0,2,0,0,0,1,0,0,0,1,0,0,0,1,0,0,0,0,0,0,0,0,0,0,0,0,0,0,0,3,0,0,0,0,0,0,0,0,0,0,0,0,0,0,0,0,0,0,0,0,0,0,0,0,0,0,0,0,0,0,0,0,0,0,0,0,0,0,0,0,0,0,0,0,0,0,0,5,10 มิถุนายน 2561
134,134,2147483647,,0,0,0,0,0,0,0,1,0,0,0,1,0,0,0,2,0,0,0,1,0,0,0,1,0,0,0,1,0,0,0,1,0,0,0,0,0,0,0,0,0,0,0,4,0,0,0,0,0,0,0,0,0,0,0,0,0,0,0,0,0,0,0,0,0,0,0,0,0,0,0,0,0,0,0,0,0,0,0,0,0,0,0,0,0,0,0,0,0,0,0,6,10 มิถุนายน 2561
135,135,2147483647,,0,0,0,0,0,0,0,1,0,0,0,1,0,0,0,2,0,0,0,1,0,0,0,1,0,0,0,1,0,0,0,1,0,0,0,1,0,0,0,1,0,0,0,6,0,0,0,0,0,0,0,0,0,0,0,0,0,0,0,0,0,0,0,0,0,0,0,0,0,0,0,0,0,0,0,0,0,0,0,0,0,0,0,0,0,0,0,0,0,0,0,8,10 มิถุนายน 2561
136,136,2147483647,,0,0,0,0,0,0,0,1,0,0,0,1,0,0,0,2,0,0,0,1,0,0,0,1,0,0,0,1,0,0,0,0,0,0,0,0,0,0,0,0,0,0,0,3,0,0,0,0,0,0,0,0,0,0,0,0,0,0,0,0,0,0,0,0,0,0,0,0,0,0,0,0,0,0,0,0,0,0,0,0,0,0,0,0,0,0,0,0,0,0,0,5,10 มิถุนายน 2561
137,137,2147483647,,0,0,0,0,0,0,0,1,0,0,0,1,0,0,0,2,0,0,0,1,0,0,0,1,0,0,0,1,0,0,0,1,0,0,0,1,0,0,0,1,0,0,0,6,0,0,0,0,0,0,0,0,0,0,0,0,0,0,0,0,0,0,0,0,0,0,0,0,0,0,0,0,0,0,0,0,0,0,0,0,0,0,0,0,0,0,0,0,0,0,0,8,10 มิถุนายน 2561
138,138,2147483647,,0,0,0,0,0,0,0,1,0,0,0,1,0,0,0,2,0,0,0,2,0,0,0,1,0,0,0,1,0,0,0,1,0,0,0,1,0,0,0,1,0,0,0,7,0,0,0,0,0,0,0,0,0,0,0,0,0,0,0,0,0,0,0,0,0,0,0,0,0,0,0,0,0,0,0,0,0,0,0,0,0,0,0,0,0,0,0,0,0,0,0,9,10 มิถุนายน 2561
139,139,2147483647,,0,0,0,0,0,0,0,1,0,0,0,1,0,0,0,2,0,0,0,1,0,0,0,1,0,0,0,1,0,0,0,0,0,0,0,0,0,0,0,0,0,0,0,3,0,0,0,0,0,0,0,0,0,0,0,0,0,0,0,0,0,0,0,0,0,0,0,0,0,0,0,0,0,0,0,0,0,0,0,0,0,0,0,0,0,0,0,0,0,0,0,5,10 มิถุนายน 2561
140,140,2147483647,,0,0,0,0,0,0,0,1,0,0,0,1,0,0,0,2,0,0,0,1,0,0,0,1,0,0,0,1,0,0,0,1,0,0,0,0,0,0,0,0,0,0,0,4,0,0,0,0,0,0,0,0,0,0,0,0,0,0,0,0,0,0,0,0,0,0,0,0,0,0,0,0,0,0,0,0,0,0,0,0,0,0,0,0,0,0,0,0,0,0,0,6,10 มิถุนายน 2561
141,141,2147483647,,0,0,0,0,0,0,0,0,0,0,0,0,0,0,0,0,0,0,0,1,0,0,0,1,0,0,0,1,0,0,0,0,0,0,0,0,0,0,0,0,0,0,0,3,0,0,0,0,0,0,0,0,0,0,0,0,0,0,0,0,0,0,0,0,0,0,0,0,0,0,0,0,0,0,0,0,0,0,0,0,0,0,0,0,0,0,0,0,0,0,0,3,10 มิถุนายน 2561
142,142,2147483647,,0,0,0,0,0,0,0,1,0,0,0,1,0,0,0,2,0,0,0,1,0,0,0,1,0,0,0,1,0,0,0,0,0,0,0,0,0,0,0,0,0,0,0,3,0,0,0,0,0,0,0,0,0,0,0,0,0,0,0,0,0,0,0,0,0,0,0,0,0,0,0,0,0,0,0,0,0,0,0,0,0,0,0,0,0,0,0,0,0,0,0,5,10 มิถุนายน 2561
143,143,2147483647,,0,0,0,0,0,0,0,1,0,0,0,1,0,0,0,2,0,0,0,1,0,0,0,1,0,0,0,1,0,0,0,0,0,0,0,0,0,0,0,0,0,0,0,3,0,0,0,0,0,0,0,0,0,0,0,0,0,0,0,0,0,0,0,0,0,0,0,0,0,0,0,0,0,0,0,0,0,0,0,0,0,0,0,0,0,0,0,0,0,0,0,5,10 มิถุนายน 2561
144,144,2147483647,,0,0,0,0,0,0,0,1,0,0,0,1,0,0,0,2,0,0,0,1,0,0,0,1,0,0,0,1,0,0,0,1,0,0,0,0,0,0,0,0,0,0,0,4,0,0,0,0,0,0,0,0,0,0,0,0,0,0,0,0,0,0,0,0,0,0,0,0,0,0,0,0,0,0,0,0,0,0,0,0,0,0,0,0,0,0,0,0,0,0,0,6,10 มิถุนายน 2561
145,145,2147483647,,0,0,0,1,0,0,0,1,0,0,0,1,0,0,0,3,0,0,0,1,0,0,0,1,0,0,0,1,0,0,0,1,0,0,0,1,0,0,0,1,0,0,0,6,0,0,0,0,0,0,0,0,0,0,0,0,0,0,0,0,0,0,0,0,0,0,0,0,0,0,0,0,0,0,0,0,0,0,0,0,0,0,0,0,0,0,0,0,0,0,0,9,10 มิถุนายน 2561
146,146,2147483647,,0,0,0,0,0,0,0,1,0,0,0,1,0,0,0,2,0,0,0,1,0,0,0,1,0,0,0,1,0,0,0,1,0,0,0,1,0,0,0,1,0,0,0,6,0,0,0,0,0,0,0,0,0,0,0,0,0,0,0,0,0,0,0,0,0,0,0,0,0,0,0,0,0,0,0,0,0,0,0,0,0,0,0,0,0,0,0,0,0,0,0,8,10 มิถุนายน 2561
147,147,2147483647,,0,0,0,0,0,0,0,1,0,0,0,1,0,0,0,2,0,0,0,1,0,0,0,1,0,0,0,1,0,0,0,1,0,0,0,1,0,0,0,1,0,0,0,6,0,0,0,0,0,0,0,0,0,0,0,0,0,0,0,0,0,0,0,0,0,0,0,0,0,0,0,0,0,0,0,0,0,0,0,0,0,0,0,0,0,0,0,0,0,0,0,8,10 มิถุนายน 2561
148,148,2147483647,,0,0,0,0,0,0,0,1,0,0,0,1,0,0,0,2,0,0,0,1,0,0,0,1,0,0,0,1,0,0,0,1,0,0,0,1,0,0,0,1,0,0,0,6,0,0,0,0,0,0,0,0,0,0,0,0,0,0,0,0,0,0,0,0,0,0,0,0,0,0,0,0,0,0,0,0,0,0,0,0,0,0,0,0,0,0,0,0,0,0,0,8,10 มิถุนายน 2561
149,149,2147483647,,0,0,0,0,0,0,0,1,0,0,0,1,0,0,0,2,0,0,0,1,0,0,0,1,0,0,0,1,0,0,0,0,0,0,0,0,0,0,0,0,0,0,0,3,0,0,0,0,0,0,0,0,0,0,0,0,0,0,0,0,0,0,0,0,0,0,0,0,0,0,0,0,0,0,0,0,0,0,0,0,0,0,0,0,0,0,0,0,0,0,0,5,10 มิถุนายน 2561
150,150,2147483647,,0,0,0,0,0,0,0,1,0,0,0,1,0,0,0,2,0,0,0,1,0,0,0,1,0,0,0,0,0,0,0,0,0,0,0,0,0,0,0,0,0,0,0,2,0,0,0,0,0,0,0,0,0,0,0,0,0,0,0,0,0,0,0,0,0,0,0,0,0,0,0,0,0,0,0,0,0,0,0,0,0,0,0,0,0,0,0,0,0,0,0,4,10 มิถุนายน 2561
151,151,2147483647,,0,0,0,0,0,0,0,1,0,0,0,1,0,0,0,2,0,0,0,1,0,0,0,1,0,0,0,1,0,0,0,0,0,0,0,0,0,0,0,0,0,0,0,3,0,0,0,0,0,0,0,0,0,0,0,0,0,0,0,0,0,0,0,0,0,0,0,0,0,0,0,0,0,0,0,0,0,0,0,0,0,0,0,0,0,0,0,0,0,0,0,5,10 มิถุนายน 2561
152,152,2147483647,,0,0,0,0,0,0,0,1,0,0,0,1,0,0,0,2,0,0,0,1,0,0,0,1,0,0,0,1,0,0,0,1,0,0,0,1,0,0,0,1,0,0,0,6,0,0,0,0,0,0,0,0,0,0,0,0,0,0,0,0,0,0,0,0,0,0,0,0,0,0,0,0,0,0,0,0,0,0,0,0,0,0,0,0,0,0,0,0,0,0,0,8,10 มิถุนายน 2561
153,153,2147483647,,0,0,0,0,0,0,0,1,0,0,0,1,0,0,0,2,0,0,0,1,0,0,0,1,0,0,0,1,0,0,0,0,0,0,0,0,0,0,0,0,0,0,0,3,0,0,0,0,0,0,0,0,0,0,0,0,0,0,0,0,0,0,0,0,0,0,0,0,0,0,0,0,0,0,0,0,0,0,0,0,0,0,0,0,0,0,0,0,0,0,0,5,10 มิถุนายน 2561
154,154,2147483647,,0,0,0,0,0,0,0,1,0,0,0,1,0,0,0,2,0,0,0,1,0,0,0,1,0,0,0,1,0,0,0,1,0,0,0,1,0,0,0,0,0,0,0,5,0,0,0,0,0,0,0,0,0,0,0,0,0,0,0,0,0,0,0,0,0,0,0,0,0,0,0,0,0,0,0,0,0,0,0,0,0,0,0,0,0,0,0,0,0,0,0,7,10 มิถุนายน 2561
155,155,2147483647,,0,0,0,0,0,0,0,1,0,0,0,1,0,0,0,2,0,0,0,1,0,0,0,1,0,0,0,1,0,0,0,0,0,0,0,0,0,0,0,0,0,0,0,3,0,0,0,0,0,0,0,0,0,0,0,0,0,0,0,0,0,0,0,0,0,0,0,0,0,0,0,0,0,0,0,0,0,0,0,0,0,0,0,0,0,0,0,0,0,0,0,5,10 มิถุนายน 2561
156,156,2147483647,,0,0,0,0,0,0,0,2,0,0,0,1,0,0,0,3,0,0,0,2,0,0,0,1,0,0,0,1,0,0,0,0,0,0,0,0,0,0,0,0,0,0,0,4,0,0,0,0,0,0,0,0,0,0,0,0,0,0,0,0,0,0,0,0,0,0,0,0,0,0,0,0,0,0,0,0,0,0,0,0,0,0,0,0,0,0,0,0,0,0,0,7,10 มิถุนายน 2561
157,157,2147483647,,0,0,0,0,0,0,0,2,0,0,0,2,0,0,0,4,0,0,0,2,0,0,0,2,0,0,0,2,0,0,0,2,0,0,0,2,0,0,0,2,0,0,0,12,0,0,0,0,0,0,0,0,0,0,0,0,0,0,0,0,0,0,0,0,0,0,0,0,0,0,0,0,0,0,0,0,0,0,0,0,0,0,0,0,0,0,0,0,0,0,0,16,10 มิถุนายน 2561
158,158,2147483647,,0,0,0,0,0,0,0,1,0,0,0,1,0,0,0,2,0,0,0,1,0,0,0,1,0,0,0,1,0,0,0,1,0,0,0,1,0,0,0,1,0,0,0,6,0,0,0,0,0,0,0,0,0,0,0,0,0,0,0,0,0,0,0,0,0,0,0,0,0,0,0,0,0,0,0,0,0,0,0,0,0,0,0,0,0,0,0,0,0,0,0,8,10 มิถุนายน 2561
159,159,2147483647,,0,0,0,0,0,0,0,1,0,0,0,1,0,0,0,2,0,0,0,1,0,0,0,1,0,0,0,1,0,0,0,1,0,0,0,1,0,0,0,1,0,0,0,6,0,0,0,0,0,0,0,0,0,0,0,0,0,0,0,0,0,0,0,0,0,0,0,0,0,0,0,0,0,0,0,0,0,0,0,0,0,0,0,0,0,0,0,0,0,0,0,8,10 มิถุนายน 2561
160,160,2147483647,,0,0,0,0,0,0,0,1,0,0,0,1,0,0,0,2,0,0,0,1,0,0,0,1,0,0,0,1,0,0,0,1,0,0,0,1,0,0,0,1,0,0,0,6,0,0,0,0,0,0,0,0,0,0,0,0,0,0,0,0,0,0,0,0,0,0,0,0,0,0,0,0,0,0,0,0,0,0,0,0,0,0,0,0,0,0,0,0,0,0,0,8,10 มิถุนายน 2561
161,161,2147483647,,0,0,0,0,0,0,0,1,0,0,0,1,0,0,0,2,0,0,0,1,0,0,0,0,0,0,0,1,0,0,0,1,0,0,0,1,0,0,0,1,0,0,0,5,0,0,0,0,0,0,0,0,0,0,0,0,0,0,0,0,0,0,0,0,0,0,0,0,0,0,0,0,0,0,0,0,0,0,0,0,0,0,0,0,0,0,0,0,0,0,0,7,10 มิถุนายน 2561
162,162,2147483647,,0,0,0,0,0,0,0,1,0,0,0,1,0,0,0,2,0,0,0,1,0,0,0,1,0,0,0,1,0,0,0,1,0,0,0,1,0,0,0,1,0,0,0,6,0,0,0,0,0,0,0,0,0,0,0,0,0,0,0,0,0,0,0,0,0,0,0,0,0,0,0,0,0,0,0,0,0,0,0,0,0,0,0,0,0,0,0,0,0,0,0,8,10 มิถุนายน 2561
163,163,2147483647,,0,0,0,0,0,0,0,1,0,0,0,1,0,0,0,2,0,0,0,1,0,0,0,1,0,0,0,1,0,0,0,0,0,0,0,0,0,0,0,0,0,0,0,3,0,0,0,0,0,0,0,0,0,0,0,0,0,0,0,0,0,0,0,0,0,0,0,0,0,0,0,0,0,0,0,0,0,0,0,0,0,0,0,0,0,0,0,0,0,0,0,5,10 มิถุนายน 2561
164,164,2147483647,,0,0,0,0,0,0,0,1,0,0,0,1,0,0,0,2,0,0,0,1,0,0,0,1,0,0,0,1,0,0,0,0,0,0,0,0,0,0,0,0,0,0,0,3,0,0,0,0,0,0,0,0,0,0,0,0,0,0,0,0,0,0,0,0,0,0,0,0,0,0,0,0,0,0,0,0,0,0,0,0,0,0,0,0,0,0,0,0,0,0,0,5,10 มิถุนายน 2561
165,165,2147483647,,0,0,0,0,0,0,0,1,0,0,0,1,0,0,0,2,0,0,0,1,0,0,0,1,0,0,0,1,0,0,0,1,0,0,0,1,0,0,0,1,0,0,0,6,0,0,0,0,0,0,0,0,0,0,0,0,0,0,0,0,0,0,0,0,0,0,0,0,0,0,0,0,0,0,0,0,0,0,0,0,0,0,0,0,0,0,0,0,0,0,0,8,10 มิถุนายน 2561
166,166,2147483647,,0,0,0,0,0,0,0,1,0,0,0,1,0,0,0,2,0,0,0,1,0,0,0,1,0,0,0,1,0,0,0,1,0,0,0,1,0,0,0,1,0,0,0,6,0,0,0,0,0,0,0,0,0,0,0,0,0,0,0,0,0,0,0,0,0,0,0,0,0,0,0,0,0,0,0,0,0,0,0,0,0,0,0,0,0,0,0,0,0,0,0,8,10 มิถุนายน 2561
167,167,2147483647,,0,0,0,0,0,0,0,1,0,0,0,1,0,0,0,2,0,0,0,1,0,0,0,1,0,0,0,1,0,0,0,1,0,0,0,1,0,0,0,1,0,0,0,6,0,0,0,0,0,0,0,0,0,0,0,0,0,0,0,0,0,0,0,0,0,0,0,0,0,0,0,0,0,0,0,0,0,0,0,0,0,0,0,0,0,0,0,0,0,0,0,8,10 มิถุนายน 2561
168,168,2147483647,,0,0,0,0,0,0,0,0,0,0,0,0,0,0,0,0,0,0,0,0,0,0,0,0,0,0,0,0,0,0,0,0,0,0,0,0,0,0,0,0,0,0,0,0,0,0,0,0,0,0,0,0,0,0,0,0,0,0,0,0,0,0,0,0,0,0,0,0,0,0,0,0,0,0,0,0,0,0,0,0,0,0,0,0,0,0,0,0,0,0,0,0,10 มิถุนายน 2561
169,169,2147483647,,0,0,0,0,0,0,0,1,0,0,0,1,0,0,0,2,0,0,0,1,0,0,0,1,0,0,0,1,0,0,0,0,0,0,0,0,0,0,0,0,0,0,0,3,0,0,0,0,0,0,0,0,0,0,0,0,0,0,0,0,0,0,0,0,0,0,0,0,0,0,0,0,0,0,0,0,0,0,0,0,0,0,0,0,0,0,0,0,0,0,0,5,10 มิถุนายน 2561
170,170,2147483647,,0,0,0,0,0,0,0,1,0,0,0,1,0,0,0,2,0,0,0,1,0,0,0,1,0,0,0,1,0,0,0,0,0,0,0,0,0,0,0,0,0,0,0,3,0,0,0,0,0,0,0,0,0,0,0,0,0,0,0,0,0,0,0,0,0,0,0,0,0,0,0,0,0,0,0,0,0,0,0,0,0,0,0,0,0,0,0,0,0,0,0,5,10 มิถุนายน 2561
171,171,2147483647,,0,0,0,0,0,0,0,1,0,0,0,1,0,0,0,2,0,0,0,1,0,0,0,1,0,0,0,1,0,0,0,0,0,0,0,0,0,0,0,0,0,0,0,3,0,0,0,0,0,0,0,0,0,0,0,0,0,0,0,0,0,0,0,0,0,0,0,0,0,0,0,0,0,0,0,0,0,0,0,0,0,0,0,0,0,0,0,0,0,0,0,5,10 มิถุนายน 2561
172,172,2147483647,,0,0,0,0,0,0,0,0,0,0,0,0,0,0,0,0,0,0,0,0,0,0,0,0,0,0,0,0,0,0,0,0,0,0,0,0,0,0,0,0,0,0,0,0,0,0,0,0,0,0,0,0,0,0,0,0,0,0,0,0,0,0,0,0,0,0,0,0,0,0,0,0,0,0,0,0,0,0,0,0,0,0,0,0,0,0,0,0,0,0,0,0,10 มิถุนายน 2561
173,173,2147483647,,0,0,0,1,0,0,0,1,0,0,0,1,0,0,0,3,0,0,0,1,0,0,0,1,0,0,0,1,0,0,0,0,0,0,0,0,0,0,0,0,0,0,0,3,0,0,0,0,0,0,0,0,0,0,0,0,0,0,0,0,0,0,0,0,0,0,0,0,0,0,0,0,0,0,0,0,0,0,0,0,0,0,0,0,0,0,0,0,0,0,0,6,10 มิถุนายน 2561
174,174,2147483647,,0,0,0,0,0,0,0,1,0,0,0,1,0,0,0,2,0,0,0,1,0,0,0,1,0,0,0,1,0,0,0,0,0,0,0,0,0,0,0,0,0,0,0,3,0,0,0,0,0,0,0,0,0,0,0,0,0,0,0,0,0,0,0,0,0,0,0,0,0,0,0,0,0,0,0,0,0,0,0,0,0,0,0,0,0,0,0,0,0,0,0,5,10 มิถุนายน 2561
175,175,2147483647,,0,0,0,0,0,0,0,1,0,0,0,1,0,0,0,2,0,0,0,1,0,0,0,1,0,0,0,1,0,0,0,0,0,0,0,0,0,0,0,0,0,0,0,3,0,0,0,0,0,0,0,0,0,0,0,0,0,0,0,0,0,0,0,0,0,0,0,0,0,0,0,0,0,0,0,0,0,0,0,0,0,0,0,0,0,0,0,0,0,0,0,5,10 มิถุนายน 2561
176,176,2147483647,,0,0,0,0,0,0,0,1,0,0,0,1,0,0,0,2,0,0,0,1,0,0,0,1,0,0,0,1,0,0,0,1,0,0,0,1,0,0,0,1,0,0,0,6,0,0,0,0,0,0,0,0,0,0,0,0,0,0,0,0,0,0,0,0,0,0,0,0,0,0,0,0,0,0,0,0,0,0,0,0,0,0,0,0,0,0,0,0,0,0,0,8,10 มิถุนายน 2561
177,177,2147483647,,0,0,0,0,0,0,0,1,0,0,0,1,0,0,0,2,0,0,0,1,0,0,0,1,0,0,0,1,0,0,0,0,0,0,0,0,0,0,0,0,0,0,0,3,0,0,0,0,0,0,0,0,0,0,0,0,0,0,0,0,0,0,0,0,0,0,0,0,0,0,0,0,0,0,0,0,0,0,0,0,0,0,0,0,0,0,0,0,0,0,0,5,10 มิถุนายน 2561
178,178,2147483647,,0,0,0,0,0,0,0,1,0,0,0,1,0,0,0,2,0,0,0,1,0,0,0,1,0,0,0,1,0,0,0,0,0,0,0,0,0,0,0,0,0,0,0,3,0,0,0,0,0,0,0,0,0,0,0,0,0,0,0,0,0,0,0,0,0,0,0,0,0,0,0,0,0,0,0,0,0,0,0,0,0,0,0,0,0,0,0,0,0,0,0,5,10 มิถุนายน 2561
179,179,2147483647,,0,0,0,0,0,0,0,1,0,0,0,1,0,0,0,2,0,0,0,1,0,0,0,1,0,0,0,1,0,0,0,0,0,0,0,0,0,0,0,0,0,0,0,3,0,0,0,0,0,0,0,0,0,0,0,0,0,0,0,0,0,0,0,0,0,0,0,0,0,0,0,0,0,0,0,0,0,0,0,0,0,0,0,0,0,0,0,0,0,0,0,5,10 มิถุนายน 2561
180,180,2147483647,,0,0,0,0,0,0,0,1,0,0,0,1,0,0,0,2,0,0,0,1,0,0,0,1,0,0,0,1,0,0,0,0,0,0,0,0,0,0,0,0,0,0,0,3,0,0,0,0,0,0,0,0,0,0,0,0,0,0,0,0,0,0,0,0,0,0,0,0,0,0,0,0,0,0,0,0,0,0,0,0,0,0,0,0,0,0,0,0,0,0,0,5,10 มิถุนายน 2561
