,0,1,2,3,4,5,6,7,8,9,10,11,12,13,14,15,16,17,18,19,20,21,22,23,24,25,26,27,28,29,30,31,32,33,34,35,36,37,38,39,40,41,42,43,44,45,46,47,48,49,50,51,52,53,54,55,56,57,58,59,60,61,62,63,64,65,66,67,68,69,70,71,72,73,74,75,76,77,78,79,80,81,82,83,84,85,86,87,88,89,90,91,92,93,94,95
0,ลำดับ,รหัส SMIS,โรงเรียน,อ.3 ขวบ ชาย,อ.3 ขวบ หญิง,รวมอ.3 ขวบ,อ.3 ขวบ ห้อง,อ.1 ชาย,อ.1 หญิง,รวมอ.1,อ.1 ห้อง,อ.2 ชาย,อ.2 หญิง,รวมอ.2,อ.2 ห้อง,รวมก่อนประถม ชาย,รวมก่อนประถม หญิง,รวมก่อนประถม,รวมห้องก่อนประถม,ป.1 ชาย,ป.1 หญิง,รวมป.1,ป.1 ห้อง,ป.2 ชาย,ป.2 หญิง,รวมป.2,ป.2 ห้อง,ป.3 ชาย,ป.3 หญิง,รวมป.3,ป.3 ห้อง,ป.4 ชาย,ป.4 หญิง,รวมป.4,ป.4 ห้อง,ป.5 ชาย,ป.5 หญิง,รวมป.5,ป.5 ห้อง,ป.6 ชาย,ป.6 หญิง,รวมป.6,ป.6 ห้อง,รวมประถม ชาย,รวมประถม หญิง,รวมประถม,รวมห้องประถม,ม.1 ชาย,ม.1 หญิง,รวมม.1,ม.1 ห้อง,ม.2 ชาย,ม.2 หญิง,รวมม.2,ม.2 ห้อง,ม.3 ชาย,ม.3 หญิง,รวมม.3,ม.3 ห้อง,รวมม.ต้น ชาย,รวมม.ต้น หญิง,รวมม.ต้น,รวมห้องม.ต้น,ม.4 ชาย,ม.4 หญิง,รวมม.4,ม.4 ห้อง,ม.5 ชาย,ม.5 หญิง,รวมม.5,ม.5 ห้อง,ม.6 ชาย,ม.6 หญิง,รวมม.6,ม.6 ห้อง,ปวช.1 ชาย,ปวช.1 หญิง,รวมปวช.1,ปวช.1 ห้อง,ปวช.2 ชาย,ปวช.2 หญิง,รวมปวช.2,ปวช.2 ห้อง,ปวช.3 ชาย,ปวช.3 หญิง,รวมปวช.3,ปวช.3 ห้อง,รวมม.ปลายและเทียบเท่า ชาย,รวมม.ปลายและเทียบเท่า หญิง,รวมม.ปลายและเทียบเท่า,รวมห้องม.ปลายและเทียบเท่า,รวมทั้งหมด ชาย,รวมทั้งหมด หญิง,รวมทั้งหมด,รวมห้องทั้งหมด,ข้อมูล ณ วันที่
1,1,65010001,วัดงิ้วงาม,0,0,0,0,0,0,0,0,0,0,0,0,0,0,0,0,0,0,0,0,0,0,0,0,0,0,0,0,0,0,0,0,0,0,0,0,0,0,0,0,0,0,0,0,0,0,0,0,0,0,0,0,0,0,0,0,0,0,0,0,0,0,0,0,0,0,0,0,0,0,0,0,0,0,0,0,0,0,0,0,0,0,0,0,0,0,0,0,0,0,0,0,10 มิถุนายน 2561
2,2,65010002,วัดจอมทอง,0,0,0,0,11,7,18,1,10,8,18,1,21,15,36,2,11,7,18,1,8,8,16,1,11,5,16,1,12,9,21,1,9,4,13,1,10,9,19,1,61,42,103,6,14,12,26,1,10,9,19,1,7,8,15,1,31,29,60,3,0,0,0,0,0,0,0,0,0,0,0,0,0,0,0,0,0,0,0,0,0,0,0,0,0,0,0,0,113,86,199,11,10 มิถุนายน 2561
3,3,65010003,วัดท่าตะเคียน,0,0,0,0,0,0,0,0,0,2,2,1,0,2,2,1,1,1,2,1,1,0,1,1,2,1,3,1,0,3,3,1,1,0,1,1,0,7,7,1,5,12,17,6,0,0,0,0,0,0,0,0,0,0,0,0,0,0,0,0,0,0,0,0,0,0,0,0,0,0,0,0,0,0,0,0,0,0,0,0,0,0,0,0,0,0,0,0,5,14,19,7,10 มิถุนายน 2561
4,4,65010006,บ้านสะอัก(ประชาอุปถัมภ์),3,1,4,1,1,2,3,1,3,1,4,1,7,4,11,3,3,3,6,1,3,3,6,1,4,8,12,1,4,5,9,1,3,4,7,1,4,3,7,1,21,26,47,6,0,0,0,0,0,0,0,0,0,0,0,0,0,0,0,0,0,0,0,0,0,0,0,0,0,0,0,0,0,0,0,0,0,0,0,0,0,0,0,0,0,0,0,0,28,30,58,9,10 มิถุนายน 2561
5,5,65010008,ชุมชนที่ 14 วัดดอนทอง,0,0,0,0,0,5,5,1,1,4,5,1,1,9,10,2,2,1,3,1,4,0,4,1,1,1,2,1,0,3,3,1,5,4,9,1,4,2,6,1,16,11,27,6,0,0,0,0,0,0,0,0,0,0,0,0,0,0,0,0,0,0,0,0,0,0,0,0,0,0,0,0,0,0,0,0,0,0,0,0,0,0,0,0,0,0,0,0,17,20,37,8,10 มิถุนายน 2561
6,6,65010009,บ้านหนองกวางลี้(ประสิทธิ์ประชานุสรณ์),6,5,11,1,4,9,13,1,5,5,10,1,15,19,34,3,8,1,9,1,7,5,12,1,10,7,17,1,10,8,18,1,6,12,18,1,8,8,16,1,49,41,90,6,0,0,0,0,0,0,0,0,0,0,0,0,0,0,0,0,0,0,0,0,0,0,0,0,0,0,0,0,0,0,0,0,0,0,0,0,0,0,0,0,0,0,0,0,64,60,124,9,10 มิถุนายน 2561
7,7,65010010,บ้านร้องยุ้งข้าว,0,0,0,0,8,19,27,1,17,11,28,1,25,30,55,2,12,11,23,1,11,10,21,1,9,12,21,1,8,11,19,1,14,16,30,1,11,10,21,1,65,70,135,6,22,18,40,1,17,13,30,1,17,8,25,1,56,39,95,3,0,0,0,0,0,0,0,0,0,0,0,0,0,0,0,0,0,0,0,0,0,0,0,0,0,0,0,0,146,139,285,11,10 มิถุนายน 2561
8,8,65010011,บ้านน้ำดำ,6,5,11,1,2,1,3,1,3,3,6,1,11,9,20,3,5,4,9,1,2,3,5,1,3,2,5,1,1,6,7,1,2,3,5,1,1,5,6,1,14,23,37,6,0,0,0,0,0,0,0,0,0,0,0,0,0,0,0,0,0,0,0,0,0,0,0,0,0,0,0,0,0,0,0,0,0,0,0,0,0,0,0,0,0,0,0,0,25,32,57,9,10 มิถุนายน 2561
9,9,65010012,บ้านหินลาด,4,2,6,1,3,0,3,1,7,0,7,1,14,2,16,3,3,4,7,1,6,3,9,1,0,3,3,1,4,4,8,1,4,3,7,1,0,4,4,1,17,21,38,6,0,0,0,0,0,0,0,0,0,0,0,0,0,0,0,0,0,0,0,0,0,0,0,0,0,0,0,0,0,0,0,0,0,0,0,0,0,0,0,0,0,0,0,0,31,23,54,9,10 มิถุนายน 2561
10,10,65010014,วัดบ้านไร่,1,1,2,1,12,9,21,1,12,6,18,1,25,16,41,3,7,8,15,1,6,4,10,1,7,6,13,1,4,7,11,1,6,9,15,1,7,6,13,1,37,40,77,6,0,0,0,0,0,0,0,0,0,0,0,0,0,0,0,0,0,0,0,0,0,0,0,0,0,0,0,0,0,0,0,0,0,0,0,0,0,0,0,0,0,0,0,0,62,56,118,9,10 มิถุนายน 2561
11,11,65010015,วัดจุฬามณี,4,4,8,1,9,10,19,1,9,5,14,1,22,19,41,3,4,8,12,1,4,8,12,1,7,7,14,1,8,4,12,1,12,6,18,1,7,8,15,1,42,41,83,6,0,0,0,0,0,0,0,0,0,0,0,0,0,0,0,0,0,0,0,0,0,0,0,0,0,0,0,0,0,0,0,0,0,0,0,0,0,0,0,0,0,0,0,0,64,60,124,9,10 มิถุนายน 2561
12,12,65010016,วัดสว่างอารมณ์,0,0,0,0,2,5,7,1,6,7,13,1,8,12,20,2,4,6,10,1,3,5,8,1,7,5,12,1,7,3,10,1,1,3,4,1,8,1,9,1,30,23,53,6,0,0,0,0,0,0,0,0,0,0,0,0,0,0,0,0,0,0,0,0,0,0,0,0,0,0,0,0,0,0,0,0,0,0,0,0,0,0,0,0,0,0,0,0,38,35,73,8,10 มิถุนายน 2561
13,13,65010017,บ้านหนองหัวยาง,3,7,10,1,7,7,14,1,8,14,22,1,18,28,46,3,7,11,18,1,7,14,21,1,4,7,11,1,7,12,19,1,13,6,19,1,6,9,15,1,44,59,103,6,0,0,0,0,0,0,0,0,0,0,0,0,0,0,0,0,0,0,0,0,0,0,0,0,0,0,0,0,0,0,0,0,0,0,0,0,0,0,0,0,0,0,0,0,62,87,149,9,10 มิถุนายน 2561
14,14,65010018,วัดศรีรัตนาราม(รัตนราษฎร์สงเคราะห์),2,1,3,1,9,3,12,1,10,7,17,1,21,11,32,3,19,15,34,1,9,11,20,1,7,10,17,1,6,3,9,1,8,6,14,1,9,10,19,1,58,55,113,6,0,0,0,0,0,0,0,0,0,0,0,0,0,0,0,0,0,0,0,0,0,0,0,0,0,0,0,0,0,0,0,0,0,0,0,0,0,0,0,0,0,0,0,0,79,66,145,9,10 มิถุนายน 2561
15,15,65010019,ชุมชน 1 วัดสะกัดน้ำมัน,0,0,0,0,11,7,18,1,7,7,14,1,18,14,32,2,5,10,15,1,11,4,15,1,7,8,15,1,10,9,19,1,5,10,15,1,8,12,20,1,46,53,99,6,8,5,13,1,13,9,22,1,15,11,26,1,36,25,61,3,0,0,0,0,0,0,0,0,0,0,0,0,0,0,0,0,0,0,0,0,0,0,0,0,0,0,0,0,100,92,192,11,10 มิถุนายน 2561
16,16,65010020,วัดคุ้งวารี(อำพันอุปถัมภ์),0,0,0,0,13,15,28,1,12,12,24,1,25,27,52,2,8,9,17,1,10,7,17,1,11,7,18,1,7,11,18,1,5,3,8,1,11,6,17,1,52,43,95,6,0,0,0,0,0,0,0,0,0,0,0,0,0,0,0,0,0,0,0,0,0,0,0,0,0,0,0,0,0,0,0,0,0,0,0,0,0,0,0,0,0,0,0,0,77,70,147,8,10 มิถุนายน 2561
17,17,65010021,วัดยางเอน(ประชานุเคราะห์),4,2,6,1,7,11,18,1,12,18,30,1,23,31,54,3,12,17,29,1,14,8,22,1,11,17,28,1,12,13,25,1,24,11,35,1,18,16,34,1,91,82,173,6,20,16,36,1,12,12,24,1,21,11,32,1,53,39,92,3,0,0,0,0,0,0,0,0,0,0,0,0,0,0,0,0,0,0,0,0,0,0,0,0,0,0,0,0,167,152,319,12,10 มิถุนายน 2561
18,18,65010022,จ่าการบุญ,0,0,0,0,0,0,0,0,0,0,0,0,0,0,0,0,135,137,272,7,161,139,300,7,147,149,296,7,147,147,294,7,124,155,279,7,157,143,300,7,871,870,1741,42,0,0,0,0,0,0,0,0,0,0,0,0,0,0,0,0,0,0,0,0,0,0,0,0,0,0,0,0,0,0,0,0,0,0,0,0,0,0,0,0,0,0,0,0,871,870,1741,42,10 มิถุนายน 2561
19,19,65010023,วัดจันทร์ตะวันตกมิตรภาพที่ 73,1,2,3,1,3,4,7,1,3,2,5,1,7,8,15,3,7,7,14,1,7,6,13,1,5,11,16,1,6,2,8,1,7,5,12,1,9,7,16,1,41,38,79,6,12,2,14,1,9,4,13,1,5,5,10,1,26,11,37,3,0,0,0,0,0,0,0,0,0,0,0,0,0,0,0,0,0,0,0,0,0,0,0,0,0,0,0,0,74,57,131,12,10 มิถุนายน 2561
20,20,65010024,วัดอรัญญิก,12,15,27,1,10,5,15,1,11,6,17,1,33,26,59,3,14,14,28,1,6,13,19,1,17,8,25,1,14,3,17,1,11,12,23,1,13,8,21,1,75,58,133,6,14,13,27,1,13,15,28,1,9,11,20,1,36,39,75,3,0,0,0,0,0,0,0,0,0,0,0,0,0,0,0,0,0,0,0,0,0,0,0,0,0,0,0,0,144,123,267,12,10 มิถุนายน 2561
21,21,65010025,วัดศรีวิสุทธาราม(วิไลราษฎร์อุปถัมภ์),15,13,28,1,21,31,52,3,41,34,75,3,77,78,155,7,61,59,120,3,46,44,90,3,63,52,115,3,46,58,104,3,61,40,101,3,53,50,103,3,330,303,633,18,0,0,0,0,0,0,0,0,0,0,0,0,0,0,0,0,0,0,0,0,0,0,0,0,0,0,0,0,0,0,0,0,0,0,0,0,0,0,0,0,0,0,0,0,407,381,788,25,10 มิถุนายน 2561
22,22,65010026,วัดจันทร์ตะวันออก,0,0,0,0,11,10,21,1,16,10,26,1,27,20,47,2,23,16,39,1,19,17,36,1,16,16,32,1,17,12,29,1,24,13,37,1,27,15,42,1,126,89,215,6,37,25,62,2,27,31,58,2,25,17,42,1,89,73,162,5,0,0,0,0,0,0,0,0,0,0,0,0,0,0,0,0,0,0,0,0,0,0,0,0,0,0,0,0,242,182,424,13,10 มิถุนายน 2561
23,23,65010027,นิคมบ้านกร่าง(สามัคคีสงเคราะห),0,0,0,0,0,0,0,0,0,0,0,0,0,0,0,0,0,0,0,0,0,0,0,0,0,0,0,0,0,0,0,0,0,0,0,0,0,0,0,0,0,0,0,0,0,0,0,0,0,0,0,0,0,0,0,0,0,0,0,0,0,0,0,0,0,0,0,0,0,0,0,0,0,0,0,0,0,0,0,0,0,0,0,0,0,0,0,0,0,0,0,0,10 มิถุนายน 2561
24,24,65010028,บ้านแม่ระหัน,0,0,0,0,1,4,5,1,2,3,5,1,3,7,10,2,4,3,7,1,4,2,6,1,1,3,4,1,4,3,7,1,3,6,9,1,3,4,7,1,19,21,40,6,0,0,0,0,0,0,0,0,0,0,0,0,0,0,0,0,0,0,0,0,0,0,0,0,0,0,0,0,0,0,0,0,0,0,0,0,0,0,0,0,0,0,0,0,22,28,50,8,10 มิถุนายน 2561
25,25,65010029,บ้านกร่าง(พระขาวชัยสิทธิ์),0,0,0,0,32,18,50,2,29,25,54,2,61,43,104,4,34,37,71,2,22,30,52,2,23,25,48,2,29,23,52,2,14,20,34,1,19,18,37,1,141,153,294,10,0,0,0,0,0,0,0,0,0,0,0,0,0,0,0,0,0,0,0,0,0,0,0,0,0,0,0,0,0,0,0,0,0,0,0,0,0,0,0,0,0,0,0,0,202,196,398,14,10 มิถุนายน 2561
26,26,65010030,วัดธรรมเกษตร(เกษตรานุเคราะห์),0,0,0,0,9,4,13,1,4,10,14,1,13,14,27,2,5,5,10,1,9,10,19,1,8,3,11,1,10,6,16,1,14,4,18,1,5,10,15,1,51,38,89,6,0,0,0,0,0,0,0,0,0,0,0,0,0,0,0,0,0,0,0,0,0,0,0,0,0,0,0,0,0,0,0,0,0,0,0,0,0,0,0,0,0,0,0,0,64,52,116,8,10 มิถุนายน 2561
27,27,65010031,วัดแหลมโพธิ์,0,0,0,0,9,9,18,1,5,5,10,1,14,14,28,2,3,12,15,1,8,9,17,1,10,9,19,1,6,6,12,1,5,8,13,1,5,10,15,1,37,54,91,6,3,7,10,1,8,4,12,1,8,6,14,1,19,17,36,3,0,0,0,0,0,0,0,0,0,0,0,0,0,0,0,0,0,0,0,0,0,0,0,0,0,0,0,0,70,85,155,11,10 มิถุนายน 2561
28,28,65010032,วัดยาง(มีมานะวิทยา),0,0,0,0,12,16,28,1,8,10,18,1,20,26,46,2,15,11,26,1,15,6,21,1,16,13,29,1,13,6,19,1,16,11,27,1,17,12,29,1,92,59,151,6,24,10,34,1,23,11,34,1,27,4,31,1,74,25,99,3,0,0,0,0,0,0,0,0,0,0,0,0,0,0,0,0,0,0,0,0,0,0,0,0,0,0,0,0,186,110,296,11,10 มิถุนายน 2561
29,29,65010033,บ้านป่า(บิลอาสาประชาสรรค์),0,0,0,0,18,13,31,1,15,8,23,1,33,21,54,2,19,14,33,1,12,14,26,1,10,8,18,1,12,21,33,1,19,12,31,1,8,12,20,1,80,81,161,6,15,11,26,1,13,10,23,1,18,8,26,1,46,29,75,3,0,0,0,0,0,0,0,0,0,0,0,0,0,0,0,0,0,0,0,0,0,0,0,0,0,0,0,0,159,131,290,11,10 มิถุนายน 2561
30,30,65010034,บ้านดงวิทยา,8,0,8,1,6,2,8,1,2,2,4,1,16,4,20,3,1,1,2,1,7,2,9,1,6,1,7,1,3,2,5,1,7,9,16,1,2,4,6,1,26,19,45,6,0,0,0,0,0,0,0,0,0,0,0,0,0,0,0,0,0,0,0,0,0,0,0,0,0,0,0,0,0,0,0,0,0,0,0,0,0,0,0,0,0,0,0,0,42,23,65,9,10 มิถุนายน 2561
31,31,65010035,บ้านบึงกระดาน(เมธาประชานุกูล),0,0,0,0,10,7,17,1,9,8,17,1,19,15,34,2,10,5,15,1,7,6,13,1,6,2,8,1,9,9,18,1,8,8,16,1,5,2,7,1,45,32,77,6,5,9,14,1,7,7,14,1,4,5,9,1,16,21,37,3,0,0,0,0,0,0,0,0,0,0,0,0,0,0,0,0,0,0,0,0,0,0,0,0,0,0,0,0,80,68,148,11,10 มิถุนายน 2561
32,32,65010036,วัดบึงพระ(เหรียญ จั่น อนุสรณ์),0,0,0,0,20,17,37,1,12,11,23,1,32,28,60,2,16,19,35,1,18,16,34,1,21,16,37,1,19,14,33,1,24,17,41,1,16,26,42,1,114,108,222,6,29,16,45,1,24,24,48,1,17,13,30,1,70,53,123,3,0,0,0,0,0,0,0,0,0,0,0,0,0,0,0,0,0,0,0,0,0,0,0,0,0,0,0,0,216,189,405,11,10 มิถุนายน 2561
33,33,65010038,วัดใหม่ราษฎร์ศรัทธาราม,1,3,4,1,7,8,15,1,3,8,11,1,11,19,30,3,5,9,14,1,3,7,10,1,2,11,13,1,8,1,9,1,7,1,8,1,4,4,8,1,29,33,62,6,0,0,0,0,0,0,0,0,0,0,0,0,0,0,0,0,0,0,0,0,0,0,0,0,0,0,0,0,0,0,0,0,0,0,0,0,0,0,0,0,0,0,0,0,40,52,92,9,10 มิถุนายน 2561
34,34,65010039,วัดไผ่ค่อม(แพรประชาอุปถัมภ์),0,0,0,0,6,3,9,1,8,6,14,1,14,9,23,2,4,2,6,1,5,1,6,1,5,5,10,1,2,4,6,1,6,1,7,1,4,4,8,1,26,17,43,6,0,0,0,0,0,0,0,0,0,0,0,0,0,0,0,0,0,0,0,0,0,0,0,0,0,0,0,0,0,0,0,0,0,0,0,0,0,0,0,0,0,0,0,0,40,26,66,8,10 มิถุนายน 2561
35,35,65010041,วัดแสงดาว(เทพประชานุสรณ์),0,0,0,0,3,3,6,1,4,3,7,1,7,6,13,2,3,6,9,1,5,4,9,1,4,5,9,1,5,2,7,1,1,2,3,1,7,3,10,1,25,22,47,6,0,0,0,0,0,0,0,0,0,0,0,0,0,0,0,0,0,0,0,0,0,0,0,0,0,0,0,0,0,0,0,0,0,0,0,0,0,0,0,0,0,0,0,0,32,28,60,8,10 มิถุนายน 2561
36,36,65010042,ชุมชนที่ 11 วัดสุวรรณประดิษฐ์,0,0,0,0,0,0,0,0,16,20,36,1,16,20,36,1,9,12,21,1,4,10,14,1,11,4,15,1,7,8,15,1,9,8,17,1,8,11,19,1,48,53,101,6,7,9,16,1,9,9,18,1,8,12,20,1,24,30,54,3,0,0,0,0,0,0,0,0,0,0,0,0,0,0,0,0,0,0,0,0,0,0,0,0,0,0,0,0,88,103,191,10,10 มิถุนายน 2561
37,37,65010043,บ้านพลายชุมพล,0,0,0,0,8,13,21,1,11,8,19,1,19,21,40,2,11,11,22,1,10,9,19,1,12,8,20,1,13,4,17,1,11,11,22,1,9,5,14,1,66,48,114,6,12,7,19,1,9,6,15,1,5,7,12,1,26,20,46,3,0,0,0,0,0,0,0,0,0,0,0,0,0,0,0,0,0,0,0,0,0,0,0,0,0,0,0,0,111,89,200,11,10 มิถุนายน 2561
38,38,65010045,บ้านหัววังกร่าง,3,2,5,1,5,2,7,1,4,4,8,1,12,8,20,3,3,5,8,1,3,3,6,1,4,5,9,1,4,1,5,1,5,4,9,1,3,4,7,1,22,22,44,6,0,0,0,0,0,0,0,0,0,0,0,0,0,0,0,0,0,0,0,0,0,0,0,0,0,0,0,0,0,0,0,0,0,0,0,0,0,0,0,0,0,0,0,0,34,30,64,9,10 มิถุนายน 2561
39,39,65010047,ไทยรัฐวิทยา 8 (บ้านมะขามสูง),0,0,0,0,1,1,2,1,1,1,2,1,2,2,4,2,9,6,15,1,10,10,20,1,12,9,21,1,5,7,12,1,5,3,8,1,6,8,14,1,47,43,90,6,8,5,13,1,17,5,22,1,12,13,25,1,37,23,60,3,0,0,0,0,0,0,0,0,0,0,0,0,0,0,0,0,0,0,0,0,0,0,0,0,0,0,0,0,86,68,154,11,10 มิถุนายน 2561
40,40,65010050,วัดปากพิงตะวันตก,0,0,0,0,13,12,25,1,5,7,12,1,18,19,37,2,15,10,25,1,12,2,14,1,10,5,15,1,13,8,21,1,7,9,16,1,13,4,17,1,70,38,108,6,7,6,13,1,8,10,18,1,2,5,7,1,17,21,38,3,0,0,0,0,0,0,0,0,0,0,0,0,0,0,0,0,0,0,0,0,0,0,0,0,0,0,0,0,105,78,183,11,10 มิถุนายน 2561
41,41,65010051,บ้านวังยาง,0,1,1,1,3,4,7,1,3,3,6,1,6,8,14,3,3,2,5,1,3,3,6,1,6,2,8,1,3,3,6,1,5,6,11,1,3,2,5,1,23,18,41,6,0,0,0,0,0,0,0,0,0,0,0,0,0,0,0,0,0,0,0,0,0,0,0,0,0,0,0,0,0,0,0,0,0,0,0,0,0,0,0,0,0,0,0,0,29,26,55,9,10 มิถุนายน 2561
42,42,65010052,วัดบางทราย(หลวงพิณพลราษฎร์ จู เกษกาญจน์),0,0,0,0,5,4,9,1,8,7,15,1,13,11,24,2,12,9,21,1,14,16,30,1,22,14,36,1,16,13,29,1,15,8,23,1,14,12,26,1,93,72,165,6,0,0,0,0,0,0,0,0,0,0,0,0,0,0,0,0,0,0,0,0,0,0,0,0,0,0,0,0,0,0,0,0,0,0,0,0,0,0,0,0,0,0,0,0,106,83,189,8,10 มิถุนายน 2561
43,43,65010055,วัดบ้านใหม่,0,0,0,0,15,12,27,1,21,10,31,1,36,22,58,2,30,21,51,2,17,15,32,1,15,18,33,1,15,15,30,1,14,14,28,1,17,21,38,1,108,104,212,7,25,22,47,2,25,13,38,1,16,18,34,1,66,53,119,4,0,0,0,0,0,0,0,0,0,0,0,0,0,0,0,0,0,0,0,0,0,0,0,0,0,0,0,0,210,179,389,13,10 มิถุนายน 2561
44,44,65010058,วัดอินทรีย์,0,0,0,0,3,1,4,1,1,1,2,1,4,2,6,2,1,2,3,1,3,2,5,1,2,1,3,1,0,1,1,1,3,1,4,1,1,1,2,1,10,8,18,6,0,0,0,0,0,0,0,0,0,0,0,0,0,0,0,0,0,0,0,0,0,0,0,0,0,0,0,0,0,0,0,0,0,0,0,0,0,0,0,0,0,0,0,0,14,10,24,8,10 มิถุนายน 2561
45,45,65010059,วัดเนินมะคึก,0,0,0,0,16,26,42,1,18,24,42,1,34,50,84,2,18,19,37,1,16,21,37,1,16,15,31,1,10,20,30,1,11,14,25,1,9,8,17,1,80,97,177,6,15,11,26,1,8,14,22,1,7,10,17,1,30,35,65,3,0,0,0,0,0,0,0,0,0,0,0,0,0,0,0,0,0,0,0,0,0,0,0,0,0,0,0,0,144,182,326,11,10 มิถุนายน 2561
46,46,65010060,วัดกรมธรรม์,7,4,11,1,13,8,21,1,9,8,17,1,29,20,49,3,4,9,13,1,6,4,10,1,4,6,10,1,8,12,20,1,14,7,21,1,4,11,15,1,40,49,89,6,0,0,0,0,0,0,0,0,0,0,0,0,0,0,0,0,0,0,0,0,0,0,0,0,0,0,0,0,0,0,0,0,0,0,0,0,0,0,0,0,0,0,0,0,69,69,138,9,10 มิถุนายน 2561
47,47,65010061,วัดศรีวนาราม,0,0,0,0,2,5,7,1,6,5,11,1,8,10,18,2,8,4,12,1,4,3,7,1,7,2,9,1,5,3,8,1,5,5,10,1,1,1,2,1,30,18,48,6,0,0,0,0,0,0,0,0,0,0,0,0,0,0,0,0,0,0,0,0,0,0,0,0,0,0,0,0,0,0,0,0,0,0,0,0,0,0,0,0,0,0,0,0,38,28,66,8,10 มิถุนายน 2561
48,48,65010062,วัดสมอแข(พิณพลราษฎร์บำรุง),1,4,5,1,2,5,7,1,1,3,4,1,4,12,16,3,6,1,7,1,1,4,5,1,6,2,8,1,5,4,9,1,7,5,12,1,4,1,5,1,29,17,46,6,0,0,0,0,0,0,0,0,0,0,0,0,0,0,0,0,0,0,0,0,0,0,0,0,0,0,0,0,0,0,0,0,0,0,0,0,0,0,0,0,0,0,0,0,33,29,62,9,10 มิถุนายน 2561
49,49,65010063,อนุบาลพิษณุโลก,0,0,0,0,87,86,173,6,127,115,242,6,214,201,415,12,148,124,272,6,133,130,263,6,143,126,269,6,144,145,289,7,133,136,269,6,126,152,278,6,827,813,1640,37,0,0,0,0,0,0,0,0,0,0,0,0,0,0,0,0,0,0,0,0,0,0,0,0,0,0,0,0,0,0,0,0,0,0,0,0,0,0,0,0,0,0,0,0,1041,1014,2055,49,10 มิถุนายน 2561
50,50,65010064,วัดโพธิญาณ(อ.ท.ผ.อุปถัมภ์),0,0,0,0,0,1,1,1,2,0,2,1,2,1,3,2,1,3,4,1,1,1,2,1,1,1,2,1,2,0,2,1,1,1,2,1,0,3,3,1,6,9,15,6,0,0,0,0,0,0,0,0,0,0,0,0,0,0,0,0,0,0,0,0,0,0,0,0,0,0,0,0,0,0,0,0,0,0,0,0,0,0,0,0,0,0,0,0,8,10,18,8,10 มิถุนายน 2561
51,51,65010065,วัดมหาวนาราม,0,0,0,0,29,19,48,2,32,25,57,2,61,44,105,4,29,28,57,2,37,26,63,2,23,13,36,1,19,27,46,2,30,18,48,2,19,32,51,2,157,144,301,11,23,27,50,2,23,17,40,1,24,16,40,2,70,60,130,5,0,0,0,0,0,0,0,0,0,0,0,0,0,0,0,0,0,0,0,0,0,0,0,0,0,0,0,0,288,248,536,20,10 มิถุนายน 2561
52,52,65010066,วัดตาปะขาวหาย,0,0,0,0,11,12,23,1,12,15,27,1,23,27,50,2,16,11,27,1,12,12,24,1,12,11,23,1,19,10,29,1,9,9,18,1,7,8,15,1,75,61,136,6,18,13,31,1,17,3,20,1,8,8,16,1,43,24,67,3,0,0,0,0,0,0,0,0,0,0,0,0,0,0,0,0,0,0,0,0,0,0,0,0,0,0,0,0,141,112,253,11,10 มิถุนายน 2561
53,53,65010068,วัดสระโคล่,0,0,0,0,23,15,38,1,17,12,29,1,40,27,67,2,14,9,23,1,12,12,24,1,12,3,15,1,6,11,17,1,13,12,25,1,11,11,22,1,68,58,126,6,13,8,21,1,9,9,18,1,3,9,12,1,25,26,51,3,0,0,0,0,0,0,0,0,0,0,0,0,0,0,0,0,0,0,0,0,0,0,0,0,0,0,0,0,133,111,244,11,10 มิถุนายน 2561
54,54,65010069,สะพานที่ 3,25,32,57,2,37,27,64,2,32,37,69,2,94,96,190,6,43,32,75,2,27,33,60,2,35,26,61,2,34,27,61,2,30,33,63,2,17,24,41,2,186,175,361,12,0,0,0,0,0,0,0,0,0,0,0,0,0,0,0,0,0,0,0,0,0,0,0,0,0,0,0,0,0,0,0,0,0,0,0,0,0,0,0,0,0,0,0,0,280,271,551,18,10 มิถุนายน 2561
55,55,65010070,วัดคุยม่วง,0,0,0,0,7,10,17,1,3,5,8,1,10,15,25,2,4,9,13,1,2,5,7,1,4,4,8,1,1,8,9,1,2,2,4,1,6,4,10,1,19,32,51,6,0,0,0,0,0,0,0,0,0,0,0,0,0,0,0,0,0,0,0,0,0,0,0,0,0,0,0,0,0,0,0,0,0,0,0,0,0,0,0,0,0,0,0,0,29,47,76,8,10 มิถุนายน 2561
56,56,65010071,วัดหนองขานาง,6,2,8,1,5,3,8,1,4,7,11,1,15,12,27,3,6,6,12,1,4,3,7,1,3,6,9,1,3,5,8,1,5,6,11,1,4,5,9,1,25,31,56,6,0,0,0,0,0,0,0,0,0,0,0,0,0,0,0,0,0,0,0,0,0,0,0,0,0,0,0,0,0,0,0,0,0,0,0,0,0,0,0,0,0,0,0,0,40,43,83,9,10 มิถุนายน 2561
57,57,65010072,วัดคุยขวาง,0,0,0,0,5,3,8,1,8,7,15,1,13,10,23,2,3,10,13,1,6,5,11,1,9,9,18,1,11,6,17,1,8,6,14,1,12,6,18,1,49,42,91,6,0,0,0,0,0,0,0,0,0,0,0,0,0,0,0,0,0,0,0,0,0,0,0,0,0,0,0,0,0,0,0,0,0,0,0,0,0,0,0,0,0,0,0,0,62,52,114,8,10 มิถุนายน 2561
58,58,65010073,วัดบ้านดง,0,0,0,0,9,15,24,1,13,14,27,1,22,29,51,2,9,10,19,1,14,6,20,1,22,10,32,1,7,14,21,1,6,10,16,1,17,12,29,1,75,62,137,6,13,9,22,1,12,16,28,1,14,20,34,1,39,45,84,3,0,0,0,0,0,0,0,0,0,0,0,0,0,0,0,0,0,0,0,0,0,0,0,0,0,0,0,0,136,136,272,11,10 มิถุนายน 2561
59,59,65010074,บ้านเรียงกระดก,1,2,3,1,5,0,5,1,0,1,1,1,6,3,9,3,2,1,3,1,0,3,3,1,1,1,2,1,1,1,2,1,2,1,3,1,0,4,4,1,6,11,17,6,0,0,0,0,0,0,0,0,0,0,0,0,0,0,0,0,0,0,0,0,0,0,0,0,0,0,0,0,0,0,0,0,0,0,0,0,0,0,0,0,0,0,0,0,12,14,26,9,10 มิถุนายน 2561
60,60,65010075,นิคมบางระกำ 1(รุ้งวิไล),1,2,3,1,4,3,7,1,4,3,7,1,9,8,17,3,6,4,10,1,2,4,6,1,4,1,5,1,4,1,5,1,4,2,6,1,1,5,6,1,21,17,38,6,0,0,0,0,0,0,0,0,0,0,0,0,0,0,0,0,0,0,0,0,0,0,0,0,0,0,0,0,0,0,0,0,0,0,0,0,0,0,0,0,0,0,0,0,30,25,55,9,10 มิถุนายน 2561
61,61,65010076,บ้านหนองแพงพวย,0,0,0,0,1,1,2,1,2,2,4,1,3,3,6,2,1,1,2,1,1,3,4,1,1,1,2,1,2,2,4,1,3,2,5,1,4,0,4,1,12,9,21,6,0,0,0,0,0,0,0,0,0,0,0,0,0,0,0,0,0,0,0,0,0,0,0,0,0,0,0,0,0,0,0,0,0,0,0,0,0,0,0,0,0,0,0,0,15,12,27,8,10 มิถุนายน 2561
62,62,65010077,วัดพรหมเกษร,1,6,7,1,7,4,11,1,2,3,5,1,10,13,23,3,4,4,8,1,5,5,10,1,5,3,8,1,10,5,15,1,10,3,13,1,9,5,14,1,43,25,68,6,10,7,17,1,9,3,12,1,11,8,19,1,30,18,48,3,0,0,0,0,0,0,0,0,0,0,0,0,0,0,0,0,0,0,0,0,0,0,0,0,0,0,0,0,83,56,139,12,10 มิถุนายน 2561
63,63,65010078,บ้านตระแบกงาม,0,0,0,0,5,6,11,1,2,4,6,1,7,10,17,2,7,2,9,1,6,9,15,1,5,6,11,1,5,2,7,1,3,6,9,1,4,8,12,1,30,33,63,6,0,0,0,0,0,0,0,0,0,0,0,0,0,0,0,0,0,0,0,0,0,0,0,0,0,0,0,0,0,0,0,0,0,0,0,0,0,0,0,0,0,0,0,0,37,43,80,8,10 มิถุนายน 2561
64,64,65010079,วัดวังแร่,4,2,6,1,5,5,10,1,7,1,8,1,16,8,24,3,7,4,11,1,3,7,10,1,3,6,9,1,4,4,8,1,3,4,7,1,5,5,10,1,25,30,55,6,0,0,0,0,0,0,0,0,0,0,0,0,0,0,0,0,0,0,0,0,0,0,0,0,0,0,0,0,0,0,0,0,0,0,0,0,0,0,0,0,0,0,0,0,41,38,79,9,10 มิถุนายน 2561
65,65,65010080,วัดห้วงกระได,0,0,0,0,2,3,5,1,0,3,3,1,2,6,8,2,4,3,7,1,4,2,6,1,7,2,9,1,6,1,7,1,1,1,2,1,7,4,11,1,29,13,42,6,0,0,0,0,0,0,0,0,0,0,0,0,0,0,0,0,0,0,0,0,0,0,0,0,0,0,0,0,0,0,0,0,0,0,0,0,0,0,0,0,0,0,0,0,31,19,50,8,10 มิถุนายน 2561
66,66,65010081,วัดหนองอ้อ,0,0,0,0,4,1,5,1,2,8,10,1,6,9,15,2,8,8,16,1,6,6,12,1,3,1,4,1,11,3,14,1,4,4,8,1,7,5,12,1,39,27,66,6,0,0,0,0,0,0,0,0,0,0,0,0,0,0,0,0,0,0,0,0,0,0,0,0,0,0,0,0,0,0,0,0,0,0,0,0,0,0,0,0,0,0,0,0,45,36,81,8,10 มิถุนายน 2561
67,67,65010082,วัดแตน,0,0,0,0,5,7,12,1,4,3,7,1,9,10,19,2,7,9,16,1,6,8,14,1,10,7,17,1,5,8,13,1,4,2,6,1,0,6,6,1,32,40,72,6,0,0,0,0,0,0,0,0,0,0,0,0,0,0,0,0,0,0,0,0,0,0,0,0,0,0,0,0,0,0,0,0,0,0,0,0,0,0,0,0,0,0,0,0,41,50,91,8,10 มิถุนายน 2561
68,68,65010083,วัดหนองพะยอม,0,0,0,0,5,4,9,1,15,7,22,1,20,11,31,2,12,8,20,1,7,11,18,1,12,3,15,1,10,3,13,1,12,12,24,1,4,5,9,1,57,42,99,6,10,10,20,1,12,7,19,1,8,8,16,1,30,25,55,3,0,0,0,0,0,0,0,0,0,0,0,0,0,0,0,0,0,0,0,0,0,0,0,0,0,0,0,0,107,78,185,11,10 มิถุนายน 2561
69,69,65010084,บ้านห้วยชัน,4,4,8,1,4,7,11,1,3,5,8,1,11,16,27,3,2,3,5,1,2,1,3,1,3,6,9,1,2,2,4,1,4,5,9,1,1,3,4,1,14,20,34,6,0,0,0,0,0,0,0,0,0,0,0,0,0,0,0,0,0,0,0,0,0,0,0,0,0,0,0,0,0,0,0,0,0,0,0,0,0,0,0,0,0,0,0,0,25,36,61,9,10 มิถุนายน 2561
70,70,65010085,บ้านบางแก้ว,2,1,3,1,2,2,4,1,1,5,6,1,5,8,13,3,4,2,6,1,3,4,7,1,5,1,6,1,3,3,6,1,1,2,3,1,1,5,6,1,17,17,34,6,0,0,0,0,0,0,0,0,0,0,0,0,0,0,0,0,0,0,0,0,0,0,0,0,0,0,0,0,0,0,0,0,0,0,0,0,0,0,0,0,0,0,0,0,22,25,47,9,10 มิถุนายน 2561
71,71,65010086,บ้านย่านใหญ่,5,5,10,1,8,3,11,1,3,5,8,1,16,13,29,3,9,3,12,1,1,7,8,1,3,2,5,1,6,4,10,1,5,5,10,1,3,0,3,1,27,21,48,6,0,0,0,0,0,0,0,0,0,0,0,0,0,0,0,0,0,0,0,0,0,0,0,0,0,0,0,0,0,0,0,0,0,0,0,0,0,0,0,0,0,0,0,0,43,34,77,9,10 มิถุนายน 2561
72,72,65010087,วัดโป่งหม้อข้าว,0,0,0,0,11,7,18,1,6,14,20,1,17,21,38,2,13,1,14,1,5,5,10,1,12,10,22,1,10,5,15,1,11,3,14,1,2,10,12,1,53,34,87,6,15,7,22,1,13,8,21,1,13,4,17,1,41,19,60,3,0,0,0,0,0,0,0,0,0,0,0,0,0,0,0,0,0,0,0,0,0,0,0,0,0,0,0,0,111,74,185,11,10 มิถุนายน 2561
73,73,65010088,บ้านนาชักหวาย,1,1,2,1,1,0,1,1,2,1,3,1,4,2,6,3,1,0,1,1,5,2,7,1,0,4,4,1,1,0,1,1,1,3,4,1,1,2,3,1,9,11,20,6,0,0,0,0,0,0,0,0,0,0,0,0,0,0,0,0,0,0,0,0,0,0,0,0,0,0,0,0,0,0,0,0,0,0,0,0,0,0,0,0,0,0,0,0,13,13,26,9,10 มิถุนายน 2561
74,74,65010089,บ้านท่านางงาม,2,2,4,1,2,1,3,1,4,0,4,1,8,3,11,3,3,1,4,1,0,1,1,1,0,1,1,1,2,2,4,1,2,7,9,1,2,4,6,1,9,16,25,6,0,0,0,0,0,0,0,0,0,0,0,0,0,0,0,0,0,0,0,0,0,0,0,0,0,0,0,0,0,0,0,0,0,0,0,0,0,0,0,0,0,0,0,0,17,19,36,9,10 มิถุนายน 2561
75,75,65010090,บ้านกรุงกรัก,0,3,3,1,0,2,2,1,1,1,2,1,1,6,7,3,1,1,2,1,0,1,1,1,5,0,5,1,3,1,4,1,2,1,3,1,3,2,5,1,14,6,20,6,0,0,0,0,0,0,0,0,0,0,0,0,0,0,0,0,0,0,0,0,0,0,0,0,0,0,0,0,0,0,0,0,0,0,0,0,0,0,0,0,0,0,0,0,15,12,27,9,10 มิถุนายน 2561
76,76,65010091,นิคมบางระกำ 6(ท่ามะเกลือ),3,6,9,1,6,5,11,1,3,1,4,1,12,12,24,3,7,10,17,1,2,8,10,1,5,4,9,1,6,8,14,1,4,6,10,1,6,3,9,1,30,39,69,6,0,0,0,0,0,0,0,0,0,0,0,0,0,0,0,0,0,0,0,0,0,0,0,0,0,0,0,0,0,0,0,0,0,0,0,0,0,0,0,0,0,0,0,0,42,51,93,9,10 มิถุนายน 2561
77,77,65010092,บ้านคลองน้ำเย็น,0,0,0,0,1,0,1,1,3,3,6,1,4,3,7,2,3,2,5,1,3,2,5,1,5,4,9,1,4,5,9,1,2,2,4,1,7,2,9,1,24,17,41,6,0,0,0,0,0,0,0,0,0,0,0,0,0,0,0,0,0,0,0,0,0,0,0,0,0,0,0,0,0,0,0,0,0,0,0,0,0,0,0,0,0,0,0,0,28,20,48,8,10 มิถุนายน 2561
78,78,65010093,รัฐราษฎร์สงเคราะห์,0,0,0,0,9,7,16,1,15,16,31,1,24,23,47,2,16,15,31,1,14,7,21,1,8,21,29,1,13,18,31,1,14,5,19,1,11,17,28,1,76,83,159,6,15,9,24,1,12,9,21,1,17,10,27,1,44,28,72,3,0,0,0,0,0,0,0,0,0,0,0,0,0,0,0,0,0,0,0,0,0,0,0,0,0,0,0,0,144,134,278,11,10 มิถุนายน 2561
79,79,65010094,นิคมบางระกำ 4(บางระกำชนูปถัมภ์),2,3,5,1,4,3,7,1,0,5,5,1,6,11,17,3,3,1,4,1,2,2,4,1,2,1,3,1,3,2,5,1,2,1,3,1,6,3,9,1,18,10,28,6,0,0,0,0,0,0,0,0,0,0,0,0,0,0,0,0,0,0,0,0,0,0,0,0,0,0,0,0,0,0,0,0,0,0,0,0,0,0,0,0,0,0,0,0,24,21,45,9,10 มิถุนายน 2561
80,80,65010096,บ้านใหม่เจริญธรรม,17,9,26,1,10,10,20,1,16,9,25,1,43,28,71,3,12,11,23,1,8,14,22,1,10,12,22,1,15,7,22,1,12,13,25,1,14,8,22,1,71,65,136,6,8,13,21,1,8,17,25,1,8,4,12,1,24,34,58,3,0,0,0,0,0,0,0,0,0,0,0,0,0,0,0,0,0,0,0,0,0,0,0,0,0,0,0,0,138,127,265,12,10 มิถุนายน 2561
81,81,65010097,นิคมบางระกำ 2(ราษฎร์บำรุง),0,0,0,0,1,2,3,1,7,2,9,1,8,4,12,2,2,4,6,1,5,2,7,1,3,0,3,1,1,2,3,1,5,3,8,1,2,4,6,1,18,15,33,6,0,0,0,0,0,0,0,0,0,0,0,0,0,0,0,0,0,0,0,0,0,0,0,0,0,0,0,0,0,0,0,0,0,0,0,0,0,0,0,0,0,0,0,0,26,19,45,8,10 มิถุนายน 2561
82,82,65010098,บ้านหนองนากวางอั้น,7,6,13,1,8,3,11,1,5,14,19,1,20,23,43,3,8,4,12,1,6,4,10,1,8,11,19,1,8,15,23,1,11,7,18,1,9,3,12,1,50,44,94,6,9,9,18,1,11,6,17,1,9,7,16,1,29,22,51,3,0,0,0,0,0,0,0,0,0,0,0,0,0,0,0,0,0,0,0,0,0,0,0,0,0,0,0,0,99,89,188,12,10 มิถุนายน 2561
83,83,65010099,วัดดอนอภัย,0,0,0,0,5,3,8,1,9,3,12,1,14,6,20,2,7,4,11,1,5,3,8,1,10,4,14,1,9,2,11,1,7,9,16,1,4,7,11,1,42,29,71,6,0,0,0,0,0,0,0,0,0,0,0,0,0,0,0,0,0,0,0,0,0,0,0,0,0,0,0,0,0,0,0,0,0,0,0,0,0,0,0,0,0,0,0,0,56,35,91,8,10 มิถุนายน 2561
84,84,65010100,บ้านดงยาง,0,0,0,0,3,3,6,1,5,3,8,1,8,6,14,2,4,2,6,1,6,10,16,1,14,2,16,1,6,6,12,1,12,2,14,1,6,4,10,1,48,26,74,6,0,0,0,0,0,0,0,0,0,0,0,0,0,0,0,0,0,0,0,0,0,0,0,0,0,0,0,0,0,0,0,0,0,0,0,0,0,0,0,0,0,0,0,0,56,32,88,8,10 มิถุนายน 2561
85,85,65010102,วัดวังเป็ด,0,0,0,0,12,10,22,1,8,6,14,1,20,16,36,2,9,7,16,1,6,9,15,1,3,3,6,1,8,7,15,1,10,5,15,1,5,3,8,1,41,34,75,6,0,0,0,0,0,0,0,0,0,0,0,0,0,0,0,0,0,0,0,0,0,0,0,0,0,0,0,0,0,0,0,0,0,0,0,0,0,0,0,0,0,0,0,0,61,50,111,8,10 มิถุนายน 2561
86,86,65010103,วัดแหลมเจดีย์,0,0,0,0,5,5,10,1,3,2,5,1,8,7,15,2,11,7,18,1,10,8,18,1,6,3,9,1,9,8,17,1,9,5,14,1,3,7,10,1,48,38,86,6,13,11,24,1,12,10,22,1,5,2,7,1,30,23,53,3,0,0,0,0,0,0,0,0,0,0,0,0,0,0,0,0,0,0,0,0,0,0,0,0,0,0,0,0,86,68,154,11,10 มิถุนายน 2561
87,87,65010104,บ้านคุยยาง,1,1,2,1,5,2,7,1,5,3,8,1,11,6,17,3,3,4,7,1,4,0,4,1,3,5,8,1,1,7,8,1,6,5,11,1,7,2,9,1,24,23,47,6,0,0,0,0,0,0,0,0,0,0,0,0,0,0,0,0,0,0,0,0,0,0,0,0,0,0,0,0,0,0,0,0,0,0,0,0,0,0,0,0,0,0,0,0,35,29,64,9,10 มิถุนายน 2561
88,88,65010105,วัดยางแขวนอู่,0,0,0,0,7,1,8,1,3,4,7,1,10,5,15,2,3,3,6,1,2,1,3,1,3,6,9,1,6,3,9,1,2,5,7,1,6,2,8,1,22,20,42,6,7,4,11,1,3,2,5,1,3,5,8,1,13,11,24,3,0,0,0,0,0,0,0,0,0,0,0,0,0,0,0,0,0,0,0,0,0,0,0,0,0,0,0,0,45,36,81,11,10 มิถุนายน 2561
89,89,65010106,บ่อวิทยบางระกำ,0,0,0,0,54,65,119,4,61,64,125,4,115,129,244,8,71,74,145,4,60,71,131,4,72,69,141,4,46,63,109,4,64,48,112,3,50,46,96,3,363,371,734,22,0,0,0,0,0,0,0,0,0,0,0,0,0,0,0,0,0,0,0,0,0,0,0,0,0,0,0,0,0,0,0,0,0,0,0,0,0,0,0,0,0,0,0,0,478,500,978,30,10 มิถุนายน 2561
90,90,65010107,คลองวัดไร่,0,0,0,0,2,8,10,1,2,4,6,1,4,12,16,2,6,2,8,1,1,3,4,1,3,1,4,1,1,5,6,1,5,4,9,1,3,6,9,1,19,21,40,6,0,0,0,0,0,0,0,0,0,0,0,0,0,0,0,0,0,0,0,0,0,0,0,0,0,0,0,0,0,0,0,0,0,0,0,0,0,0,0,0,0,0,0,0,23,33,56,8,10 มิถุนายน 2561
91,91,65010108,บางระกำ,0,0,0,0,14,10,24,1,12,8,20,1,26,18,44,2,8,8,16,1,16,8,24,1,11,13,24,1,21,10,31,1,13,10,23,1,16,9,25,1,85,58,143,6,23,15,38,1,21,21,42,1,24,16,40,1,68,52,120,3,0,0,0,0,0,0,0,0,0,0,0,0,0,0,0,0,0,0,0,0,0,0,0,0,0,0,0,0,179,128,307,11,10 มิถุนายน 2561
92,92,65010109,บ้านตะโม่ประชาสรรค์,0,0,0,0,6,5,11,1,7,2,9,1,13,7,20,2,5,4,9,1,8,6,14,1,5,5,10,1,7,3,10,1,5,3,8,1,3,3,6,1,33,24,57,6,2,5,7,1,2,7,9,1,2,5,7,1,6,17,23,3,0,0,0,0,0,0,0,0,0,0,0,0,0,0,0,0,0,0,0,0,0,0,0,0,0,0,0,0,52,48,100,11,10 มิถุนายน 2561
93,93,65010112,บ้านคุยมะตูม,0,0,0,0,3,1,4,1,8,2,10,1,11,3,14,2,4,3,7,1,5,8,13,1,6,9,15,1,2,4,6,1,10,5,15,1,7,3,10,1,34,32,66,6,0,0,0,0,0,0,0,0,0,0,0,0,0,0,0,0,0,0,0,0,0,0,0,0,0,0,0,0,0,0,0,0,0,0,0,0,0,0,0,0,0,0,0,0,45,35,80,8,10 มิถุนายน 2561
94,94,65010113,บ้านบัวจันทร์,0,0,0,0,3,4,7,1,4,3,7,1,7,7,14,2,7,2,9,1,5,3,8,1,5,4,9,1,3,3,6,1,7,4,11,1,5,5,10,1,32,21,53,6,0,0,0,0,0,0,0,0,0,0,0,0,0,0,0,0,0,0,0,0,0,0,0,0,0,0,0,0,0,0,0,0,0,0,0,0,0,0,0,0,0,0,0,0,39,28,67,8,10 มิถุนายน 2561
95,95,65010114,บ้านประดาประชาราษฎร์,0,0,0,0,2,5,7,1,4,5,9,1,6,10,16,2,6,6,12,1,4,6,10,1,11,3,14,1,2,10,12,1,7,5,12,1,3,6,9,1,33,36,69,6,0,0,0,0,0,0,0,0,0,0,0,0,0,0,0,0,0,0,0,0,0,0,0,0,0,0,0,0,0,0,0,0,0,0,0,0,0,0,0,0,0,0,0,0,39,46,85,8,10 มิถุนายน 2561
96,96,65010115,บ้านคลองเตย,0,0,0,0,12,5,17,1,6,5,11,1,18,10,28,2,11,5,16,1,7,4,11,1,7,5,12,1,5,7,12,1,9,8,17,1,6,7,13,1,45,36,81,6,3,6,9,1,5,9,14,1,5,6,11,1,13,21,34,3,0,0,0,0,0,0,0,0,0,0,0,0,0,0,0,0,0,0,0,0,0,0,0,0,0,0,0,0,76,67,143,11,10 มิถุนายน 2561
97,97,65010116,วัดบึงกอก,0,0,0,0,5,2,7,1,5,3,8,1,10,5,15,2,5,9,14,1,8,6,14,1,3,4,7,1,10,8,18,1,3,10,13,1,7,6,13,1,36,43,79,6,11,6,17,1,8,7,15,1,8,5,13,1,27,18,45,3,0,0,0,0,0,0,0,0,0,0,0,0,0,0,0,0,0,0,0,0,0,0,0,0,0,0,0,0,73,66,139,11,10 มิถุนายน 2561
98,98,65010117,วัดปรือกระเทียม,0,0,0,0,5,10,15,1,3,8,11,1,8,18,26,2,5,4,9,1,6,5,11,1,5,5,10,1,6,1,7,1,7,7,14,1,12,7,19,1,41,29,70,6,5,3,8,1,7,6,13,1,3,3,6,1,15,12,27,3,0,0,0,0,0,0,0,0,0,0,0,0,0,0,0,0,0,0,0,0,0,0,0,0,0,0,0,0,64,59,123,11,10 มิถุนายน 2561
99,99,65010118,บ้านเสวยซุง,0,0,0,0,3,4,7,1,3,1,4,1,6,5,11,2,7,6,13,1,4,3,7,1,4,6,10,1,5,7,12,1,1,4,5,1,6,4,10,1,27,30,57,6,0,0,0,0,0,0,0,0,0,0,0,0,0,0,0,0,0,0,0,0,0,0,0,0,0,0,0,0,0,0,0,0,0,0,0,0,0,0,0,0,0,0,0,0,33,35,68,8,10 มิถุนายน 2561
100,100,65010119,บ้านปลักแรด,0,0,0,0,4,4,8,1,17,13,30,1,21,17,38,2,20,14,34,1,9,16,25,1,13,16,29,1,12,17,29,1,20,11,31,1,26,17,43,2,100,91,191,7,16,20,36,1,27,13,40,1,16,17,33,1,59,50,109,3,4,2,6,1,5,5,10,1,5,1,6,1,0,0,0,0,0,0,0,0,0,0,0,0,14,8,22,3,194,166,360,15,10 มิถุนายน 2561
101,101,65010121,บ้านหนองแขม,7,7,14,1,9,6,15,1,9,9,18,1,25,22,47,3,12,4,16,1,6,6,12,1,3,9,12,1,2,5,7,1,6,5,11,1,2,5,7,1,31,34,65,6,0,0,0,0,0,0,0,0,0,0,0,0,0,0,0,0,0,0,0,0,0,0,0,0,0,0,0,0,0,0,0,0,0,0,0,0,0,0,0,0,0,0,0,0,56,56,112,9,10 มิถุนายน 2561
102,102,65010122,วัดทุ่งชา,0,0,0,0,0,3,3,1,5,7,12,1,5,10,15,2,9,9,18,1,5,9,14,1,6,5,11,1,7,3,10,1,4,3,7,1,6,10,16,1,37,39,76,6,0,0,0,0,0,0,0,0,0,0,0,0,0,0,0,0,0,0,0,0,0,0,0,0,0,0,0,0,0,0,0,0,0,0,0,0,0,0,0,0,0,0,0,0,42,49,91,8,10 มิถุนายน 2561
103,103,65010123,วัดดงโคกขาม,4,7,11,1,5,4,9,1,6,5,11,1,15,16,31,3,7,7,14,1,7,11,18,1,6,7,13,1,4,4,8,1,6,4,10,1,7,3,10,1,37,36,73,6,0,0,0,0,0,0,0,0,0,0,0,0,0,0,0,0,0,0,0,0,0,0,0,0,0,0,0,0,0,0,0,0,0,0,0,0,0,0,0,0,0,0,0,0,52,52,104,9,10 มิถุนายน 2561
104,104,65010124,บ้านพันเสา,0,0,0,0,6,6,12,1,5,7,12,1,11,13,24,2,4,5,9,1,10,6,16,1,4,6,10,1,11,4,15,1,8,8,16,1,10,9,19,1,47,38,85,6,12,4,16,1,5,9,14,1,9,10,19,1,26,23,49,3,0,0,0,0,0,0,0,0,0,0,0,0,0,0,0,0,0,0,0,0,0,0,0,0,0,0,0,0,84,74,158,11,10 มิถุนายน 2561
105,105,65010125,ประดู่มะค่าประชาสรรค์,0,0,0,0,4,7,11,1,10,5,15,1,14,12,26,2,7,7,14,1,6,7,13,1,7,6,13,1,11,8,19,1,5,11,16,1,8,10,18,1,44,49,93,6,0,0,0,0,0,0,0,0,0,0,0,0,0,0,0,0,0,0,0,0,0,0,0,0,0,0,0,0,0,0,0,0,0,0,0,0,0,0,0,0,0,0,0,0,58,61,119,8,10 มิถุนายน 2561
106,106,65010126,บ้านหล่ายขานาง,0,0,0,0,5,3,8,1,3,0,3,1,8,3,11,2,4,2,6,1,4,1,5,1,5,4,9,1,2,2,4,1,3,4,7,1,3,6,9,1,21,19,40,6,0,0,0,0,0,0,0,0,0,0,0,0,0,0,0,0,0,0,0,0,0,0,0,0,0,0,0,0,0,0,0,0,0,0,0,0,0,0,0,0,0,0,0,0,29,22,51,8,10 มิถุนายน 2561
107,107,65010127,วัดโพธิ์งาม,0,0,0,0,2,5,7,1,6,7,13,1,8,12,20,2,4,11,15,1,9,1,10,1,11,10,21,1,3,5,8,1,5,7,12,1,9,8,17,1,41,42,83,6,0,0,0,0,0,0,0,0,0,0,0,0,0,0,0,0,0,0,0,0,0,0,0,0,0,0,0,0,0,0,0,0,0,0,0,0,0,0,0,0,0,0,0,0,49,54,103,8,10 มิถุนายน 2561
108,108,65010128,วัดกรับพวง,3,2,5,1,7,5,12,1,3,2,5,1,13,9,22,3,11,3,14,1,6,5,11,1,8,3,11,1,3,9,12,1,7,7,14,1,4,9,13,1,39,36,75,6,11,7,18,1,7,8,15,1,4,5,9,1,22,20,42,3,0,0,0,0,0,0,0,0,0,0,0,0,0,0,0,0,0,0,0,0,0,0,0,0,0,0,0,0,74,65,139,12,10 มิถุนายน 2561
109,109,65010130,วัดวังอิทก,0,0,0,0,1,5,6,1,9,6,15,1,10,11,21,2,7,6,13,1,2,4,6,1,5,3,8,1,3,9,12,1,4,3,7,1,5,1,6,1,26,26,52,6,0,0,0,0,0,0,0,0,0,0,0,0,0,0,0,0,0,0,0,0,0,0,0,0,0,0,0,0,0,0,0,0,0,0,0,0,0,0,0,0,0,0,0,0,36,37,73,8,10 มิถุนายน 2561
110,110,65010131,วัดกลางสุริยวงศ์,0,0,0,0,5,4,9,1,4,2,6,1,9,6,15,2,3,2,5,1,2,2,4,1,6,3,9,1,0,2,2,1,1,6,7,1,1,3,4,1,13,18,31,6,0,0,0,0,0,0,0,0,0,0,0,0,0,0,0,0,0,0,0,0,0,0,0,0,0,0,0,0,0,0,0,0,0,0,0,0,0,0,0,0,0,0,0,0,22,24,46,8,10 มิถุนายน 2561
111,111,65010132,นิคมบางระกำ 8(หนองปลวก),0,0,0,0,0,0,0,0,0,0,0,0,0,0,0,0,0,0,0,0,0,0,0,0,0,0,0,0,0,0,0,0,0,0,0,0,0,0,0,0,0,0,0,0,0,0,0,0,0,0,0,0,0,0,0,0,0,0,0,0,0,0,0,0,0,0,0,0,0,0,0,0,0,0,0,0,0,0,0,0,0,0,0,0,0,0,0,0,0,0,0,0,10 มิถุนายน 2561
112,112,65010133,วัดหนองนาดงกวาง,0,0,0,0,5,10,15,1,9,16,25,1,14,26,40,2,11,13,24,1,9,6,15,1,10,12,22,1,10,10,20,1,14,11,25,1,12,17,29,1,66,69,135,6,14,16,30,1,24,26,50,2,16,14,30,1,54,56,110,4,0,0,0,0,0,0,0,0,0,0,0,0,0,0,0,0,0,0,0,0,0,0,0,0,0,0,0,0,134,151,285,12,10 มิถุนายน 2561
113,113,65010134,บ้านหนองกรับ,0,0,0,0,1,3,4,1,4,7,11,1,5,10,15,2,4,9,13,1,2,2,4,1,6,10,16,1,4,6,10,1,8,6,14,1,2,5,7,1,26,38,64,6,0,0,0,0,0,0,0,0,0,0,0,0,0,0,0,0,0,0,0,0,0,0,0,0,0,0,0,0,0,0,0,0,0,0,0,0,0,0,0,0,0,0,0,0,31,48,79,8,10 มิถุนายน 2561
114,114,65010135,บ้านหนองตะเคียน,0,0,0,0,1,2,3,1,1,6,7,1,2,8,10,2,1,4,5,1,2,3,5,1,1,4,5,1,3,4,7,1,0,2,2,1,6,1,7,1,13,18,31,6,0,0,0,0,0,0,0,0,0,0,0,0,0,0,0,0,0,0,0,0,0,0,0,0,0,0,0,0,0,0,0,0,0,0,0,0,0,0,0,0,0,0,0,0,15,26,41,8,10 มิถุนายน 2561
115,115,65010136,บ้านหนองกุลา,0,0,0,0,30,21,51,2,23,25,48,2,53,46,99,4,28,35,63,2,25,20,45,2,33,26,59,2,29,45,74,2,40,29,69,2,29,20,49,2,184,175,359,12,11,25,36,1,21,10,31,1,13,10,23,1,45,45,90,3,0,0,0,0,0,0,0,0,0,0,0,0,0,0,0,0,0,0,0,0,0,0,0,0,0,0,0,0,282,266,548,19,10 มิถุนายน 2561
116,116,65010137,วัดบึงบอน,7,1,8,1,8,4,12,1,4,5,9,1,19,10,29,3,3,7,10,1,2,3,5,1,4,3,7,1,2,4,6,1,4,1,5,1,8,3,11,1,23,21,44,6,0,0,0,0,0,0,0,0,0,0,0,0,0,0,0,0,0,0,0,0,0,0,0,0,0,0,0,0,0,0,0,0,0,0,0,0,0,0,0,0,0,0,0,0,42,31,73,9,10 มิถุนายน 2561
117,117,65010138,บ้านหนองไผ่,6,11,17,1,12,11,23,1,11,15,26,1,29,37,66,3,16,12,28,1,19,11,30,1,14,12,26,1,12,11,23,1,7,13,20,1,23,15,38,1,91,74,165,6,0,0,0,0,0,0,0,0,0,0,0,0,0,0,0,0,0,0,0,0,0,0,0,0,0,0,0,0,0,0,0,0,0,0,0,0,0,0,0,0,0,0,0,0,120,111,231,9,10 มิถุนายน 2561
118,118,65010139,บ้านท่าไม้งาม,1,3,4,1,2,11,13,1,4,6,10,1,7,20,27,3,5,4,9,1,6,3,9,1,2,5,7,1,6,1,7,1,3,5,8,1,11,2,13,1,33,20,53,6,0,0,0,0,0,0,0,0,0,0,0,0,0,0,0,0,0,0,0,0,0,0,0,0,0,0,0,0,0,0,0,0,0,0,0,0,0,0,0,0,0,0,0,0,40,40,80,9,10 มิถุนายน 2561
119,119,65010140,บ้านใหม่คลองเจริญ,0,0,0,0,2,0,2,1,1,4,5,1,3,4,7,2,2,3,5,1,4,2,6,1,2,2,4,1,3,3,6,1,4,3,7,1,6,1,7,1,21,14,35,6,0,0,0,0,0,0,0,0,0,0,0,0,0,0,0,0,0,0,0,0,0,0,0,0,0,0,0,0,0,0,0,0,0,0,0,0,0,0,0,0,0,0,0,0,24,18,42,8,10 มิถุนายน 2561
120,120,65010141,บ้านคลองหนองเหล็ก,0,0,0,0,8,4,12,1,13,4,17,1,21,8,29,2,10,5,15,1,4,8,12,1,8,9,17,1,6,10,16,1,5,3,8,1,7,0,7,1,40,35,75,6,0,0,0,0,0,0,0,0,0,0,0,0,0,0,0,0,0,0,0,0,0,0,0,0,0,0,0,0,0,0,0,0,0,0,0,0,0,0,0,0,0,0,0,0,61,43,104,8,10 มิถุนายน 2561
