,0,1,2,3,4,5,6,7,8,9,10,11,12,13,14,15,16,17,18,19,20,21,22,23,24,25,26,27,28,29,30,31,32,33,34,35,36,37,38,39,40,41,42,43,44,45,46,47,48,49,50,51,52,53,54,55,56,57,58,59,60,61,62,63,64,65,66,67,68,69,70,71,72,73,74,75,76,77,78,79,80,81,82,83,84,85,86,87,88,89,90,91,92,93,94,95
0,ลำดับ,รหัส SMIS,โรงเรียน,อ.3 ขวบ ชาย,อ.3 ขวบ หญิง,รวมอ.3 ขวบ,อ.3 ขวบ ห้อง,อ.1 ชาย,อ.1 หญิง,รวมอ.1,อ.1 ห้อง,อ.2 ชาย,อ.2 หญิง,รวมอ.2,อ.2 ห้อง,รวมก่อนประถม ชาย,รวมก่อนประถม หญิง,รวมก่อนประถม,รวมห้องก่อนประถม,ป.1 ชาย,ป.1 หญิง,รวมป.1,ป.1 ห้อง,ป.2 ชาย,ป.2 หญิง,รวมป.2,ป.2 ห้อง,ป.3 ชาย,ป.3 หญิง,รวมป.3,ป.3 ห้อง,ป.4 ชาย,ป.4 หญิง,รวมป.4,ป.4 ห้อง,ป.5 ชาย,ป.5 หญิง,รวมป.5,ป.5 ห้อง,ป.6 ชาย,ป.6 หญิง,รวมป.6,ป.6 ห้อง,รวมประถม ชาย,รวมประถม หญิง,รวมประถม,รวมห้องประถม,ม.1 ชาย,ม.1 หญิง,รวมม.1,ม.1 ห้อง,ม.2 ชาย,ม.2 หญิง,รวมม.2,ม.2 ห้อง,ม.3 ชาย,ม.3 หญิง,รวมม.3,ม.3 ห้อง,รวมม.ต้น ชาย,รวมม.ต้น หญิง,รวมม.ต้น,รวมห้องม.ต้น,ม.4 ชาย,ม.4 หญิง,รวมม.4,ม.4 ห้อง,ม.5 ชาย,ม.5 หญิง,รวมม.5,ม.5 ห้อง,ม.6 ชาย,ม.6 หญิง,รวมม.6,ม.6 ห้อง,ปวช.1 ชาย,ปวช.1 หญิง,รวมปวช.1,ปวช.1 ห้อง,ปวช.2 ชาย,ปวช.2 หญิง,รวมปวช.2,ปวช.2 ห้อง,ปวช.3 ชาย,ปวช.3 หญิง,รวมปวช.3,ปวช.3 ห้อง,รวมม.ปลายและเทียบเท่า ชาย,รวมม.ปลายและเทียบเท่า หญิง,รวมม.ปลายและเทียบเท่า,รวมห้องม.ปลายและเทียบเท่า,รวมทั้งหมด ชาย,รวมทั้งหมด หญิง,รวมทั้งหมด,รวมห้องทั้งหมด,ข้อมูล ณ วันที่
1,1,65030001,บ้านนาเมือง,0,0,0,0,3,6,9,1,3,1,4,1,6,7,13,2,6,6,12,1,3,2,5,1,1,4,5,1,5,4,9,1,6,1,7,1,5,5,10,1,26,22,48,6,0,0,0,0,0,0,0,0,0,0,0,0,0,0,0,0,0,0,0,0,0,0,0,0,0,0,0,0,0,0,0,0,0,0,0,0,0,0,0,0,0,0,0,0,32,29,61,8,10 มิถุนายน 2561
2,2,65030002,บ้านนาฟองแดง,0,0,0,0,4,4,8,1,2,4,6,1,6,8,14,2,3,3,6,1,1,4,5,1,1,3,4,1,1,6,7,1,0,1,1,1,2,2,4,1,8,19,27,6,0,0,0,0,0,0,0,0,0,0,0,0,0,0,0,0,0,0,0,0,0,0,0,0,0,0,0,0,0,0,0,0,0,0,0,0,0,0,0,0,0,0,0,0,14,27,41,8,10 มิถุนายน 2561
3,3,65030003,บ้านนาขุมคัน,0,0,0,0,6,6,12,1,5,8,13,1,11,14,25,2,9,7,16,1,3,10,13,1,4,4,8,1,5,2,7,1,8,5,13,1,8,6,14,1,37,34,71,6,0,0,0,0,0,0,0,0,0,0,0,0,0,0,0,0,0,0,0,0,0,0,0,0,0,0,0,0,0,0,0,0,0,0,0,0,0,0,0,0,0,0,0,0,48,48,96,8,10 มิถุนายน 2561
4,4,65030004,บ้านนาทุ่งใหญ่,1,4,5,1,1,2,3,1,1,2,3,1,3,8,11,3,2,4,6,1,0,0,0,0,1,2,3,1,2,1,3,1,0,4,4,1,2,2,4,1,7,13,20,5,0,0,0,0,0,0,0,0,0,0,0,0,0,0,0,0,0,0,0,0,0,0,0,0,0,0,0,0,0,0,0,0,0,0,0,0,0,0,0,0,0,0,0,0,10,21,31,8,10 มิถุนายน 2561
5,5,65030005,นครไทยวิทยาคม,0,0,0,0,37,33,70,3,36,38,74,3,73,71,144,6,60,38,98,3,39,45,84,3,57,44,101,3,46,50,96,3,36,54,90,3,54,48,102,3,292,279,571,18,41,18,59,2,16,17,33,1,25,20,45,1,82,55,137,4,0,0,0,0,0,0,0,0,0,0,0,0,0,0,0,0,0,0,0,0,0,0,0,0,0,0,0,0,447,405,852,28,10 มิถุนายน 2561
6,6,65030006,บ้านหนองน้ำสร้าง,0,0,0,0,5,3,8,1,3,3,6,1,8,6,14,2,6,8,14,1,2,5,7,1,1,4,5,1,4,5,9,1,3,4,7,1,3,2,5,1,19,28,47,6,0,0,0,0,0,0,0,0,0,0,0,0,0,0,0,0,0,0,0,0,0,0,0,0,0,0,0,0,0,0,0,0,0,0,0,0,0,0,0,0,0,0,0,0,27,34,61,8,10 มิถุนายน 2561
7,7,65030007,บ้านหนองลาน,0,0,0,0,4,3,7,1,2,2,4,1,6,5,11,2,4,4,8,1,2,0,2,1,3,5,8,1,6,4,10,1,5,4,9,1,3,4,7,1,23,21,44,6,0,0,0,0,0,0,0,0,0,0,0,0,0,0,0,0,0,0,0,0,0,0,0,0,0,0,0,0,0,0,0,0,0,0,0,0,0,0,0,0,0,0,0,0,29,26,55,8,10 มิถุนายน 2561
8,8,65030008,ประชาสงเคราะห์พิทยา,0,0,0,0,11,7,18,1,13,14,27,1,24,21,45,2,5,7,12,1,13,7,20,1,10,8,18,1,12,9,21,1,6,10,16,1,5,12,17,1,51,53,104,6,6,9,15,1,10,8,18,1,6,8,14,1,22,25,47,3,0,0,0,0,0,0,0,0,0,0,0,0,0,0,0,0,0,0,0,0,0,0,0,0,0,0,0,0,97,99,196,11,10 มิถุนายน 2561
9,9,65030009,ภูขัดรวมไทยพัฒนา,13,11,24,1,6,5,11,1,9,5,14,1,28,21,49,3,9,13,22,1,8,6,14,1,13,7,20,1,9,10,19,1,9,15,24,1,6,7,13,1,54,58,112,6,4,2,6,1,3,3,6,1,8,3,11,1,15,8,23,3,0,0,0,0,0,0,0,0,0,0,0,0,0,0,0,0,0,0,0,0,0,0,0,0,0,0,0,0,97,87,184,12,10 มิถุนายน 2561
10,10,65030010,กัลยาณิวัฒนา 1,4,2,6,1,2,3,5,1,2,5,7,1,8,10,18,3,4,8,12,1,7,12,19,1,10,6,16,1,14,7,21,1,7,10,17,1,12,10,22,1,54,53,107,6,25,15,40,1,12,7,19,1,12,14,26,1,49,36,85,3,0,0,0,0,0,0,0,0,0,0,0,0,0,0,0,0,0,0,0,0,0,0,0,0,0,0,0,0,111,99,210,12,10 มิถุนายน 2561
11,11,65030011,บ้านนาไก่เขี่ย,0,0,0,0,2,1,3,1,2,2,4,1,4,3,7,2,5,8,13,1,7,8,15,1,4,5,9,1,4,3,7,1,5,3,8,1,4,2,6,1,29,29,58,6,0,0,0,0,0,0,0,0,0,0,0,0,0,0,0,0,0,0,0,0,0,0,0,0,0,0,0,0,0,0,0,0,0,0,0,0,0,0,0,0,0,0,0,0,33,32,65,8,10 มิถุนายน 2561
12,12,65030012,บ้านน้ำลอม,0,0,0,0,3,3,6,1,3,2,5,1,6,5,11,2,3,5,8,1,4,4,8,1,4,2,6,1,2,4,6,1,5,5,10,1,4,2,6,1,22,22,44,6,0,0,0,0,0,0,0,0,0,0,0,0,0,0,0,0,0,0,0,0,0,0,0,0,0,0,0,0,0,0,0,0,0,0,0,0,0,0,0,0,0,0,0,0,28,27,55,8,10 มิถุนายน 2561
13,13,65030013,บ้านนาคล้าย,0,0,0,0,6,8,14,1,6,5,11,1,12,13,25,2,4,5,9,1,4,5,9,1,2,3,5,1,1,7,8,1,4,2,6,1,4,2,6,1,19,24,43,6,0,0,0,0,0,0,0,0,0,0,0,0,0,0,0,0,0,0,0,0,0,0,0,0,0,0,0,0,0,0,0,0,0,0,0,0,0,0,0,0,0,0,0,0,31,37,68,8,10 มิถุนายน 2561
14,14,65030014,บ้านบุ่งผลำ,7,5,12,1,2,0,2,1,2,1,3,1,11,6,17,3,2,1,3,1,1,3,4,1,1,4,5,1,3,3,6,1,3,5,8,1,4,4,8,1,14,20,34,6,0,0,0,0,0,0,0,0,0,0,0,0,0,0,0,0,0,0,0,0,0,0,0,0,0,0,0,0,0,0,0,0,0,0,0,0,0,0,0,0,0,0,0,0,25,26,51,9,10 มิถุนายน 2561
15,15,65030015,บ้านน้ำกุ่ม,0,0,0,0,1,2,3,1,2,3,5,1,3,5,8,2,3,5,8,1,2,1,3,1,3,2,5,1,8,3,11,1,4,4,8,1,7,3,10,1,27,18,45,6,0,0,0,0,0,0,0,0,0,0,0,0,0,0,0,0,0,0,0,0,0,0,0,0,0,0,0,0,0,0,0,0,0,0,0,0,0,0,0,0,0,0,0,0,30,23,53,8,10 มิถุนายน 2561
16,16,65030016,บ้านนาแฝก,1,2,3,1,3,1,4,1,5,4,9,1,9,7,16,3,2,4,6,1,4,3,7,1,6,1,7,1,0,3,3,1,1,1,2,1,2,2,4,1,15,14,29,6,0,0,0,0,0,0,0,0,0,0,0,0,0,0,0,0,0,0,0,0,0,0,0,0,0,0,0,0,0,0,0,0,0,0,0,0,0,0,0,0,0,0,0,0,24,21,45,9,10 มิถุนายน 2561
17,17,65030017,บ้านท่าหินลาด,2,1,3,1,6,8,14,1,1,2,3,1,9,11,20,3,8,2,10,1,2,6,8,1,6,1,7,1,6,3,9,1,5,4,9,1,7,5,12,1,34,21,55,6,0,0,0,0,0,0,0,0,0,0,0,0,0,0,0,0,0,0,0,0,0,0,0,0,0,0,0,0,0,0,0,0,0,0,0,0,0,0,0,0,0,0,0,0,43,32,75,9,10 มิถุนายน 2561
18,18,65030018,ชุมชน 8 ราษฎร์อุทิศพิทยา,0,0,0,0,19,13,32,1,15,14,29,1,34,27,61,2,18,16,34,1,20,19,39,1,20,19,39,1,14,25,39,1,14,18,32,1,23,20,43,1,109,117,226,6,12,16,28,1,22,17,39,1,16,10,26,1,50,43,93,3,0,0,0,0,0,0,0,0,0,0,0,0,0,0,0,0,0,0,0,0,0,0,0,0,0,0,0,0,193,187,380,11,10 มิถุนายน 2561
19,19,65030019,บ้านหนองแห้ว,0,0,0,0,0,0,0,0,0,0,0,0,0,0,0,0,0,0,0,0,0,0,0,0,0,0,0,0,0,0,0,0,0,0,0,0,0,0,0,0,0,0,0,0,0,0,0,0,0,0,0,0,0,0,0,0,0,0,0,0,0,0,0,0,0,0,0,0,0,0,0,0,0,0,0,0,0,0,0,0,0,0,0,0,0,0,0,0,0,0,0,0,10 มิถุนายน 2561
20,20,65030020,บ้านโป่งกะเฌอ,4,1,5,1,3,6,9,1,5,8,13,1,12,15,27,3,7,2,9,1,3,1,4,1,5,6,11,1,1,4,5,1,3,3,6,1,2,3,5,1,21,19,40,6,0,0,0,0,0,0,0,0,0,0,0,0,0,0,0,0,0,0,0,0,0,0,0,0,0,0,0,0,0,0,0,0,0,0,0,0,0,0,0,0,0,0,0,0,33,34,67,9,10 มิถุนายน 2561
21,21,65030021,บ้านห้วยตีนตั่ง,0,0,0,0,12,11,23,1,13,6,19,1,25,17,42,2,14,8,22,1,11,5,16,1,10,7,17,1,6,4,10,1,6,8,14,1,12,10,22,1,59,42,101,6,0,0,0,0,0,0,0,0,0,0,0,0,0,0,0,0,0,0,0,0,0,0,0,0,0,0,0,0,0,0,0,0,0,0,0,0,0,0,0,0,0,0,0,0,84,59,143,8,10 มิถุนายน 2561
22,22,65030022,บ้านห้วยน้ำไซ (สาขาร่องกล้าวิทยา),0,0,0,0,12,9,21,1,10,7,17,1,22,16,38,2,2,7,9,1,7,10,17,1,6,6,12,1,4,3,7,1,6,5,11,1,4,1,5,1,29,32,61,6,0,0,0,0,0,0,0,0,0,0,0,0,0,0,0,0,0,0,0,0,0,0,0,0,0,0,0,0,0,0,0,0,0,0,0,0,0,0,0,0,0,0,0,0,51,48,99,8,10 มิถุนายน 2561
23,23,65030023,บ้านห้วยน้ำไซ,0,0,0,0,5,3,8,1,3,10,13,1,8,13,21,2,9,7,16,1,7,3,10,1,7,7,14,1,12,8,20,1,5,10,15,1,7,11,18,1,47,46,93,6,7,1,8,1,5,0,5,1,13,3,16,1,25,4,29,3,0,0,0,0,0,0,0,0,0,0,0,0,0,0,0,0,0,0,0,0,0,0,0,0,0,0,0,0,80,63,143,11,10 มิถุนายน 2561
24,24,65030024,ชุมชน 17 บ้านนาตาดี,0,0,0,0,11,10,21,1,7,10,17,1,18,20,38,2,7,8,15,1,7,13,20,1,8,12,20,1,10,14,24,1,9,8,17,1,12,5,17,1,53,60,113,6,0,0,0,0,0,0,0,0,0,0,0,0,0,0,0,0,0,0,0,0,0,0,0,0,0,0,0,0,0,0,0,0,0,0,0,0,0,0,0,0,0,0,0,0,71,80,151,8,10 มิถุนายน 2561
25,25,65030025,สหภาพแรงงานการไฟฟ้านครหลวง,0,0,0,0,3,4,7,1,2,3,5,1,5,7,12,2,2,1,3,1,1,1,2,1,4,3,7,1,4,4,8,1,3,4,7,1,3,5,8,1,17,18,35,6,0,0,0,0,0,0,0,0,0,0,0,0,0,0,0,0,0,0,0,0,0,0,0,0,0,0,0,0,0,0,0,0,0,0,0,0,0,0,0,0,0,0,0,0,22,25,47,8,10 มิถุนายน 2561
26,26,65030026,บ้านป่ารวก,0,0,0,0,0,0,0,1,3,3,6,1,3,3,6,2,0,4,4,1,4,3,7,1,2,2,4,1,4,2,6,1,5,4,9,1,5,1,6,1,20,16,36,6,0,0,0,0,0,0,0,0,0,0,0,0,0,0,0,0,0,0,0,0,0,0,0,0,0,0,0,0,0,0,0,0,0,0,0,0,0,0,0,0,0,0,0,0,23,19,42,8,10 มิถุนายน 2561
27,27,65030027,บ้านน้ำเลา,0,0,0,0,10,8,18,1,3,7,10,1,13,15,28,2,6,9,15,1,9,3,12,1,7,10,17,1,8,8,16,1,8,6,14,1,14,7,21,1,52,43,95,6,0,0,0,0,0,0,0,0,0,0,0,0,0,0,0,0,0,0,0,0,0,0,0,0,0,0,0,0,0,0,0,0,0,0,0,0,0,0,0,0,0,0,0,0,65,58,123,8,10 มิถุนายน 2561
28,28,65030028,บ้านบ่อโพธิ์,0,0,0,0,4,2,6,1,4,2,6,1,8,4,12,2,1,0,1,1,0,2,2,1,1,1,2,1,2,10,12,1,1,0,1,1,1,2,3,1,6,15,21,6,0,0,0,0,0,0,0,0,0,0,0,0,0,0,0,0,0,0,0,0,0,0,0,0,0,0,0,0,0,0,0,0,0,0,0,0,0,0,0,0,0,0,0,0,14,19,33,8,10 มิถุนายน 2561
29,29,65030029,บ้านน้ำคลาด,0,0,0,0,4,2,6,1,4,1,5,1,8,3,11,2,2,2,4,1,1,2,3,1,2,2,4,1,2,2,4,1,2,0,2,1,3,3,6,1,12,11,23,6,0,0,0,0,0,0,0,0,0,0,0,0,0,0,0,0,0,0,0,0,0,0,0,0,0,0,0,0,0,0,0,0,0,0,0,0,0,0,0,0,0,0,0,0,20,14,34,8,10 มิถุนายน 2561
30,30,65030030,บ้านหนองกระดาษ,0,0,0,0,1,1,2,1,1,5,6,1,2,6,8,2,6,6,12,1,0,2,2,1,2,2,4,1,2,4,6,1,4,3,7,1,2,0,2,1,16,17,33,6,0,0,0,0,0,0,0,0,0,0,0,0,0,0,0,0,0,0,0,0,0,0,0,0,0,0,0,0,0,0,0,0,0,0,0,0,0,0,0,0,0,0,0,0,18,23,41,8,10 มิถุนายน 2561
31,31,65030031,บ้านป่าซ่าน,8,8,16,1,5,7,12,1,5,5,10,1,18,20,38,3,7,8,15,1,5,2,7,1,5,10,15,1,5,14,19,1,9,9,18,1,4,12,16,1,35,55,90,6,0,0,0,0,0,0,0,0,0,0,0,0,0,0,0,0,0,0,0,0,0,0,0,0,0,0,0,0,0,0,0,0,0,0,0,0,0,0,0,0,0,0,0,0,53,75,128,9,10 มิถุนายน 2561
32,32,65030032,บ้านพร้าว,0,0,0,0,11,7,18,1,11,12,23,1,22,19,41,2,10,2,12,1,11,8,19,1,8,7,15,1,10,8,18,1,12,5,17,1,12,7,19,1,63,37,100,6,9,6,15,1,8,5,13,1,6,8,14,1,23,19,42,3,0,0,0,0,0,0,0,0,0,0,0,0,0,0,0,0,0,0,0,0,0,0,0,0,0,0,0,0,108,75,183,11,10 มิถุนายน 2561
33,33,65030033,บ้านห้วยทรายทอง,0,0,0,0,6,1,7,1,6,4,10,1,12,5,17,2,3,3,6,1,5,2,7,1,6,3,9,1,6,3,9,1,6,2,8,1,2,3,5,1,28,16,44,6,0,0,0,0,0,0,0,0,0,0,0,0,0,0,0,0,0,0,0,0,0,0,0,0,0,0,0,0,0,0,0,0,0,0,0,0,0,0,0,0,0,0,0,0,40,21,61,8,10 มิถุนายน 2561
34,34,65030034,บ้านแยง,7,12,19,1,11,12,23,1,20,15,35,1,38,39,77,3,20,12,32,1,15,12,27,1,19,13,32,1,11,11,22,1,18,16,34,1,20,16,36,1,103,80,183,6,11,4,15,1,7,3,10,1,7,7,14,1,25,14,39,3,0,0,0,0,0,0,0,0,0,0,0,0,0,0,0,0,0,0,0,0,0,0,0,0,0,0,0,0,166,133,299,12,10 มิถุนายน 2561
35,35,65030035,บ้านเข็กใหญ่,11,4,15,1,8,9,17,1,10,5,15,1,29,18,47,3,9,12,21,1,5,5,10,1,8,7,15,1,5,7,12,1,11,1,12,1,3,9,12,1,41,41,82,6,9,6,15,1,6,6,12,1,11,1,12,1,26,13,39,3,0,0,0,0,0,0,0,0,0,0,0,0,0,0,0,0,0,0,0,0,0,0,0,0,0,0,0,0,96,72,168,12,10 มิถุนายน 2561
36,36,65030036,เกษตรสุขราษฎร์บำรุง,0,0,0,0,8,9,17,1,12,9,21,1,20,18,38,2,12,4,16,1,11,13,24,1,10,9,19,1,8,14,22,1,8,5,13,1,5,10,15,1,54,55,109,6,7,6,13,1,9,1,10,1,2,2,4,1,18,9,27,3,0,0,0,0,0,0,0,0,0,0,0,0,0,0,0,0,0,0,0,0,0,0,0,0,0,0,0,0,92,82,174,11,10 มิถุนายน 2561
37,37,65030037,บ้านถ้ำพริก,8,8,16,1,7,7,14,1,13,8,21,1,28,23,51,3,12,6,18,1,4,12,16,1,8,11,19,1,9,7,16,1,15,3,18,1,7,8,15,1,55,47,102,6,0,0,0,0,0,0,0,0,0,0,0,0,0,0,0,0,0,0,0,0,0,0,0,0,0,0,0,0,0,0,0,0,0,0,0,0,0,0,0,0,0,0,0,0,83,70,153,9,10 มิถุนายน 2561
38,38,65030038,บ้านหนองหิน,21,13,34,1,24,14,38,1,26,16,42,1,71,43,114,3,24,23,47,2,25,18,43,1,19,25,44,1,21,20,41,1,27,17,44,1,22,14,36,1,138,117,255,7,24,11,35,1,12,13,25,1,12,9,21,1,48,33,81,3,0,0,0,0,0,0,0,0,0,0,0,0,0,0,0,0,0,0,0,0,0,0,0,0,0,0,0,0,257,193,450,13,10 มิถุนายน 2561
39,39,65030039,บ้านแก่งทุ่ง,0,0,0,0,3,7,10,1,4,4,8,1,7,11,18,2,6,9,15,1,4,5,9,1,6,2,8,1,5,5,10,1,3,6,9,1,5,9,14,1,29,36,65,6,0,0,0,0,0,0,0,0,0,0,0,0,0,0,0,0,0,0,0,0,0,0,0,0,0,0,0,0,0,0,0,0,0,0,0,0,0,0,0,0,0,0,0,0,36,47,83,8,10 มิถุนายน 2561
40,40,65030040,บ้านยางโกลน,0,0,0,0,1,1,2,1,3,3,6,1,4,4,8,2,4,8,12,1,1,1,2,1,2,1,3,1,3,4,7,1,6,4,10,1,4,5,9,1,20,23,43,6,0,0,0,0,0,0,0,0,0,0,0,0,0,0,0,0,0,0,0,0,0,0,0,0,0,0,0,0,0,0,0,0,0,0,0,0,0,0,0,0,0,0,0,0,24,27,51,8,10 มิถุนายน 2561
41,41,65030041,บ้านบุ่งตารอด,3,5,8,1,0,3,3,1,3,1,4,1,6,9,15,3,4,2,6,1,4,6,10,1,2,8,10,1,1,6,7,1,5,3,8,1,4,2,6,1,20,27,47,6,0,0,0,0,0,0,0,0,0,0,0,0,0,0,0,0,0,0,0,0,0,0,0,0,0,0,0,0,0,0,0,0,0,0,0,0,0,0,0,0,0,0,0,0,26,36,62,9,10 มิถุนายน 2561
42,42,65030042,บ้านบุ่งปลาฝา,0,0,0,0,4,4,8,1,3,4,7,1,7,8,15,2,4,5,9,1,2,3,5,1,2,3,5,1,4,1,5,1,4,2,6,1,2,7,9,1,18,21,39,6,0,0,0,0,0,0,0,0,0,0,0,0,0,0,0,0,0,0,0,0,0,0,0,0,0,0,0,0,0,0,0,0,0,0,0,0,0,0,0,0,0,0,0,0,25,29,54,8,10 มิถุนายน 2561
43,43,65030043,บ้านกกม่วง,1,2,3,1,5,1,6,1,0,4,4,1,6,7,13,3,3,2,5,1,7,4,11,1,2,4,6,1,3,2,5,1,4,4,8,1,2,5,7,1,21,21,42,6,0,0,0,0,0,0,0,0,0,0,0,0,0,0,0,0,0,0,0,0,0,0,0,0,0,0,0,0,0,0,0,0,0,0,0,0,0,0,0,0,0,0,0,0,27,28,55,9,10 มิถุนายน 2561
44,44,65030044,บ้านน้ำพริก,0,0,0,0,10,13,23,1,11,8,19,1,21,21,42,2,10,15,25,1,8,7,15,1,7,13,20,1,6,9,15,1,14,7,21,1,6,2,8,1,51,53,104,6,0,0,0,0,0,0,0,0,0,0,0,0,0,0,0,0,0,0,0,0,0,0,0,0,0,0,0,0,0,0,0,0,0,0,0,0,0,0,0,0,0,0,0,0,72,74,146,8,10 มิถุนายน 2561
45,45,65030045,บางยางพัฒนา,0,0,0,0,11,12,23,1,3,4,7,1,14,16,30,2,6,5,11,1,2,4,6,1,8,2,10,1,8,1,9,1,8,5,13,1,6,4,10,1,38,21,59,6,12,7,19,1,6,4,10,1,6,6,12,1,24,17,41,3,0,0,0,0,0,0,0,0,0,0,0,0,0,0,0,0,0,0,0,0,0,0,0,0,0,0,0,0,76,54,130,11,10 มิถุนายน 2561
46,46,65030046,บ้านน้ำตาก,0,0,0,0,2,2,4,1,5,3,8,1,7,5,12,2,4,5,9,1,6,4,10,1,0,0,0,0,1,3,4,1,2,4,6,1,3,2,5,1,16,18,34,5,0,0,0,0,0,0,0,0,0,0,0,0,0,0,0,0,0,0,0,0,0,0,0,0,0,0,0,0,0,0,0,0,0,0,0,0,0,0,0,0,0,0,0,0,23,23,46,7,10 มิถุนายน 2561
47,47,65030047,บ้านหลังเขา,0,0,0,0,10,12,22,1,19,20,39,1,29,32,61,2,20,10,30,1,14,15,29,1,9,8,17,1,9,15,24,1,11,9,20,1,8,16,24,1,71,73,144,6,0,0,0,0,0,0,0,0,0,0,0,0,0,0,0,0,0,0,0,0,0,0,0,0,0,0,0,0,0,0,0,0,0,0,0,0,0,0,0,0,0,0,0,0,100,105,205,8,10 มิถุนายน 2561
48,48,65030048,บ้านหนองกะท้าว,0,0,0,0,14,6,20,1,13,12,25,1,27,18,45,2,9,20,29,1,16,17,33,1,8,17,25,1,14,14,28,1,16,12,28,1,26,10,36,1,89,90,179,6,20,13,33,1,18,12,30,1,19,12,31,1,57,37,94,3,0,0,0,0,0,0,0,0,0,0,0,0,0,0,0,0,0,0,0,0,0,0,0,0,0,0,0,0,173,145,318,11,10 มิถุนายน 2561
49,49,65030049,บ้านนาโพธิ์นาจาน,0,0,0,0,18,10,28,1,12,5,17,1,30,15,45,2,10,18,28,1,15,7,22,1,12,10,22,1,13,11,24,1,13,12,25,1,15,15,30,1,78,73,151,6,14,8,22,1,21,2,23,1,5,9,14,1,40,19,59,3,0,0,0,0,0,0,0,0,0,0,0,0,0,0,0,0,0,0,0,0,0,0,0,0,0,0,0,0,148,107,255,11,10 มิถุนายน 2561
50,50,65030050,บ้านแก่งหว้าแก่งไฮ,0,0,0,0,14,12,26,1,11,8,19,1,25,20,45,2,15,15,30,1,7,14,21,1,11,11,22,1,8,14,22,1,9,18,27,1,14,16,30,1,64,88,152,6,10,11,21,1,6,6,12,1,8,9,17,1,24,26,50,3,0,0,0,0,0,0,0,0,0,0,0,0,0,0,0,0,0,0,0,0,0,0,0,0,0,0,0,0,113,134,247,11,10 มิถุนายน 2561
51,51,65030051,บ้านนาหนอง,0,0,0,0,5,4,9,1,6,5,11,1,11,9,20,2,8,4,12,1,2,2,4,1,11,7,18,1,10,3,13,1,8,9,17,1,10,12,22,1,49,37,86,6,8,10,18,1,11,6,17,1,5,2,7,1,24,18,42,3,0,0,0,0,0,0,0,0,0,0,0,0,0,0,0,0,0,0,0,0,0,0,0,0,0,0,0,0,84,64,148,11,10 มิถุนายน 2561
52,52,65030052,วิทยสัมพันธ์,0,0,0,0,15,11,26,1,14,10,24,1,29,21,50,2,19,11,30,1,14,15,29,1,12,14,26,1,10,8,18,1,10,16,26,1,15,11,26,1,80,75,155,6,11,23,34,1,20,15,35,1,2,11,13,1,33,49,82,3,0,0,0,0,0,0,0,0,0,0,0,0,0,0,0,0,0,0,0,0,0,0,0,0,0,0,0,0,142,145,287,11,10 มิถุนายน 2561
53,53,65030053,บ้านป่าคาย,2,2,4,1,3,4,7,1,7,7,14,1,12,13,25,3,0,1,1,1,4,0,4,1,0,0,0,0,4,0,4,1,2,0,2,1,2,5,7,1,12,6,18,5,0,0,0,0,0,0,0,0,0,0,0,0,0,0,0,0,0,0,0,0,0,0,0,0,0,0,0,0,0,0,0,0,0,0,0,0,0,0,0,0,0,0,0,0,24,19,43,8,10 มิถุนายน 2561
54,54,65030054,บ้านห้วยเฮี้ย,0,0,0,0,12,7,19,1,5,8,13,1,17,15,32,2,4,10,14,1,7,5,12,1,12,8,20,1,8,2,10,1,7,3,10,1,9,10,19,1,47,38,85,6,10,6,16,1,5,5,10,1,3,4,7,1,18,15,33,3,0,0,0,0,0,0,0,0,0,0,0,0,0,0,0,0,0,0,0,0,0,0,0,0,0,0,0,0,82,68,150,11,10 มิถุนายน 2561
55,55,65030055,บ้านห้วยกอกพัฒนา,0,0,0,0,0,1,1,1,1,4,5,1,1,5,6,2,1,1,2,1,2,1,3,1,1,0,1,1,0,1,1,1,0,0,0,0,3,0,3,1,7,3,10,5,0,0,0,0,0,0,0,0,0,0,0,0,0,0,0,0,0,0,0,0,0,0,0,0,0,0,0,0,0,0,0,0,0,0,0,0,0,0,0,0,0,0,0,0,8,8,16,7,10 มิถุนายน 2561
56,56,65030056,ศิริราษฎร์พัฒนา,0,0,0,0,1,2,3,1,2,5,7,1,3,7,10,2,5,6,11,1,4,1,5,1,3,2,5,1,2,1,3,1,2,2,4,1,6,7,13,1,22,19,41,6,0,0,0,0,0,0,0,0,0,0,0,0,0,0,0,0,0,0,0,0,0,0,0,0,0,0,0,0,0,0,0,0,0,0,0,0,0,0,0,0,0,0,0,0,25,26,51,8,10 มิถุนายน 2561
57,57,65030058,บ้านลาดคื้อ,3,5,8,1,5,3,8,1,5,7,12,1,13,15,28,3,4,0,4,1,5,1,6,1,4,7,11,1,4,4,8,1,3,8,11,1,3,1,4,1,23,21,44,6,4,4,8,1,2,0,2,1,5,4,9,1,11,8,19,3,0,0,0,0,0,0,0,0,0,0,0,0,0,0,0,0,0,0,0,0,0,0,0,0,0,0,0,0,47,44,91,12,10 มิถุนายน 2561
58,58,65030059,บ้านห้วยทรายเหนือ,0,0,0,0,13,10,23,1,13,8,21,1,26,18,44,2,16,12,28,1,8,6,14,1,17,8,25,1,7,11,18,1,7,7,14,1,5,7,12,1,60,51,111,6,7,5,12,1,6,3,9,1,9,2,11,1,22,10,32,3,0,0,0,0,0,0,0,0,0,0,0,0,0,0,0,0,0,0,0,0,0,0,0,0,0,0,0,0,108,79,187,11,10 มิถุนายน 2561
59,59,65030060,บ้านชาติตระการ,0,0,0,0,10,3,13,1,10,8,18,1,20,11,31,2,11,17,28,1,12,10,22,1,12,12,24,1,18,7,25,1,19,14,33,1,10,13,23,1,82,73,155,6,18,12,30,1,14,12,26,1,13,9,22,1,45,33,78,3,0,0,0,0,0,0,0,0,0,0,0,0,0,0,0,0,0,0,0,0,0,0,0,0,0,0,0,0,147,117,264,11,10 มิถุนายน 2561
60,60,65030061,บ้านนาเปอะ,0,0,0,0,0,3,3,1,7,1,8,1,7,4,11,2,5,8,13,1,5,6,11,1,5,1,6,1,7,3,10,1,7,9,16,1,7,5,12,1,36,32,68,6,0,0,0,0,0,0,0,0,0,0,0,0,0,0,0,0,0,0,0,0,0,0,0,0,0,0,0,0,0,0,0,0,0,0,0,0,0,0,0,0,0,0,0,0,43,36,79,8,10 มิถุนายน 2561
61,61,65030062,บ้านปากรอง,1,2,3,1,2,4,6,1,3,4,7,1,6,10,16,3,1,3,4,1,5,2,7,1,2,4,6,1,4,4,8,1,1,3,4,1,2,2,4,1,15,18,33,6,0,0,0,0,0,0,0,0,0,0,0,0,0,0,0,0,0,0,0,0,0,0,0,0,0,0,0,0,0,0,0,0,0,0,0,0,0,0,0,0,0,0,0,0,21,28,49,9,10 มิถุนายน 2561
62,62,65030063,บ้านนาจาน,0,0,0,0,10,6,16,1,10,3,13,1,20,9,29,2,8,9,17,1,4,5,9,1,4,5,9,1,6,8,14,1,3,5,8,1,7,6,13,1,32,38,70,6,10,11,21,1,11,8,19,1,9,4,13,1,30,23,53,3,0,0,0,0,0,0,0,0,0,0,0,0,0,0,0,0,0,0,0,0,0,0,0,0,0,0,0,0,82,70,152,11,10 มิถุนายน 2561
63,63,65030064,บ้านท่าสะแก,0,0,0,0,11,10,21,1,9,6,15,1,20,16,36,2,13,10,23,1,6,12,18,1,10,19,29,1,15,11,26,1,19,11,30,1,15,18,33,1,78,81,159,6,13,16,29,1,9,14,23,1,11,8,19,1,33,38,71,3,0,0,0,0,0,0,0,0,0,0,0,0,0,0,0,0,0,0,0,0,0,0,0,0,0,0,0,0,131,135,266,11,10 มิถุนายน 2561
64,64,65030065,บ้านห้วยท้องฟาน,0,0,0,0,3,7,10,1,6,3,9,1,9,10,19,2,9,5,14,1,12,4,16,1,8,5,13,1,5,8,13,1,2,7,9,1,8,10,18,1,44,39,83,6,5,9,14,1,9,6,15,1,12,5,17,1,26,20,46,3,0,0,0,0,0,0,0,0,0,0,0,0,0,0,0,0,0,0,0,0,0,0,0,0,0,0,0,0,79,69,148,11,10 มิถุนายน 2561
65,65,65030066,บ้านขอนสองสลึง,0,0,0,0,0,0,0,0,1,1,2,1,1,1,2,1,3,0,3,1,2,4,6,1,3,0,3,1,0,0,0,0,6,1,7,1,2,1,3,1,16,6,22,5,0,0,0,0,0,0,0,0,0,0,0,0,0,0,0,0,0,0,0,0,0,0,0,0,0,0,0,0,0,0,0,0,0,0,0,0,0,0,0,0,0,0,0,0,17,7,24,6,10 มิถุนายน 2561
66,66,65030068,บ้านน้ำจวง,0,0,0,0,16,22,38,2,21,29,50,2,37,51,88,4,27,21,48,2,14,16,30,1,13,14,27,1,16,17,33,1,23,13,36,1,9,20,29,1,102,101,203,7,15,17,32,2,7,13,20,1,13,22,35,1,35,52,87,4,10,12,22,2,8,12,20,2,16,8,24,2,0,0,0,0,0,0,0,0,0,0,0,0,34,32,66,6,208,236,444,21,10 มิถุนายน 2561
67,67,65030069,บ้านร่มเกล้า,0,0,0,0,20,25,45,2,13,20,33,1,33,45,78,3,30,20,50,1,18,23,41,1,21,16,37,1,8,20,28,1,21,23,44,1,22,9,31,1,120,111,231,6,28,20,48,1,30,23,53,2,18,22,40,1,76,65,141,4,18,8,26,1,10,11,21,1,6,9,15,1,0,0,0,0,0,0,0,0,0,0,0,0,34,28,62,3,263,249,512,16,10 มิถุนายน 2561
68,68,65030070,บ้านนาตอน,0,0,0,0,6,6,12,1,3,5,8,1,9,11,20,2,4,4,8,1,2,1,3,1,4,1,5,1,3,3,6,1,3,1,4,1,4,5,9,1,20,15,35,6,0,0,0,0,0,0,0,0,0,0,0,0,0,0,0,0,0,0,0,0,0,0,0,0,0,0,0,0,0,0,0,0,0,0,0,0,0,0,0,0,0,0,0,0,29,26,55,8,10 มิถุนายน 2561
69,69,65030071,บ้านขุนน้ำคับ,0,0,0,0,9,12,21,1,20,15,35,1,29,27,56,2,9,15,24,1,5,3,8,1,5,4,9,1,6,5,11,1,6,4,10,1,7,6,13,1,38,37,75,6,4,3,7,1,2,2,4,1,9,3,12,1,15,8,23,3,0,0,0,0,0,0,0,0,0,0,0,0,0,0,0,0,0,0,0,0,0,0,0,0,0,0,0,0,82,72,154,11,10 มิถุนายน 2561
70,70,65030072,บ้านขวดน้ำมัน,0,0,0,0,2,3,5,1,4,5,9,1,6,8,14,2,4,2,6,1,4,2,6,1,6,4,10,1,7,8,15,1,6,8,14,1,4,6,10,1,31,30,61,6,0,0,0,0,0,0,0,0,0,0,0,0,0,0,0,0,0,0,0,0,0,0,0,0,0,0,0,0,0,0,0,0,0,0,0,0,0,0,0,0,0,0,0,0,37,38,75,8,10 มิถุนายน 2561
71,71,65030073,วัดบ่อภาค,0,0,0,0,7,4,11,1,9,11,20,1,16,15,31,2,10,9,19,1,5,7,12,1,4,6,10,1,6,9,15,1,10,8,18,1,8,10,18,1,43,49,92,6,14,6,20,1,12,6,18,1,7,10,17,1,33,22,55,3,0,0,0,0,0,0,0,0,0,0,0,0,0,0,0,0,0,0,0,0,0,0,0,0,0,0,0,0,92,86,178,11,10 มิถุนายน 2561
72,72,65030075,ชุมชนวัดบ้านดง,0,0,0,0,7,2,9,1,6,9,15,1,13,11,24,2,8,15,23,1,8,11,19,1,7,10,17,1,12,10,22,1,9,15,24,1,10,10,20,1,54,71,125,6,9,10,19,1,19,17,36,1,10,13,23,1,38,40,78,3,0,0,0,0,0,0,0,0,0,0,0,0,0,0,0,0,0,0,0,0,0,0,0,0,0,0,0,0,105,122,227,11,10 มิถุนายน 2561
73,73,65030076,บ้านน้ำทองน้อย,0,0,0,0,12,3,15,1,4,4,8,1,16,7,23,2,5,5,10,1,3,8,11,1,7,7,14,1,9,9,18,1,10,6,16,1,11,8,19,1,45,43,88,6,0,0,0,0,0,0,0,0,0,0,0,0,0,0,0,0,0,0,0,0,0,0,0,0,0,0,0,0,0,0,0,0,0,0,0,0,0,0,0,0,0,0,0,0,61,50,111,8,10 มิถุนายน 2561
74,74,65030077,บ้านห้วยน้ำปลา,1,1,2,1,4,6,10,1,6,3,9,1,11,10,21,3,3,6,9,1,1,3,4,1,3,6,9,1,2,3,5,1,5,9,14,1,6,5,11,1,20,32,52,6,0,0,0,0,0,0,0,0,0,0,0,0,0,0,0,0,0,0,0,0,0,0,0,0,0,0,0,0,0,0,0,0,0,0,0,0,0,0,0,0,0,0,0,0,31,42,73,9,10 มิถุนายน 2561
75,75,65030078,บ้านนาหล่ม,3,3,6,1,8,8,16,1,5,4,9,1,16,15,31,3,8,2,10,1,5,5,10,1,4,3,7,1,2,2,4,1,0,4,4,1,9,3,12,1,28,19,47,6,0,0,0,0,0,0,0,0,0,0,0,0,0,0,0,0,0,0,0,0,0,0,0,0,0,0,0,0,0,0,0,0,0,0,0,0,0,0,0,0,0,0,0,0,44,34,78,9,10 มิถุนายน 2561
76,76,65030079,บ้านเนินทอง,0,0,0,0,11,12,23,1,15,10,25,1,26,22,48,2,9,7,16,1,9,17,26,1,13,17,30,1,14,13,27,1,11,16,27,1,21,24,45,1,77,94,171,6,11,6,17,1,11,18,29,1,11,9,20,1,33,33,66,3,0,0,0,0,0,0,0,0,0,0,0,0,0,0,0,0,0,0,0,0,0,0,0,0,0,0,0,0,136,149,285,11,10 มิถุนายน 2561
77,77,65030080,บ้านเนินสุวรรณ,0,0,0,0,8,10,18,1,9,6,15,1,17,16,33,2,14,14,28,1,11,4,15,1,12,7,19,1,14,10,24,1,8,7,15,1,10,6,16,1,69,48,117,6,9,7,16,1,6,5,11,1,10,6,16,1,25,18,43,3,0,0,0,0,0,0,0,0,0,0,0,0,0,0,0,0,0,0,0,0,0,0,0,0,0,0,0,0,111,82,193,11,10 มิถุนายน 2561
78,78,65030081,บ้านห้วยเหิน,0,0,0,0,5,3,8,1,6,4,10,1,11,7,18,2,4,4,8,1,6,6,12,1,5,1,6,1,7,7,14,1,5,6,11,1,11,8,19,1,38,32,70,6,0,0,0,0,0,0,0,0,0,0,0,0,0,0,0,0,0,0,0,0,0,0,0,0,0,0,0,0,0,0,0,0,0,0,0,0,0,0,0,0,0,0,0,0,49,39,88,8,10 มิถุนายน 2561
79,79,65030082,บ้านนาล้อม,0,0,0,0,8,12,20,1,17,7,24,1,25,19,44,2,8,6,14,1,12,15,27,1,13,8,21,1,19,11,30,1,18,10,28,1,14,11,25,1,84,61,145,6,18,10,28,1,10,15,25,1,14,10,24,1,42,35,77,3,0,0,0,0,0,0,0,0,0,0,0,0,0,0,0,0,0,0,0,0,0,0,0,0,0,0,0,0,151,115,266,11,10 มิถุนายน 2561
80,80,65030083,บ้านน้ำภาคน้อย,0,0,0,0,6,3,9,1,2,3,5,1,8,6,14,2,2,3,5,1,6,3,9,1,6,3,9,1,3,6,9,1,5,7,12,1,7,5,12,1,29,27,56,6,0,0,0,0,0,0,0,0,0,0,0,0,0,0,0,0,0,0,0,0,0,0,0,0,0,0,0,0,0,0,0,0,0,0,0,0,0,0,0,0,0,0,0,0,37,33,70,8,10 มิถุนายน 2561
81,81,65030084,บ้านป่าแดง,6,5,11,1,12,17,29,1,27,18,45,2,45,40,85,4,45,41,86,3,36,39,75,2,30,33,63,2,40,29,69,2,43,33,76,2,39,31,70,2,233,206,439,13,0,0,0,0,0,0,0,0,0,0,0,0,0,0,0,0,0,0,0,0,0,0,0,0,0,0,0,0,0,0,0,0,0,0,0,0,0,0,0,0,0,0,0,0,278,246,524,17,10 มิถุนายน 2561
82,82,65030085,บ้านสวนเมี่ยง,0,0,0,0,8,5,13,1,8,5,13,1,16,10,26,2,6,9,15,1,12,4,16,1,10,13,23,1,11,9,20,1,13,10,23,1,10,5,15,1,62,50,112,6,12,10,22,1,10,8,18,1,8,12,20,1,30,30,60,3,0,0,0,0,0,0,0,0,0,0,0,0,0,0,0,0,0,0,0,0,0,0,0,0,0,0,0,0,108,90,198,11,10 มิถุนายน 2561
83,83,65030086,บ้านห้วยช้างแทง,0,0,0,0,10,9,19,1,7,11,18,1,17,20,37,2,4,2,6,1,7,4,11,1,3,7,10,1,12,5,17,1,12,12,24,1,8,9,17,1,46,39,85,6,7,0,7,1,7,0,7,1,4,5,9,1,18,5,23,3,0,0,0,0,0,0,0,0,0,0,0,0,0,0,0,0,0,0,0,0,0,0,0,0,0,0,0,0,81,64,145,11,10 มิถุนายน 2561
84,84,65030087,บ้านหนองขาหย่าง,0,0,0,0,4,2,6,1,4,4,8,1,8,6,14,2,1,7,8,1,7,8,15,1,3,3,6,1,4,3,7,1,2,7,9,1,4,3,7,1,21,31,52,6,0,0,0,0,0,0,0,0,0,0,0,0,0,0,0,0,0,0,0,0,0,0,0,0,0,0,0,0,0,0,0,0,0,0,0,0,0,0,0,0,0,0,0,0,29,37,66,8,10 มิถุนายน 2561
85,85,65030088,บ้านห้วยหมากหล่ำ,2,2,4,1,2,1,3,1,0,5,5,1,4,8,12,3,0,3,3,1,2,1,3,1,2,2,4,1,3,2,5,1,1,0,1,1,3,2,5,1,11,10,21,6,0,0,0,0,0,0,0,0,0,0,0,0,0,0,0,0,0,0,0,0,0,0,0,0,0,0,0,0,0,0,0,0,0,0,0,0,0,0,0,0,0,0,0,0,15,18,33,9,10 มิถุนายน 2561
86,86,65030089,บ้านโคกใหญ่,0,0,0,0,0,6,6,1,6,6,12,1,6,12,18,2,3,2,5,1,5,1,6,1,4,3,7,1,7,4,11,1,8,6,14,1,11,11,22,1,38,27,65,6,7,4,11,1,6,4,10,1,5,4,9,1,18,12,30,3,0,0,0,0,0,0,0,0,0,0,0,0,0,0,0,0,0,0,0,0,0,0,0,0,0,0,0,0,62,51,113,11,10 มิถุนายน 2561
87,87,65030090,บ้านแก่งบัวคำ,2,1,3,1,3,6,9,1,3,4,7,1,8,11,19,3,6,1,7,1,2,1,3,1,3,5,8,1,3,3,6,1,0,1,1,1,2,4,6,1,16,15,31,6,0,0,0,0,0,0,0,0,0,0,0,0,0,0,0,0,0,0,0,0,0,0,0,0,0,0,0,0,0,0,0,0,0,0,0,0,0,0,0,0,0,0,0,0,24,26,50,9,10 มิถุนายน 2561
88,88,65030091,วัดท้องโพลง,0,0,0,0,5,8,13,1,10,13,23,1,15,21,36,2,10,15,25,1,16,4,20,1,12,7,19,1,11,8,19,1,11,11,22,1,16,8,24,1,76,53,129,6,10,5,15,1,11,8,19,1,8,7,15,1,29,20,49,3,0,0,0,0,0,0,0,0,0,0,0,0,0,0,0,0,0,0,0,0,0,0,0,0,0,0,0,0,120,94,214,11,10 มิถุนายน 2561
89,89,65030092,วัดทุ่งตาเปรี้ยว,0,0,0,0,9,9,18,1,18,14,32,1,27,23,50,2,9,9,18,1,8,9,17,1,13,14,27,1,3,11,14,1,6,6,12,1,11,9,20,1,50,58,108,6,0,0,0,0,0,0,0,0,0,0,0,0,0,0,0,0,0,0,0,0,0,0,0,0,0,0,0,0,0,0,0,0,0,0,0,0,0,0,0,0,0,0,0,0,77,81,158,8,10 มิถุนายน 2561
90,90,65030093,วัดสมอสุวรรณาราม,0,0,0,0,3,3,6,1,7,6,13,1,10,9,19,2,2,6,8,1,10,4,14,1,7,4,11,1,8,3,11,1,5,4,9,1,7,4,11,1,39,25,64,6,0,0,0,0,0,0,0,0,0,0,0,0,0,0,0,0,0,0,0,0,0,0,0,0,0,0,0,0,0,0,0,0,0,0,0,0,0,0,0,0,0,0,0,0,49,34,83,8,10 มิถุนายน 2561
91,91,65030094,วัดวังงิ้วงาม,0,0,0,0,2,2,4,1,7,4,11,1,9,6,15,2,1,1,2,1,1,1,2,1,3,4,7,1,3,5,8,1,1,4,5,1,8,3,11,1,17,18,35,6,6,4,10,1,4,4,8,1,6,4,10,1,16,12,28,3,0,0,0,0,0,0,0,0,0,0,0,0,0,0,0,0,0,0,0,0,0,0,0,0,0,0,0,0,42,36,78,11,10 มิถุนายน 2561
92,92,65030095,บ้านคลองตกวิทยา,0,0,0,0,5,6,11,1,4,3,7,1,9,9,18,2,0,4,4,1,5,3,8,1,4,1,5,1,2,3,5,1,4,5,9,1,2,3,5,1,17,19,36,6,0,0,0,0,0,0,0,0,0,0,0,0,0,0,0,0,0,0,0,0,0,0,0,0,0,0,0,0,0,0,0,0,0,0,0,0,0,0,0,0,0,0,0,0,26,28,54,8,10 มิถุนายน 2561
93,93,65030096,วัดเขาน้อย,0,0,0,0,2,3,5,1,8,4,12,1,10,7,17,2,2,4,6,1,4,1,5,1,3,1,4,1,3,4,7,1,2,5,7,1,3,4,7,1,17,19,36,6,0,0,0,0,0,0,0,0,0,0,0,0,0,0,0,0,0,0,0,0,0,0,0,0,0,0,0,0,0,0,0,0,0,0,0,0,0,0,0,0,0,0,0,0,27,26,53,8,10 มิถุนายน 2561
94,94,65030097,บ้านหนองไผ่,1,5,6,1,4,1,5,1,7,2,9,1,12,8,20,3,0,2,2,1,5,6,11,1,4,3,7,1,5,4,9,1,2,3,5,1,3,4,7,1,19,22,41,6,10,8,18,1,4,3,7,1,4,2,6,1,18,13,31,3,0,0,0,0,0,0,0,0,0,0,0,0,0,0,0,0,0,0,0,0,0,0,0,0,0,0,0,0,49,43,92,12,10 มิถุนายน 2561
95,95,65030098,ผดุงวิทยา,1,0,1,1,3,4,7,1,7,2,9,1,11,6,17,3,11,0,11,1,5,7,12,1,3,10,13,1,9,12,21,1,4,4,8,1,7,4,11,1,39,37,76,6,5,2,7,1,4,6,10,1,4,5,9,1,13,13,26,3,0,0,0,0,0,0,0,0,0,0,0,0,0,0,0,0,0,0,0,0,0,0,0,0,0,0,0,0,63,56,119,12,10 มิถุนายน 2561
96,96,65030099,หนองสะแกประชานุกูล,0,0,0,0,8,3,11,1,8,7,15,1,16,10,26,2,6,3,9,1,7,1,8,1,12,6,18,1,7,1,8,1,5,6,11,1,8,8,16,1,45,25,70,6,9,5,14,1,10,3,13,1,5,6,11,1,24,14,38,3,0,0,0,0,0,0,0,0,0,0,0,0,0,0,0,0,0,0,0,0,0,0,0,0,0,0,0,0,85,49,134,11,10 มิถุนายน 2561
97,97,65030100,วัดเซิงหวาย,0,0,0,0,2,5,7,1,7,6,13,1,9,11,20,2,3,4,7,1,4,6,10,1,4,4,8,1,5,2,7,1,9,5,14,1,4,5,9,1,29,26,55,6,0,0,0,0,0,0,0,0,0,0,0,0,0,0,0,0,0,0,0,0,0,0,0,0,0,0,0,0,0,0,0,0,0,0,0,0,0,0,0,0,0,0,0,0,38,37,75,8,10 มิถุนายน 2561
98,98,65030101,วัดหนองมะคัง,0,0,0,0,15,6,21,1,10,12,22,1,25,18,43,2,24,7,31,1,7,7,14,1,6,9,15,1,17,4,21,1,8,7,15,1,15,11,26,1,77,45,122,6,8,10,18,1,7,5,12,1,8,5,13,1,23,20,43,3,0,0,0,0,0,0,0,0,0,0,0,0,0,0,0,0,0,0,0,0,0,0,0,0,0,0,0,0,125,83,208,11,10 มิถุนายน 2561
99,99,65030102,วัดทับยายเชียง,0,0,0,0,10,7,17,1,10,8,18,1,20,15,35,2,10,6,16,1,7,6,13,1,9,7,16,1,5,4,9,1,11,8,19,1,5,15,20,1,47,46,93,6,8,5,13,1,9,2,11,1,5,7,12,1,22,14,36,3,0,0,0,0,0,0,0,0,0,0,0,0,0,0,0,0,0,0,0,0,0,0,0,0,0,0,0,0,89,75,164,11,10 มิถุนายน 2561
100,100,65030103,ทับยายเชียงวิทยา,0,0,0,0,7,4,11,1,10,6,16,1,17,10,27,2,4,5,9,1,2,0,2,1,4,3,7,1,3,1,4,1,8,9,17,1,4,6,10,1,25,24,49,6,4,4,8,1,5,2,7,1,1,6,7,1,10,12,22,3,0,0,0,0,0,0,0,0,0,0,0,0,0,0,0,0,0,0,0,0,0,0,0,0,0,0,0,0,52,46,98,11,10 มิถุนายน 2561
101,101,65030104,วัดนาขุม,0,0,0,0,9,3,12,1,6,12,18,1,15,15,30,2,8,12,20,1,7,9,16,1,9,3,12,1,9,10,19,1,7,12,19,1,6,5,11,1,46,51,97,6,0,0,0,0,0,0,0,0,0,0,0,0,0,0,0,0,0,0,0,0,0,0,0,0,0,0,0,0,0,0,0,0,0,0,0,0,0,0,0,0,0,0,0,0,61,66,127,8,10 มิถุนายน 2561
102,102,65030105,วัดเมมสุวรรณาราม,0,0,0,0,2,6,8,1,3,6,9,1,5,12,17,2,5,3,8,1,4,1,5,1,5,4,9,1,0,3,3,1,8,3,11,1,6,2,8,1,28,16,44,6,0,0,0,0,0,0,0,0,0,0,0,0,0,0,0,0,0,0,0,0,0,0,0,0,0,0,0,0,0,0,0,0,0,0,0,0,0,0,0,0,0,0,0,0,33,28,61,8,10 มิถุนายน 2561
103,103,65030106,วัดท่าช้าง,0,0,0,0,11,2,13,1,7,2,9,1,18,4,22,2,9,7,16,1,5,4,9,1,7,4,11,1,10,4,14,1,8,3,11,1,4,7,11,1,43,29,72,6,0,0,0,0,0,0,0,0,0,0,0,0,0,0,0,0,0,0,0,0,0,0,0,0,0,0,0,0,0,0,0,0,0,0,0,0,0,0,0,0,0,0,0,0,61,33,94,8,10 มิถุนายน 2561
104,104,65030107,วัดหนองหม้อแกง,0,0,0,0,3,1,4,1,1,2,3,1,4,3,7,2,3,2,5,1,1,3,4,1,1,2,3,1,2,2,4,1,3,1,4,1,4,3,7,1,14,13,27,6,0,0,0,0,0,0,0,0,0,0,0,0,0,0,0,0,0,0,0,0,0,0,0,0,0,0,0,0,0,0,0,0,0,0,0,0,0,0,0,0,0,0,0,0,18,16,34,8,10 มิถุนายน 2561
105,105,65030108,ราษฎร์สามัคคี,0,0,0,0,3,4,7,1,6,10,16,1,9,14,23,2,5,5,10,1,5,0,5,1,4,2,6,1,5,3,8,1,4,5,9,1,2,5,7,1,25,20,45,6,0,0,0,0,0,0,0,0,0,0,0,0,0,0,0,0,0,0,0,0,0,0,0,0,0,0,0,0,0,0,0,0,0,0,0,0,0,0,0,0,0,0,0,0,34,34,68,8,10 มิถุนายน 2561
106,106,65030109,ประชาสามัคคี,0,0,0,0,3,3,6,1,5,2,7,1,8,5,13,2,2,5,7,1,0,3,3,1,3,2,5,1,6,6,12,1,3,1,4,1,1,3,4,1,15,20,35,6,0,0,0,0,0,0,0,0,0,0,0,0,0,0,0,0,0,0,0,0,0,0,0,0,0,0,0,0,0,0,0,0,0,0,0,0,0,0,0,0,0,0,0,0,23,25,48,8,10 มิถุนายน 2561
107,107,65030110,ราษฎร์บำรุง,0,0,0,0,2,0,2,1,1,4,5,1,3,4,7,2,2,3,5,1,3,1,4,1,1,4,5,1,0,0,0,0,1,3,4,1,1,0,1,1,8,11,19,5,0,0,0,0,0,0,0,0,0,0,0,0,0,0,0,0,0,0,0,0,0,0,0,0,0,0,0,0,0,0,0,0,0,0,0,0,0,0,0,0,0,0,0,0,11,15,26,7,10 มิถุนายน 2561
108,108,65030112,วัดห้วยดั้ง,0,0,0,0,16,11,27,1,13,15,28,1,29,26,55,2,11,13,24,1,15,13,28,1,12,9,21,1,12,12,24,1,14,13,27,1,19,5,24,1,83,65,148,6,13,9,22,1,15,12,27,1,17,1,18,1,45,22,67,3,0,0,0,0,0,0,0,0,0,0,0,0,0,0,0,0,0,0,0,0,0,0,0,0,0,0,0,0,157,113,270,11,10 มิถุนายน 2561
109,109,65030113,วัดสะพานหิน(วงศ์วานประชาสรรค์),0,0,0,0,10,6,16,1,7,9,16,1,17,15,32,2,5,9,14,1,10,3,13,1,8,7,15,1,13,5,18,1,8,2,10,1,5,10,15,1,49,36,85,6,10,1,11,1,9,8,17,1,5,3,8,1,24,12,36,3,0,0,0,0,0,0,0,0,0,0,0,0,0,0,0,0,0,0,0,0,0,0,0,0,0,0,0,0,90,63,153,11,10 มิถุนายน 2561
110,110,65030114,ศึกษากุลบุตร,0,0,0,0,12,9,21,1,7,5,12,1,19,14,33,2,6,6,12,1,12,3,15,1,5,6,11,1,6,10,16,1,7,3,10,1,2,7,9,1,38,35,73,6,0,0,0,0,0,0,0,0,0,0,0,0,0,0,0,0,0,0,0,0,0,0,0,0,0,0,0,0,0,0,0,0,0,0,0,0,0,0,0,0,0,0,0,0,57,49,106,8,10 มิถุนายน 2561
111,111,65030115,วัดหางไหล,0,0,0,0,15,6,21,1,8,8,16,1,23,14,37,2,10,9,19,1,7,9,16,1,11,6,17,1,12,7,19,1,11,6,17,1,11,13,24,1,62,50,112,6,5,5,10,1,8,5,13,1,12,8,20,1,25,18,43,3,0,0,0,0,0,0,0,0,0,0,0,0,0,0,0,0,0,0,0,0,0,0,0,0,0,0,0,0,110,82,192,11,10 มิถุนายน 2561
112,112,65030116,วัดสนามไชย,0,0,0,0,5,1,6,1,7,1,8,1,12,2,14,2,3,2,5,1,4,4,8,1,5,3,8,1,5,1,6,1,4,1,5,1,3,1,4,1,24,12,36,6,4,1,5,1,3,4,7,1,5,3,8,1,12,8,20,3,0,0,0,0,0,0,0,0,0,0,0,0,0,0,0,0,0,0,0,0,0,0,0,0,0,0,0,0,48,22,70,11,10 มิถุนายน 2561
113,113,65030117,มะต้องประชาสรรค์,0,0,0,0,9,5,14,1,9,3,12,1,18,8,26,2,7,4,11,1,7,7,14,1,2,5,7,1,13,3,16,1,7,4,11,1,5,5,10,1,41,28,69,6,0,0,0,0,0,0,0,0,0,0,0,0,0,0,0,0,0,0,0,0,0,0,0,0,0,0,0,0,0,0,0,0,0,0,0,0,0,0,0,0,0,0,0,0,59,36,95,8,10 มิถุนายน 2561
114,114,65030118,บ้านป่าสัก (ทศพลอนุสรณ์),0,3,3,1,13,15,28,1,15,18,33,1,28,36,64,3,18,12,30,1,18,14,32,1,12,12,24,1,12,12,24,1,14,15,29,1,20,16,36,1,94,81,175,6,30,13,43,1,8,25,33,1,16,15,31,1,54,53,107,3,0,0,0,0,0,0,0,0,0,0,0,0,0,0,0,0,0,0,0,0,0,0,0,0,0,0,0,0,176,170,346,12,10 มิถุนายน 2561
115,115,65030119,บ้านมะต้อง,0,0,0,0,1,1,2,1,0,6,6,1,1,7,8,2,1,1,2,1,3,4,7,1,5,1,6,1,4,3,7,1,2,3,5,1,4,5,9,1,19,17,36,6,0,0,0,0,0,0,0,0,0,0,0,0,0,0,0,0,0,0,0,0,0,0,0,0,0,0,0,0,0,0,0,0,0,0,0,0,0,0,0,0,0,0,0,0,20,24,44,8,10 มิถุนายน 2561
116,116,65030121,ชุมชนดิฎฐอำรุง,0,0,0,0,15,4,19,1,8,6,14,1,23,10,33,2,8,7,15,1,8,13,21,1,12,9,21,1,5,7,12,1,8,5,13,1,7,2,9,1,48,43,91,6,0,0,0,0,0,0,0,0,0,0,0,0,0,0,0,0,0,0,0,0,0,0,0,0,0,0,0,0,0,0,0,0,0,0,0,0,0,0,0,0,0,0,0,0,71,53,124,8,10 มิถุนายน 2561
117,117,65030122,วัดวังมะด่าน,0,0,0,0,9,3,12,1,12,6,18,1,21,9,30,2,11,9,20,1,5,6,11,1,11,8,19,1,5,4,9,1,6,12,18,1,9,13,22,1,47,52,99,6,0,0,0,0,0,0,0,0,0,0,0,0,0,0,0,0,0,0,0,0,0,0,0,0,0,0,0,0,0,0,0,0,0,0,0,0,0,0,0,0,0,0,0,0,68,61,129,8,10 มิถุนายน 2561
118,118,65030123,วัดธรรมาราม,0,0,0,0,6,9,15,1,4,7,11,1,10,16,26,2,7,3,10,1,8,6,14,1,5,7,12,1,4,3,7,1,1,6,7,1,6,11,17,1,31,36,67,6,0,0,0,0,0,0,0,0,0,0,0,0,0,0,0,0,0,0,0,0,0,0,0,0,0,0,0,0,0,0,0,0,0,0,0,0,0,0,0,0,0,0,0,0,41,52,93,8,10 มิถุนายน 2561
119,119,65030124,ราษฎร์ศรัทธาวิทยา,4,9,13,1,8,2,10,1,9,8,17,1,21,19,40,3,4,4,8,1,4,5,9,1,5,5,10,1,3,8,11,1,8,4,12,1,5,7,12,1,29,33,62,6,9,3,12,1,15,10,25,1,10,8,18,1,34,21,55,3,0,0,0,0,0,0,0,0,0,0,0,0,0,0,0,0,0,0,0,0,0,0,0,0,0,0,0,0,84,73,157,12,10 มิถุนายน 2561
120,120,65030125,วัดย่านยาวประชานุกูล,0,0,0,0,0,3,3,1,5,1,6,1,5,4,9,2,3,4,7,1,3,2,5,1,2,2,4,1,2,3,5,1,2,2,4,1,4,2,6,1,16,15,31,6,0,0,0,0,0,0,0,0,0,0,0,0,0,0,0,0,0,0,0,0,0,0,0,0,0,0,0,0,0,0,0,0,0,0,0,0,0,0,0,0,0,0,0,0,21,19,40,8,10 มิถุนายน 2561
121,121,65030126,วัดท่าสี่ร้อย,0,0,0,0,0,0,0,0,1,1,2,1,1,1,2,1,4,1,5,1,0,0,0,0,3,1,4,1,0,0,0,0,2,1,3,1,3,0,3,1,12,3,15,4,0,0,0,0,0,0,0,0,0,0,0,0,0,0,0,0,0,0,0,0,0,0,0,0,0,0,0,0,0,0,0,0,0,0,0,0,0,0,0,0,0,0,0,0,13,4,17,5,10 มิถุนายน 2561
122,122,65030127,วัดวงฆ้อง,0,0,0,0,3,6,9,1,9,4,13,1,12,10,22,2,7,4,11,1,8,6,14,1,8,3,11,1,5,3,8,1,7,2,9,1,5,1,6,1,40,19,59,6,9,2,11,1,0,0,0,0,4,3,7,1,13,5,18,2,0,0,0,0,0,0,0,0,0,0,0,0,0,0,0,0,0,0,0,0,0,0,0,0,0,0,0,0,65,34,99,10,10 มิถุนายน 2561
123,123,65030128,วัดหัวเขาสมอคร้า,0,0,0,0,7,3,10,1,10,7,17,1,17,10,27,2,9,8,17,1,8,10,18,1,8,6,14,1,4,7,11,1,9,6,15,1,6,8,14,1,44,45,89,6,0,0,0,0,0,0,0,0,0,0,0,0,0,0,0,0,0,0,0,0,0,0,0,0,0,0,0,0,0,0,0,0,0,0,0,0,0,0,0,0,0,0,0,0,61,55,116,8,10 มิถุนายน 2561
124,124,65030129,วัดวังไม้แก่น,0,0,0,0,3,0,3,1,0,3,3,1,3,3,6,2,3,0,3,1,3,1,4,1,3,0,3,1,0,3,3,1,3,3,6,1,3,3,6,1,15,10,25,6,0,0,0,0,0,0,0,0,0,0,0,0,0,0,0,0,0,0,0,0,0,0,0,0,0,0,0,0,0,0,0,0,0,0,0,0,0,0,0,0,0,0,0,0,18,13,31,8,10 มิถุนายน 2561
125,125,65030130,วัดวังวน,0,0,0,0,7,9,16,1,4,8,12,1,11,17,28,2,4,9,13,1,8,6,14,1,5,7,12,1,10,10,20,1,6,10,16,1,10,6,16,1,43,48,91,6,12,7,19,1,12,7,19,1,10,10,20,1,34,24,58,3,0,0,0,0,0,0,0,0,0,0,0,0,0,0,0,0,0,0,0,0,0,0,0,0,0,0,0,0,88,89,177,11,10 มิถุนายน 2561
126,126,65030131,บ้านคลองทำเนียบ,0,0,0,0,12,4,16,1,9,5,14,1,21,9,30,2,6,4,10,1,3,6,9,1,2,4,6,1,7,8,15,1,3,3,6,1,6,8,14,1,27,33,60,6,6,3,9,1,1,3,4,1,2,5,7,1,9,11,20,3,0,0,0,0,0,0,0,0,0,0,0,0,0,0,0,0,0,0,0,0,0,0,0,0,0,0,0,0,57,53,110,11,10 มิถุนายน 2561
127,127,65030132,บ้านหนองห้าง,0,0,0,0,1,2,3,1,2,5,7,1,3,7,10,2,1,1,2,1,0,4,4,1,5,2,7,1,3,1,4,1,5,2,7,1,4,4,8,1,18,14,32,6,3,1,4,1,3,0,3,1,4,6,10,1,10,7,17,3,0,0,0,0,0,0,0,0,0,0,0,0,0,0,0,0,0,0,0,0,0,0,0,0,0,0,0,0,31,28,59,11,10 มิถุนายน 2561
128,128,65030133,บ้านบึงธรรมโรง,0,0,0,0,0,1,1,1,1,2,3,1,1,3,4,2,0,2,2,1,0,2,2,1,1,1,2,1,3,0,3,1,2,2,4,1,1,1,2,1,7,8,15,6,0,0,0,0,0,0,0,0,0,0,0,0,0,0,0,0,0,0,0,0,0,0,0,0,0,0,0,0,0,0,0,0,0,0,0,0,0,0,0,0,0,0,0,0,8,11,19,8,10 มิถุนายน 2561
129,129,65030134,ศรีภิรมย์พิทยา,0,0,0,0,9,6,15,1,15,5,20,1,24,11,35,2,9,6,15,1,4,9,13,1,13,2,15,1,13,7,20,1,5,2,7,1,11,7,18,1,55,33,88,6,0,0,0,0,0,0,0,0,0,0,0,0,0,0,0,0,0,0,0,0,0,0,0,0,0,0,0,0,0,0,0,0,0,0,0,0,0,0,0,0,0,0,0,0,79,44,123,8,10 มิถุนายน 2561
130,130,65030135,วัดคลองมะเกลือ,0,0,0,0,9,5,14,1,16,12,28,1,25,17,42,2,7,8,15,1,9,12,21,1,7,11,18,1,10,6,16,1,11,8,19,1,8,12,20,1,52,57,109,6,15,5,20,1,11,9,20,1,10,5,15,1,36,19,55,3,0,0,0,0,0,0,0,0,0,0,0,0,0,0,0,0,0,0,0,0,0,0,0,0,0,0,0,0,113,93,206,11,10 มิถุนายน 2561
131,131,65030136,บ้านบุ่งวิทยา,0,0,0,0,9,6,15,1,4,5,9,1,13,11,24,2,12,11,23,1,5,2,7,1,4,4,8,1,6,2,8,1,3,8,11,1,4,12,16,1,34,39,73,6,7,3,10,1,4,4,8,1,9,11,20,1,20,18,38,3,0,0,0,0,0,0,0,0,0,0,0,0,0,0,0,0,0,0,0,0,0,0,0,0,0,0,0,0,67,68,135,11,10 มิถุนายน 2561
132,132,65030138,บ้านบึงวิทยา,0,0,0,0,2,4,6,1,6,2,8,1,8,6,14,2,5,9,14,1,1,4,5,1,6,5,11,1,9,6,15,1,7,7,14,1,3,5,8,1,31,36,67,6,0,0,0,0,0,0,0,0,0,0,0,0,0,0,0,0,0,0,0,0,0,0,0,0,0,0,0,0,0,0,0,0,0,0,0,0,0,0,0,0,0,0,0,0,39,42,81,8,10 มิถุนายน 2561
133,133,65030140,วัดคลองตาล(ศรีรัตนประชานุกูล),0,0,0,0,15,7,22,1,6,6,12,1,21,13,34,2,3,3,6,1,5,8,13,1,7,3,10,1,5,9,14,1,4,2,6,1,9,6,15,1,33,31,64,6,7,3,10,1,6,2,8,1,3,3,6,1,16,8,24,3,0,0,0,0,0,0,0,0,0,0,0,0,0,0,0,0,0,0,0,0,0,0,0,0,0,0,0,0,70,52,122,11,10 มิถุนายน 2561
134,134,65030141,ชุมชนวัดย่านขาด(ประชาสงเคราะห์),0,0,0,0,15,13,28,1,14,16,30,1,29,29,58,2,15,14,29,1,14,12,26,1,19,8,27,1,17,20,37,1,15,17,32,1,10,19,29,1,90,90,180,6,11,10,21,1,18,8,26,1,12,12,24,1,41,30,71,3,0,0,0,0,0,0,0,0,0,0,0,0,0,0,0,0,0,0,0,0,0,0,0,0,0,0,0,0,160,149,309,11,10 มิถุนายน 2561
135,135,65030142,บ้านหาดใหญ่,0,0,0,0,4,4,8,1,6,5,11,1,10,9,19,2,6,1,7,1,6,7,13,1,6,5,11,1,3,0,3,1,6,5,11,1,3,4,7,1,30,22,52,6,0,0,0,0,0,0,0,0,0,0,0,0,0,0,0,0,0,0,0,0,0,0,0,0,0,0,0,0,0,0,0,0,0,0,0,0,0,0,0,0,0,0,0,0,40,31,71,8,10 มิถุนายน 2561
136,136,65030144,ประชาอุปถัมภ์,0,0,0,0,6,0,6,1,3,4,7,1,9,4,13,2,4,3,7,1,8,1,9,1,2,3,5,1,4,3,7,1,3,1,4,1,4,4,8,1,25,15,40,6,3,2,5,1,7,2,9,1,1,1,2,1,11,5,16,3,0,0,0,0,0,0,0,0,0,0,0,0,0,0,0,0,0,0,0,0,0,0,0,0,0,0,0,0,45,24,69,11,10 มิถุนายน 2561
137,137,65030145,วัดหอกลอง,0,0,0,0,0,1,1,1,0,1,1,1,0,2,2,2,0,1,1,1,1,1,2,1,1,1,2,1,2,1,3,1,4,0,4,1,1,0,1,1,9,4,13,6,0,0,0,0,0,0,0,0,0,0,0,0,0,0,0,0,0,0,0,0,0,0,0,0,0,0,0,0,0,0,0,0,0,0,0,0,0,0,0,0,0,0,0,0,9,6,15,8,10 มิถุนายน 2561
138,138,65030146,วัดกระบังมังคลาราม (พิศาลประชาสรรค์),0,0,0,0,7,11,18,1,5,14,19,1,12,25,37,2,15,11,26,1,5,21,26,1,11,10,21,1,12,10,22,1,13,7,20,1,16,13,29,1,72,72,144,6,11,6,17,1,20,9,29,1,5,14,19,1,36,29,65,3,0,0,0,0,0,0,0,0,0,0,0,0,0,0,0,0,0,0,0,0,0,0,0,0,0,0,0,0,120,126,246,11,10 มิถุนายน 2561
139,139,65030147,ห้วยปลาไหล,0,0,0,0,2,2,4,1,6,4,10,1,8,6,14,2,11,10,21,1,4,4,8,1,4,3,7,1,6,3,9,1,5,3,8,1,4,5,9,1,34,28,62,6,4,4,8,1,5,3,8,1,3,3,6,1,12,10,22,3,0,0,0,0,0,0,0,0,0,0,0,0,0,0,0,0,0,0,0,0,0,0,0,0,0,0,0,0,54,44,98,11,10 มิถุนายน 2561
140,140,65030148,วัดคันโช้ง,0,0,0,0,3,4,7,1,3,1,4,1,6,5,11,2,3,4,7,1,2,2,4,1,3,5,8,1,5,2,7,1,3,2,5,1,2,3,5,1,18,18,36,6,0,0,0,0,0,0,0,0,0,0,0,0,0,0,0,0,0,0,0,0,0,0,0,0,0,0,0,0,0,0,0,0,0,0,0,0,0,0,0,0,0,0,0,0,24,23,47,8,10 มิถุนายน 2561
141,141,65030149,บ้านน้ำโจน,0,0,0,0,9,7,16,1,17,6,23,1,26,13,39,2,7,5,12,1,12,6,18,1,18,6,24,1,14,6,20,1,9,5,14,1,11,14,25,1,71,42,113,6,12,7,19,1,15,8,23,1,2,8,10,1,29,23,52,3,0,0,0,0,0,0,0,0,0,0,0,0,0,0,0,0,0,0,0,0,0,0,0,0,0,0,0,0,126,78,204,11,10 มิถุนายน 2561
142,142,65030150,บ้านแก่งคันนา,0,0,0,0,5,5,10,1,6,3,9,1,11,8,19,2,5,4,9,1,8,2,10,1,9,7,16,1,4,4,8,1,5,4,9,1,9,9,18,1,40,30,70,6,9,7,16,1,6,6,12,1,4,6,10,1,19,19,38,3,0,0,0,0,0,0,0,0,0,0,0,0,0,0,0,0,0,0,0,0,0,0,0,0,0,0,0,0,70,57,127,11,10 มิถุนายน 2561
143,143,65030151,บ้านห้วยเจียง,0,0,0,0,3,8,11,1,4,3,7,1,7,11,18,2,4,4,8,1,4,4,8,1,4,3,7,1,4,7,11,1,14,8,22,1,7,6,13,1,37,32,69,6,0,0,0,0,0,0,0,0,0,0,0,0,0,0,0,0,0,0,0,0,0,0,0,0,0,0,0,0,0,0,0,0,0,0,0,0,0,0,0,0,0,0,0,0,44,43,87,8,10 มิถุนายน 2561
144,144,65030152,บ้านหนองกระบาก,0,0,0,0,8,3,11,1,1,5,6,1,9,8,17,2,3,0,3,1,9,3,12,1,6,8,14,1,4,2,6,1,5,1,6,1,4,3,7,1,31,17,48,6,0,0,0,0,0,0,0,0,0,0,0,0,0,0,0,0,0,0,0,0,0,0,0,0,0,0,0,0,0,0,0,0,0,0,0,0,0,0,0,0,0,0,0,0,40,25,65,8,10 มิถุนายน 2561
145,145,65030153,วัดทองแท้(จ่างอนุกูลพิทยา),0,0,0,0,0,0,0,0,0,0,0,0,0,0,0,0,13,14,27,1,10,4,14,1,8,5,13,1,9,5,14,1,8,7,15,1,6,7,13,1,54,42,96,6,0,0,0,0,0,0,0,0,0,0,0,0,0,0,0,0,0,0,0,0,0,0,0,0,0,0,0,0,0,0,0,0,0,0,0,0,0,0,0,0,0,0,0,0,54,42,96,6,10 มิถุนายน 2561
146,146,65030154,วัดเหล่าขวัญ(จ่างอนุเคราะห์),0,0,0,0,0,0,0,0,0,0,0,0,0,0,0,0,3,4,7,1,4,5,9,1,7,2,9,1,2,3,5,1,2,4,6,1,7,4,11,1,25,22,47,6,7,6,13,1,5,10,15,1,8,3,11,1,20,19,39,3,0,0,0,0,0,0,0,0,0,0,0,0,0,0,0,0,0,0,0,0,0,0,0,0,0,0,0,0,45,41,86,9,10 มิถุนายน 2561
147,147,65030155,บ้านท่ากระดุน,0,0,0,0,1,0,1,1,2,3,5,1,3,3,6,2,2,4,6,1,3,2,5,1,1,2,3,1,4,5,9,1,2,2,4,1,2,3,5,1,14,18,32,6,0,0,0,0,0,0,0,0,0,0,0,0,0,0,0,0,0,0,0,0,0,0,0,0,0,0,0,0,0,0,0,0,0,0,0,0,0,0,0,0,0,0,0,0,17,21,38,8,10 มิถุนายน 2561
148,148,65030156,บ้านหนองมะคัง(จ่างอนุสรณ์),0,0,0,0,0,0,0,0,2,1,3,1,2,1,3,1,0,0,0,0,2,3,5,1,2,2,4,1,4,2,6,1,2,3,5,1,2,3,5,1,12,13,25,5,0,0,0,0,0,0,0,0,0,0,0,0,0,0,0,0,0,0,0,0,0,0,0,0,0,0,0,0,0,0,0,0,0,0,0,0,0,0,0,0,0,0,0,0,14,14,28,6,10 มิถุนายน 2561
149,149,65030157,วัดเสนาสน์,0,0,0,0,7,2,9,1,12,4,16,1,19,6,25,2,9,8,17,1,7,6,13,1,8,8,16,1,7,5,12,1,9,15,24,1,8,5,13,1,48,47,95,6,12,9,21,1,9,8,17,1,7,10,17,1,28,27,55,3,0,0,0,0,0,0,0,0,0,0,0,0,0,0,0,0,0,0,0,0,0,0,0,0,0,0,0,0,95,80,175,11,10 มิถุนายน 2561
150,150,65030158,บ้านหนองปลิง,0,0,0,0,6,5,11,1,1,5,6,1,7,10,17,2,3,2,5,1,4,0,4,1,4,4,8,1,2,4,6,1,3,1,4,1,3,2,5,1,19,13,32,6,0,0,0,0,0,0,0,0,0,0,0,0,0,0,0,0,0,0,0,0,0,0,0,0,0,0,0,0,0,0,0,0,0,0,0,0,0,0,0,0,0,0,0,0,26,23,49,8,10 มิถุนายน 2561
151,151,65030159,เขาไร่ศรีราชา,0,0,0,0,6,1,7,1,3,8,11,1,9,9,18,2,8,4,12,1,4,1,5,1,4,4,8,1,7,4,11,1,5,3,8,1,2,3,5,1,30,19,49,6,0,0,0,0,0,0,0,0,0,0,0,0,0,0,0,0,0,0,0,0,0,0,0,0,0,0,0,0,0,0,0,0,0,0,0,0,0,0,0,0,0,0,0,0,39,28,67,8,10 มิถุนายน 2561
152,152,65030160,ชุมชนบ้านท่างาม,9,4,13,1,4,9,13,1,6,3,9,1,19,16,35,3,7,4,11,1,5,3,8,1,5,3,8,1,5,3,8,1,3,2,5,1,4,4,8,1,29,19,48,6,0,0,0,0,0,0,0,0,0,0,0,0,0,0,0,0,0,0,0,0,0,0,0,0,0,0,0,0,0,0,0,0,0,0,0,0,0,0,0,0,0,0,0,0,48,35,83,9,10 มิถุนายน 2561
153,153,65030161,วัดนาขาม,1,1,2,1,9,9,18,1,7,4,11,1,17,14,31,3,10,5,15,1,6,6,12,1,4,4,8,1,5,6,11,1,6,7,13,1,3,7,10,1,34,35,69,6,3,9,12,1,3,3,6,1,8,3,11,1,14,15,29,3,0,0,0,0,0,0,0,0,0,0,0,0,0,0,0,0,0,0,0,0,0,0,0,0,0,0,0,0,65,64,129,12,10 มิถุนายน 2561
154,154,65030162,บ้านแก่งเจ็ดแคว,0,0,0,0,1,3,4,1,2,3,5,1,3,6,9,2,3,1,4,1,1,2,3,1,2,0,2,1,2,1,3,1,2,6,8,1,4,2,6,1,14,12,26,6,0,0,0,0,0,0,0,0,0,0,0,0,0,0,0,0,0,0,0,0,0,0,0,0,0,0,0,0,0,0,0,0,0,0,0,0,0,0,0,0,0,0,0,0,17,18,35,8,10 มิถุนายน 2561
155,155,65030163,วัดน้ำคบ,0,0,0,0,9,11,20,1,11,11,22,1,20,22,42,2,13,10,23,1,7,6,13,1,12,5,17,1,8,8,16,1,8,5,13,1,5,10,15,1,53,44,97,6,5,9,14,1,12,11,23,1,7,8,15,1,24,28,52,3,0,0,0,0,0,0,0,0,0,0,0,0,0,0,0,0,0,0,0,0,0,0,0,0,0,0,0,0,97,94,191,11,10 มิถุนายน 2561
156,156,65030164,แก่งบ้านยางป่าคาย,0,2,2,1,3,4,7,1,1,3,4,1,4,9,13,3,4,2,6,1,1,4,5,1,5,1,6,1,5,3,8,1,6,6,12,1,10,4,14,1,31,20,51,6,8,5,13,1,5,3,8,1,10,2,12,1,23,10,33,3,0,0,0,0,0,0,0,0,0,0,0,0,0,0,0,0,0,0,0,0,0,0,0,0,0,0,0,0,58,39,97,12,10 มิถุนายน 2561
157,157,65030165,บ้านน้ำหักศึกษา,0,0,0,0,3,6,9,1,5,6,11,1,8,12,20,2,9,7,16,1,9,3,12,1,2,9,11,1,2,3,5,1,8,1,9,1,4,3,7,1,34,26,60,6,0,0,0,0,0,0,0,0,0,0,0,0,0,0,0,0,0,0,0,0,0,0,0,0,0,0,0,0,0,0,0,0,0,0,0,0,0,0,0,0,0,0,0,0,42,38,80,8,10 มิถุนายน 2561
158,158,65030166,บ้านคลองช้าง,0,0,0,0,4,4,8,1,6,5,11,1,10,9,19,2,3,3,6,1,6,2,8,1,5,8,13,1,7,6,13,1,6,0,6,1,7,3,10,1,34,22,56,6,0,0,0,0,0,0,0,0,0,0,0,0,0,0,0,0,0,0,0,0,0,0,0,0,0,0,0,0,0,0,0,0,0,0,0,0,0,0,0,0,0,0,0,0,44,31,75,8,10 มิถุนายน 2561
159,159,65030167,บ้านเนินมะคึด,0,0,0,0,1,3,4,1,4,7,11,1,5,10,15,2,1,1,2,1,2,3,5,1,1,1,2,1,2,5,7,1,3,6,9,1,3,2,5,1,12,18,30,6,0,0,0,0,0,0,0,0,0,0,0,0,0,0,0,0,0,0,0,0,0,0,0,0,0,0,0,0,0,0,0,0,0,0,0,0,0,0,0,0,0,0,0,0,17,28,45,8,10 มิถุนายน 2561
160,160,65030168,บ้านวัดโบสถ์(บำรุงวุฒิวิทยา),0,0,0,0,5,1,6,1,4,4,8,1,9,5,14,2,8,8,16,1,10,5,15,1,9,14,23,1,13,10,23,1,9,4,13,1,5,11,16,1,54,52,106,6,15,4,19,1,14,7,21,1,13,17,30,1,42,28,70,3,0,0,0,0,0,0,0,0,0,0,0,0,0,0,0,0,0,0,0,0,0,0,0,0,0,0,0,0,105,85,190,11,10 มิถุนายน 2561
161,161,65030169,วัดโบสถ์,16,11,27,2,27,27,54,3,29,32,61,3,72,70,142,8,47,39,86,4,43,37,80,4,46,37,83,4,53,46,99,4,41,62,103,4,46,41,87,4,276,262,538,24,69,43,112,4,66,30,96,4,46,44,90,4,181,117,298,12,0,0,0,0,0,0,0,0,0,0,0,0,0,0,0,0,0,0,0,0,0,0,0,0,0,0,0,0,529,449,978,44,10 มิถุนายน 2561
162,162,65030171,วัดบ้านน้อย,0,0,0,0,6,10,16,1,4,14,18,1,10,24,34,2,13,7,20,1,7,5,12,1,11,8,19,1,4,7,11,1,7,5,12,1,12,9,21,1,54,41,95,6,8,8,16,1,6,11,17,1,6,6,12,1,20,25,45,3,0,0,0,0,0,0,0,0,0,0,0,0,0,0,0,0,0,0,0,0,0,0,0,0,0,0,0,0,84,90,174,11,10 มิถุนายน 2561
163,163,65030172,วัดหินลาด,0,0,0,0,12,8,20,1,14,10,24,1,26,18,44,2,21,12,33,1,4,7,11,1,12,7,19,1,13,7,20,1,9,12,21,1,2,10,12,1,61,55,116,6,10,11,21,1,10,3,13,1,3,10,13,1,23,24,47,3,0,0,0,0,0,0,0,0,0,0,0,0,0,0,0,0,0,0,0,0,0,0,0,0,0,0,0,0,110,97,207,11,10 มิถุนายน 2561
164,164,65030173,บ้านท่าหนองปากพาน,0,0,0,0,1,1,2,1,1,1,2,1,2,2,4,2,0,1,1,1,3,3,6,1,2,4,6,1,5,0,5,1,2,1,3,1,0,3,3,1,12,12,24,6,0,0,0,0,0,0,0,0,0,0,0,0,0,0,0,0,0,0,0,0,0,0,0,0,0,0,0,0,0,0,0,0,0,0,0,0,0,0,0,0,0,0,0,0,14,14,28,8,10 มิถุนายน 2561
