,0,1,2,3,4,5,6,7,8,9,10,11,12,13,14,15,16,17,18,19,20,21,22,23,24,25,26,27,28,29,30,31,32,33,34,35,36,37,38,39,40,41,42,43,44,45,46,47,48,49,50,51,52,53,54,55,56,57,58,59,60,61,62,63,64,65,66,67,68,69,70,71,72,73,74,75,76,77,78,79,80,81,82,83,84,85,86,87,88,89,90,91,92,93,94,95
0,ลำดับ,รหัส SMIS,โรงเรียน,อ.3 ขวบ ชาย,อ.3 ขวบ หญิง,รวมอ.3 ขวบ,อ.3 ขวบ ห้อง,อ.1 ชาย,อ.1 หญิง,รวมอ.1,อ.1 ห้อง,อ.2 ชาย,อ.2 หญิง,รวมอ.2,อ.2 ห้อง,รวมก่อนประถม ชาย,รวมก่อนประถม หญิง,รวมก่อนประถม,รวมห้องก่อนประถม,ป.1 ชาย,ป.1 หญิง,รวมป.1,ป.1 ห้อง,ป.2 ชาย,ป.2 หญิง,รวมป.2,ป.2 ห้อง,ป.3 ชาย,ป.3 หญิง,รวมป.3,ป.3 ห้อง,ป.4 ชาย,ป.4 หญิง,รวมป.4,ป.4 ห้อง,ป.5 ชาย,ป.5 หญิง,รวมป.5,ป.5 ห้อง,ป.6 ชาย,ป.6 หญิง,รวมป.6,ป.6 ห้อง,รวมประถม ชาย,รวมประถม หญิง,รวมประถม,รวมห้องประถม,ม.1 ชาย,ม.1 หญิง,รวมม.1,ม.1 ห้อง,ม.2 ชาย,ม.2 หญิง,รวมม.2,ม.2 ห้อง,ม.3 ชาย,ม.3 หญิง,รวมม.3,ม.3 ห้อง,รวมม.ต้น ชาย,รวมม.ต้น หญิง,รวมม.ต้น,รวมห้องม.ต้น,ม.4 ชาย,ม.4 หญิง,รวมม.4,ม.4 ห้อง,ม.5 ชาย,ม.5 หญิง,รวมม.5,ม.5 ห้อง,ม.6 ชาย,ม.6 หญิง,รวมม.6,ม.6 ห้อง,ปวช.1 ชาย,ปวช.1 หญิง,รวมปวช.1,ปวช.1 ห้อง,ปวช.2 ชาย,ปวช.2 หญิง,รวมปวช.2,ปวช.2 ห้อง,ปวช.3 ชาย,ปวช.3 หญิง,รวมปวช.3,ปวช.3 ห้อง,รวมม.ปลายและเทียบเท่า ชาย,รวมม.ปลายและเทียบเท่า หญิง,รวมม.ปลายและเทียบเท่า,รวมห้องม.ปลายและเทียบเท่า,รวมทั้งหมด ชาย,รวมทั้งหมด หญิง,รวมทั้งหมด,รวมห้องทั้งหมด,ข้อมูล ณ วันที่
1,1,67030001,ชุมชนบ้านโคกปรง,9,12,21,1,16,7,23,1,14,15,29,1,39,34,73,3,14,12,26,1,17,21,38,2,15,10,25,1,17,13,30,2,15,11,26,1,10,13,23,1,88,80,168,8,0,0,0,0,0,0,0,0,0,0,0,0,0,0,0,0,0,0,0,0,0,0,0,0,0,0,0,0,0,0,0,0,0,0,0,0,0,0,0,0,0,0,0,0,127,114,241,11,10 มิถุนายน 2561
2,2,67030002,บ้านเขายางโปร่ง,3,3,6,1,3,7,10,1,7,3,10,1,13,13,26,3,6,2,8,1,6,4,10,1,5,2,7,1,1,4,5,1,5,3,8,1,7,3,10,1,30,18,48,6,0,0,0,0,0,0,0,0,0,0,0,0,0,0,0,0,0,0,0,0,0,0,0,0,0,0,0,0,0,0,0,0,0,0,0,0,0,0,0,0,0,0,0,0,43,31,74,9,10 มิถุนายน 2561
3,3,67030003,บ้านซับอีลุม,0,0,0,0,8,4,12,1,2,5,7,1,10,9,19,2,6,5,11,1,3,4,7,1,4,0,4,1,8,2,10,1,5,4,9,1,5,3,8,1,31,18,49,6,0,0,0,0,0,0,0,0,0,0,0,0,0,0,0,0,0,0,0,0,0,0,0,0,0,0,0,0,0,0,0,0,0,0,0,0,0,0,0,0,0,0,0,0,41,27,68,8,10 มิถุนายน 2561
4,4,67030004,บ้านซับสวัสดิ์,1,1,2,1,1,3,4,1,3,1,4,1,5,5,10,3,3,0,3,1,3,2,5,1,2,2,4,1,6,3,9,1,6,2,8,1,1,4,5,1,21,13,34,6,0,0,0,0,0,0,0,0,0,0,0,0,0,0,0,0,0,0,0,0,0,0,0,0,0,0,0,0,0,0,0,0,0,0,0,0,0,0,0,0,0,0,0,0,26,18,44,9,10 มิถุนายน 2561
5,5,67030005,บ้านน้ำเดือด,2,2,4,1,2,0,2,1,1,1,2,1,5,3,8,3,5,1,6,1,4,0,4,1,3,3,6,1,1,1,2,1,2,0,2,1,0,4,4,1,15,9,24,6,0,0,0,0,0,0,0,0,0,0,0,0,0,0,0,0,0,0,0,0,0,0,0,0,0,0,0,0,0,0,0,0,0,0,0,0,0,0,0,0,0,0,0,0,20,12,32,9,10 มิถุนายน 2561
6,6,67030008,บ้านซับน้อย,5,2,7,1,8,7,15,1,11,14,25,1,24,23,47,3,12,14,26,1,8,19,27,1,6,8,14,1,9,6,15,1,6,7,13,1,5,6,11,1,46,60,106,6,6,4,10,1,6,4,10,1,4,6,10,1,16,14,30,3,0,0,0,0,0,0,0,0,0,0,0,0,0,0,0,0,0,0,0,0,0,0,0,0,0,0,0,0,86,97,183,12,10 มิถุนายน 2561
7,7,67030013,รัฐประชานุสรณ์,0,0,0,0,7,5,12,1,10,3,13,1,17,8,25,2,6,5,11,1,6,8,14,1,3,6,9,1,9,6,15,1,0,9,9,1,4,2,6,1,28,36,64,6,0,0,0,0,0,0,0,0,0,0,0,0,0,0,0,0,0,0,0,0,0,0,0,0,0,0,0,0,0,0,0,0,0,0,0,0,0,0,0,0,0,0,0,0,45,44,89,8,10 มิถุนายน 2561
8,8,67030014,บ้านคลองทราย,0,0,0,0,15,10,25,1,16,15,31,1,31,25,56,2,8,11,19,1,19,11,30,1,15,16,31,1,18,13,31,1,19,14,33,1,17,15,32,1,96,80,176,6,14,15,29,1,13,13,26,1,16,8,24,1,43,36,79,3,0,0,0,0,0,0,0,0,0,0,0,0,0,0,0,0,0,0,0,0,0,0,0,0,0,0,0,0,170,141,311,11,10 มิถุนายน 2561
9,9,67030015,บ้านฟุบสะแก,6,3,9,1,1,2,3,1,1,3,4,1,8,8,16,3,3,3,6,1,3,2,5,1,1,2,3,1,2,4,6,1,4,2,6,1,3,4,7,1,16,17,33,6,0,0,0,0,0,0,0,0,0,0,0,0,0,0,0,0,0,0,0,0,0,0,0,0,0,0,0,0,0,0,0,0,0,0,0,0,0,0,0,0,0,0,0,0,24,25,49,9,10 มิถุนายน 2561
10,10,67030016,บ้านซับสมบูรณ์,3,1,4,1,7,3,10,1,2,3,5,1,12,7,19,3,5,6,11,1,5,8,13,1,5,1,6,1,3,2,5,1,10,3,13,1,5,4,9,1,33,24,57,6,12,6,18,1,8,4,12,1,7,8,15,1,27,18,45,3,0,0,0,0,0,0,0,0,0,0,0,0,0,0,0,0,0,0,0,0,0,0,0,0,0,0,0,0,72,49,121,12,10 มิถุนายน 2561
11,11,67030017,บ้านโพทะเลประชาสรรค์,3,7,10,1,5,2,7,1,4,1,5,1,12,10,22,3,6,1,7,1,2,5,7,1,5,4,9,1,8,4,12,1,3,5,8,1,3,6,9,1,27,25,52,6,0,0,0,0,0,0,0,0,0,0,0,0,0,0,0,0,0,0,0,0,0,0,0,0,0,0,0,0,0,0,0,0,0,0,0,0,0,0,0,0,0,0,0,0,39,35,74,9,10 มิถุนายน 2561
12,12,67030019,บ้านกระทุ่มทองประชาสรรค์,4,7,11,1,0,3,3,1,4,4,8,1,8,14,22,3,6,2,8,1,1,4,5,1,4,2,6,1,2,6,8,1,5,2,7,1,2,2,4,1,20,18,38,6,0,0,0,0,0,0,0,0,0,0,0,0,0,0,0,0,0,0,0,0,0,0,0,0,0,0,0,0,0,0,0,0,0,0,0,0,0,0,0,0,0,0,0,0,28,32,60,9,10 มิถุนายน 2561
13,13,67030020,บ้านแสงมณีวิทยา,2,7,9,1,2,7,9,1,3,6,9,1,7,20,27,3,5,4,9,1,6,3,9,1,5,4,9,1,6,0,6,1,9,3,12,1,11,2,13,1,42,16,58,6,0,0,0,0,0,0,0,0,0,0,0,0,0,0,0,0,0,0,0,0,0,0,0,0,0,0,0,0,0,0,0,0,0,0,0,0,0,0,0,0,0,0,0,0,49,36,85,9,10 มิถุนายน 2561
14,14,67030021,บ้านท่าโรง,0,3,3,1,0,1,1,1,0,1,1,1,0,5,5,3,5,2,7,1,4,1,5,1,1,5,6,1,6,2,8,1,8,2,10,1,2,2,4,1,26,14,40,6,0,0,0,0,0,0,0,0,0,0,0,0,0,0,0,0,0,0,0,0,0,0,0,0,0,0,0,0,0,0,0,0,0,0,0,0,0,0,0,0,0,0,0,0,26,19,45,9,10 มิถุนายน 2561
15,15,67030022,บ้านนาไร่เดียว,8,7,15,1,5,2,7,1,6,8,14,1,19,17,36,3,9,4,13,1,7,3,10,1,4,7,11,1,10,5,15,1,6,5,11,1,12,8,20,1,48,32,80,6,8,1,9,1,6,4,10,1,3,3,6,1,17,8,25,3,0,0,0,0,0,0,0,0,0,0,0,0,0,0,0,0,0,0,0,0,0,0,0,0,0,0,0,0,84,57,141,12,10 มิถุนายน 2561
16,16,67030023,อนุบาลวัดในเรืองศรีวิเชียรบุรี,5,13,18,1,9,16,25,1,28,21,49,2,42,50,92,4,28,25,53,2,25,26,51,2,31,32,63,2,21,37,58,2,36,29,65,2,26,26,52,2,167,175,342,12,14,7,21,1,22,22,44,2,14,9,23,1,50,38,88,4,0,0,0,0,0,0,0,0,0,0,0,0,0,0,0,0,0,0,0,0,0,0,0,0,0,0,0,0,259,263,522,20,10 มิถุนายน 2561
17,17,67030024,บ้านทุ่งใหญ่,5,5,10,1,9,7,16,1,6,6,12,1,20,18,38,3,3,7,10,1,6,3,9,1,8,7,15,1,4,4,8,1,7,3,10,1,4,2,6,1,32,26,58,6,2,0,2,1,9,5,14,1,2,5,7,1,13,10,23,3,0,0,0,0,0,0,0,0,0,0,0,0,0,0,0,0,0,0,0,0,0,0,0,0,0,0,0,0,65,54,119,12,10 มิถุนายน 2561
18,18,67030025,บ้านบุมะกรูด,0,0,0,0,8,13,21,1,7,7,14,1,15,20,35,2,6,11,17,1,8,11,19,1,4,4,8,1,6,4,10,1,8,9,17,1,6,11,17,1,38,50,88,6,0,0,0,0,0,0,0,0,0,0,0,0,0,0,0,0,0,0,0,0,0,0,0,0,0,0,0,0,0,0,0,0,0,0,0,0,0,0,0,0,0,0,0,0,53,70,123,8,10 มิถุนายน 2561
19,19,67030026,บ้านมาบสมอสามัคคี,0,0,0,0,6,5,11,1,5,4,9,1,11,9,20,2,4,7,11,1,7,4,11,1,0,2,2,1,7,2,9,1,6,2,8,1,7,1,8,1,31,18,49,6,0,0,0,0,0,0,0,0,0,0,0,0,0,0,0,0,0,0,0,0,0,0,0,0,0,0,0,0,0,0,0,0,0,0,0,0,0,0,0,0,0,0,0,0,42,27,69,8,10 มิถุนายน 2561
20,20,67030027,บ้านโคกสำราญ,0,0,0,0,9,7,16,1,10,9,19,1,19,16,35,2,16,14,30,1,13,13,26,1,14,10,24,1,11,16,27,1,14,13,27,1,22,16,38,1,90,82,172,6,25,18,43,1,19,16,35,1,15,21,36,1,59,55,114,3,0,0,0,0,0,0,0,0,0,0,0,0,0,0,0,0,0,0,0,0,0,0,0,0,0,0,0,0,168,153,321,11,10 มิถุนายน 2561
21,21,67030028,บ้านไทรงาม,0,0,0,0,6,2,8,1,7,8,15,1,13,10,23,2,4,7,11,1,1,3,4,1,5,2,7,1,14,4,18,1,6,3,9,1,2,7,9,1,32,26,58,6,0,0,0,0,0,0,0,0,0,0,0,0,0,0,0,0,0,0,0,0,0,0,0,0,0,0,0,0,0,0,0,0,0,0,0,0,0,0,0,0,0,0,0,0,45,36,81,8,10 มิถุนายน 2561
22,22,67030029,บ้านคลองบง,0,0,0,0,1,3,4,1,4,5,9,1,5,8,13,2,1,2,3,1,3,3,6,1,3,2,5,1,1,4,5,1,1,5,6,1,3,3,6,1,12,19,31,6,0,0,0,0,0,0,0,0,0,0,0,0,0,0,0,0,0,0,0,0,0,0,0,0,0,0,0,0,0,0,0,0,0,0,0,0,0,0,0,0,0,0,0,0,17,27,44,8,10 มิถุนายน 2561
23,23,67030030,บ้านถ้ำมงคลชัย,0,0,0,0,2,4,6,1,6,5,11,1,8,9,17,2,5,1,6,1,4,3,7,1,4,5,9,1,1,4,5,1,1,2,3,1,3,6,9,1,18,21,39,6,0,0,0,0,0,0,0,0,0,0,0,0,0,0,0,0,0,0,0,0,0,0,0,0,0,0,0,0,0,0,0,0,0,0,0,0,0,0,0,0,0,0,0,0,26,30,56,8,10 มิถุนายน 2561
24,24,67030031,บ้านน้ำร้อน,0,0,0,0,5,8,13,1,11,15,26,1,16,23,39,2,13,4,17,1,10,3,13,1,13,8,21,1,12,14,26,1,8,7,15,1,18,9,27,1,74,45,119,6,0,0,0,0,0,0,0,0,0,0,0,0,0,0,0,0,0,0,0,0,0,0,0,0,0,0,0,0,0,0,0,0,0,0,0,0,0,0,0,0,0,0,0,0,90,68,158,8,10 มิถุนายน 2561
25,25,67030032,บ้านวังไผ่,0,0,0,0,8,8,16,1,16,8,24,1,24,16,40,2,18,14,32,1,10,8,18,1,10,14,24,1,5,6,11,1,10,13,23,1,14,10,24,1,67,65,132,6,12,6,18,1,6,6,12,1,7,4,11,1,25,16,41,3,0,0,0,0,0,0,0,0,0,0,0,0,0,0,0,0,0,0,0,0,0,0,0,0,0,0,0,0,116,97,213,11,10 มิถุนายน 2561
26,26,67030033,บ้านหนองสะแก,5,4,9,1,6,2,8,1,3,5,8,1,14,11,25,3,1,3,4,1,2,2,4,1,4,6,10,1,5,2,7,1,4,9,13,1,10,5,15,1,26,27,53,6,11,8,19,1,10,11,21,1,6,2,8,1,27,21,48,3,0,0,0,0,0,0,0,0,0,0,0,0,0,0,0,0,0,0,0,0,0,0,0,0,0,0,0,0,67,59,126,12,10 มิถุนายน 2561
27,27,67030035,บ้านหนองบัวขาว,0,0,0,0,6,7,13,1,12,11,23,1,18,18,36,2,10,8,18,1,3,8,11,1,6,5,11,1,15,15,30,1,9,9,18,1,16,7,23,1,59,52,111,6,5,6,11,1,8,5,13,1,9,3,12,1,22,14,36,3,0,0,0,0,0,0,0,0,0,0,0,0,0,0,0,0,0,0,0,0,0,0,0,0,0,0,0,0,99,84,183,11,10 มิถุนายน 2561
28,28,67030036,บ้านใหม่วิไลวัลย์,0,0,0,0,8,3,11,1,14,8,22,1,22,11,33,2,9,5,14,1,4,6,10,1,7,4,11,1,9,4,13,1,8,7,15,1,7,5,12,1,44,31,75,6,6,8,14,1,10,0,10,1,8,6,14,1,24,14,38,3,0,0,0,0,0,0,0,0,0,0,0,0,0,0,0,0,0,0,0,0,0,0,0,0,0,0,0,0,90,56,146,11,10 มิถุนายน 2561
29,29,67030037,บ้านหนองบัวทอง,0,0,0,0,8,8,16,1,7,10,17,1,15,18,33,2,7,12,19,1,5,12,17,1,6,12,18,1,10,16,26,1,15,11,26,1,15,6,21,1,58,69,127,6,15,14,29,1,12,4,16,1,11,6,17,1,38,24,62,3,0,0,0,0,0,0,0,0,0,0,0,0,0,0,0,0,0,0,0,0,0,0,0,0,0,0,0,0,111,111,222,11,10 มิถุนายน 2561
30,30,67030038,บ้านหนองไม้สอ,0,0,0,0,9,11,20,1,5,7,12,1,14,18,32,2,9,4,13,1,10,11,21,1,13,10,23,1,7,6,13,1,10,6,16,1,10,12,22,1,59,49,108,6,11,11,22,1,5,5,10,1,6,2,8,1,22,18,40,3,0,0,0,0,0,0,0,0,0,0,0,0,0,0,0,0,0,0,0,0,0,0,0,0,0,0,0,0,95,85,180,11,10 มิถุนายน 2561
31,31,67030039,บ้านบ่อรัง,0,0,0,0,7,9,16,1,14,11,25,1,21,20,41,2,9,10,19,1,11,5,16,1,18,9,27,1,10,9,19,1,8,10,18,1,15,15,30,1,71,58,129,6,5,11,16,1,10,12,22,1,5,9,14,1,20,32,52,3,5,12,17,1,3,9,12,1,2,6,8,1,0,0,0,0,0,0,0,0,0,0,0,0,10,27,37,3,122,137,259,14,10 มิถุนายน 2561
32,32,67030040,บ้านหนองโป่ง,0,0,0,0,4,7,11,1,5,5,10,1,9,12,21,2,4,7,11,1,5,6,11,1,3,5,8,1,11,7,18,1,11,8,19,1,5,6,11,1,39,39,78,6,2,4,6,1,6,6,12,1,6,4,10,1,14,14,28,3,0,0,0,0,0,0,0,0,0,0,0,0,0,0,0,0,0,0,0,0,0,0,0,0,0,0,0,0,62,65,127,11,10 มิถุนายน 2561
33,33,67030041,บ้านบึงกระจับ,0,0,0,0,9,6,15,1,9,12,21,1,18,18,36,2,6,10,16,1,9,2,11,1,10,8,18,1,9,10,19,1,4,5,9,1,7,10,17,1,45,45,90,6,11,8,19,1,8,9,17,1,4,4,8,1,23,21,44,3,0,0,0,0,0,0,0,0,0,0,0,0,0,0,0,0,0,0,0,0,0,0,0,0,0,0,0,0,86,84,170,11,10 มิถุนายน 2561
34,34,67030042,บ้านโคกปรือ,0,0,0,0,7,12,19,1,10,5,15,1,17,17,34,2,8,5,13,1,13,7,20,1,7,11,18,1,13,5,18,1,7,12,19,1,21,11,32,1,69,51,120,6,7,12,19,1,7,6,13,1,10,5,15,1,24,23,47,3,0,0,0,0,0,0,0,0,0,0,0,0,0,0,0,0,0,0,0,0,0,0,0,0,0,0,0,0,110,91,201,11,10 มิถุนายน 2561
35,35,67030043,บ้านพุขาม,0,0,0,0,12,9,21,1,18,8,26,1,30,17,47,2,8,13,21,1,16,12,28,1,16,12,28,1,16,17,33,2,13,11,24,1,14,8,22,1,83,73,156,7,0,0,0,0,0,0,0,0,0,0,0,0,0,0,0,0,0,0,0,0,0,0,0,0,0,0,0,0,0,0,0,0,0,0,0,0,0,0,0,0,0,0,0,0,113,90,203,9,10 มิถุนายน 2561
36,36,67030044,บ้านโคกสง่า,0,0,0,0,5,1,6,1,6,5,11,1,11,6,17,2,8,5,13,1,6,9,15,1,5,3,8,1,6,7,13,1,7,8,15,1,7,6,13,1,39,38,77,6,0,0,0,0,0,0,0,0,0,0,0,0,0,0,0,0,0,0,0,0,0,0,0,0,0,0,0,0,0,0,0,0,0,0,0,0,0,0,0,0,0,0,0,0,50,44,94,8,10 มิถุนายน 2561
37,37,67030045,บ้านหนองกระทุ่ม,0,0,0,0,6,3,9,1,4,5,9,1,10,8,18,2,4,7,11,1,8,2,10,1,3,3,6,1,4,4,8,1,6,5,11,1,3,6,9,1,28,27,55,6,0,0,0,0,0,0,0,0,0,0,0,0,0,0,0,0,0,0,0,0,0,0,0,0,0,0,0,0,0,0,0,0,0,0,0,0,0,0,0,0,0,0,0,0,38,35,73,8,10 มิถุนายน 2561
38,38,67030046,บ้านหนองคล้า,3,2,5,1,2,3,5,1,7,5,12,1,12,10,22,3,1,7,8,1,8,7,15,1,3,5,8,1,2,2,4,1,2,3,5,1,2,4,6,1,18,28,46,6,0,0,0,0,0,0,0,0,0,0,0,0,0,0,0,0,0,0,0,0,0,0,0,0,0,0,0,0,0,0,0,0,0,0,0,0,0,0,0,0,0,0,0,0,30,38,68,9,10 มิถุนายน 2561
39,39,67030047,ชุมชนบ้านพุเตย,0,0,0,0,24,30,54,2,35,29,64,2,59,59,118,4,44,42,86,3,39,35,74,2,45,39,84,2,44,38,82,2,52,41,93,3,42,45,87,2,266,240,506,14,41,45,86,3,36,53,89,3,42,35,77,2,119,133,252,8,0,0,0,0,0,0,0,0,0,0,0,0,0,0,0,0,0,0,0,0,0,0,0,0,0,0,0,0,444,432,876,26,10 มิถุนายน 2561
40,40,67030048,บ้านตะกุดไผ่,4,6,10,1,12,8,20,1,11,8,19,1,27,22,49,3,14,8,22,1,6,8,14,1,9,6,15,1,7,10,17,1,5,7,12,1,8,9,17,1,49,48,97,6,14,4,18,1,7,6,13,1,10,4,14,1,31,14,45,3,0,0,0,0,0,0,0,0,0,0,0,0,0,0,0,0,0,0,0,0,0,0,0,0,0,0,0,0,107,84,191,12,10 มิถุนายน 2561
41,41,67030049,บ้านสามัคคีพัฒนา,0,0,0,0,4,11,15,1,3,4,7,1,7,15,22,2,8,7,15,1,8,5,13,1,4,9,13,1,6,7,13,1,2,3,5,1,7,4,11,1,35,35,70,6,0,0,0,0,0,0,0,0,0,0,0,0,0,0,0,0,0,0,0,0,0,0,0,0,0,0,0,0,0,0,0,0,0,0,0,0,0,0,0,0,0,0,0,0,42,50,92,8,10 มิถุนายน 2561
42,42,67030050,บ้านภูน้ำหยด,0,0,0,0,5,2,7,1,5,3,8,1,10,5,15,2,5,1,6,1,6,4,10,1,1,1,2,1,4,4,8,1,1,0,1,1,2,1,3,1,19,11,30,6,0,0,0,0,0,0,0,0,0,0,0,0,0,0,0,0,0,0,0,0,0,0,0,0,0,0,0,0,0,0,0,0,0,0,0,0,0,0,0,0,0,0,0,0,29,16,45,8,10 มิถุนายน 2561
43,43,67030053,บ้านรวมทรัพย์,0,0,0,0,12,10,22,1,9,9,18,1,21,19,40,2,12,9,21,1,10,10,20,1,10,10,20,1,10,9,19,1,9,10,19,1,6,13,19,1,57,61,118,6,9,6,15,1,18,9,27,1,7,11,18,1,34,26,60,3,0,0,0,0,0,0,0,0,0,0,0,0,0,0,0,0,0,0,0,0,0,0,0,0,0,0,0,0,112,106,218,11,10 มิถุนายน 2561
44,44,67030054,บ้านพรหมประชาสรรค์,0,0,0,0,1,2,3,1,2,1,3,1,3,3,6,2,0,0,0,0,2,1,3,1,1,1,2,1,1,0,1,1,2,0,2,1,0,0,0,0,6,2,8,4,0,0,0,0,0,0,0,0,0,0,0,0,0,0,0,0,0,0,0,0,0,0,0,0,0,0,0,0,0,0,0,0,0,0,0,0,0,0,0,0,0,0,0,0,9,5,14,6,10 มิถุนายน 2561
45,45,67030055,บ้านพระที่นั่ง,0,0,0,0,2,1,3,1,5,6,11,1,7,7,14,2,2,1,3,1,4,3,7,1,3,4,7,1,6,4,10,1,4,3,7,1,4,3,7,1,23,18,41,6,0,0,0,0,0,0,0,0,0,0,0,0,0,0,0,0,0,0,0,0,0,0,0,0,0,0,0,0,0,0,0,0,0,0,0,0,0,0,0,0,0,0,0,0,30,25,55,8,10 มิถุนายน 2561
46,46,67030056,บ้านวังลึก,0,0,0,0,7,5,12,1,5,5,10,1,12,10,22,2,6,4,10,1,5,2,7,1,0,6,6,1,1,5,6,1,1,8,9,1,2,4,6,1,15,29,44,6,0,0,0,0,0,0,0,0,0,0,0,0,0,0,0,0,0,0,0,0,0,0,0,0,0,0,0,0,0,0,0,0,0,0,0,0,0,0,0,0,0,0,0,0,27,39,66,8,10 มิถุนายน 2561
47,47,67030057,บ้านเขาสูงราษฎร์บำรุง,4,4,8,1,5,3,8,1,14,2,16,1,23,9,32,3,3,6,9,1,4,4,8,1,3,6,9,1,7,7,14,1,3,9,12,1,3,8,11,1,23,40,63,6,0,0,0,0,0,0,0,0,0,0,0,0,0,0,0,0,0,0,0,0,0,0,0,0,0,0,0,0,0,0,0,0,0,0,0,0,0,0,0,0,0,0,0,0,46,49,95,9,10 มิถุนายน 2561
48,48,67030059,บ้านเนินสะอาด,0,0,0,0,7,8,15,1,10,5,15,1,17,13,30,2,15,9,24,1,8,2,10,1,8,3,11,1,13,9,22,1,7,4,11,1,12,10,22,1,63,37,100,6,5,6,11,1,8,5,13,1,4,9,13,1,17,20,37,3,0,0,0,0,0,0,0,0,0,0,0,0,0,0,0,0,0,0,0,0,0,0,0,0,0,0,0,0,97,70,167,11,10 มิถุนายน 2561
49,49,67030060,บ้านโคกกรวด,0,0,0,0,8,15,23,1,10,15,25,1,18,30,48,2,12,10,22,1,12,10,22,1,13,15,28,1,22,15,37,1,13,15,28,1,15,9,24,1,87,74,161,6,0,0,0,0,0,0,0,0,0,0,0,0,0,0,0,0,0,0,0,0,0,0,0,0,0,0,0,0,0,0,0,0,0,0,0,0,0,0,0,0,0,0,0,0,105,104,209,8,10 มิถุนายน 2561
50,50,67030061,บ้านซับตะแบก,4,5,9,1,8,4,12,1,5,6,11,1,17,15,32,3,8,2,10,1,8,7,15,1,11,5,16,1,7,1,8,1,13,3,16,1,7,5,12,1,54,23,77,6,0,0,0,0,0,0,0,0,0,0,0,0,0,0,0,0,0,0,0,0,0,0,0,0,0,0,0,0,0,0,0,0,0,0,0,0,0,0,0,0,0,0,0,0,71,38,109,9,10 มิถุนายน 2561
51,51,67030062,บ้านซับกระโซ่,0,0,0,0,5,4,9,1,6,4,10,1,11,8,19,2,5,2,7,1,13,9,22,1,3,1,4,1,3,4,7,1,3,9,12,1,9,3,12,1,36,28,64,6,0,0,0,0,0,0,0,0,0,0,0,0,0,0,0,0,0,0,0,0,0,0,0,0,0,0,0,0,0,0,0,0,0,0,0,0,0,0,0,0,0,0,0,0,47,36,83,8,10 มิถุนายน 2561
52,52,67030063,บ้านน้ำอ้อม,3,3,6,1,1,3,4,1,3,1,4,1,7,7,14,3,0,3,3,1,1,6,7,1,2,1,3,1,2,2,4,1,4,1,5,1,1,2,3,1,10,15,25,6,0,0,0,0,0,0,0,0,0,0,0,0,0,0,0,0,0,0,0,0,0,0,0,0,0,0,0,0,0,0,0,0,0,0,0,0,0,0,0,0,0,0,0,0,17,22,39,9,10 มิถุนายน 2561
53,53,67030064,บ้านวังน้อย,4,3,7,1,5,3,8,1,9,5,14,1,18,11,29,3,6,3,9,1,3,2,5,1,3,5,8,1,5,3,8,1,5,3,8,1,5,4,9,1,27,20,47,6,0,0,0,0,0,0,0,0,0,0,0,0,0,0,0,0,0,0,0,0,0,0,0,0,0,0,0,0,0,0,0,0,0,0,0,0,0,0,0,0,0,0,0,0,45,31,76,9,10 มิถุนายน 2561
54,54,67030065,บ้านวังใหญ่,0,0,0,0,10,11,21,1,11,15,26,1,21,26,47,2,13,16,29,1,10,12,22,1,15,18,33,1,14,17,31,1,11,14,25,1,12,9,21,1,75,86,161,6,0,0,0,0,0,0,0,0,0,0,0,0,0,0,0,0,0,0,0,0,0,0,0,0,0,0,0,0,0,0,0,0,0,0,0,0,0,0,0,0,0,0,0,0,96,112,208,8,10 มิถุนายน 2561
55,55,67030066,บ้านดาดอุดม,0,0,0,0,0,3,3,1,4,4,8,1,4,7,11,2,1,5,6,1,2,3,5,1,3,5,8,1,4,5,9,1,3,0,3,1,3,2,5,1,16,20,36,6,0,0,0,0,0,0,0,0,0,0,0,0,0,0,0,0,0,0,0,0,0,0,0,0,0,0,0,0,0,0,0,0,0,0,0,0,0,0,0,0,0,0,0,0,20,27,47,8,10 มิถุนายน 2561
56,56,67030067,วัลลภานุสรณ์,2,0,2,1,4,4,8,1,8,6,14,1,14,10,24,3,2,4,6,1,5,3,8,1,1,3,4,1,5,3,8,1,6,0,6,1,1,5,6,1,20,18,38,6,0,0,0,0,0,0,0,0,0,0,0,0,0,0,0,0,0,0,0,0,0,0,0,0,0,0,0,0,0,0,0,0,0,0,0,0,0,0,0,0,0,0,0,0,34,28,62,9,10 มิถุนายน 2561
57,57,67030068,บ้านไทรทอง,0,0,0,0,5,2,7,1,6,3,9,1,11,5,16,2,4,5,9,1,2,3,5,1,4,5,9,1,3,1,4,1,0,1,1,1,2,1,3,1,15,16,31,6,0,0,0,0,0,0,0,0,0,0,0,0,0,0,0,0,0,0,0,0,0,0,0,0,0,0,0,0,0,0,0,0,0,0,0,0,0,0,0,0,0,0,0,0,26,21,47,8,10 มิถุนายน 2561
58,58,67030069,บ้านสระประดู่,9,8,17,1,6,1,7,1,4,7,11,1,19,16,35,3,6,6,12,1,5,7,12,1,4,4,8,1,3,4,7,1,11,6,17,1,9,9,18,1,38,36,74,6,2,2,4,1,5,5,10,1,4,4,8,1,11,11,22,3,0,0,0,0,0,0,0,0,0,0,0,0,0,0,0,0,0,0,0,0,0,0,0,0,0,0,0,0,68,63,131,12,10 มิถุนายน 2561
59,59,67030071,บ้านลำนารวย,1,6,7,1,4,4,8,1,4,3,7,1,9,13,22,3,6,7,13,1,13,9,22,1,12,6,18,1,9,9,18,1,7,6,13,1,6,4,10,1,53,41,94,6,10,3,13,1,10,5,15,1,6,8,14,1,26,16,42,3,0,0,0,0,0,0,0,0,0,0,0,0,0,0,0,0,0,0,0,0,0,0,0,0,0,0,0,0,88,70,158,12,10 มิถุนายน 2561
60,60,67030073,บ้านพรหมยาม,0,0,0,0,1,2,3,1,2,2,4,1,3,4,7,2,3,3,6,1,3,1,4,1,1,6,7,1,1,1,2,1,0,1,1,1,3,2,5,1,11,14,25,6,0,0,0,0,0,0,0,0,0,0,0,0,0,0,0,0,0,0,0,0,0,0,0,0,0,0,0,0,0,0,0,0,0,0,0,0,0,0,0,0,0,0,0,0,14,18,32,8,10 มิถุนายน 2561
61,61,67030074,บ้านแก่งหินปูน,4,12,16,1,12,4,16,1,7,9,16,1,23,25,48,3,11,8,19,1,3,11,14,1,5,11,16,1,8,8,16,1,9,9,18,1,10,10,20,1,46,57,103,6,6,8,14,1,11,4,15,1,11,6,17,1,28,18,46,3,0,0,0,0,0,0,0,0,0,0,0,0,0,0,0,0,0,0,0,0,0,0,0,0,0,0,0,0,97,100,197,12,10 มิถุนายน 2561
62,62,67030075,บ้านเข็มทอง,0,0,0,0,11,8,19,1,7,7,14,1,18,15,33,2,11,7,18,1,13,5,18,1,9,5,14,1,9,8,17,1,7,5,12,1,11,14,25,1,60,44,104,6,11,2,13,1,8,9,17,1,3,11,14,1,22,22,44,3,0,0,0,0,0,0,0,0,0,0,0,0,0,0,0,0,0,0,0,0,0,0,0,0,0,0,0,0,100,81,181,11,10 มิถุนายน 2561
63,63,67030076,บ้านไร่ตาพุฒ,1,5,6,1,5,5,10,1,4,5,9,1,10,15,25,3,0,4,4,1,1,2,3,1,2,1,3,1,0,1,1,1,6,1,7,1,1,3,4,1,10,12,22,6,0,0,0,0,0,0,0,0,0,0,0,0,0,0,0,0,0,0,0,0,0,0,0,0,0,0,0,0,0,0,0,0,0,0,0,0,0,0,0,0,0,0,0,0,20,27,47,9,10 มิถุนายน 2561
64,64,67030077,บ้านม่วงชุม,0,0,0,0,5,5,10,1,6,4,10,1,11,9,20,2,8,10,18,1,8,6,14,1,6,6,12,1,6,8,14,1,9,12,21,1,6,6,12,1,43,48,91,6,0,0,0,0,0,0,0,0,0,0,0,0,0,0,0,0,0,0,0,0,0,0,0,0,0,0,0,0,0,0,0,0,0,0,0,0,0,0,0,0,0,0,0,0,54,57,111,8,10 มิถุนายน 2561
65,65,67030078,บ้านคลองกระจังวังไทร,0,0,0,0,7,7,14,1,3,5,8,1,10,12,22,2,8,5,13,1,3,8,11,1,5,4,9,1,7,2,9,1,6,3,9,1,13,6,19,1,42,28,70,6,2,0,2,1,3,3,6,1,7,2,9,1,12,5,17,3,0,0,0,0,0,0,0,0,0,0,0,0,0,0,0,0,0,0,0,0,0,0,0,0,0,0,0,0,64,45,109,11,10 มิถุนายน 2561
66,66,67030079,บ้านเขาคลัง,0,0,0,0,3,5,8,1,5,2,7,1,8,7,15,2,1,4,5,1,4,7,11,1,4,8,12,1,6,3,9,1,6,2,8,1,7,4,11,1,28,28,56,6,0,0,0,0,0,0,0,0,0,0,0,0,0,0,0,0,0,0,0,0,0,0,0,0,0,0,0,0,0,0,0,0,0,0,0,0,0,0,0,0,0,0,0,0,36,35,71,8,10 มิถุนายน 2561
67,67,67030081,บ้านหนองสรวง,0,0,0,0,9,12,21,1,12,6,18,1,21,18,39,2,10,7,17,1,7,15,22,1,9,12,21,1,15,11,26,1,9,8,17,1,10,8,18,1,60,61,121,6,9,4,13,1,7,9,16,1,5,5,10,1,21,18,39,3,0,0,0,0,0,0,0,0,0,0,0,0,0,0,0,0,0,0,0,0,0,0,0,0,0,0,0,0,102,97,199,11,10 มิถุนายน 2561
68,68,67030082,บ้านเกาะแก้ว,0,0,0,0,11,9,20,1,11,11,22,1,22,20,42,2,12,9,21,1,6,7,13,1,10,7,17,1,7,11,18,1,14,12,26,1,6,11,17,1,55,57,112,6,7,4,11,1,8,5,13,1,7,6,13,1,22,15,37,3,0,0,0,0,0,0,0,0,0,0,0,0,0,0,0,0,0,0,0,0,0,0,0,0,0,0,0,0,99,92,191,11,10 มิถุนายน 2561
69,69,67030083,บ้านคลองดู่,0,0,0,0,3,6,9,1,8,4,12,1,11,10,21,2,12,5,17,1,5,5,10,1,5,4,9,1,8,12,20,1,11,6,17,1,6,14,20,1,47,46,93,6,11,8,19,1,7,5,12,1,5,3,8,1,23,16,39,3,0,0,0,0,0,0,0,0,0,0,0,0,0,0,0,0,0,0,0,0,0,0,0,0,0,0,0,0,81,72,153,11,10 มิถุนายน 2561
70,70,67030084,บ้านวังขอน,0,0,0,0,13,12,25,1,18,14,32,1,31,26,57,2,14,16,30,1,21,16,37,1,14,12,26,1,22,15,37,1,22,16,38,1,17,19,36,1,110,94,204,6,22,14,36,1,19,17,36,1,18,20,38,1,59,51,110,3,0,0,0,0,0,0,0,0,0,0,0,0,0,0,0,0,0,0,0,0,0,0,0,0,0,0,0,0,200,171,371,11,10 มิถุนายน 2561
71,71,67030085,บ้านนาสวรรค์,0,0,0,0,3,3,6,1,7,6,13,1,10,9,19,2,7,6,13,1,6,7,13,1,4,7,11,1,6,6,12,1,12,8,20,1,7,1,8,1,42,35,77,6,0,0,0,0,0,0,0,0,0,0,0,0,0,0,0,0,0,0,0,0,0,0,0,0,0,0,0,0,0,0,0,0,0,0,0,0,0,0,0,0,0,0,0,0,52,44,96,8,10 มิถุนายน 2561
72,72,67030086,ชุมชนบ้านโคกสะอาด,0,0,0,0,13,9,22,1,11,12,23,1,24,21,45,2,12,8,20,1,10,15,25,1,12,9,21,1,12,8,20,1,10,15,25,1,10,16,26,1,66,71,137,6,9,11,20,1,13,11,24,1,12,12,24,1,34,34,68,3,0,0,0,0,0,0,0,0,0,0,0,0,0,0,0,0,0,0,0,0,0,0,0,0,0,0,0,0,124,126,250,11,10 มิถุนายน 2561
73,73,67030087,บ้านซับหินเพลิง,0,0,0,0,4,2,6,1,3,2,5,1,7,4,11,2,3,2,5,1,0,4,4,1,0,2,2,1,0,4,4,1,4,0,4,1,0,1,1,1,7,13,20,6,0,0,0,0,0,0,0,0,0,0,0,0,0,0,0,0,0,0,0,0,0,0,0,0,0,0,0,0,0,0,0,0,0,0,0,0,0,0,0,0,0,0,0,0,14,17,31,8,10 มิถุนายน 2561
74,74,67030088,บ้านหนองสะแกสี่,0,0,0,0,3,3,6,1,2,2,4,1,5,5,10,2,4,5,9,1,5,1,6,1,4,1,5,1,4,3,7,1,0,2,2,1,5,2,7,1,22,14,36,6,0,0,0,0,0,0,0,0,0,0,0,0,0,0,0,0,0,0,0,0,0,0,0,0,0,0,0,0,0,0,0,0,0,0,0,0,0,0,0,0,0,0,0,0,27,19,46,8,10 มิถุนายน 2561
75,75,67030089,บ้านนาสนุ่น,0,0,0,0,10,4,14,1,12,12,24,1,22,16,38,2,5,9,14,1,3,2,5,1,1,4,5,1,5,3,8,1,6,5,11,1,5,3,8,1,25,26,51,6,0,0,0,0,0,0,0,0,0,0,0,0,0,0,0,0,0,0,0,0,0,0,0,0,0,0,0,0,0,0,0,0,0,0,0,0,0,0,0,0,0,0,0,0,47,42,89,8,10 มิถุนายน 2561
76,76,67030090,บ้านหนองบัว,0,0,0,0,11,17,28,1,16,15,31,1,27,32,59,2,17,18,35,1,14,17,31,1,8,15,23,1,21,13,34,1,12,10,22,1,22,13,35,1,94,86,180,6,23,17,40,1,16,6,22,1,15,16,31,1,54,39,93,3,0,0,0,0,0,0,0,0,0,0,0,0,0,0,0,0,0,0,0,0,0,0,0,0,0,0,0,0,175,157,332,11,10 มิถุนายน 2561
77,77,67030091,บ้านโคกตะขบ,0,0,0,0,9,10,19,1,7,9,16,1,16,19,35,2,10,8,18,1,3,8,11,1,5,9,14,1,6,5,11,1,10,3,13,1,5,6,11,1,39,39,78,6,0,0,0,0,0,0,0,0,0,0,0,0,0,0,0,0,0,0,0,0,0,0,0,0,0,0,0,0,0,0,0,0,0,0,0,0,0,0,0,0,0,0,0,0,55,58,113,8,10 มิถุนายน 2561
78,78,67030092,บ้านเนินถาวร,0,0,0,0,9,8,17,1,11,11,22,1,20,19,39,2,14,19,33,1,11,15,26,1,5,12,17,1,13,13,26,1,8,11,19,1,13,12,25,1,64,82,146,6,15,14,29,1,12,13,25,1,9,12,21,1,36,39,75,3,0,0,0,0,0,0,0,0,0,0,0,0,0,0,0,0,0,0,0,0,0,0,0,0,0,0,0,0,120,140,260,11,10 มิถุนายน 2561
79,79,67030093,บ้านนาน้ำโครม,0,0,0,0,7,3,10,1,9,6,15,1,16,9,25,2,6,5,11,1,5,6,11,1,6,5,11,1,11,10,21,1,6,7,13,1,8,3,11,1,42,36,78,6,0,0,0,0,0,0,0,0,0,0,0,0,0,0,0,0,0,0,0,0,0,0,0,0,0,0,0,0,0,0,0,0,0,0,0,0,0,0,0,0,0,0,0,0,58,45,103,8,10 มิถุนายน 2561
80,80,67030094,บ้านจัดสรร,0,0,0,0,7,2,9,1,5,3,8,1,12,5,17,2,9,10,19,1,9,7,16,1,7,6,13,1,9,6,15,1,6,8,14,1,8,3,11,1,48,40,88,6,0,0,0,0,0,0,0,0,0,0,0,0,0,0,0,0,0,0,0,0,0,0,0,0,0,0,0,0,0,0,0,0,0,0,0,0,0,0,0,0,0,0,0,0,60,45,105,8,10 มิถุนายน 2561
81,81,67030096,บ้านแควป่าสัก,0,0,0,0,4,3,7,1,6,6,12,1,10,9,19,2,3,6,9,1,6,6,12,1,9,3,12,1,6,6,12,1,6,4,10,1,4,6,10,1,34,31,65,6,0,0,0,0,0,0,0,0,0,0,0,0,0,0,0,0,0,0,0,0,0,0,0,0,0,0,0,0,0,0,0,0,0,0,0,0,0,0,0,0,0,0,0,0,44,40,84,8,10 มิถุนายน 2561
82,82,67030097,บ้านสันติธรรม,0,0,0,0,4,4,8,1,5,1,6,1,9,5,14,2,5,3,8,1,4,3,7,1,5,5,10,1,6,3,9,1,3,1,4,1,3,4,7,1,26,19,45,6,0,0,0,0,0,0,0,0,0,0,0,0,0,0,0,0,0,0,0,0,0,0,0,0,0,0,0,0,0,0,0,0,0,0,0,0,0,0,0,0,0,0,0,0,35,24,59,8,10 มิถุนายน 2561
83,83,67030098,บ้านด่านไทรสามัคคี,0,0,0,0,2,1,3,1,4,3,7,1,6,4,10,2,2,2,4,1,3,1,4,1,4,1,5,1,3,3,6,1,2,3,5,1,0,0,0,0,14,10,24,5,0,0,0,0,0,0,0,0,0,0,0,0,0,0,0,0,0,0,0,0,0,0,0,0,0,0,0,0,0,0,0,0,0,0,0,0,0,0,0,0,0,0,0,0,20,14,34,7,10 มิถุนายน 2561
84,84,67030099,บ้านหนองหมู,0,0,0,0,2,4,6,1,6,4,10,1,8,8,16,2,5,10,15,1,6,2,8,1,6,7,13,1,5,8,13,1,8,6,14,1,5,8,13,1,35,41,76,6,0,0,0,0,0,0,0,0,0,0,0,0,0,0,0,0,0,0,0,0,0,0,0,0,0,0,0,0,0,0,0,0,0,0,0,0,0,0,0,0,0,0,0,0,43,49,92,8,10 มิถุนายน 2561
85,85,67030100,บ้านท่าไม้ทอง,2,2,4,1,5,5,10,1,4,4,8,1,11,11,22,3,3,2,5,1,10,2,12,1,5,7,12,1,5,4,9,1,7,2,9,1,7,6,13,1,37,23,60,6,0,0,0,0,0,0,0,0,0,0,0,0,0,0,0,0,0,0,0,0,0,0,0,0,0,0,0,0,0,0,0,0,0,0,0,0,0,0,0,0,0,0,0,0,48,34,82,9,10 มิถุนายน 2561
86,86,67030101,บ้านนาตะกุด,10,11,21,1,9,8,17,1,4,16,20,1,23,35,58,3,16,14,30,1,10,10,20,1,18,15,33,1,12,11,23,1,13,12,25,1,17,8,25,1,86,70,156,6,0,0,0,0,0,0,0,0,0,0,0,0,0,0,0,0,0,0,0,0,0,0,0,0,0,0,0,0,0,0,0,0,0,0,0,0,0,0,0,0,0,0,0,0,109,105,214,9,10 มิถุนายน 2561
87,87,67030102,บ้านศรีเทพน้อย,5,5,10,1,4,5,9,1,6,4,10,1,15,14,29,3,6,3,9,1,3,1,4,1,6,3,9,1,1,1,2,1,3,3,6,1,3,3,6,1,22,14,36,6,0,0,0,0,0,0,0,0,0,0,0,0,0,0,0,0,0,0,0,0,0,0,0,0,0,0,0,0,0,0,0,0,0,0,0,0,0,0,0,0,0,0,0,0,37,28,65,9,10 มิถุนายน 2561
88,88,67030103,บ้านโคกสะแกลาด,11,6,17,1,11,3,14,1,10,8,18,1,32,17,49,3,19,15,34,1,9,12,21,1,7,13,20,1,10,11,21,1,18,5,23,1,8,9,17,1,71,65,136,6,0,0,0,0,0,0,0,0,0,0,0,0,0,0,0,0,0,0,0,0,0,0,0,0,0,0,0,0,0,0,0,0,0,0,0,0,0,0,0,0,0,0,0,0,103,82,185,9,10 มิถุนายน 2561
89,89,67030104,บ้านบึงนาจาน,0,0,0,0,4,7,11,1,13,6,19,1,17,13,30,2,14,15,29,1,8,12,20,1,13,9,22,1,10,10,20,1,15,12,27,1,9,14,23,1,69,72,141,6,9,11,20,1,8,8,16,1,13,10,23,1,30,29,59,3,0,0,0,0,0,0,0,0,0,0,0,0,0,0,0,0,0,0,0,0,0,0,0,0,0,0,0,0,116,114,230,11,10 มิถุนายน 2561
90,90,67030105,บ้านหนองจอกวังกำแพง,0,0,0,0,6,0,6,1,5,7,12,1,11,7,18,2,8,5,13,1,5,3,8,1,7,4,11,1,4,9,13,1,5,5,10,1,4,7,11,1,33,33,66,6,4,12,16,1,5,8,13,1,4,10,14,1,13,30,43,3,0,0,0,0,0,0,0,0,0,0,0,0,0,0,0,0,0,0,0,0,0,0,0,0,0,0,0,0,57,70,127,11,10 มิถุนายน 2561
91,91,67030106,บ้านร่องหอยพัฒนา,0,0,0,0,1,2,3,1,2,5,7,1,3,7,10,2,5,1,6,1,4,2,6,1,3,3,6,1,1,1,2,1,7,5,12,1,7,2,9,1,27,14,41,6,0,0,0,0,0,0,0,0,0,0,0,0,0,0,0,0,0,0,0,0,0,0,0,0,0,0,0,0,0,0,0,0,0,0,0,0,0,0,0,0,0,0,0,0,30,21,51,8,10 มิถุนายน 2561
92,92,67030107,บ้านทุ่งเศรษฐี,0,0,0,0,12,5,17,1,7,10,17,1,19,15,34,2,7,5,12,1,11,8,19,1,2,9,11,1,7,12,19,1,3,6,9,1,8,5,13,1,38,45,83,6,12,7,19,1,7,9,16,1,3,9,12,1,22,25,47,3,0,0,0,0,0,0,0,0,0,0,0,0,0,0,0,0,0,0,0,0,0,0,0,0,0,0,0,0,79,85,164,11,10 มิถุนายน 2561
93,93,67030108,บ้านวังขาม,0,0,0,0,1,3,4,1,4,2,6,1,5,5,10,2,2,2,4,1,2,4,6,1,1,2,3,1,4,1,5,1,3,4,7,1,3,5,8,1,15,18,33,6,0,0,0,0,0,0,0,0,0,0,0,0,0,0,0,0,0,0,0,0,0,0,0,0,0,0,0,0,0,0,0,0,0,0,0,0,0,0,0,0,0,0,0,0,20,23,43,8,10 มิถุนายน 2561
94,94,67030109,อนุบาลศรีเทพ(สว่างวัฒนา),9,10,19,1,32,25,57,2,31,34,65,2,72,69,141,5,32,33,65,2,29,27,56,2,39,40,79,2,27,33,60,2,40,40,80,2,35,41,76,2,202,214,416,12,0,0,0,0,0,0,0,0,0,0,0,0,0,0,0,0,0,0,0,0,0,0,0,0,0,0,0,0,0,0,0,0,0,0,0,0,0,0,0,0,0,0,0,0,274,283,557,17,10 มิถุนายน 2561
95,95,67030110,บ้านสระกรวด,11,11,22,1,2,7,9,1,7,6,13,1,20,24,44,3,7,5,12,1,5,14,19,1,6,9,15,1,4,3,7,1,14,6,20,1,14,4,18,1,50,41,91,6,0,0,0,0,0,0,0,0,0,0,0,0,0,0,0,0,0,0,0,0,0,0,0,0,0,0,0,0,0,0,0,0,0,0,0,0,0,0,0,0,0,0,0,0,70,65,135,9,10 มิถุนายน 2561
96,96,67030111,บ้านโคกหิน,0,0,0,0,4,6,10,1,8,7,15,1,12,13,25,2,7,9,16,1,8,5,13,1,6,5,11,1,5,4,9,1,7,5,12,1,6,6,12,1,39,34,73,6,0,0,0,0,0,0,0,0,0,0,0,0,0,0,0,0,0,0,0,0,0,0,0,0,0,0,0,0,0,0,0,0,0,0,0,0,0,0,0,0,0,0,0,0,51,47,98,8,10 มิถุนายน 2561
97,97,67030113,บ้านซับน้อยพัฒนา,0,0,0,0,5,6,11,1,12,5,17,1,17,11,28,2,8,2,10,1,5,6,11,1,5,3,8,1,5,5,10,1,9,2,11,1,5,6,11,1,37,24,61,6,0,0,0,0,0,0,0,0,0,0,0,0,0,0,0,0,0,0,0,0,0,0,0,0,0,0,0,0,0,0,0,0,0,0,0,0,0,0,0,0,0,0,0,0,54,35,89,8,10 มิถุนายน 2561
98,98,67030114,บ้านหนองย่างทอย,0,0,0,0,20,14,34,1,20,9,29,1,40,23,63,2,13,15,28,1,12,15,27,1,10,16,26,1,24,12,36,1,13,17,30,1,17,12,29,1,89,87,176,6,18,16,34,1,25,13,38,1,33,18,51,2,76,47,123,4,0,0,0,0,0,0,0,0,0,0,0,0,0,0,0,0,0,0,0,0,0,0,0,0,0,0,0,0,205,157,362,12,10 มิถุนายน 2561
99,99,67030115,บ้านโคกรังน้อย,0,0,0,0,14,21,35,2,26,18,44,2,40,39,79,4,24,20,44,2,17,25,42,1,23,18,41,1,24,18,42,1,15,16,31,1,21,16,37,1,124,113,237,7,17,13,30,1,14,11,25,1,25,15,40,2,56,39,95,4,0,0,0,0,0,0,0,0,0,0,0,0,0,0,0,0,0,0,0,0,0,0,0,0,0,0,0,0,220,191,411,15,10 มิถุนายน 2561
100,100,67030116,บ้านรังย้อย,0,0,0,0,5,4,9,1,2,14,16,1,7,18,25,2,8,2,10,1,10,7,17,1,1,2,3,1,5,5,10,1,1,4,5,1,12,7,19,1,37,27,64,6,0,0,0,0,0,0,0,0,0,0,0,0,0,0,0,0,0,0,0,0,0,0,0,0,0,0,0,0,0,0,0,0,0,0,0,0,0,0,0,0,0,0,0,0,44,45,89,8,10 มิถุนายน 2561
101,101,67030117,บ้านด่านเจริญชัย,0,0,0,0,8,1,9,1,6,6,12,1,14,7,21,2,4,2,6,1,0,2,2,1,7,2,9,1,1,3,4,1,3,5,8,1,3,5,8,1,18,19,37,6,0,0,0,0,0,0,0,0,0,0,0,0,0,0,0,0,0,0,0,0,0,0,0,0,0,0,0,0,0,0,0,0,0,0,0,0,0,0,0,0,0,0,0,0,32,26,58,8,10 มิถุนายน 2561
102,102,67030118,บ้านน้ำเขียว,0,0,0,0,0,5,5,1,5,2,7,1,5,7,12,2,1,4,5,1,2,3,5,1,1,2,3,1,1,2,3,1,1,1,2,1,5,1,6,1,11,13,24,6,0,0,0,0,0,0,0,0,0,0,0,0,0,0,0,0,0,0,0,0,0,0,0,0,0,0,0,0,0,0,0,0,0,0,0,0,0,0,0,0,0,0,0,0,16,20,36,8,10 มิถุนายน 2561
103,103,67030119,บ้านกองทูล(พิทักษ์ราษฎร์วิทยาคาร),0,0,0,0,3,5,8,1,9,7,16,1,12,12,24,2,10,10,20,1,10,7,17,1,14,4,18,1,6,13,19,1,12,6,18,1,8,13,21,1,60,53,113,6,6,10,16,1,5,9,14,1,7,12,19,1,18,31,49,3,0,0,0,0,0,0,0,0,0,0,0,0,0,0,0,0,0,0,0,0,0,0,0,0,0,0,0,0,90,96,186,11,10 มิถุนายน 2561
104,104,67030121,บ้านเนินพัฒนา,0,0,0,0,3,3,6,1,2,5,7,1,5,8,13,2,5,4,9,1,5,3,8,1,3,9,12,1,4,6,10,1,4,2,6,1,3,7,10,1,24,31,55,6,0,0,0,0,0,0,0,0,0,0,0,0,0,0,0,0,0,0,0,0,0,0,0,0,0,0,0,0,0,0,0,0,0,0,0,0,0,0,0,0,0,0,0,0,29,39,68,8,10 มิถุนายน 2561
105,105,67030123,บ้านท่าด้วง,0,0,0,0,15,15,30,1,25,23,48,2,40,38,78,3,26,20,46,2,22,16,38,1,17,20,37,1,12,18,30,1,20,15,35,1,21,26,47,2,118,115,233,8,0,0,0,0,0,0,0,0,0,0,0,0,0,0,0,0,0,0,0,0,0,0,0,0,0,0,0,0,0,0,0,0,0,0,0,0,0,0,0,0,0,0,0,0,158,153,311,11,10 มิถุนายน 2561
106,106,67030124,บ้านห้วยตลาด,2,1,3,1,3,0,3,1,1,3,4,1,6,4,10,3,7,2,9,1,3,1,4,1,2,1,3,1,0,3,3,1,1,5,6,1,8,1,9,1,21,13,34,6,0,0,0,0,0,0,0,0,0,0,0,0,0,0,0,0,0,0,0,0,0,0,0,0,0,0,0,0,0,0,0,0,0,0,0,0,0,0,0,0,0,0,0,0,27,17,44,9,10 มิถุนายน 2561
107,107,67030125,บ้านปางยาง,0,0,0,0,2,6,8,1,6,5,11,1,8,11,19,2,9,8,17,1,5,5,10,1,5,5,10,1,8,6,14,1,5,10,15,1,4,8,12,1,36,42,78,6,0,0,0,0,0,0,0,0,0,0,0,0,0,0,0,0,0,0,0,0,0,0,0,0,0,0,0,0,0,0,0,0,0,0,0,0,0,0,0,0,0,0,0,0,44,53,97,8,10 มิถุนายน 2561
108,108,67030126,บ้านสันเจริญโป่งสะทอน,0,0,0,0,7,5,12,1,5,10,15,1,12,15,27,2,15,8,23,1,3,7,10,1,11,8,19,1,5,8,13,1,9,9,18,1,10,5,15,1,53,45,98,6,0,0,0,0,0,0,0,0,0,0,0,0,0,0,0,0,0,0,0,0,0,0,0,0,0,0,0,0,0,0,0,0,0,0,0,0,0,0,0,0,0,0,0,0,65,60,125,8,10 มิถุนายน 2561
109,109,67030127,บ้านเฉลียงทอง,0,0,0,0,2,2,4,1,3,3,6,1,5,5,10,2,0,3,3,1,1,0,1,1,4,0,4,1,1,2,3,1,3,2,5,1,5,3,8,1,14,10,24,6,0,0,0,0,0,0,0,0,0,0,0,0,0,0,0,0,0,0,0,0,0,0,0,0,0,0,0,0,0,0,0,0,0,0,0,0,0,0,0,0,0,0,0,0,19,15,34,8,10 มิถุนายน 2561
110,110,67030129,บ้านเนินคนธา,0,0,0,0,10,13,23,1,6,6,12,1,16,19,35,2,12,15,27,1,16,4,20,1,21,17,38,1,20,14,34,1,19,9,28,1,14,15,29,1,102,74,176,6,0,0,0,0,0,0,0,0,0,0,0,0,0,0,0,0,0,0,0,0,0,0,0,0,0,0,0,0,0,0,0,0,0,0,0,0,0,0,0,0,0,0,0,0,118,93,211,8,10 มิถุนายน 2561
111,111,67030130,บ้านท่าสวาย,3,5,8,1,2,2,4,1,6,4,10,1,11,11,22,3,3,5,8,1,4,3,7,1,6,1,7,1,6,2,8,1,5,6,11,1,3,3,6,1,27,20,47,6,0,0,0,0,0,0,0,0,0,0,0,0,0,0,0,0,0,0,0,0,0,0,0,0,0,0,0,0,0,0,0,0,0,0,0,0,0,0,0,0,0,0,0,0,38,31,69,9,10 มิถุนายน 2561
112,112,67030131,บ้านไร่ขอนยางขวาง,0,0,0,0,6,4,10,1,6,4,10,1,12,8,20,2,15,3,18,1,3,7,10,1,4,5,9,1,7,7,14,1,7,7,14,1,6,9,15,1,42,38,80,6,0,0,0,0,0,0,0,0,0,0,0,0,0,0,0,0,0,0,0,0,0,0,0,0,0,0,0,0,0,0,0,0,0,0,0,0,0,0,0,0,0,0,0,0,54,46,100,8,10 มิถุนายน 2561
113,113,67030132,บ้านท่าแดง,0,0,0,0,6,6,12,1,15,18,33,1,21,24,45,2,11,8,19,1,9,13,22,1,12,15,27,1,10,12,22,1,9,17,26,1,12,10,22,1,63,75,138,6,22,10,32,1,10,13,23,1,11,10,21,1,43,33,76,3,0,0,0,0,0,0,0,0,0,0,0,0,0,0,0,0,0,0,0,0,0,0,0,0,0,0,0,0,127,132,259,11,10 มิถุนายน 2561
114,114,67030133,บ้านนาทุ่ง,0,0,0,0,11,23,34,2,25,17,42,2,36,40,76,4,22,15,37,1,12,8,20,1,13,14,27,1,16,11,27,1,11,5,16,1,14,19,33,1,88,72,160,6,22,20,42,2,18,6,24,1,15,6,21,1,55,32,87,4,0,0,0,0,0,0,0,0,0,0,0,0,0,0,0,0,0,0,0,0,0,0,0,0,0,0,0,0,179,144,323,14,10 มิถุนายน 2561
115,115,67030134,บ้านท่าเยี่ยม,3,1,4,1,2,1,3,1,2,2,4,1,7,4,11,3,3,3,6,1,2,3,5,1,2,2,4,1,3,1,4,1,5,1,6,1,2,1,3,1,17,11,28,6,0,0,0,0,0,0,0,0,0,0,0,0,0,0,0,0,0,0,0,0,0,0,0,0,0,0,0,0,0,0,0,0,0,0,0,0,0,0,0,0,0,0,0,0,24,15,39,9,10 มิถุนายน 2561
116,116,67030135,บ้านหัวโตก,7,1,8,1,5,4,9,1,4,9,13,1,16,14,30,3,5,4,9,1,4,2,6,1,7,9,16,1,4,2,6,1,12,8,20,1,7,6,13,1,39,31,70,6,0,0,0,0,0,0,0,0,0,0,0,0,0,0,0,0,0,0,0,0,0,0,0,0,0,0,0,0,0,0,0,0,0,0,0,0,0,0,0,0,0,0,0,0,55,45,100,9,10 มิถุนายน 2561
117,117,67030136,บ้านนาเฉลียงใต้,0,0,0,0,12,12,24,1,16,16,32,1,28,28,56,2,35,22,57,2,25,21,46,2,38,29,67,2,33,24,57,2,41,34,75,2,30,23,53,2,202,153,355,12,0,0,0,0,0,0,0,0,0,0,0,0,0,0,0,0,0,0,0,0,0,0,0,0,0,0,0,0,0,0,0,0,0,0,0,0,0,0,0,0,0,0,0,0,230,181,411,14,10 มิถุนายน 2561
118,118,67030137,บ้านคลองกรวด,2,1,3,1,5,4,9,1,2,4,6,1,9,9,18,3,3,2,5,1,5,1,6,1,4,1,5,1,5,2,7,1,6,3,9,1,3,6,9,1,26,15,41,6,0,0,0,0,0,0,0,0,0,0,0,0,0,0,0,0,0,0,0,0,0,0,0,0,0,0,0,0,0,0,0,0,0,0,0,0,0,0,0,0,0,0,0,0,35,24,59,9,10 มิถุนายน 2561
119,119,67030139,บ้านบ่อไทย,11,13,24,1,20,17,37,1,23,19,42,1,54,49,103,3,12,14,26,1,18,15,33,1,15,17,32,1,15,20,35,1,17,19,36,1,18,13,31,1,95,98,193,6,23,24,47,2,33,35,68,2,25,25,50,2,81,84,165,6,0,0,0,0,0,0,0,0,0,0,0,0,0,0,0,0,0,0,0,0,0,0,0,0,0,0,0,0,230,231,461,15,10 มิถุนายน 2561
120,120,67030140,บ้านตีบใต้,10,6,16,1,7,11,18,1,12,19,31,1,29,36,65,3,9,6,15,1,13,3,16,1,6,11,17,1,9,8,17,1,15,8,23,1,13,13,26,1,65,49,114,6,0,0,0,0,0,0,0,0,0,0,0,0,0,0,0,0,0,0,0,0,0,0,0,0,0,0,0,0,0,0,0,0,0,0,0,0,0,0,0,0,0,0,0,0,94,85,179,9,10 มิถุนายน 2561
121,121,67030141,บ้านนาวังแหน,0,0,0,0,2,7,9,1,8,4,12,1,10,11,21,2,4,5,9,1,5,2,7,1,4,5,9,1,4,3,7,1,5,2,7,1,8,2,10,1,30,19,49,6,0,0,0,0,0,0,0,0,0,0,0,0,0,0,0,0,0,0,0,0,0,0,0,0,0,0,0,0,0,0,0,0,0,0,0,0,0,0,0,0,0,0,0,0,40,30,70,8,10 มิถุนายน 2561
122,122,67030142,บ้านโคกเจริญ,12,4,16,1,4,7,11,1,9,8,17,1,25,19,44,3,9,13,22,1,16,9,25,1,14,10,24,1,4,11,15,1,6,11,17,1,8,6,14,1,57,60,117,6,8,15,23,1,9,8,17,1,12,9,21,1,29,32,61,3,0,0,0,0,0,0,0,0,0,0,0,0,0,0,0,0,0,0,0,0,0,0,0,0,0,0,0,0,111,111,222,12,10 มิถุนายน 2561
123,123,67030143,บ้านซับกระถินทอง,2,5,7,1,4,6,10,1,5,1,6,1,11,12,23,3,5,1,6,1,2,4,6,1,2,4,6,1,3,3,6,1,3,5,8,1,1,1,2,1,16,18,34,6,0,0,0,0,0,0,0,0,0,0,0,0,0,0,0,0,0,0,0,0,0,0,0,0,0,0,0,0,0,0,0,0,0,0,0,0,0,0,0,0,0,0,0,0,27,30,57,9,10 มิถุนายน 2561
124,124,67030144,บ้านป่าคาย,1,8,9,1,2,1,3,1,4,3,7,1,7,12,19,3,4,2,6,1,7,0,7,1,0,3,3,1,7,3,10,1,5,5,10,1,4,3,7,1,27,16,43,6,0,0,0,0,0,0,0,0,0,0,0,0,0,0,0,0,0,0,0,0,0,0,0,0,0,0,0,0,0,0,0,0,0,0,0,0,0,0,0,0,0,0,0,0,34,28,62,9,10 มิถุนายน 2561
125,125,67030145,บ้านบัววัฒนา,3,3,6,1,6,4,10,1,4,1,5,1,13,8,21,3,3,6,9,1,3,1,4,1,6,2,8,1,2,5,7,1,2,1,3,1,3,2,5,1,19,17,36,6,0,0,0,0,0,0,0,0,0,0,0,0,0,0,0,0,0,0,0,0,0,0,0,0,0,0,0,0,0,0,0,0,0,0,0,0,0,0,0,0,0,0,0,0,32,25,57,9,10 มิถุนายน 2561
126,126,67030146,บ้านไร่เหนือ,8,7,15,1,8,6,14,1,4,7,11,1,20,20,40,3,12,7,19,1,7,5,12,1,9,4,13,1,11,10,21,1,12,9,21,1,8,12,20,1,59,47,106,6,15,9,24,1,6,16,22,1,12,8,20,1,33,33,66,3,0,0,0,0,0,0,0,0,0,0,0,0,0,0,0,0,0,0,0,0,0,0,0,0,0,0,0,0,112,100,212,12,10 มิถุนายน 2561
127,127,67030147,บ้านเนินมะค่า,7,6,13,1,3,4,7,1,3,2,5,1,13,12,25,3,5,7,12,1,3,2,5,1,6,4,10,1,0,2,2,1,2,6,8,1,3,4,7,1,19,25,44,6,0,0,0,0,0,0,0,0,0,0,0,0,0,0,0,0,0,0,0,0,0,0,0,0,0,0,0,0,0,0,0,0,0,0,0,0,0,0,0,0,0,0,0,0,32,37,69,9,10 มิถุนายน 2561
128,128,67030148,บ้านวังอ่าง,2,3,5,1,3,1,4,1,3,4,7,1,8,8,16,3,2,2,4,1,2,4,6,1,2,2,4,1,9,4,13,1,4,5,9,1,3,5,8,1,22,22,44,6,0,0,0,0,0,0,0,0,0,0,0,0,0,0,0,0,0,0,0,0,0,0,0,0,0,0,0,0,0,0,0,0,0,0,0,0,0,0,0,0,0,0,0,0,30,30,60,9,10 มิถุนายน 2561
129,129,67030149,บ้านซับวารินทร์,4,4,8,1,1,5,6,1,0,0,0,0,5,9,14,2,5,2,7,1,6,1,7,1,1,1,2,1,3,2,5,1,5,0,5,1,0,2,2,1,20,8,28,6,0,0,0,0,0,0,0,0,0,0,0,0,0,0,0,0,0,0,0,0,0,0,0,0,0,0,0,0,0,0,0,0,0,0,0,0,0,0,0,0,0,0,0,0,25,17,42,8,10 มิถุนายน 2561
130,130,67030150,บ้านลำตาเณร,5,4,9,1,3,3,6,1,5,1,6,1,13,8,21,3,3,4,7,1,1,3,4,1,9,3,12,1,2,8,10,1,4,4,8,1,4,4,8,1,23,26,49,6,0,0,0,0,0,0,0,0,0,0,0,0,0,0,0,0,0,0,0,0,0,0,0,0,0,0,0,0,0,0,0,0,0,0,0,0,0,0,0,0,0,0,0,0,36,34,70,9,10 มิถุนายน 2561
131,131,67030151,ชุมชนบ้านโภชน์,2,2,4,1,7,11,18,1,7,6,13,1,16,19,35,3,14,9,23,1,6,7,13,1,8,6,14,1,13,13,26,1,15,3,18,1,19,14,33,1,75,52,127,6,19,14,33,1,17,12,29,1,16,13,29,1,52,39,91,3,0,0,0,0,0,0,0,0,0,0,0,0,0,0,0,0,0,0,0,0,0,0,0,0,0,0,0,0,143,110,253,12,10 มิถุนายน 2561
132,132,67030152,บ้านโคกคงสมโภชน์,9,9,18,1,16,5,21,1,5,2,7,1,30,16,46,3,12,10,22,1,6,8,14,1,12,6,18,1,10,9,19,1,8,5,13,1,4,4,8,1,52,42,94,6,0,0,0,0,0,0,0,0,0,0,0,0,0,0,0,0,0,0,0,0,0,0,0,0,0,0,0,0,0,0,0,0,0,0,0,0,0,0,0,0,0,0,0,0,82,58,140,9,10 มิถุนายน 2561
133,133,67030153,บ้านซับชมภู,0,0,0,0,4,3,7,1,9,5,14,1,13,8,21,2,3,9,12,1,5,7,12,1,4,7,11,1,3,6,9,1,7,5,12,1,6,6,12,1,28,40,68,6,0,0,0,0,0,0,0,0,0,0,0,0,0,0,0,0,0,0,0,0,0,0,0,0,0,0,0,0,0,0,0,0,0,0,0,0,0,0,0,0,0,0,0,0,41,48,89,8,10 มิถุนายน 2561
134,134,67030154,บ้านคลองกะโบน,0,0,0,0,6,9,15,1,5,6,11,1,11,15,26,2,3,7,10,1,1,3,4,1,7,6,13,1,3,5,8,1,6,5,11,1,6,5,11,1,26,31,57,6,0,0,0,0,0,0,0,0,0,0,0,0,0,0,0,0,0,0,0,0,0,0,0,0,0,0,0,0,0,0,0,0,0,0,0,0,0,0,0,0,0,0,0,0,37,46,83,8,10 มิถุนายน 2561
135,135,67030155,บ้านเนินสวรรค์,3,1,4,1,6,2,8,1,2,0,2,1,11,3,14,3,4,2,6,1,3,3,6,1,2,6,8,1,4,2,6,1,3,3,6,1,4,4,8,1,20,20,40,6,0,0,0,0,0,0,0,0,0,0,0,0,0,0,0,0,0,0,0,0,0,0,0,0,0,0,0,0,0,0,0,0,0,0,0,0,0,0,0,0,0,0,0,0,31,23,54,9,10 มิถุนายน 2561
136,136,67030156,บ้านซับเดื่อ,0,0,0,0,1,1,2,1,1,2,3,1,2,3,5,2,4,6,10,1,4,0,4,1,1,2,3,1,2,2,4,1,3,4,7,1,3,2,5,1,17,16,33,6,0,0,0,0,0,0,0,0,0,0,0,0,0,0,0,0,0,0,0,0,0,0,0,0,0,0,0,0,0,0,0,0,0,0,0,0,0,0,0,0,0,0,0,0,19,19,38,8,10 มิถุนายน 2561
137,137,67030157,บ้านเพชรละคร,5,13,18,1,5,9,14,1,11,11,22,1,21,33,54,3,15,12,27,1,16,12,28,1,10,16,26,1,13,14,27,1,23,25,48,2,12,20,32,1,89,99,188,7,0,0,0,0,0,0,0,0,0,0,0,0,0,0,0,0,0,0,0,0,0,0,0,0,0,0,0,0,0,0,0,0,0,0,0,0,0,0,0,0,0,0,0,0,110,132,242,10,10 มิถุนายน 2561
138,138,67030158,ชุมชนบ้านท่าเสา,0,0,0,0,2,3,5,1,14,4,18,1,16,7,23,2,24,19,43,1,16,18,34,1,17,21,38,1,15,20,35,1,20,15,35,1,15,9,24,1,107,102,209,6,0,0,0,0,0,0,0,0,0,0,0,0,0,0,0,0,0,0,0,0,0,0,0,0,0,0,0,0,0,0,0,0,0,0,0,0,0,0,0,0,0,0,0,0,123,109,232,8,10 มิถุนายน 2561
139,139,67030159,บ้านสระเกษ,2,2,4,1,4,4,8,1,5,2,7,1,11,8,19,3,6,8,14,1,3,2,5,1,5,0,5,1,5,0,5,1,2,2,4,1,9,9,18,1,30,21,51,6,0,0,0,0,0,0,0,0,0,0,0,0,0,0,0,0,0,0,0,0,0,0,0,0,0,0,0,0,0,0,0,0,0,0,0,0,0,0,0,0,0,0,0,0,41,29,70,9,10 มิถุนายน 2561
140,140,67030161,บ้านซับตะเคียนทอง,7,2,9,1,4,3,7,1,6,8,14,1,17,13,30,3,3,0,3,1,9,5,14,1,10,2,12,1,8,4,12,1,6,7,13,1,9,2,11,1,45,20,65,6,0,0,0,0,0,0,0,0,0,0,0,0,0,0,0,0,0,0,0,0,0,0,0,0,0,0,0,0,0,0,0,0,0,0,0,0,0,0,0,0,0,0,0,0,62,33,95,9,10 มิถุนายน 2561
141,141,67030162,บ้าน กม.30,7,6,13,1,7,6,13,1,4,13,17,1,18,25,43,3,11,8,19,1,8,8,16,1,7,9,16,1,11,7,18,1,11,2,13,1,12,8,20,1,60,42,102,6,0,0,0,0,0,0,0,0,0,0,0,0,0,0,0,0,0,0,0,0,0,0,0,0,0,0,0,0,0,0,0,0,0,0,0,0,0,0,0,0,0,0,0,0,78,67,145,9,10 มิถุนายน 2561
142,142,67030165,บ้านปากตก,0,0,0,0,4,7,11,1,9,8,17,1,13,15,28,2,11,8,19,1,12,10,22,1,11,6,17,1,12,7,19,1,8,12,20,1,6,3,9,1,60,46,106,6,10,9,19,1,16,10,26,1,12,4,16,1,38,23,61,3,0,0,0,0,0,0,0,0,0,0,0,0,0,0,0,0,0,0,0,0,0,0,0,0,0,0,0,0,111,84,195,11,10 มิถุนายน 2561
143,143,67030166,บ้านวังเหว,2,3,5,1,2,3,5,1,2,8,10,1,6,14,20,3,5,2,7,1,5,1,6,1,0,1,1,1,3,6,9,1,3,1,4,1,3,2,5,1,19,13,32,6,0,0,0,0,0,0,0,0,0,0,0,0,0,0,0,0,0,0,0,0,0,0,0,0,0,0,0,0,0,0,0,0,0,0,0,0,0,0,0,0,0,0,0,0,25,27,52,9,10 มิถุนายน 2561
144,144,67030167,บ้านนาเฉลียง,0,0,0,0,4,2,6,1,7,5,12,1,11,7,18,2,7,7,14,1,4,1,5,1,6,10,16,1,8,8,16,1,6,9,15,1,8,2,10,1,39,37,76,6,8,5,13,1,6,5,11,1,6,6,12,1,20,16,36,3,0,0,0,0,0,0,0,0,0,0,0,0,0,0,0,0,0,0,0,0,0,0,0,0,0,0,0,0,70,60,130,11,10 มิถุนายน 2561
145,145,67030168,บ้านกลาง,0,0,0,0,13,11,24,1,15,24,39,1,28,35,63,2,17,17,34,1,14,13,27,1,19,23,42,2,13,19,32,1,12,12,24,1,22,11,33,1,97,95,192,7,19,22,41,1,33,20,53,2,17,14,31,1,69,56,125,4,0,0,0,0,0,0,0,0,0,0,0,0,0,0,0,0,0,0,0,0,0,0,0,0,0,0,0,0,194,186,380,13,10 มิถุนายน 2561
146,146,67030169,บ้านวังท่าดี,0,0,0,0,5,7,12,1,9,8,17,1,14,15,29,2,7,13,20,1,11,14,25,1,10,11,21,1,10,8,18,1,15,7,22,1,17,13,30,1,70,66,136,6,0,0,0,0,0,0,0,0,0,0,0,0,0,0,0,0,0,0,0,0,0,0,0,0,0,0,0,0,0,0,0,0,0,0,0,0,0,0,0,0,0,0,0,0,84,81,165,8,10 มิถุนายน 2561
147,147,67030170,บ้านวังโบสถ์,0,0,0,0,13,12,25,1,13,13,26,1,26,25,51,2,11,10,21,1,10,10,20,1,9,9,18,1,17,14,31,1,10,6,16,1,13,8,21,1,70,57,127,6,10,8,18,1,23,8,31,1,8,6,14,1,41,22,63,3,0,0,0,0,0,0,0,0,0,0,0,0,0,0,0,0,0,0,0,0,0,0,0,0,0,0,0,0,137,104,241,11,10 มิถุนายน 2561
148,148,67030171,บ้านตะกุดงาม,4,4,8,1,8,3,11,1,4,4,8,1,16,11,27,3,4,3,7,1,8,6,14,1,7,8,15,1,9,7,16,1,8,5,13,1,8,8,16,1,44,37,81,6,0,0,0,0,0,0,0,0,0,0,0,0,0,0,0,0,0,0,0,0,0,0,0,0,0,0,0,0,0,0,0,0,0,0,0,0,0,0,0,0,0,0,0,0,60,48,108,9,10 มิถุนายน 2561
149,149,67030172,บ้านสระหมื่นเชียง,1,2,3,1,6,0,6,1,2,2,4,1,9,4,13,3,7,3,10,1,5,5,10,1,4,7,11,1,5,8,13,1,6,4,10,1,4,3,7,1,31,30,61,6,0,0,0,0,0,0,0,0,0,0,0,0,0,0,0,0,0,0,0,0,0,0,0,0,0,0,0,0,0,0,0,0,0,0,0,0,0,0,0,0,0,0,0,0,40,34,74,9,10 มิถุนายน 2561
150,150,67030173,บ้านโคกสง่านาข้าวดอ,5,3,8,1,7,1,8,1,6,4,10,1,18,8,26,3,3,10,13,1,4,2,6,1,5,4,9,1,1,9,10,1,4,1,5,1,5,9,14,1,22,35,57,6,0,0,0,0,0,0,0,0,0,0,0,0,0,0,0,0,0,0,0,0,0,0,0,0,0,0,0,0,0,0,0,0,0,0,0,0,0,0,0,0,0,0,0,0,40,43,83,9,10 มิถุนายน 2561
151,151,67030174,บ้านไทรทอง,5,3,8,1,3,6,9,1,4,3,7,1,12,12,24,3,4,7,11,1,2,3,5,1,4,6,10,1,6,4,10,1,3,1,4,1,5,8,13,1,24,29,53,6,0,0,0,0,0,0,0,0,0,0,0,0,0,0,0,0,0,0,0,0,0,0,0,0,0,0,0,0,0,0,0,0,0,0,0,0,0,0,0,0,0,0,0,0,36,41,77,9,10 มิถุนายน 2561
152,152,67030175,บ้านคลองตะพานหิน,5,7,12,1,2,9,11,1,6,5,11,1,13,21,34,3,5,11,16,1,7,9,16,1,5,9,14,1,8,0,8,1,11,10,21,1,8,6,14,1,44,45,89,6,0,0,0,0,0,0,0,0,0,0,0,0,0,0,0,0,0,0,0,0,0,0,0,0,0,0,0,0,0,0,0,0,0,0,0,0,0,0,0,0,0,0,0,0,57,66,123,9,10 มิถุนายน 2561
153,153,67030176,บ้านพงษ์เพชรอนุสรณ์,7,8,15,1,0,3,3,1,4,3,7,1,11,14,25,3,5,8,13,1,11,7,18,1,15,4,19,1,8,7,15,1,11,8,19,1,11,6,17,1,61,40,101,6,0,0,0,0,0,0,0,0,0,0,0,0,0,0,0,0,0,0,0,0,0,0,0,0,0,0,0,0,0,0,0,0,0,0,0,0,0,0,0,0,0,0,0,0,72,54,126,9,10 มิถุนายน 2561
154,154,67030177,อนุบาลหนองไผ่,13,15,28,1,11,9,20,1,18,21,39,2,42,45,87,4,17,14,31,1,12,12,24,1,15,18,33,1,17,13,30,1,18,15,33,1,14,15,29,1,93,87,180,6,23,10,33,1,15,12,27,1,18,11,29,1,56,33,89,3,0,0,0,0,0,0,0,0,0,0,0,0,0,0,0,0,0,0,0,0,0,0,0,0,0,0,0,0,191,165,356,13,10 มิถุนายน 2561
155,155,67030178,บ้าน กม.35,14,13,27,1,20,17,37,2,36,40,76,2,70,70,140,5,76,62,138,4,58,57,115,4,71,66,137,4,61,60,121,4,70,67,137,4,65,70,135,4,401,382,783,24,29,16,45,1,23,19,42,1,28,20,48,2,80,55,135,4,0,0,0,0,0,0,0,0,0,0,0,0,0,0,0,0,0,0,0,0,0,0,0,0,0,0,0,0,551,507,1058,33,10 มิถุนายน 2561
156,156,67030179,บ้านคลองยาง,4,3,7,1,3,4,7,1,9,2,11,1,16,9,25,3,8,4,12,1,9,6,15,1,8,8,16,1,7,6,13,1,10,5,15,1,13,6,19,1,55,35,90,6,0,0,0,0,0,0,0,0,0,0,0,0,0,0,0,0,0,0,0,0,0,0,0,0,0,0,0,0,0,0,0,0,0,0,0,0,0,0,0,0,0,0,0,0,71,44,115,9,10 มิถุนายน 2561
157,157,67030180,บ้านลำพาด,2,1,3,1,1,2,3,1,4,2,6,1,7,5,12,3,6,2,8,1,4,6,10,1,2,2,4,1,4,2,6,1,3,3,6,1,5,1,6,1,24,16,40,6,0,0,0,0,0,0,0,0,0,0,0,0,0,0,0,0,0,0,0,0,0,0,0,0,0,0,0,0,0,0,0,0,0,0,0,0,0,0,0,0,0,0,0,0,31,21,52,9,10 มิถุนายน 2561
158,158,67030181,บ้านห้วยโป่ง-ไผ่ขวาง,16,15,31,1,17,10,27,1,18,17,35,1,51,42,93,3,22,19,41,2,13,22,35,1,15,24,39,1,14,17,31,1,27,14,41,2,25,19,44,2,116,115,231,9,9,10,19,1,14,15,29,1,20,12,32,1,43,37,80,3,0,0,0,0,0,0,0,0,0,0,0,0,0,0,0,0,0,0,0,0,0,0,0,0,0,0,0,0,210,194,404,15,10 มิถุนายน 2561
159,159,67030182,บ้านปู่จ้าว,2,5,7,1,2,4,6,1,6,2,8,1,10,11,21,3,5,5,10,1,2,6,8,1,0,2,2,1,5,4,9,1,5,7,12,1,3,2,5,1,20,26,46,6,0,0,0,0,0,0,0,0,0,0,0,0,0,0,0,0,0,0,0,0,0,0,0,0,0,0,0,0,0,0,0,0,0,0,0,0,0,0,0,0,0,0,0,0,30,37,67,9,10 มิถุนายน 2561
160,160,67030184,บ้านกันจุ,3,4,7,1,6,0,6,1,1,2,3,1,10,6,16,3,8,3,11,1,5,1,6,1,4,4,8,1,3,4,7,1,4,5,9,1,3,4,7,1,27,21,48,6,0,0,0,0,0,0,0,0,0,0,0,0,0,0,0,0,0,0,0,0,0,0,0,0,0,0,0,0,0,0,0,0,0,0,0,0,0,0,0,0,0,0,0,0,37,27,64,9,10 มิถุนายน 2561
161,161,67030185,บ้านลำตะคร้อ,11,7,18,1,13,5,18,1,6,16,22,1,30,28,58,3,12,10,22,1,19,12,31,1,7,14,21,1,11,13,24,1,8,9,17,1,13,12,25,1,70,70,140,6,10,6,16,1,12,9,21,1,13,3,16,1,35,18,53,3,0,0,0,0,0,0,0,0,0,0,0,0,0,0,0,0,0,0,0,0,0,0,0,0,0,0,0,0,135,116,251,12,10 มิถุนายน 2561
162,162,67030186,บ้านโคกกรวด,1,6,7,1,5,5,10,1,2,2,4,1,8,13,21,3,3,5,8,1,4,7,11,1,1,5,6,1,3,5,8,1,5,3,8,1,2,2,4,1,18,27,45,6,0,0,0,0,0,0,0,0,0,0,0,0,0,0,0,0,0,0,0,0,0,0,0,0,0,0,0,0,0,0,0,0,0,0,0,0,0,0,0,0,0,0,0,0,26,40,66,9,10 มิถุนายน 2561
163,163,67030187,บ้านซับบอน,4,2,6,1,4,2,6,1,6,4,10,1,14,8,22,3,9,6,15,1,2,3,5,1,5,4,9,1,12,7,19,1,11,8,19,1,7,10,17,1,46,38,84,6,0,0,0,0,0,0,0,0,0,0,0,0,0,0,0,0,0,0,0,0,0,0,0,0,0,0,0,0,0,0,0,0,0,0,0,0,0,0,0,0,0,0,0,0,60,46,106,9,10 มิถุนายน 2561
164,164,67030188,บ้านหนองพลวง,0,0,0,0,3,3,6,1,4,4,8,1,7,7,14,2,2,6,8,1,5,9,14,1,6,9,15,1,2,6,8,1,11,7,18,1,9,8,17,1,35,45,80,6,0,0,0,0,0,0,0,0,0,0,0,0,0,0,0,0,0,0,0,0,0,0,0,0,0,0,0,0,0,0,0,0,0,0,0,0,0,0,0,0,0,0,0,0,42,52,94,8,10 มิถุนายน 2561
165,165,67030189,บ้านโคกสะอาด,0,0,0,0,1,0,1,1,4,2,6,1,5,2,7,2,7,4,11,1,2,4,6,1,5,6,11,1,4,2,6,1,3,4,7,1,9,6,15,1,30,26,56,6,3,8,11,1,10,4,14,1,2,4,6,1,15,16,31,3,0,0,0,0,0,0,0,0,0,0,0,0,0,0,0,0,0,0,0,0,0,0,0,0,0,0,0,0,50,44,94,11,10 มิถุนายน 2561
166,166,67030190,บ้านราษฎร์เจริญ,1,1,2,1,4,3,7,1,0,3,3,1,5,7,12,3,4,3,7,1,3,4,7,1,0,6,6,1,2,3,5,1,6,5,11,1,3,0,3,1,18,21,39,6,0,0,0,0,0,0,0,0,0,0,0,0,0,0,0,0,0,0,0,0,0,0,0,0,0,0,0,0,0,0,0,0,0,0,0,0,0,0,0,0,0,0,0,0,23,28,51,9,10 มิถุนายน 2561
167,167,67030191,บ้านซับไม้แดง,0,0,0,0,13,9,22,1,10,9,19,1,23,18,41,2,16,10,26,1,11,9,20,1,12,5,17,1,10,10,20,1,6,6,12,1,12,8,20,1,67,48,115,6,13,14,27,1,11,13,24,1,6,9,15,1,30,36,66,3,0,0,0,0,0,0,0,0,0,0,0,0,0,0,0,0,0,0,0,0,0,0,0,0,0,0,0,0,120,102,222,11,10 มิถุนายน 2561
168,168,67030194,บ้านซับสมพงษ์,0,0,0,0,1,4,5,1,1,1,2,1,2,5,7,2,2,1,3,1,3,1,4,1,3,2,5,1,2,1,3,1,2,0,2,1,0,1,1,1,12,6,18,6,0,0,0,0,0,0,0,0,0,0,0,0,0,0,0,0,0,0,0,0,0,0,0,0,0,0,0,0,0,0,0,0,0,0,0,0,0,0,0,0,0,0,0,0,14,11,25,8,10 มิถุนายน 2561
169,169,67030196,อนุบาลบึงสามพัน(ซับสมอทอด),14,7,21,1,17,11,28,2,18,18,36,2,49,36,85,5,27,23,50,2,33,29,62,2,37,16,53,2,25,21,46,2,22,28,50,2,25,22,47,2,169,139,308,12,33,26,59,2,18,35,53,2,25,19,44,2,76,80,156,6,0,0,0,0,0,0,0,0,0,0,0,0,0,0,0,0,0,0,0,0,0,0,0,0,0,0,0,0,294,255,549,23,10 มิถุนายน 2561
170,170,67030197,บ้านตะกรุดหิน,3,2,5,1,2,4,6,1,0,6,6,1,5,12,17,3,2,2,4,1,3,0,3,1,1,0,1,1,4,2,6,1,6,2,8,1,1,4,5,1,17,10,27,6,0,0,0,0,0,0,0,0,0,0,0,0,0,0,0,0,0,0,0,0,0,0,0,0,0,0,0,0,0,0,0,0,0,0,0,0,0,0,0,0,0,0,0,0,22,22,44,9,10 มิถุนายน 2561
171,171,67030198,บ้านหินดาดน้อย,0,0,0,0,0,3,3,1,0,2,2,1,0,5,5,2,6,1,7,1,1,0,1,1,1,1,2,1,0,2,2,1,0,1,1,1,3,0,3,1,11,5,16,6,0,0,0,0,0,0,0,0,0,0,0,0,0,0,0,0,0,0,0,0,0,0,0,0,0,0,0,0,0,0,0,0,0,0,0,0,0,0,0,0,0,0,0,0,11,10,21,8,10 มิถุนายน 2561
172,172,67030200,บ้านบึงสามพัน,1,2,3,1,3,4,7,1,4,5,9,1,8,11,19,3,6,4,10,1,4,2,6,1,4,5,9,1,6,3,9,1,3,4,7,1,4,4,8,1,27,22,49,6,5,3,8,1,8,2,10,1,3,4,7,1,16,9,25,3,0,0,0,0,0,0,0,0,0,0,0,0,0,0,0,0,0,0,0,0,0,0,0,0,0,0,0,0,51,42,93,12,10 มิถุนายน 2561
173,173,67030201,บ้านทรัพย์เกษตร,0,1,1,1,2,5,7,1,12,4,16,1,14,10,24,3,5,3,8,1,3,3,6,1,4,3,7,1,5,3,8,1,3,5,8,1,5,4,9,1,25,21,46,6,4,1,5,1,1,1,2,1,6,2,8,1,11,4,15,3,0,0,0,0,0,0,0,0,0,0,0,0,0,0,0,0,0,0,0,0,0,0,0,0,0,0,0,0,50,35,85,12,10 มิถุนายน 2561
174,174,67030202,บ้านราหุล,0,0,0,0,20,12,32,1,7,15,22,1,27,27,54,2,18,12,30,1,9,9,18,1,17,7,24,1,13,16,29,1,18,11,29,1,16,18,34,1,91,73,164,6,14,14,28,1,17,13,30,1,16,14,30,1,47,41,88,3,0,0,0,0,0,0,0,0,0,0,0,0,0,0,0,0,0,0,0,0,0,0,0,0,0,0,0,0,165,141,306,11,10 มิถุนายน 2561
175,175,67030203,บ้านวังปลา,0,0,0,0,0,0,0,0,1,0,1,1,1,0,1,1,1,1,2,1,1,5,6,1,2,1,3,1,1,0,1,1,2,1,3,1,2,2,4,1,9,10,19,6,0,0,0,0,0,0,0,0,0,0,0,0,0,0,0,0,0,0,0,0,0,0,0,0,0,0,0,0,0,0,0,0,0,0,0,0,0,0,0,0,0,0,0,0,10,10,20,7,10 มิถุนายน 2561
176,176,67030204,บ้านซับสำราญเหนือ,0,0,0,0,4,8,12,1,4,5,9,1,8,13,21,2,5,2,7,1,5,3,8,1,6,3,9,1,3,4,7,1,6,6,12,1,1,2,3,1,26,20,46,6,0,0,0,0,0,0,0,0,0,0,0,0,0,0,0,0,0,0,0,0,0,0,0,0,0,0,0,0,0,0,0,0,0,0,0,0,0,0,0,0,0,0,0,0,34,33,67,8,10 มิถุนายน 2561
177,177,67030205,บ้านพญาวัง,12,8,20,1,10,8,18,1,7,14,21,1,29,30,59,3,10,11,21,1,12,13,25,1,16,10,26,1,11,6,17,1,8,7,15,1,7,9,16,1,64,56,120,6,9,6,15,1,14,7,21,1,14,14,28,1,37,27,64,3,0,0,0,0,0,0,0,0,0,0,0,0,0,0,0,0,0,0,0,0,0,0,0,0,0,0,0,0,130,113,243,12,10 มิถุนายน 2561
178,178,67030206,บ้านซับสามัคคี,0,0,0,0,1,4,5,1,5,4,9,1,6,8,14,2,7,4,11,1,3,4,7,1,4,5,9,1,4,3,7,1,7,3,10,1,1,4,5,1,26,23,49,6,0,0,0,0,0,0,0,0,0,0,0,0,0,0,0,0,0,0,0,0,0,0,0,0,0,0,0,0,0,0,0,0,0,0,0,0,0,0,0,0,0,0,0,0,32,31,63,8,10 มิถุนายน 2561
179,179,67030207,บ้านซับสำราญใต้,0,0,0,0,0,0,0,0,1,0,1,1,1,0,1,1,0,0,0,0,0,2,2,1,0,2,2,1,1,1,2,1,2,0,2,1,0,0,0,0,3,5,8,4,0,0,0,0,0,0,0,0,0,0,0,0,0,0,0,0,0,0,0,0,0,0,0,0,0,0,0,0,0,0,0,0,0,0,0,0,0,0,0,0,0,0,0,0,4,5,9,5,10 มิถุนายน 2561
180,180,67030208,บ้านเนินสมบูรณ์,3,2,5,1,2,2,4,1,2,1,3,1,7,5,12,3,2,2,4,1,1,1,2,1,1,4,5,1,3,1,4,1,4,3,7,1,5,2,7,1,16,13,29,6,0,0,0,0,0,0,0,0,0,0,0,0,0,0,0,0,0,0,0,0,0,0,0,0,0,0,0,0,0,0,0,0,0,0,0,0,0,0,0,0,0,0,0,0,23,18,41,9,10 มิถุนายน 2561
181,181,67030210,ชุมชนบ้านวังพิกุล,0,0,0,0,38,30,68,2,33,21,54,2,71,51,122,4,45,38,83,3,27,44,71,3,32,27,59,2,30,34,64,2,29,39,68,2,44,44,88,3,207,226,433,15,44,37,81,3,45,52,97,3,42,36,78,2,131,125,256,8,0,0,0,0,0,0,0,0,0,0,0,0,0,0,0,0,0,0,0,0,0,0,0,0,0,0,0,0,409,402,811,27,10 มิถุนายน 2561
182,182,67030211,บ้านโป่งบุญเจริญ,0,0,0,0,11,14,25,1,13,10,23,1,24,24,48,2,5,13,18,1,3,11,14,1,15,12,27,1,11,10,21,1,19,10,29,1,15,13,28,1,68,69,137,6,10,10,20,1,11,17,28,1,8,13,21,1,29,40,69,3,0,0,0,0,0,0,0,0,0,0,0,0,0,0,0,0,0,0,0,0,0,0,0,0,0,0,0,0,121,133,254,11,10 มิถุนายน 2561
183,183,67030212,บ้านห้วยทราย,0,0,0,0,10,3,13,1,9,9,18,1,19,12,31,2,9,5,14,1,5,0,5,1,8,6,14,1,5,4,9,1,6,6,12,1,3,3,6,1,36,24,60,6,4,2,6,1,5,4,9,1,8,8,16,1,17,14,31,3,0,0,0,0,0,0,0,0,0,0,0,0,0,0,0,0,0,0,0,0,0,0,0,0,0,0,0,0,72,50,122,11,10 มิถุนายน 2561
184,184,67030214,บ้านศรีมงคล,7,7,14,1,2,10,12,1,6,4,10,1,15,21,36,3,11,8,19,1,13,14,27,1,13,14,27,1,12,10,22,1,19,15,34,1,12,11,23,1,80,72,152,6,0,0,0,0,0,0,0,0,0,0,0,0,0,0,0,0,0,0,0,0,0,0,0,0,0,0,0,0,0,0,0,0,0,0,0,0,0,0,0,0,0,0,0,0,95,93,188,9,10 มิถุนายน 2561
185,185,67030215,บ้านพนมเพชร,0,0,0,0,5,5,10,1,2,7,9,1,7,12,19,2,4,5,9,1,6,3,9,1,1,2,3,1,4,4,8,1,3,1,4,1,3,2,5,1,21,17,38,6,0,0,0,0,0,0,0,0,0,0,0,0,0,0,0,0,0,0,0,0,0,0,0,0,0,0,0,0,0,0,0,0,0,0,0,0,0,0,0,0,0,0,0,0,28,29,57,8,10 มิถุนายน 2561
186,186,67030218,บ้านยางสาว,0,0,0,0,0,0,0,0,1,2,3,1,1,2,3,1,0,2,2,1,1,3,4,1,2,0,2,1,1,1,2,1,2,1,3,1,1,3,4,1,7,10,17,6,0,0,0,0,0,0,0,0,0,0,0,0,0,0,0,0,0,0,0,0,0,0,0,0,0,0,0,0,0,0,0,0,0,0,0,0,0,0,0,0,0,0,0,0,8,12,20,7,10 มิถุนายน 2561
187,187,67030219,บ้านเขาพลวง,8,13,21,1,4,9,13,1,5,4,9,1,17,26,43,3,12,7,19,1,9,8,17,1,9,7,16,1,4,8,12,1,7,3,10,1,13,5,18,1,54,38,92,6,6,6,12,1,13,13,26,1,10,7,17,1,29,26,55,3,0,0,0,0,0,0,0,0,0,0,0,0,0,0,0,0,0,0,0,0,0,0,0,0,0,0,0,0,100,90,190,12,10 มิถุนายน 2561
188,188,67030220,บ้านสระแก้ว,0,0,0,0,1,0,1,1,3,4,7,1,4,4,8,2,1,1,2,1,0,0,0,0,0,3,3,1,1,1,2,1,3,5,8,1,1,3,4,1,6,13,19,5,0,0,0,0,0,0,0,0,0,0,0,0,0,0,0,0,0,0,0,0,0,0,0,0,0,0,0,0,0,0,0,0,0,0,0,0,0,0,0,0,0,0,0,0,10,17,27,7,10 มิถุนายน 2561
189,189,67030221,บ้านวังไลย์,0,0,0,0,4,3,7,1,5,5,10,1,9,8,17,2,10,4,14,1,2,3,5,1,5,3,8,1,4,4,8,1,4,3,7,1,9,4,13,1,34,21,55,6,6,5,11,1,6,6,12,1,8,1,9,1,20,12,32,3,0,0,0,0,0,0,0,0,0,0,0,0,0,0,0,0,0,0,0,0,0,0,0,0,0,0,0,0,63,41,104,11,10 มิถุนายน 2561
190,190,67030222,บ้านคลองตะคร้อ,1,5,6,1,5,4,9,1,8,3,11,1,14,12,26,3,6,4,10,1,6,5,11,1,5,4,9,1,5,8,13,1,0,3,3,1,5,4,9,1,27,28,55,6,0,0,0,0,0,0,0,0,0,0,0,0,0,0,0,0,0,0,0,0,0,0,0,0,0,0,0,0,0,0,0,0,0,0,0,0,0,0,0,0,0,0,0,0,41,40,81,9,10 มิถุนายน 2561
191,191,67030223,วัดเขาเจริญธรรม,5,8,13,1,9,2,11,1,7,3,10,1,21,13,34,3,2,3,5,1,3,5,8,1,5,4,9,1,12,5,17,1,2,6,8,1,5,4,9,1,29,27,56,6,5,4,9,1,11,0,11,1,8,7,15,1,24,11,35,3,0,0,0,0,0,0,0,0,0,0,0,0,0,0,0,0,0,0,0,0,0,0,0,0,0,0,0,0,74,51,125,12,10 มิถุนายน 2561
192,192,67030225,บ้านหนองแจง,0,0,0,0,5,7,12,1,7,3,10,1,12,10,22,2,4,4,8,1,7,1,8,1,8,4,12,1,8,6,14,1,9,6,15,1,7,7,14,1,43,28,71,6,13,7,20,1,9,9,18,1,12,10,22,1,34,26,60,3,0,0,0,0,0,0,0,0,0,0,0,0,0,0,0,0,0,0,0,0,0,0,0,0,0,0,0,0,89,64,153,11,10 มิถุนายน 2561
193,193,67030226,บ้านหนองชุมแสง,1,4,5,1,1,3,4,1,9,7,16,1,11,14,25,3,2,6,8,1,5,3,8,1,7,5,12,1,7,11,18,1,7,14,21,1,8,3,11,1,36,42,78,6,2,8,10,1,9,6,15,1,7,7,14,1,18,21,39,3,0,0,0,0,0,0,0,0,0,0,0,0,0,0,0,0,0,0,0,0,0,0,0,0,0,0,0,0,65,77,142,12,10 มิถุนายน 2561
