,0,1,2,3,4,5,6,7,8,9,10,11,12,13,14,15,16,17,18,19,20,21,22,23,24,25,26,27,28,29,30,31,32,33,34,35,36,37,38,39,40,41,42,43,44,45,46,47,48,49,50,51,52,53,54,55,56,57,58,59,60,61,62,63,64,65,66,67,68,69,70,71,72,73,74,75,76,77,78,79,80,81,82,83,84,85,86,87,88,89,90,91,92,93,94,95
0,ลำดับ,รหัส SMIS,โรงเรียน,อ.3 ขวบ ชาย,อ.3 ขวบ หญิง,รวมอ.3 ขวบ,อ.3 ขวบ ห้อง,อ.1 ชาย,อ.1 หญิง,รวมอ.1,อ.1 ห้อง,อ.2 ชาย,อ.2 หญิง,รวมอ.2,อ.2 ห้อง,รวมก่อนประถม ชาย,รวมก่อนประถม หญิง,รวมก่อนประถม,รวมห้องก่อนประถม,ป.1 ชาย,ป.1 หญิง,รวมป.1,ป.1 ห้อง,ป.2 ชาย,ป.2 หญิง,รวมป.2,ป.2 ห้อง,ป.3 ชาย,ป.3 หญิง,รวมป.3,ป.3 ห้อง,ป.4 ชาย,ป.4 หญิง,รวมป.4,ป.4 ห้อง,ป.5 ชาย,ป.5 หญิง,รวมป.5,ป.5 ห้อง,ป.6 ชาย,ป.6 หญิง,รวมป.6,ป.6 ห้อง,รวมประถม ชาย,รวมประถม หญิง,รวมประถม,รวมห้องประถม,ม.1 ชาย,ม.1 หญิง,รวมม.1,ม.1 ห้อง,ม.2 ชาย,ม.2 หญิง,รวมม.2,ม.2 ห้อง,ม.3 ชาย,ม.3 หญิง,รวมม.3,ม.3 ห้อง,รวมม.ต้น ชาย,รวมม.ต้น หญิง,รวมม.ต้น,รวมห้องม.ต้น,ม.4 ชาย,ม.4 หญิง,รวมม.4,ม.4 ห้อง,ม.5 ชาย,ม.5 หญิง,รวมม.5,ม.5 ห้อง,ม.6 ชาย,ม.6 หญิง,รวมม.6,ม.6 ห้อง,ปวช.1 ชาย,ปวช.1 หญิง,รวมปวช.1,ปวช.1 ห้อง,ปวช.2 ชาย,ปวช.2 หญิง,รวมปวช.2,ปวช.2 ห้อง,ปวช.3 ชาย,ปวช.3 หญิง,รวมปวช.3,ปวช.3 ห้อง,รวมม.ปลายและเทียบเท่า ชาย,รวมม.ปลายและเทียบเท่า หญิง,รวมม.ปลายและเทียบเท่า,รวมห้องม.ปลายและเทียบเท่า,รวมทั้งหมด ชาย,รวมทั้งหมด หญิง,รวมทั้งหมด,รวมห้องทั้งหมด,ข้อมูล ณ วันที่
1,1,73020001,วัดประชานาถ,0,0,0,0,15,14,29,1,9,15,24,1,24,29,53,2,14,3,17,1,11,13,24,1,10,10,20,1,10,16,26,1,13,14,27,1,15,17,32,1,73,73,146,6,0,0,0,0,0,0,0,0,0,0,0,0,0,0,0,0,0,0,0,0,0,0,0,0,0,0,0,0,0,0,0,0,0,0,0,0,0,0,0,0,0,0,0,0,97,102,199,8,10 มิถุนายน 2561
2,2,73020002,วัดสว่างอารมณ์,0,0,0,0,13,15,28,1,2,9,11,1,15,24,39,2,4,8,12,1,14,7,21,1,9,9,18,1,9,8,17,1,10,9,19,1,14,16,30,1,60,57,117,6,0,0,0,0,0,0,0,0,0,0,0,0,0,0,0,0,0,0,0,0,0,0,0,0,0,0,0,0,0,0,0,0,0,0,0,0,0,0,0,0,0,0,0,0,75,81,156,8,10 มิถุนายน 2561
3,3,73020003,วัดโคกพระเจดีย์,0,0,0,0,12,4,16,1,16,13,29,1,28,17,45,2,12,8,20,1,15,11,26,1,14,11,25,1,8,8,16,1,24,20,44,1,19,15,34,1,92,73,165,6,14,7,21,1,7,13,20,1,14,8,22,1,35,28,63,3,0,0,0,0,0,0,0,0,0,0,0,0,0,0,0,0,0,0,0,0,0,0,0,0,0,0,0,0,155,118,273,11,10 มิถุนายน 2561
4,4,73020004,วัดงิ้วราย,0,0,0,0,6,6,12,1,8,10,18,1,14,16,30,2,18,20,38,1,12,13,25,1,19,9,28,1,15,11,26,1,6,12,18,1,5,15,20,1,75,80,155,6,0,0,0,0,0,0,0,0,0,0,0,0,0,0,0,0,0,0,0,0,0,0,0,0,0,0,0,0,0,0,0,0,0,0,0,0,0,0,0,0,0,0,0,0,89,96,185,8,10 มิถุนายน 2561
5,5,73020005,บ้านคลองบางกระจัน,0,0,0,0,4,3,7,1,1,3,4,1,5,6,11,2,8,4,12,1,5,3,8,1,0,1,1,1,4,4,8,1,0,0,0,0,2,2,4,1,19,14,33,5,0,0,0,0,0,0,0,0,0,0,0,0,0,0,0,0,0,0,0,0,0,0,0,0,0,0,0,0,0,0,0,0,0,0,0,0,0,0,0,0,0,0,0,0,24,20,44,7,10 มิถุนายน 2561
6,6,73020006,วัดไทร,0,0,0,0,19,22,41,2,22,29,51,2,41,51,92,4,26,24,50,2,27,18,45,2,20,34,54,2,22,19,41,2,24,25,49,2,20,33,53,2,139,153,292,12,0,0,0,0,0,0,0,0,0,0,0,0,0,0,0,0,0,0,0,0,0,0,0,0,0,0,0,0,0,0,0,0,0,0,0,0,0,0,0,0,0,0,0,0,180,204,384,16,10 มิถุนายน 2561
7,7,73020007,คลองทางหลวง,0,0,0,0,7,11,18,1,12,3,15,1,19,14,33,2,6,10,16,1,14,7,21,1,10,9,19,1,16,12,28,1,10,12,22,1,6,12,18,1,62,62,124,6,0,0,0,0,0,0,0,0,0,0,0,0,0,0,0,0,0,0,0,0,0,0,0,0,0,0,0,0,0,0,0,0,0,0,0,0,0,0,0,0,0,0,0,0,81,76,157,8,10 มิถุนายน 2561
8,8,73020008,วัดท่าตำหนัก,14,16,30,1,13,27,40,2,29,19,48,2,56,62,118,5,26,26,52,2,30,26,56,2,29,23,52,2,25,25,50,2,29,30,59,2,30,25,55,2,169,155,324,12,0,0,0,0,0,0,0,0,0,0,0,0,0,0,0,0,0,0,0,0,0,0,0,0,0,0,0,0,0,0,0,0,0,0,0,0,0,0,0,0,0,0,0,0,225,217,442,17,10 มิถุนายน 2561
9,9,73020009,วัดน้อย,0,0,0,0,9,9,18,1,7,11,18,1,16,20,36,2,20,18,38,1,6,8,14,1,14,4,18,1,11,11,22,1,5,4,9,1,11,2,13,1,67,47,114,6,0,0,0,0,0,0,0,0,0,0,0,0,0,0,0,0,0,0,0,0,0,0,0,0,0,0,0,0,0,0,0,0,0,0,0,0,0,0,0,0,0,0,0,0,83,67,150,8,10 มิถุนายน 2561
10,10,73020010,วัดไทยาวาส,0,0,0,0,4,7,11,1,8,12,20,1,12,19,31,2,13,2,15,1,5,2,7,1,9,4,13,1,12,1,13,1,8,7,15,1,13,4,17,1,60,20,80,6,0,0,0,0,0,0,0,0,0,0,0,0,0,0,0,0,0,0,0,0,0,0,0,0,0,0,0,0,0,0,0,0,0,0,0,0,0,0,0,0,0,0,0,0,72,39,111,8,10 มิถุนายน 2561
11,11,73020011,วัดกลางบางแก้ว,15,11,26,2,54,42,96,4,71,47,118,4,140,100,240,10,57,50,107,3,50,47,97,3,48,55,103,3,53,44,97,3,46,44,90,3,54,43,97,3,308,283,591,18,0,0,0,0,0,0,0,0,0,0,0,0,0,0,0,0,0,0,0,0,0,0,0,0,0,0,0,0,0,0,0,0,0,0,0,0,0,0,0,0,0,0,0,0,448,383,831,28,10 มิถุนายน 2561
12,12,73020012,วัดตุ๊กตา,0,0,0,0,20,22,42,2,21,19,40,2,41,41,82,4,33,21,54,2,15,25,40,1,23,15,38,1,16,18,34,1,17,8,25,1,10,21,31,1,114,108,222,7,0,0,0,0,0,0,0,0,0,0,0,0,0,0,0,0,0,0,0,0,0,0,0,0,0,0,0,0,0,0,0,0,0,0,0,0,0,0,0,0,0,0,0,0,155,149,304,11,10 มิถุนายน 2561
13,13,73020013,วัดบางพระ,0,0,0,0,9,9,18,1,8,12,20,1,17,21,38,2,10,8,18,1,10,9,19,1,11,11,22,1,11,12,23,1,13,8,21,1,7,10,17,1,62,58,120,6,10,6,16,1,27,17,44,1,15,10,25,1,52,33,85,3,0,0,0,0,0,0,0,0,0,0,0,0,0,0,0,0,0,0,0,0,0,0,0,0,0,0,0,0,131,112,243,11,10 มิถุนายน 2561
14,14,73020014,วัดกลาง,3,4,7,1,9,5,14,1,10,6,16,1,22,15,37,3,4,6,10,1,10,4,14,1,11,8,19,1,9,7,16,1,8,5,13,1,13,8,21,1,55,38,93,6,0,0,0,0,0,0,0,0,0,0,0,0,0,0,0,0,0,0,0,0,0,0,0,0,0,0,0,0,0,0,0,0,0,0,0,0,0,0,0,0,0,0,0,0,77,53,130,9,10 มิถุนายน 2561
15,15,73020015,วัดบ่อตะกั่ว,0,0,0,0,13,7,20,1,7,9,16,1,20,16,36,2,8,8,16,1,6,5,11,1,11,10,21,1,9,11,20,1,5,7,12,1,14,4,18,1,53,45,98,6,0,0,0,0,0,0,0,0,0,0,0,0,0,0,0,0,0,0,0,0,0,0,0,0,0,0,0,0,0,0,0,0,0,0,0,0,0,0,0,0,0,0,0,0,73,61,134,8,10 มิถุนายน 2561
16,16,73020016,วัดห้วยตะโก,0,0,0,0,12,8,20,1,15,8,23,1,27,16,43,2,11,7,18,1,6,5,11,1,8,5,13,1,9,11,20,1,9,9,18,1,6,7,13,1,49,44,93,6,0,0,0,0,0,0,0,0,0,0,0,0,0,0,0,0,0,0,0,0,0,0,0,0,0,0,0,0,0,0,0,0,0,0,0,0,0,0,0,0,0,0,0,0,76,60,136,8,10 มิถุนายน 2561
17,17,73020017,วัดลานตากฟ้า,0,0,0,0,17,19,36,2,26,15,41,2,43,34,77,4,25,19,44,2,17,16,33,1,18,19,37,1,16,27,43,1,18,24,42,1,20,18,38,1,114,123,237,7,0,0,0,0,0,0,0,0,0,0,0,0,0,0,0,0,0,0,0,0,0,0,0,0,0,0,0,0,0,0,0,0,0,0,0,0,0,0,0,0,0,0,0,0,157,157,314,11,10 มิถุนายน 2561
18,18,73020018,วัดพุทธธรรมรังษี,0,0,0,0,11,7,18,1,12,14,26,1,23,21,44,2,14,12,26,1,9,7,16,1,14,11,25,1,12,8,20,1,10,8,18,1,5,7,12,1,64,53,117,6,0,0,0,0,0,0,0,0,0,0,0,0,0,0,0,0,0,0,0,0,0,0,0,0,0,0,0,0,0,0,0,0,0,0,0,0,0,0,0,0,0,0,0,0,87,74,161,8,10 มิถุนายน 2561
19,19,73020019,วัดสัมปทวน,0,0,0,0,3,2,5,1,4,10,14,1,7,12,19,2,14,6,20,1,6,6,12,1,3,5,8,1,9,3,12,1,1,8,9,1,4,5,9,1,37,33,70,6,0,0,0,0,0,0,0,0,0,0,0,0,0,0,0,0,0,0,0,0,0,0,0,0,0,0,0,0,0,0,0,0,0,0,0,0,0,0,0,0,0,0,0,0,44,45,89,8,10 มิถุนายน 2561
20,20,73020020,วัดละมุด,0,0,0,0,8,9,17,1,14,13,27,1,22,22,44,2,10,7,17,1,14,3,17,1,10,3,13,1,9,6,15,1,9,8,17,1,11,9,20,1,63,36,99,6,0,0,0,0,0,0,0,0,0,0,0,0,0,0,0,0,0,0,0,0,0,0,0,0,0,0,0,0,0,0,0,0,0,0,0,0,0,0,0,0,0,0,0,0,85,58,143,8,10 มิถุนายน 2561
21,21,73020021,บ้านลานแหลม,0,0,0,0,6,9,15,1,10,6,16,1,16,15,31,2,8,13,21,1,9,1,10,1,6,9,15,1,13,13,26,1,3,6,9,1,6,9,15,1,45,51,96,6,0,0,0,0,0,0,0,0,0,0,0,0,0,0,0,0,0,0,0,0,0,0,0,0,0,0,0,0,0,0,0,0,0,0,0,0,0,0,0,0,0,0,0,0,61,66,127,8,10 มิถุนายน 2561
22,22,73020022,วัดใหม่สุคนธาราม (ปิ่นรัตนราษฎร์),0,0,0,0,15,15,30,1,22,9,31,1,37,24,61,2,17,11,28,1,19,15,34,1,19,16,35,1,11,11,22,1,10,18,28,1,14,16,30,1,90,87,177,6,0,0,0,0,0,0,0,0,0,0,0,0,0,0,0,0,0,0,0,0,0,0,0,0,0,0,0,0,0,0,0,0,0,0,0,0,0,0,0,0,0,0,0,0,127,111,238,8,10 มิถุนายน 2561
23,23,73020023,วัดสำโรง,0,0,0,0,4,4,8,1,8,9,17,1,12,13,25,2,6,6,12,1,6,3,9,1,10,6,16,1,5,5,10,1,5,3,8,1,4,1,5,1,36,24,60,6,0,0,0,0,0,0,0,0,0,0,0,0,0,0,0,0,0,0,0,0,0,0,0,0,0,0,0,0,0,0,0,0,0,0,0,0,0,0,0,0,0,0,0,0,48,37,85,8,10 มิถุนายน 2561
24,24,73020024,โรงเรียนวัดศรีมหาโพธิ์,0,0,0,0,15,15,30,1,27,17,44,2,42,32,74,3,21,9,30,1,18,19,37,1,19,17,36,1,16,21,37,1,20,18,38,1,13,22,35,1,107,106,213,6,14,22,36,1,20,22,42,1,13,12,25,1,47,56,103,3,0,0,0,0,0,0,0,0,0,0,0,0,0,0,0,0,0,0,0,0,0,0,0,0,0,0,0,0,196,194,390,12,10 มิถุนายน 2561
25,25,73020025,วัดศีรษะทอง,0,0,0,0,20,21,41,1,12,18,30,1,32,39,71,2,14,17,31,1,13,14,27,1,23,16,39,1,26,18,44,1,16,8,24,1,20,9,29,1,112,82,194,6,15,15,30,1,18,8,26,1,20,10,30,1,53,33,86,3,0,0,0,0,0,0,0,0,0,0,0,0,0,0,0,0,0,0,0,0,0,0,0,0,0,0,0,0,197,154,351,11,10 มิถุนายน 2561
26,26,73020026,วัดเสถียรรัตนาราม,0,0,0,0,2,0,2,1,5,0,5,1,7,0,7,2,4,7,11,1,3,3,6,1,2,3,5,1,1,3,4,1,2,6,8,1,4,3,7,1,16,25,41,6,0,0,0,0,0,0,0,0,0,0,0,0,0,0,0,0,0,0,0,0,0,0,0,0,0,0,0,0,0,0,0,0,0,0,0,0,0,0,0,0,0,0,0,0,23,25,48,8,10 มิถุนายน 2561
27,27,73020027,วัดกลางครูเวียง,0,0,0,0,8,9,17,1,12,7,19,1,20,16,36,2,9,5,14,1,5,9,14,1,10,16,26,1,12,10,22,1,6,10,16,1,13,9,22,1,55,59,114,6,0,0,0,0,0,0,0,0,0,0,0,0,0,0,0,0,0,0,0,0,0,0,0,0,0,0,0,0,0,0,0,0,0,0,0,0,0,0,0,0,0,0,0,0,75,75,150,8,10 มิถุนายน 2561
28,28,73020028,วัดกกตาล,0,0,0,0,7,7,14,1,14,17,31,1,21,24,45,2,8,12,20,1,15,11,26,1,12,8,20,1,10,12,22,1,7,11,18,1,7,7,14,1,59,61,120,6,0,0,0,0,0,0,0,0,0,0,0,0,0,0,0,0,0,0,0,0,0,0,0,0,0,0,0,0,0,0,0,0,0,0,0,0,0,0,0,0,0,0,0,0,80,85,165,8,10 มิถุนายน 2561
29,29,73020030,บ้านห้วยพลู,5,7,12,1,13,12,25,1,11,9,20,1,29,28,57,3,10,6,16,1,6,8,14,1,4,4,8,1,5,4,9,1,5,8,13,1,2,3,5,1,32,33,65,6,0,0,0,0,0,0,0,0,0,0,0,0,0,0,0,0,0,0,0,0,0,0,0,0,0,0,0,0,0,0,0,0,0,0,0,0,0,0,0,0,0,0,0,0,61,61,122,9,10 มิถุนายน 2561
30,30,73020031,วัดท้องไทร,0,0,0,0,10,8,18,1,9,8,17,1,19,16,35,2,8,11,19,1,5,11,16,1,14,11,25,1,9,9,18,1,4,5,9,1,11,9,20,1,51,56,107,6,0,0,0,0,0,0,0,0,0,0,0,0,0,0,0,0,0,0,0,0,0,0,0,0,0,0,0,0,0,0,0,0,0,0,0,0,0,0,0,0,0,0,0,0,70,72,142,8,10 มิถุนายน 2561
31,31,73020032,บ้านห้วยกรด,0,0,0,0,4,4,8,1,5,7,12,1,9,11,20,2,11,7,18,1,8,5,13,1,9,5,14,1,3,6,9,1,5,5,10,1,11,13,24,1,47,41,88,6,0,0,0,0,0,0,0,0,0,0,0,0,0,0,0,0,0,0,0,0,0,0,0,0,0,0,0,0,0,0,0,0,0,0,0,0,0,0,0,0,0,0,0,0,56,52,108,8,10 มิถุนายน 2561
32,32,73020033,วัดโคกเขมา,0,0,0,0,9,9,18,1,12,15,27,1,21,24,45,2,14,7,21,1,11,15,26,1,9,11,20,1,9,6,15,1,12,10,22,1,10,7,17,1,65,56,121,6,0,0,0,0,0,0,0,0,0,0,0,0,0,0,0,0,0,0,0,0,0,0,0,0,0,0,0,0,0,0,0,0,0,0,0,0,0,0,0,0,0,0,0,0,86,80,166,8,10 มิถุนายน 2561
33,33,73020034,วัดทุ่งน้อย,0,0,0,0,3,7,10,1,5,6,11,1,8,13,21,2,7,8,15,1,7,6,13,1,8,5,13,1,10,7,17,1,7,5,12,1,7,4,11,1,46,35,81,6,0,0,0,0,0,0,0,0,0,0,0,0,0,0,0,0,0,0,0,0,0,0,0,0,0,0,0,0,0,0,0,0,0,0,0,0,0,0,0,0,0,0,0,0,54,48,102,8,10 มิถุนายน 2561
34,34,73020035,วัดบางภาษี,0,0,0,0,5,6,11,1,5,5,10,1,10,11,21,2,11,7,18,1,11,2,13,1,6,5,11,1,2,7,9,1,6,3,9,1,6,6,12,1,42,30,72,6,0,0,0,0,0,0,0,0,0,0,0,0,0,0,0,0,0,0,0,0,0,0,0,0,0,0,0,0,0,0,0,0,0,0,0,0,0,0,0,0,0,0,0,0,52,41,93,8,10 มิถุนายน 2561
35,35,73020036,บ้านคลองนกกระทุง,0,0,0,0,2,1,3,1,0,2,2,1,2,3,5,2,1,1,2,1,0,2,2,1,1,2,3,1,3,5,8,1,2,2,4,1,2,0,2,1,9,12,21,6,0,0,0,0,0,0,0,0,0,0,0,0,0,0,0,0,0,0,0,0,0,0,0,0,0,0,0,0,0,0,0,0,0,0,0,0,0,0,0,0,0,0,0,0,11,15,26,8,10 มิถุนายน 2561
36,36,73020037,วัดลานคา,10,10,20,1,15,14,29,1,8,8,16,1,33,32,65,3,12,13,25,1,12,12,24,1,17,13,30,1,13,16,29,1,18,11,29,1,22,15,37,2,94,80,174,7,17,18,35,1,21,14,35,1,25,10,35,1,63,42,105,3,0,0,0,0,0,0,0,0,0,0,0,0,0,0,0,0,0,0,0,0,0,0,0,0,0,0,0,0,190,154,344,13,10 มิถุนายน 2561
37,37,73020038,วัดดอนยอ,10,6,16,1,13,3,16,1,10,5,15,1,33,14,47,3,17,11,28,1,7,10,17,1,11,11,22,1,11,12,23,1,14,6,20,1,12,10,22,1,72,60,132,6,0,0,0,0,0,0,0,0,0,0,0,0,0,0,0,0,0,0,0,0,0,0,0,0,0,0,0,0,0,0,0,0,0,0,0,0,0,0,0,0,0,0,0,0,105,74,179,9,10 มิถุนายน 2561
38,38,73020039,วัดลาดสะแก,0,0,0,0,6,8,14,1,6,4,10,1,12,12,24,2,6,6,12,1,3,2,5,1,5,2,7,1,4,2,6,1,7,4,11,1,4,1,5,1,29,17,46,6,0,0,0,0,0,0,0,0,0,0,0,0,0,0,0,0,0,0,0,0,0,0,0,0,0,0,0,0,0,0,0,0,0,0,0,0,0,0,0,0,0,0,0,0,41,29,70,8,10 มิถุนายน 2561
39,39,73020040,วัดไผ่สามตำลึง,0,0,0,0,2,3,5,1,4,1,5,1,6,4,10,2,2,3,5,1,4,2,6,1,1,2,3,1,5,4,9,1,3,1,4,1,2,4,6,1,17,16,33,6,0,0,0,0,0,0,0,0,0,0,0,0,0,0,0,0,0,0,0,0,0,0,0,0,0,0,0,0,0,0,0,0,0,0,0,0,0,0,0,0,0,0,0,0,23,20,43,8,10 มิถุนายน 2561
40,40,73020041,วัดโพธิ์,0,0,0,0,14,17,31,1,20,17,37,1,34,34,68,2,23,13,36,1,17,17,34,1,12,10,22,1,19,17,36,1,14,16,30,1,14,12,26,1,99,85,184,6,22,13,35,1,24,13,37,1,19,12,31,1,65,38,103,3,0,0,0,0,0,0,0,0,0,0,0,0,0,0,0,0,0,0,0,0,0,0,0,0,0,0,0,0,198,157,355,11,10 มิถุนายน 2561
41,41,73020042,วัดไผ่จรเข้,0,0,0,0,2,1,3,1,1,4,5,1,3,5,8,2,2,3,5,1,0,1,1,1,0,1,1,1,0,1,1,1,3,4,7,1,5,0,5,1,10,10,20,6,0,0,0,0,0,0,0,0,0,0,0,0,0,0,0,0,0,0,0,0,0,0,0,0,0,0,0,0,0,0,0,0,0,0,0,0,0,0,0,0,0,0,0,0,13,15,28,8,10 มิถุนายน 2561
42,42,73020043,วัดเกษตราราม,0,0,0,0,6,1,7,1,5,5,10,1,11,6,17,2,7,7,14,1,8,5,13,1,4,6,10,1,1,2,3,1,7,5,12,1,5,4,9,1,32,29,61,6,0,0,0,0,0,0,0,0,0,0,0,0,0,0,0,0,0,0,0,0,0,0,0,0,0,0,0,0,0,0,0,0,0,0,0,0,0,0,0,0,0,0,0,0,43,35,78,8,10 มิถุนายน 2561
43,43,73020044,วัดพระมอพิสัย,0,0,0,0,11,4,15,1,9,4,13,1,20,8,28,2,6,6,12,1,5,13,18,1,6,4,10,1,9,11,20,1,8,8,16,1,5,6,11,1,39,48,87,6,0,0,0,0,0,0,0,0,0,0,0,0,0,0,0,0,0,0,0,0,0,0,0,0,0,0,0,0,0,0,0,0,0,0,0,0,0,0,0,0,0,0,0,0,59,56,115,8,10 มิถุนายน 2561
44,44,73020045,บ้านนราภิรมย์,0,0,0,0,2,5,7,1,6,3,9,1,8,8,16,2,6,5,11,1,6,6,12,1,4,5,9,1,7,2,9,1,3,6,9,1,6,3,9,1,32,27,59,6,0,0,0,0,0,0,0,0,0,0,0,0,0,0,0,0,0,0,0,0,0,0,0,0,0,0,0,0,0,0,0,0,0,0,0,0,0,0,0,0,0,0,0,0,40,35,75,8,10 มิถุนายน 2561
45,45,73020046,วัดสว่างอารมณ์,0,0,0,0,6,4,10,1,5,6,11,1,11,10,21,2,7,1,8,1,6,3,9,1,9,8,17,1,6,1,7,1,6,3,9,1,4,0,4,1,38,16,54,6,0,0,0,0,0,0,0,0,0,0,0,0,0,0,0,0,0,0,0,0,0,0,0,0,0,0,0,0,0,0,0,0,0,0,0,0,0,0,0,0,0,0,0,0,49,26,75,8,10 มิถุนายน 2561
46,46,73020047,วัดนราภิรมย์,6,14,20,1,21,27,48,2,39,29,68,2,66,70,136,5,34,35,69,2,33,27,60,2,28,29,57,2,38,27,65,2,31,23,54,2,32,24,56,2,196,165,361,12,26,25,51,2,29,25,54,2,19,16,35,1,74,66,140,5,0,0,0,0,0,0,0,0,0,0,0,0,0,0,0,0,0,0,0,0,0,0,0,0,0,0,0,0,336,301,637,22,10 มิถุนายน 2561
47,47,73020048,วัดนิลเพชร,0,0,0,0,12,12,24,1,12,6,18,1,24,18,42,2,17,12,29,1,8,12,20,1,12,6,18,1,13,6,19,1,4,10,14,1,7,5,12,1,61,51,112,6,0,0,0,0,0,0,0,0,0,0,0,0,0,0,0,0,0,0,0,0,0,0,0,0,0,0,0,0,0,0,0,0,0,0,0,0,0,0,0,0,0,0,0,0,85,69,154,8,10 มิถุนายน 2561
48,48,73020049,วัดบัวปากท่า,7,11,18,1,10,8,18,1,10,8,18,1,27,27,54,3,8,13,21,1,7,6,13,1,8,6,14,1,5,13,18,1,5,6,11,1,10,7,17,1,43,51,94,6,0,0,0,0,0,0,0,0,0,0,0,0,0,0,0,0,0,0,0,0,0,0,0,0,0,0,0,0,0,0,0,0,0,0,0,0,0,0,0,0,0,0,0,0,70,78,148,9,10 มิถุนายน 2561
49,49,73020050,บ้านหนองปรงกาญจนา,0,0,0,0,1,1,2,1,0,1,1,1,1,2,3,2,1,2,3,1,0,1,1,1,0,2,2,1,1,1,2,1,3,3,6,1,1,4,5,1,6,13,19,6,0,0,0,0,0,0,0,0,0,0,0,0,0,0,0,0,0,0,0,0,0,0,0,0,0,0,0,0,0,0,0,0,0,0,0,0,0,0,0,0,0,0,0,0,7,15,22,8,10 มิถุนายน 2561
50,50,73020051,วัดบอนใหญ่,0,0,0,0,0,1,1,1,0,0,0,0,0,1,1,1,0,4,4,1,1,1,2,1,2,1,3,1,0,2,2,1,0,3,3,1,0,1,1,1,3,12,15,6,0,0,0,0,0,0,0,0,0,0,0,0,0,0,0,0,0,0,0,0,0,0,0,0,0,0,0,0,0,0,0,0,0,0,0,0,0,0,0,0,0,0,0,0,3,13,16,7,10 มิถุนายน 2561
51,51,73020052,ตลาดเจริญสุข,6,1,7,1,10,8,18,1,7,4,11,1,23,13,36,3,6,6,12,1,9,5,14,1,7,5,12,1,4,6,10,1,7,11,18,1,10,12,22,1,43,45,88,6,0,0,0,0,0,0,0,0,0,0,0,0,0,0,0,0,0,0,0,0,0,0,0,0,0,0,0,0,0,0,0,0,0,0,0,0,0,0,0,0,0,0,0,0,66,58,124,9,10 มิถุนายน 2561
52,52,73020053,วัดบัวหวั่น,0,0,0,0,7,10,17,1,14,6,20,1,21,16,37,2,12,3,15,1,7,7,14,1,10,9,19,1,10,11,21,1,10,13,23,1,8,5,13,1,57,48,105,6,0,0,0,0,0,0,0,0,0,0,0,0,0,0,0,0,0,0,0,0,0,0,0,0,0,0,0,0,0,0,0,0,0,0,0,0,0,0,0,0,0,0,0,0,78,64,142,8,10 มิถุนายน 2561
53,53,73020054,วัดบางไผ่นารถ,0,0,0,0,6,8,14,1,11,13,24,1,17,21,38,2,12,9,21,1,12,7,19,1,6,13,19,1,8,7,15,1,6,7,13,1,7,7,14,1,51,50,101,6,0,0,0,0,0,0,0,0,0,0,0,0,0,0,0,0,0,0,0,0,0,0,0,0,0,0,0,0,0,0,0,0,0,0,0,0,0,0,0,0,0,0,0,0,68,71,139,8,10 มิถุนายน 2561
54,54,73020055,วัดผาสุการาม,0,0,0,0,4,5,9,1,2,6,8,1,6,11,17,2,8,4,12,1,7,9,16,1,12,10,22,1,15,7,22,1,9,7,16,1,11,11,22,1,62,48,110,6,0,0,0,0,0,0,0,0,0,0,0,0,0,0,0,0,0,0,0,0,0,0,0,0,0,0,0,0,0,0,0,0,0,0,0,0,0,0,0,0,0,0,0,0,68,59,127,8,10 มิถุนายน 2561
55,55,73020056,วัดบางปลา,3,5,8,1,4,10,14,1,3,4,7,1,10,19,29,3,4,8,12,1,10,4,14,1,5,10,15,1,2,9,11,1,7,6,13,1,14,5,19,1,42,42,84,6,17,9,26,1,12,9,21,1,13,8,21,1,42,26,68,3,0,0,0,0,0,0,0,0,0,0,0,0,0,0,0,0,0,0,0,0,0,0,0,0,0,0,0,0,94,87,181,12,10 มิถุนายน 2561
56,56,73020057,วัดเกาะแรต,0,0,0,0,5,13,18,1,8,11,19,1,13,24,37,2,4,11,15,1,6,8,14,1,14,11,25,1,11,12,23,1,13,8,21,1,11,11,22,1,59,61,120,6,0,0,0,0,0,0,0,0,0,0,0,0,0,0,0,0,0,0,0,0,0,0,0,0,0,0,0,0,0,0,0,0,0,0,0,0,0,0,0,0,0,0,0,0,72,85,157,8,10 มิถุนายน 2561
57,57,73020058,ตลาดเกาะแรต,0,0,0,0,6,5,11,1,3,7,10,1,9,12,21,2,9,4,13,1,3,5,8,1,3,3,6,1,7,4,11,1,5,6,11,1,6,4,10,1,33,26,59,6,13,13,26,1,13,10,23,1,12,3,15,1,38,26,64,3,0,0,0,0,0,0,0,0,0,0,0,0,0,0,0,0,0,0,0,0,0,0,0,0,0,0,0,0,80,64,144,11,10 มิถุนายน 2561
58,58,73020059,วัดรางกำหยาด,0,0,0,0,10,8,18,1,6,15,21,1,16,23,39,2,16,10,26,1,9,10,19,1,5,4,9,1,8,8,16,1,7,10,17,1,11,8,19,1,56,50,106,6,0,0,0,0,0,0,0,0,0,0,0,0,0,0,0,0,0,0,0,0,0,0,0,0,0,0,0,0,0,0,0,0,0,0,0,0,0,0,0,0,0,0,0,0,72,73,145,8,10 มิถุนายน 2561
59,59,73020060,ตลาดรางกระทุ่ม,0,0,0,0,11,14,25,1,15,11,26,1,26,25,51,2,9,10,19,1,6,8,14,1,16,11,27,1,15,12,27,1,16,19,35,1,18,10,28,1,80,70,150,6,0,0,0,0,0,0,0,0,0,0,0,0,0,0,0,0,0,0,0,0,0,0,0,0,0,0,0,0,0,0,0,0,0,0,0,0,0,0,0,0,0,0,0,0,106,95,201,8,10 มิถุนายน 2561
60,60,73020061,บ้านรางกระทุ่ม,0,0,0,0,0,0,0,0,0,0,0,0,0,0,0,0,0,0,0,0,0,0,0,0,0,0,0,0,0,0,0,0,0,0,0,0,0,0,0,0,0,0,0,0,0,0,0,0,0,0,0,0,0,0,0,0,0,0,0,0,0,0,0,0,0,0,0,0,0,0,0,0,0,0,0,0,0,0,0,0,0,0,0,0,0,0,0,0,0,0,0,0,10 มิถุนายน 2561
61,61,73020062,บ้านรางปลาหมอ,0,0,0,0,5,1,6,1,2,6,8,1,7,7,14,2,2,3,5,1,1,2,3,1,1,1,2,1,0,2,2,1,4,2,6,1,0,1,1,1,8,11,19,6,0,0,0,0,0,0,0,0,0,0,0,0,0,0,0,0,0,0,0,0,0,0,0,0,0,0,0,0,0,0,0,0,0,0,0,0,0,0,0,0,0,0,0,0,15,18,33,8,10 มิถุนายน 2561
62,62,73020063,บ้านคลองพระมอพิสัย,0,0,0,0,5,1,6,1,1,0,1,1,6,1,7,2,4,3,7,1,1,5,6,1,4,2,6,1,1,1,2,1,3,1,4,1,1,2,3,1,14,14,28,6,0,0,0,0,0,0,0,0,0,0,0,0,0,0,0,0,0,0,0,0,0,0,0,0,0,0,0,0,0,0,0,0,0,0,0,0,0,0,0,0,0,0,0,0,20,15,35,8,10 มิถุนายน 2561
63,63,73020064,วัดบึงลาดสวาย,0,0,0,0,17,23,40,1,21,17,38,1,38,40,78,2,19,27,46,1,18,14,32,1,19,20,39,1,20,11,31,1,27,21,48,2,21,13,34,1,124,106,230,7,26,17,43,1,35,31,66,3,21,12,33,1,82,60,142,5,0,0,0,0,0,0,0,0,0,0,0,0,0,0,0,0,0,0,0,0,0,0,0,0,0,0,0,0,244,206,450,14,10 มิถุนายน 2561
64,64,73020065,วัดสุขวัฒนาราม,0,0,0,0,8,2,10,1,9,10,19,1,17,12,29,2,4,7,11,1,5,1,6,1,12,8,20,1,12,8,20,1,12,8,20,1,10,8,18,1,55,40,95,6,0,0,0,0,0,0,0,0,0,0,0,0,0,0,0,0,0,0,0,0,0,0,0,0,0,0,0,0,0,0,0,0,0,0,0,0,0,0,0,0,0,0,0,0,72,52,124,8,10 มิถุนายน 2561
65,65,73020066,ไทยรัฐวิทยา ๔,0,0,0,0,7,4,11,1,7,5,12,1,14,9,23,2,3,6,9,1,7,4,11,1,9,3,12,1,9,7,16,1,10,11,21,1,11,8,19,1,49,39,88,6,4,2,6,1,8,10,18,1,7,10,17,1,19,22,41,3,0,0,0,0,0,0,0,0,0,0,0,0,0,0,0,0,0,0,0,0,0,0,0,0,0,0,0,0,82,70,152,11,10 มิถุนายน 2561
66,66,73020067,บ้านหนองปรง,0,0,0,0,2,2,4,1,2,3,5,1,4,5,9,2,7,3,10,1,2,1,3,1,6,4,10,1,2,3,5,1,0,3,3,1,0,1,1,1,17,15,32,6,0,0,0,0,0,0,0,0,0,0,0,0,0,0,0,0,0,0,0,0,0,0,0,0,0,0,0,0,0,0,0,0,0,0,0,0,0,0,0,0,0,0,0,0,21,20,41,8,10 มิถุนายน 2561
67,67,73020068,วัดเกษมสุริยัมนาจ,0,0,0,0,8,7,15,1,7,3,10,1,15,10,25,2,13,9,22,1,12,6,18,1,11,9,20,1,11,8,19,1,8,6,14,1,8,6,14,1,63,44,107,6,0,0,0,0,0,0,0,0,0,0,0,0,0,0,0,0,0,0,0,0,0,0,0,0,0,0,0,0,0,0,0,0,0,0,0,0,0,0,0,0,0,0,0,0,78,54,132,8,10 มิถุนายน 2561
68,68,73020069,บ้านประตูน้ำพระพิมล,6,9,15,1,11,11,22,1,17,11,28,1,34,31,65,3,19,12,31,1,18,11,29,1,15,12,27,1,9,19,28,1,15,13,28,1,17,19,36,1,93,86,179,6,21,10,31,1,18,9,27,1,11,13,24,1,50,32,82,3,0,0,0,0,0,0,0,0,0,0,0,0,0,0,0,0,0,0,0,0,0,0,0,0,0,0,0,0,177,149,326,12,10 มิถุนายน 2561
69,69,73020070,บ้านบางเลน,0,0,0,0,11,21,32,1,38,23,61,2,49,44,93,3,38,35,73,2,52,33,85,3,41,41,82,2,49,44,93,3,32,36,68,2,27,23,50,2,239,212,451,14,0,0,0,0,0,0,0,0,0,0,0,0,0,0,0,0,0,0,0,0,0,0,0,0,0,0,0,0,0,0,0,0,0,0,0,0,0,0,0,0,0,0,0,0,288,256,544,17,10 มิถุนายน 2561
70,70,73020071,บ้านไผ่คอกวัว,0,0,0,0,4,4,8,1,3,3,6,1,7,7,14,2,3,6,9,1,3,0,3,1,1,2,3,1,1,2,3,1,1,3,4,1,4,0,4,1,13,13,26,6,0,0,0,0,0,0,0,0,0,0,0,0,0,0,0,0,0,0,0,0,0,0,0,0,0,0,0,0,0,0,0,0,0,0,0,0,0,0,0,0,0,0,0,0,20,20,40,8,10 มิถุนายน 2561
71,71,73020072,วัดบางหลวง,0,0,0,0,28,33,61,2,42,31,73,3,70,64,134,5,36,41,77,3,42,50,92,3,48,38,86,3,38,39,77,2,47,50,97,3,38,30,68,3,249,248,497,17,0,0,0,0,0,0,0,0,0,0,0,0,0,0,0,0,0,0,0,0,0,0,0,0,0,0,0,0,0,0,0,0,0,0,0,0,0,0,0,0,0,0,0,0,319,312,631,22,10 มิถุนายน 2561
72,72,73020073,วัดบางน้อยใน,0,0,0,0,2,3,5,1,8,2,10,1,10,5,15,2,7,5,12,1,7,2,9,1,4,5,9,1,6,5,11,1,4,9,13,1,10,1,11,1,38,27,65,6,0,0,0,0,0,0,0,0,0,0,0,0,0,0,0,0,0,0,0,0,0,0,0,0,0,0,0,0,0,0,0,0,0,0,0,0,0,0,0,0,0,0,0,0,48,32,80,8,10 มิถุนายน 2561
73,73,73020074,วัดราษฎร์สามัคคี,0,0,0,0,4,1,5,1,4,4,8,1,8,5,13,2,7,2,9,1,3,4,7,1,3,5,8,1,3,5,8,1,4,2,6,1,9,3,12,1,29,21,50,6,0,0,0,0,0,0,0,0,0,0,0,0,0,0,0,0,0,0,0,0,0,0,0,0,0,0,0,0,0,0,0,0,0,0,0,0,0,0,0,0,0,0,0,0,37,26,63,8,10 มิถุนายน 2561
74,74,73020077,บ้านหนองมะม่วง,0,0,0,0,5,10,15,1,9,5,14,1,14,15,29,2,0,6,6,1,4,4,8,1,7,5,12,1,8,3,11,1,2,4,6,1,4,5,9,1,25,27,52,6,0,0,0,0,0,0,0,0,0,0,0,0,0,0,0,0,0,0,0,0,0,0,0,0,0,0,0,0,0,0,0,0,0,0,0,0,0,0,0,0,0,0,0,0,39,42,81,8,10 มิถุนายน 2561
75,75,73020078,บ้านไผ่ล้อม,0,0,0,0,0,0,0,0,6,2,8,1,6,2,8,1,6,4,10,1,9,3,12,1,3,1,4,1,3,4,7,1,1,0,1,1,1,2,3,1,23,14,37,6,0,0,0,0,0,0,0,0,0,0,0,0,0,0,0,0,0,0,0,0,0,0,0,0,0,0,0,0,0,0,0,0,0,0,0,0,0,0,0,0,0,0,0,0,29,16,45,7,10 มิถุนายน 2561
76,76,73020079,วัดไผ่หูช้าง,0,0,0,0,13,8,21,1,17,12,29,1,30,20,50,2,12,10,22,1,13,6,19,1,16,10,26,1,9,15,24,1,13,11,24,1,10,10,20,1,73,62,135,6,17,12,29,1,3,16,19,1,6,11,17,1,26,39,65,3,0,0,0,0,0,0,0,0,0,0,0,0,0,0,0,0,0,0,0,0,0,0,0,0,0,0,0,0,129,121,250,11,10 มิถุนายน 2561
77,77,73020080,วัดลำพญา,0,0,0,0,8,10,18,1,12,2,14,1,20,12,32,2,6,9,15,1,8,10,18,1,9,7,16,1,7,1,8,1,17,9,26,1,7,6,13,1,54,42,96,6,0,0,0,0,0,0,0,0,0,0,0,0,0,0,0,0,0,0,0,0,0,0,0,0,0,0,0,0,0,0,0,0,0,0,0,0,0,0,0,0,0,0,0,0,74,54,128,8,10 มิถุนายน 2561
78,78,73020081,วัดเวฬุวนาราม,0,0,0,0,20,8,28,1,7,12,19,1,27,20,47,2,16,19,35,1,11,13,24,1,12,15,27,1,7,12,19,1,14,15,29,1,8,17,25,1,68,91,159,6,0,0,0,0,0,0,0,0,0,0,0,0,0,0,0,0,0,0,0,0,0,0,0,0,0,0,0,0,0,0,0,0,0,0,0,0,0,0,0,0,0,0,0,0,95,111,206,8,10 มิถุนายน 2561
79,79,73020082,วัดศิลามูล,0,0,0,0,15,8,23,1,18,18,36,1,33,26,59,2,14,11,25,1,21,14,35,1,10,10,20,1,12,8,20,1,14,13,27,1,17,14,31,1,88,70,158,6,0,0,0,0,0,0,0,0,0,0,0,0,0,0,0,0,0,0,0,0,0,0,0,0,0,0,0,0,0,0,0,0,0,0,0,0,0,0,0,0,0,0,0,0,121,96,217,8,10 มิถุนายน 2561
80,80,73020083,บ้านไผ่หลวง,0,0,0,0,5,3,8,1,5,2,7,1,10,5,15,2,4,9,13,1,2,1,3,1,6,8,14,1,5,5,10,1,3,2,5,1,3,3,6,1,23,28,51,6,0,0,0,0,0,0,0,0,0,0,0,0,0,0,0,0,0,0,0,0,0,0,0,0,0,0,0,0,0,0,0,0,0,0,0,0,0,0,0,0,0,0,0,0,33,33,66,8,10 มิถุนายน 2561
81,81,73020084,บ้านกระทุ่มล้ม,0,0,0,0,57,55,112,4,63,71,134,4,120,126,246,8,77,60,137,4,72,49,121,4,57,61,118,4,64,55,119,4,82,49,131,4,70,53,123,4,422,327,749,24,59,44,103,3,58,34,92,3,36,30,66,2,153,108,261,8,0,0,0,0,0,0,0,0,0,0,0,0,0,0,0,0,0,0,0,0,0,0,0,0,0,0,0,0,695,561,1256,40,10 มิถุนายน 2561
82,82,73020085,บ้านเพลินวัฒนา,0,0,0,0,13,12,25,1,20,17,37,1,33,29,62,2,13,17,30,1,20,20,40,1,14,10,24,1,10,21,31,1,14,16,30,1,12,19,31,1,83,103,186,6,0,0,0,0,0,0,0,0,0,0,0,0,0,0,0,0,0,0,0,0,0,0,0,0,0,0,0,0,0,0,0,0,0,0,0,0,0,0,0,0,0,0,0,0,116,132,248,8,10 มิถุนายน 2561
83,83,73020086,วัดปรีดาราม,0,0,0,0,14,23,37,2,16,19,35,2,30,42,72,4,19,22,41,2,15,16,31,1,21,21,42,2,20,13,33,1,18,14,32,1,23,14,37,1,116,100,216,8,0,0,0,0,0,0,0,0,0,0,0,0,0,0,0,0,0,0,0,0,0,0,0,0,0,0,0,0,0,0,0,0,0,0,0,0,0,0,0,0,0,0,0,0,146,142,288,12,10 มิถุนายน 2561
84,84,73020087,บ้านคลองจินดา,0,0,0,0,3,2,5,1,3,2,5,1,6,4,10,2,5,0,5,1,2,4,6,1,6,4,10,1,5,2,7,1,7,6,13,1,5,6,11,1,30,22,52,6,0,0,0,0,0,0,0,0,0,0,0,0,0,0,0,0,0,0,0,0,0,0,0,0,0,0,0,0,0,0,0,0,0,0,0,0,0,0,0,0,0,0,0,0,36,26,62,8,10 มิถุนายน 2561
85,85,73020088,บ้านพาดหมอน (ศิริวรรณจินดา),0,0,0,0,9,9,18,1,9,12,21,1,18,21,39,2,11,6,17,1,9,3,12,1,3,5,8,1,2,2,4,1,0,3,3,1,5,3,8,1,30,22,52,6,0,0,0,0,0,0,0,0,0,0,0,0,0,0,0,0,0,0,0,0,0,0,0,0,0,0,0,0,0,0,0,0,0,0,0,0,0,0,0,0,0,0,0,0,48,43,91,8,10 มิถุนายน 2561
86,86,73020089,วัดวังน้ำขาว,0,0,0,0,7,11,18,1,9,10,19,1,16,21,37,2,4,10,14,1,13,7,20,1,3,8,11,1,12,11,23,1,11,7,18,1,16,11,27,1,59,54,113,6,10,7,17,1,12,8,20,1,7,10,17,1,29,25,54,3,0,0,0,0,0,0,0,0,0,0,0,0,0,0,0,0,0,0,0,0,0,0,0,0,0,0,0,0,104,100,204,11,10 มิถุนายน 2561
87,87,73020090,บ้านฉาง,0,0,0,0,3,4,7,1,6,4,10,1,9,8,17,2,3,3,6,1,3,4,7,1,4,1,5,1,9,1,10,1,3,2,5,1,2,5,7,1,24,16,40,6,0,0,0,0,0,0,0,0,0,0,0,0,0,0,0,0,0,0,0,0,0,0,0,0,0,0,0,0,0,0,0,0,0,0,0,0,0,0,0,0,0,0,0,0,33,24,57,8,10 มิถุนายน 2561
88,88,73020091,วัดบางช้างเหนือ,4,5,9,1,6,1,7,1,6,8,14,1,16,14,30,3,11,4,15,1,5,7,12,1,3,2,5,1,2,8,10,1,3,3,6,1,5,0,5,1,29,24,53,6,0,0,0,0,0,0,0,0,0,0,0,0,0,0,0,0,0,0,0,0,0,0,0,0,0,0,0,0,0,0,0,0,0,0,0,0,0,0,0,0,0,0,0,0,45,38,83,9,10 มิถุนายน 2561
89,89,73020092,บ้านดอนทอง(อ่องพิทยาคาร),0,0,0,0,5,7,12,1,1,5,6,1,6,12,18,2,3,5,8,1,4,3,7,1,7,1,8,1,5,1,6,1,2,2,4,1,3,2,5,1,24,14,38,6,0,0,0,0,0,0,0,0,0,0,0,0,0,0,0,0,0,0,0,0,0,0,0,0,0,0,0,0,0,0,0,0,0,0,0,0,0,0,0,0,0,0,0,0,30,26,56,8,10 มิถุนายน 2561
90,90,73020093,บ้านคลองใหม่,0,0,0,0,15,14,29,1,14,10,24,1,29,24,53,2,11,14,25,1,20,8,28,1,17,14,31,1,15,13,28,1,23,17,40,1,18,17,35,1,104,83,187,6,0,0,0,0,0,0,0,0,0,0,0,0,0,0,0,0,0,0,0,0,0,0,0,0,0,0,0,0,0,0,0,0,0,0,0,0,0,0,0,0,0,0,0,0,133,107,240,8,10 มิถุนายน 2561
91,91,73020094,วัดราษฏร์ศรัทธาราม,0,0,0,0,3,5,8,1,8,4,12,1,11,9,20,2,8,2,10,1,6,4,10,1,8,8,16,1,5,6,11,1,6,6,12,1,6,3,9,1,39,29,68,6,0,0,0,0,0,0,0,0,0,0,0,0,0,0,0,0,0,0,0,0,0,0,0,0,0,0,0,0,0,0,0,0,0,0,0,0,0,0,0,0,0,0,0,0,50,38,88,8,10 มิถุนายน 2561
92,92,73020095,หลวงพ่อแช่มอุปถัมภ์,0,0,0,0,4,3,7,1,5,3,8,1,9,6,15,2,3,2,5,1,3,2,5,1,0,2,2,1,2,1,3,1,2,2,4,1,2,2,4,1,12,11,23,6,0,0,0,0,0,0,0,0,0,0,0,0,0,0,0,0,0,0,0,0,0,0,0,0,0,0,0,0,0,0,0,0,0,0,0,0,0,0,0,0,0,0,0,0,21,17,38,8,10 มิถุนายน 2561
93,93,73020096,บ้านตากแดด,0,0,0,0,6,5,11,1,5,1,6,1,11,6,17,2,4,3,7,1,6,2,8,1,3,6,9,1,8,1,9,1,2,6,8,1,5,0,5,1,28,18,46,6,0,0,0,0,0,0,0,0,0,0,0,0,0,0,0,0,0,0,0,0,0,0,0,0,0,0,0,0,0,0,0,0,0,0,0,0,0,0,0,0,0,0,0,0,39,24,63,8,10 มิถุนายน 2561
94,94,73020097,วัดจินดาราม,0,0,0,0,22,31,53,2,27,24,51,2,49,55,104,4,38,26,64,2,23,33,56,2,47,26,73,2,36,33,69,2,37,36,73,2,36,37,73,2,217,191,408,12,33,35,68,2,47,37,84,2,40,16,56,2,120,88,208,6,0,0,0,0,0,0,0,0,0,0,0,0,0,0,0,0,0,0,0,0,0,0,0,0,0,0,0,0,386,334,720,22,10 มิถุนายน 2561
95,95,73020098,วัดทรงคนอง,0,0,0,0,22,17,39,1,16,16,32,1,38,33,71,2,17,9,26,1,16,10,26,1,18,9,27,1,12,11,23,1,11,11,22,1,13,12,25,1,87,62,149,6,0,0,0,0,0,0,0,0,0,0,0,0,0,0,0,0,0,0,0,0,0,0,0,0,0,0,0,0,0,0,0,0,0,0,0,0,0,0,0,0,0,0,0,0,125,95,220,8,10 มิถุนายน 2561
96,96,73020099,วัดท่าข้าม,0,0,0,0,13,12,25,1,10,9,19,1,23,21,44,2,20,7,27,1,13,10,23,1,13,14,27,1,8,13,21,1,15,18,33,1,13,12,25,1,82,74,156,6,0,0,0,0,0,0,0,0,0,0,0,0,0,0,0,0,0,0,0,0,0,0,0,0,0,0,0,0,0,0,0,0,0,0,0,0,0,0,0,0,0,0,0,0,105,95,200,8,10 มิถุนายน 2561
97,97,73020100,บ้านท่าตลาด,0,0,0,0,22,12,34,2,14,23,37,2,36,35,71,4,21,16,37,1,13,14,27,1,7,19,26,1,14,22,36,1,9,12,21,1,20,6,26,1,84,89,173,6,0,0,0,0,0,0,0,0,0,0,0,0,0,0,0,0,0,0,0,0,0,0,0,0,0,0,0,0,0,0,0,0,0,0,0,0,0,0,0,0,0,0,0,0,120,124,244,10,10 มิถุนายน 2561
98,98,73020101,วัดดอนหวาย(นครรัฐประสาท),28,24,52,2,37,41,78,3,46,42,88,3,111,107,218,8,45,32,77,3,55,40,95,3,46,37,83,3,50,51,101,3,52,59,111,3,64,52,116,3,312,271,583,18,82,62,144,4,66,72,138,4,60,60,120,4,208,194,402,12,0,0,0,0,0,0,0,0,0,0,0,0,0,0,0,0,0,0,0,0,0,0,0,0,0,0,0,0,631,572,1203,38,10 มิถุนายน 2561
99,99,73020102,คลองบางกระทึก,0,0,0,0,20,33,53,2,26,24,50,2,46,57,103,4,28,24,52,2,23,23,46,2,15,26,41,2,21,19,40,2,24,22,46,2,22,18,40,2,133,132,265,12,0,0,0,0,0,0,0,0,0,0,0,0,0,0,0,0,0,0,0,0,0,0,0,0,0,0,0,0,0,0,0,0,0,0,0,0,0,0,0,0,0,0,0,0,179,189,368,16,10 มิถุนายน 2561
100,100,73020103,บ้านหัวอ่าว,0,0,0,0,5,7,12,1,8,5,13,1,13,12,25,2,6,4,10,1,6,7,13,1,3,1,4,1,3,2,5,1,2,5,7,1,6,2,8,1,26,21,47,6,0,0,0,0,0,0,0,0,0,0,0,0,0,0,0,0,0,0,0,0,0,0,0,0,0,0,0,0,0,0,0,0,0,0,0,0,0,0,0,0,0,0,0,0,39,33,72,8,10 มิถุนายน 2561
101,101,73020104,วัดเชิงเลน(นครใจราษฎร์),8,5,13,1,10,4,14,1,9,7,16,1,27,16,43,3,10,9,19,1,5,7,12,1,11,8,19,1,11,10,21,1,12,6,18,1,7,7,14,1,56,47,103,6,0,0,0,0,0,0,0,0,0,0,0,0,0,0,0,0,0,0,0,0,0,0,0,0,0,0,0,0,0,0,0,0,0,0,0,0,0,0,0,0,0,0,0,0,83,63,146,9,10 มิถุนายน 2561
102,102,73020105,วัดบางช้างใต้,0,0,0,0,12,8,20,1,21,19,40,2,33,27,60,3,27,20,47,2,22,17,39,1,11,15,26,1,12,17,29,1,25,18,43,2,27,20,47,2,124,107,231,9,0,0,0,0,0,0,0,0,0,0,0,0,0,0,0,0,0,0,0,0,0,0,0,0,0,0,0,0,0,0,0,0,0,0,0,0,0,0,0,0,0,0,0,0,157,134,291,12,10 มิถุนายน 2561
103,103,73020106,บ้านบางม่วง,0,0,0,0,8,7,15,1,8,4,12,1,16,11,27,2,15,11,26,1,9,4,13,1,6,4,10,1,4,3,7,1,4,2,6,1,4,1,5,1,42,25,67,6,0,0,0,0,0,0,0,0,0,0,0,0,0,0,0,0,0,0,0,0,0,0,0,0,0,0,0,0,0,0,0,0,0,0,0,0,0,0,0,0,0,0,0,0,58,36,94,8,10 มิถุนายน 2561
104,104,73020107,บ้านบางเตย,0,0,0,0,15,10,25,1,33,18,51,2,48,28,76,3,14,17,31,1,15,15,30,1,15,13,28,1,20,14,34,1,15,15,30,1,9,13,22,1,88,87,175,6,0,0,0,0,0,0,0,0,0,0,0,0,0,0,0,0,0,0,0,0,0,0,0,0,0,0,0,0,0,0,0,0,0,0,0,0,0,0,0,0,0,0,0,0,136,115,251,9,10 มิถุนายน 2561
105,105,73020109,บ้านบางประแดง,0,0,0,0,9,9,18,1,12,13,25,1,21,22,43,2,14,8,22,1,8,5,13,1,13,6,19,1,6,10,16,1,13,12,25,1,10,9,19,1,64,50,114,6,0,0,0,0,0,0,0,0,0,0,0,0,0,0,0,0,0,0,0,0,0,0,0,0,0,0,0,0,0,0,0,0,0,0,0,0,0,0,0,0,0,0,0,0,85,72,157,8,10 มิถุนายน 2561
106,106,73020110,วัดสรรเพชญ (ทวีวิทยาคม ),0,0,0,0,19,19,38,2,22,20,42,2,41,39,80,4,33,37,70,2,29,19,48,2,19,28,47,2,27,18,45,2,24,16,40,2,25,22,47,2,157,140,297,12,0,0,0,0,0,0,0,0,0,0,0,0,0,0,0,0,0,0,0,0,0,0,0,0,0,0,0,0,0,0,0,0,0,0,0,0,0,0,0,0,0,0,0,0,198,179,377,16,10 มิถุนายน 2561
107,107,73020111,วัดเดชานุสรณ์,0,0,0,0,3,1,4,1,6,1,7,1,9,2,11,2,3,1,4,1,4,3,7,1,3,4,7,1,4,5,9,1,4,2,6,1,7,0,7,1,25,15,40,6,0,0,0,0,0,0,0,0,0,0,0,0,0,0,0,0,0,0,0,0,0,0,0,0,0,0,0,0,0,0,0,0,0,0,0,0,0,0,0,0,0,0,0,0,34,17,51,8,10 มิถุนายน 2561
108,108,73020112,วัดไร่ขิง(สุนทรอุทิศ),0,0,0,0,101,78,179,6,110,73,183,6,211,151,362,12,125,114,239,6,123,98,221,6,120,102,222,6,120,117,237,6,152,120,272,6,124,124,248,6,764,675,1439,36,0,0,0,0,0,0,0,0,0,0,0,0,0,0,0,0,0,0,0,0,0,0,0,0,0,0,0,0,0,0,0,0,0,0,0,0,0,0,0,0,0,0,0,0,975,826,1801,48,10 มิถุนายน 2561
109,109,73020113,วัดท่าพูด,0,0,0,0,51,39,90,3,54,51,105,3,105,90,195,6,58,48,106,4,46,49,95,3,51,46,97,3,57,54,111,4,68,60,128,4,56,69,125,4,336,326,662,22,79,42,121,3,74,54,128,3,51,32,83,3,204,128,332,9,0,0,0,0,0,0,0,0,0,0,0,0,0,0,0,0,0,0,0,0,0,0,0,0,0,0,0,0,645,544,1189,37,10 มิถุนายน 2561
110,110,73020115,บ้านดงเกตุ,14,21,35,1,19,19,38,1,28,19,47,1,61,59,120,3,14,18,32,1,17,21,38,1,18,27,45,1,20,17,37,1,27,16,43,1,17,13,30,1,113,112,225,6,0,0,0,0,0,0,0,0,0,0,0,0,0,0,0,0,0,0,0,0,0,0,0,0,0,0,0,0,0,0,0,0,0,0,0,0,0,0,0,0,0,0,0,0,174,171,345,9,10 มิถุนายน 2561
111,111,73020116,วัดหอมเกร็ด,0,0,0,0,17,19,36,2,33,26,59,2,50,45,95,4,34,36,70,2,34,22,56,2,25,18,43,1,32,22,54,2,23,35,58,2,32,30,62,2,180,163,343,11,19,21,40,1,41,20,61,2,20,22,42,1,80,63,143,4,0,0,0,0,0,0,0,0,0,0,0,0,0,0,0,0,0,0,0,0,0,0,0,0,0,0,0,0,310,271,581,19,10 มิถุนายน 2561
112,112,73020117,บ้านหอมเกร็ด,8,4,12,1,16,11,27,1,12,9,21,1,36,24,60,3,8,8,16,1,5,5,10,1,14,2,16,1,7,7,14,1,11,3,14,1,13,10,23,1,58,35,93,6,0,0,0,0,0,0,0,0,0,0,0,0,0,0,0,0,0,0,0,0,0,0,0,0,0,0,0,0,0,0,0,0,0,0,0,0,0,0,0,0,0,0,0,0,94,59,153,9,10 มิถุนายน 2561
113,113,73020119,บ้านคลองลัดอ้อมใหญ่,0,0,0,0,12,9,21,1,17,11,28,1,29,20,49,2,27,16,43,1,21,9,30,1,18,15,33,1,23,15,38,1,18,10,28,1,10,19,29,1,117,84,201,6,0,0,0,0,0,0,0,0,0,0,0,0,0,0,0,0,0,0,0,0,0,0,0,0,0,0,0,0,0,0,0,0,0,0,0,0,0,0,0,0,0,0,0,0,146,104,250,8,10 มิถุนายน 2561
114,114,73020120,บุณยศรีสวัสดิ์,0,0,0,0,29,28,57,2,33,26,59,2,62,54,116,4,30,26,56,2,35,33,68,2,33,32,65,2,30,30,60,2,38,24,62,2,40,34,74,2,206,179,385,12,0,0,0,0,0,0,0,0,0,0,0,0,0,0,0,0,0,0,0,0,0,0,0,0,0,0,0,0,0,0,0,0,0,0,0,0,0,0,0,0,0,0,0,0,268,233,501,16,10 มิถุนายน 2561
115,115,73020121,บ้านคลองสว่างอารมณ์,0,0,0,0,10,5,15,1,12,4,16,1,22,9,31,2,4,3,7,1,9,3,12,1,3,9,12,1,8,5,13,1,4,7,11,1,3,3,6,1,31,30,61,6,8,1,9,1,5,1,6,1,3,4,7,1,16,6,22,3,0,0,0,0,0,0,0,0,0,0,0,0,0,0,0,0,0,0,0,0,0,0,0,0,0,0,0,0,69,45,114,11,10 มิถุนายน 2561
116,116,73020122,วัดมะเกลือ,0,0,0,0,33,21,54,2,36,34,70,2,69,55,124,4,27,28,55,2,33,23,56,2,21,24,45,2,22,26,48,2,30,20,50,2,31,25,56,2,164,146,310,12,34,23,57,2,27,25,52,2,36,22,58,2,97,70,167,6,0,0,0,0,0,0,0,0,0,0,0,0,0,0,0,0,0,0,0,0,0,0,0,0,0,0,0,0,330,271,601,22,10 มิถุนายน 2561
117,117,73020123,บ้านคลองโยง,0,0,0,0,6,6,12,1,6,3,9,1,12,9,21,2,9,6,15,1,4,8,12,1,4,6,10,1,7,11,18,1,15,12,27,1,12,12,24,1,51,55,106,6,6,2,8,1,19,9,28,1,9,6,15,1,34,17,51,3,0,0,0,0,0,0,0,0,0,0,0,0,0,0,0,0,0,0,0,0,0,0,0,0,0,0,0,0,97,81,178,11,10 มิถุนายน 2561
118,118,73020124,บ้านคลองมหาสวัสดิ์,0,0,0,0,7,8,15,1,5,4,9,1,12,12,24,2,7,5,12,1,1,5,6,1,1,4,5,1,4,3,7,1,5,2,7,1,7,3,10,1,25,22,47,6,0,0,0,0,0,0,0,0,0,0,0,0,0,0,0,0,0,0,0,0,0,0,0,0,0,0,0,0,0,0,0,0,0,0,0,0,0,0,0,0,0,0,0,0,37,34,71,8,10 มิถุนายน 2561
119,119,73020125,วัดสาลวัน,0,0,0,0,9,18,27,1,15,12,27,1,24,30,54,2,21,13,34,1,18,15,33,1,13,12,25,1,13,14,27,1,15,17,32,1,12,10,22,1,92,81,173,6,0,0,0,0,0,0,0,0,0,0,0,0,0,0,0,0,0,0,0,0,0,0,0,0,0,0,0,0,0,0,0,0,0,0,0,0,0,0,0,0,0,0,0,0,116,111,227,8,10 มิถุนายน 2561
120,120,73020126,วัดสุวรรณาราม,0,0,0,0,13,11,24,1,13,13,26,1,26,24,50,2,8,7,15,1,9,8,17,1,11,8,19,1,10,17,27,1,12,11,23,1,13,10,23,1,63,61,124,6,0,0,0,0,0,0,0,0,0,0,0,0,0,0,0,0,0,0,0,0,0,0,0,0,0,0,0,0,0,0,0,0,0,0,0,0,0,0,0,0,0,0,0,0,89,85,174,8,10 มิถุนายน 2561
121,121,73020127,พระตำหนักสวนกุหลาบ มหามงคล,0,0,0,0,104,76,180,6,86,92,178,6,190,168,358,12,115,125,240,6,122,115,237,6,129,112,241,6,120,117,237,6,128,110,238,6,123,116,239,6,737,695,1432,36,0,0,0,0,0,0,0,0,0,0,0,0,0,0,0,0,0,0,0,0,0,0,0,0,0,0,0,0,0,0,0,0,0,0,0,0,0,0,0,0,0,0,0,0,927,863,1790,48,10 มิถุนายน 2561
