,0,1,2,3,4,5,6,7,8,9,10,11,12,13,14,15,16,17,18,19,20,21,22,23,24,25,26,27,28,29,30,31,32,33,34,35,36,37,38,39,40,41,42,43,44,45,46,47,48,49,50,51,52,53,54,55,56,57,58,59,60,61,62,63,64,65,66,67,68,69,70,71,72,73,74,75,76,77,78,79,80,81,82,83,84,85,86,87,88,89,90,91,92,93,94,95
0,ลำดับ,รหัส SMIS,โรงเรียน,อ.3 ขวบ ชาย,อ.3 ขวบ หญิง,รวมอ.3 ขวบ,อ.3 ขวบ ห้อง,อ.1 ชาย,อ.1 หญิง,รวมอ.1,อ.1 ห้อง,อ.2 ชาย,อ.2 หญิง,รวมอ.2,อ.2 ห้อง,รวมก่อนประถม ชาย,รวมก่อนประถม หญิง,รวมก่อนประถม,รวมห้องก่อนประถม,ป.1 ชาย,ป.1 หญิง,รวมป.1,ป.1 ห้อง,ป.2 ชาย,ป.2 หญิง,รวมป.2,ป.2 ห้อง,ป.3 ชาย,ป.3 หญิง,รวมป.3,ป.3 ห้อง,ป.4 ชาย,ป.4 หญิง,รวมป.4,ป.4 ห้อง,ป.5 ชาย,ป.5 หญิง,รวมป.5,ป.5 ห้อง,ป.6 ชาย,ป.6 หญิง,รวมป.6,ป.6 ห้อง,รวมประถม ชาย,รวมประถม หญิง,รวมประถม,รวมห้องประถม,ม.1 ชาย,ม.1 หญิง,รวมม.1,ม.1 ห้อง,ม.2 ชาย,ม.2 หญิง,รวมม.2,ม.2 ห้อง,ม.3 ชาย,ม.3 หญิง,รวมม.3,ม.3 ห้อง,รวมม.ต้น ชาย,รวมม.ต้น หญิง,รวมม.ต้น,รวมห้องม.ต้น,ม.4 ชาย,ม.4 หญิง,รวมม.4,ม.4 ห้อง,ม.5 ชาย,ม.5 หญิง,รวมม.5,ม.5 ห้อง,ม.6 ชาย,ม.6 หญิง,รวมม.6,ม.6 ห้อง,ปวช.1 ชาย,ปวช.1 หญิง,รวมปวช.1,ปวช.1 ห้อง,ปวช.2 ชาย,ปวช.2 หญิง,รวมปวช.2,ปวช.2 ห้อง,ปวช.3 ชาย,ปวช.3 หญิง,รวมปวช.3,ปวช.3 ห้อง,รวมม.ปลายและเทียบเท่า ชาย,รวมม.ปลายและเทียบเท่า หญิง,รวมม.ปลายและเทียบเท่า,รวมห้องม.ปลายและเทียบเท่า,รวมทั้งหมด ชาย,รวมทั้งหมด หญิง,รวมทั้งหมด,รวมห้องทั้งหมด,ข้อมูล ณ วันที่
1,1,76020001,นิคมสร้างตนเองเขื่อนเพชร (พิบูลสงเคราะห์๑),0,0,0,0,13,11,24,1,8,13,21,1,21,24,45,2,11,10,21,1,11,12,23,1,12,14,26,1,16,9,25,1,10,7,17,1,10,11,21,1,70,63,133,6,9,10,19,1,14,7,21,1,7,8,15,1,30,25,55,3,0,0,0,0,0,0,0,0,0,0,0,0,0,0,0,0,0,0,0,0,0,0,0,0,0,0,0,0,121,112,233,11,10 มิถุนายน 2561
2,2,76020002,บ้านหุบกะพง,0,0,0,0,6,5,11,1,9,7,16,1,15,12,27,2,6,7,13,1,7,8,15,1,10,4,14,1,10,3,13,1,11,10,21,1,7,5,12,1,51,37,88,6,11,6,17,1,14,3,17,1,10,1,11,1,35,10,45,3,0,0,0,0,0,0,0,0,0,0,0,0,0,0,0,0,0,0,0,0,0,0,0,0,0,0,0,0,101,59,160,11,10 มิถุนายน 2561
3,3,76020003,บ้านหนองยาว (ราษฎร์สามัคคีรังสรรค์),33,23,56,2,20,27,47,2,23,23,46,2,76,73,149,6,20,26,46,2,19,22,41,2,25,24,49,2,32,20,52,2,23,16,39,1,20,19,39,1,139,127,266,10,0,0,0,0,0,0,0,0,0,0,0,0,0,0,0,0,0,0,0,0,0,0,0,0,0,0,0,0,0,0,0,0,0,0,0,0,0,0,0,0,0,0,0,0,215,200,415,16,10 มิถุนายน 2561
4,4,76020004,ชาวไร่,0,0,0,0,10,16,26,1,18,12,30,1,28,28,56,2,14,14,28,1,13,7,20,1,8,9,17,1,11,2,13,1,9,5,14,1,5,7,12,1,60,44,104,6,0,0,0,0,0,0,0,0,0,0,0,0,0,0,0,0,0,0,0,0,0,0,0,0,0,0,0,0,0,0,0,0,0,0,0,0,0,0,0,0,0,0,0,0,88,72,160,8,10 มิถุนายน 2561
5,5,76020005,บ้านร่องระกำ,0,0,0,0,8,9,17,1,6,6,12,1,14,15,29,2,15,5,20,1,7,8,15,1,7,7,14,1,8,5,13,1,7,5,12,1,4,11,15,1,48,41,89,6,0,0,0,0,0,0,0,0,0,0,0,0,0,0,0,0,0,0,0,0,0,0,0,0,0,0,0,0,0,0,0,0,0,0,0,0,0,0,0,0,0,0,0,0,62,56,118,8,10 มิถุนายน 2561
6,6,76020006,บ้านหนองเผาถ่าน (ประชาประสิทธิ์),0,0,0,0,15,15,30,1,8,10,18,1,23,25,48,2,15,7,22,1,7,12,19,1,10,12,22,1,8,5,13,1,4,6,10,1,6,5,11,1,50,47,97,6,0,0,0,0,0,0,0,0,0,0,0,0,0,0,0,0,0,0,0,0,0,0,0,0,0,0,0,0,0,0,0,0,0,0,0,0,0,0,0,0,0,0,0,0,73,72,145,8,10 มิถุนายน 2561
7,7,76020007,บ้านดอนขุนห้วย,0,0,0,0,8,7,15,1,10,4,14,1,18,11,29,2,11,9,20,1,8,5,13,1,10,8,18,1,9,6,15,1,13,7,20,1,8,4,12,1,59,39,98,6,14,3,17,1,5,9,14,1,9,1,10,1,28,13,41,3,0,0,0,0,0,0,0,0,0,0,0,0,0,0,0,0,0,0,0,0,0,0,0,0,0,0,0,0,105,63,168,11,10 มิถุนายน 2561
8,8,76020008,บ้านนายาง (วิเทศปริยัติราษฎร์รังสรรค์),0,0,0,0,15,19,34,2,18,8,26,1,33,27,60,3,11,8,19,1,9,6,15,1,11,8,19,1,9,9,18,1,9,3,12,1,9,10,19,1,58,44,102,6,0,0,0,0,0,0,0,0,0,0,0,0,0,0,0,0,0,0,0,0,0,0,0,0,0,0,0,0,0,0,0,0,0,0,0,0,0,0,0,0,0,0,0,0,91,71,162,9,10 มิถุนายน 2561
9,9,76020009,บ้านดอน,0,0,0,0,3,2,5,1,0,0,0,0,3,2,5,1,1,1,2,1,1,0,1,1,1,1,2,1,1,1,2,1,2,1,3,1,0,0,0,0,6,4,10,5,0,0,0,0,0,0,0,0,0,0,0,0,0,0,0,0,0,0,0,0,0,0,0,0,0,0,0,0,0,0,0,0,0,0,0,0,0,0,0,0,0,0,0,0,9,6,15,6,10 มิถุนายน 2561
10,10,76020010,บ้านเนินทราย,0,0,0,0,3,3,6,1,1,3,4,1,4,6,10,2,4,2,6,1,2,0,2,1,1,3,4,1,5,0,5,1,3,3,6,1,0,0,0,0,15,8,23,5,0,0,0,0,0,0,0,0,0,0,0,0,0,0,0,0,0,0,0,0,0,0,0,0,0,0,0,0,0,0,0,0,0,0,0,0,0,0,0,0,0,0,0,0,19,14,33,7,10 มิถุนายน 2561
11,11,76020011,บ้านบางเกตุ,1,1,2,1,3,5,8,1,5,3,8,1,9,9,18,3,2,1,3,1,6,4,10,1,1,4,5,1,1,1,2,1,2,2,4,1,6,4,10,1,18,16,34,6,0,0,0,0,0,0,0,0,0,0,0,0,0,0,0,0,0,0,0,0,0,0,0,0,0,0,0,0,0,0,0,0,0,0,0,0,0,0,0,0,0,0,0,0,27,25,52,9,10 มิถุนายน 2561
12,12,76020012,บ้านบางเก่า,0,2,2,1,3,3,6,1,4,2,6,1,7,7,14,3,1,7,8,1,2,4,6,1,3,7,10,1,6,3,9,1,5,5,10,1,1,2,3,1,18,28,46,6,0,0,0,0,0,0,0,0,0,0,0,0,0,0,0,0,0,0,0,0,0,0,0,0,0,0,0,0,0,0,0,0,0,0,0,0,0,0,0,0,0,0,0,0,25,35,60,9,10 มิถุนายน 2561
13,13,76020013,วัดโตนดหลวง (สุขประสิทธิ์วิทยา),0,0,0,0,6,17,23,1,15,11,26,1,21,28,49,2,23,17,40,2,13,13,26,1,18,15,33,2,16,9,25,1,12,19,31,1,16,21,37,1,98,94,192,8,0,0,0,0,0,0,0,0,0,0,0,0,0,0,0,0,0,0,0,0,0,0,0,0,0,0,0,0,0,0,0,0,0,0,0,0,0,0,0,0,0,0,0,0,119,122,241,10,10 มิถุนายน 2561
14,14,76020014,บ้านทุ่งขาม,0,0,0,0,7,3,10,1,4,8,12,1,11,11,22,2,5,2,7,1,8,5,13,1,10,7,17,1,1,4,5,1,7,5,12,1,3,3,6,1,34,26,60,6,0,0,0,0,0,0,0,0,0,0,0,0,0,0,0,0,0,0,0,0,0,0,0,0,0,0,0,0,0,0,0,0,0,0,0,0,0,0,0,0,0,0,0,0,45,37,82,8,10 มิถุนายน 2561
15,15,76020015,บ้านโป่งแย้,0,0,0,0,6,7,13,1,5,4,9,1,11,11,22,2,5,3,8,1,6,3,9,1,8,8,16,1,6,5,11,1,9,4,13,1,3,7,10,1,37,30,67,6,0,0,0,0,0,0,0,0,0,0,0,0,0,0,0,0,0,0,0,0,0,0,0,0,0,0,0,0,0,0,0,0,0,0,0,0,0,0,0,0,0,0,0,0,48,41,89,8,10 มิถุนายน 2561
16,16,76020016,บ้านไร่ใหม่พัฒนา,0,0,0,0,3,3,6,1,7,0,7,1,10,3,13,2,3,4,7,1,3,5,8,1,5,1,6,1,3,5,8,1,3,0,3,1,3,1,4,1,20,16,36,6,6,2,8,1,8,1,9,1,4,0,4,1,18,3,21,3,0,0,0,0,0,0,0,0,0,0,0,0,0,0,0,0,0,0,0,0,0,0,0,0,0,0,0,0,48,22,70,11,10 มิถุนายน 2561
17,17,76020017,บ้านรางจิก,1,2,3,1,3,3,6,1,3,2,5,1,7,7,14,3,3,3,6,1,3,3,6,1,6,5,11,1,2,4,6,1,3,2,5,1,6,2,8,1,23,19,42,6,0,0,0,0,0,0,0,0,0,0,0,0,0,0,0,0,0,0,0,0,0,0,0,0,0,0,0,0,0,0,0,0,0,0,0,0,0,0,0,0,0,0,0,0,30,26,56,9,10 มิถุนายน 2561
18,18,76020018,บ้านหนองเขื่อน,4,4,8,1,2,5,7,1,7,6,13,1,13,15,28,3,7,7,14,1,10,6,16,1,8,4,12,1,5,3,8,1,16,6,22,1,5,4,9,1,51,30,81,6,0,0,0,0,0,0,0,0,0,0,0,0,0,0,0,0,0,0,0,0,0,0,0,0,0,0,0,0,0,0,0,0,0,0,0,0,0,0,0,0,0,0,0,0,64,45,109,9,10 มิถุนายน 2561
19,19,76020019,วัดช้างแทงกระจาด (จันทร์จำนง),6,6,12,1,5,3,8,1,7,6,13,1,18,15,33,3,8,6,14,1,8,11,19,1,8,3,11,1,9,5,14,1,10,5,15,1,6,6,12,1,49,36,85,6,0,0,0,0,0,0,0,0,0,0,0,0,0,0,0,0,0,0,0,0,0,0,0,0,0,0,0,0,0,0,0,0,0,0,0,0,0,0,0,0,0,0,0,0,67,51,118,9,10 มิถุนายน 2561
20,20,76020020,บ้านดอนมะกอก,5,5,10,1,2,3,5,1,9,7,16,1,16,15,31,3,5,10,15,1,7,5,12,1,7,5,12,1,8,3,11,1,4,8,12,1,4,6,10,1,35,37,72,6,0,0,0,0,0,0,0,0,0,0,0,0,0,0,0,0,0,0,0,0,0,0,0,0,0,0,0,0,0,0,0,0,0,0,0,0,0,0,0,0,0,0,0,0,51,52,103,9,10 มิถุนายน 2561
21,21,76020021,บ้านอ่างหิน,1,2,3,1,2,3,5,1,4,4,8,1,7,9,16,3,3,4,7,1,6,3,9,1,6,0,6,1,3,3,6,1,3,0,3,1,5,4,9,1,26,14,40,6,0,0,0,0,0,0,0,0,0,0,0,0,0,0,0,0,0,0,0,0,0,0,0,0,0,0,0,0,0,0,0,0,0,0,0,0,0,0,0,0,0,0,0,0,33,23,56,9,10 มิถุนายน 2561
22,22,76020022,บ้านบ่อไร่ (ร่วมจิตอนุกูล),0,0,0,0,3,1,4,1,2,2,4,1,5,3,8,2,1,1,2,1,5,1,6,1,0,3,3,1,2,1,3,1,3,1,4,1,3,0,3,1,14,7,21,6,0,0,0,0,0,0,0,0,0,0,0,0,0,0,0,0,0,0,0,0,0,0,0,0,0,0,0,0,0,0,0,0,0,0,0,0,0,0,0,0,0,0,0,0,19,10,29,8,10 มิถุนายน 2561
23,23,76020023,โรงเรียนวัดหนองศาลา (ธรรมกรประสาท),0,0,0,0,6,7,13,1,6,3,9,1,12,10,22,2,8,6,14,1,5,3,8,1,8,6,14,1,4,6,10,1,6,2,8,1,5,3,8,1,36,26,62,6,5,2,7,1,3,2,5,1,0,0,0,0,8,4,12,2,0,0,0,0,0,0,0,0,0,0,0,0,0,0,0,0,0,0,0,0,0,0,0,0,0,0,0,0,56,40,96,10,10 มิถุนายน 2561
24,24,76020024,บ้านบ่อหลวง,0,0,0,0,1,0,1,1,1,2,3,1,2,2,4,2,7,14,21,1,10,7,17,1,13,11,24,1,11,8,19,1,15,7,22,1,7,10,17,1,63,57,120,6,0,0,0,0,0,0,0,0,0,0,0,0,0,0,0,0,0,0,0,0,0,0,0,0,0,0,0,0,0,0,0,0,0,0,0,0,0,0,0,0,0,0,0,0,65,59,124,8,10 มิถุนายน 2561
25,25,76020025,บ้านพุหวาย,9,6,15,1,6,5,11,1,11,7,18,1,26,18,44,3,18,8,26,1,13,15,28,1,9,10,19,1,6,13,19,1,9,10,19,1,9,7,16,1,64,63,127,6,0,0,0,0,0,0,0,0,0,0,0,0,0,0,0,0,0,0,0,0,0,0,0,0,0,0,0,0,0,0,0,0,0,0,0,0,0,0,0,0,0,0,0,0,90,81,171,9,10 มิถุนายน 2561
26,26,76020026,บ้านหนองขาม,0,0,0,0,0,0,0,0,0,1,1,1,0,1,1,1,0,2,2,1,0,1,1,1,2,1,3,1,2,0,2,1,1,1,2,1,3,0,3,1,8,5,13,6,0,0,0,0,0,0,0,0,0,0,0,0,0,0,0,0,0,0,0,0,0,0,0,0,0,0,0,0,0,0,0,0,0,0,0,0,0,0,0,0,0,0,0,0,8,6,14,7,10 มิถุนายน 2561
27,27,76020027,บ้านท่ามะริด,0,0,0,0,3,4,7,1,2,5,7,1,5,9,14,2,5,6,11,1,9,4,13,1,5,12,17,1,7,6,13,1,7,5,12,1,3,3,6,1,36,36,72,6,0,0,0,0,0,0,0,0,0,0,0,0,0,0,0,0,0,0,0,0,0,0,0,0,0,0,0,0,0,0,0,0,0,0,0,0,0,0,0,0,0,0,0,0,41,45,86,8,10 มิถุนายน 2561
28,28,76020028,บ้านทุ่งโป่ง,2,4,6,1,3,5,8,1,7,4,11,1,12,13,25,3,5,2,7,1,1,1,2,1,5,7,12,1,4,0,4,1,2,2,4,1,11,7,18,1,28,19,47,6,0,0,0,0,0,0,0,0,0,0,0,0,0,0,0,0,0,0,0,0,0,0,0,0,0,0,0,0,0,0,0,0,0,0,0,0,0,0,0,0,0,0,0,0,40,32,72,9,10 มิถุนายน 2561
29,29,76020030,บ้านโพรงเข้,0,0,0,0,4,1,5,1,3,1,4,1,7,2,9,2,6,2,8,1,4,3,7,1,4,9,13,1,5,5,10,1,2,2,4,1,3,0,3,1,24,21,45,6,0,0,0,0,0,0,0,0,0,0,0,0,0,0,0,0,0,0,0,0,0,0,0,0,0,0,0,0,0,0,0,0,0,0,0,0,0,0,0,0,0,0,0,0,31,23,54,8,10 มิถุนายน 2561
30,30,76020031,บ้านยางชุม,0,0,0,0,5,6,11,1,9,11,20,1,14,17,31,2,4,9,13,1,10,10,20,1,8,10,18,1,8,7,15,1,9,10,19,1,4,3,7,1,43,49,92,6,0,0,0,0,0,0,0,0,0,0,0,0,0,0,0,0,0,0,0,0,0,0,0,0,0,0,0,0,0,0,0,0,0,0,0,0,0,0,0,0,0,0,0,0,57,66,123,8,10 มิถุนายน 2561
31,31,76020032,บ้านสารเห็ด,0,0,0,0,14,5,19,1,10,7,17,1,24,12,36,2,7,9,16,1,18,12,30,1,8,11,19,1,10,13,23,1,8,8,16,1,3,15,18,1,54,68,122,6,0,0,0,0,0,0,0,0,0,0,0,0,0,0,0,0,0,0,0,0,0,0,0,0,0,0,0,0,0,0,0,0,0,0,0,0,0,0,0,0,0,0,0,0,78,80,158,8,10 มิถุนายน 2561
32,32,76020033,บ้านหนองเขาอ่อน,1,0,1,1,0,0,0,1,8,2,10,1,9,2,11,3,8,6,14,1,2,2,4,1,5,3,8,1,2,0,2,1,1,2,3,1,2,3,5,1,20,16,36,6,0,0,0,0,0,0,0,0,0,0,0,0,0,0,0,0,0,0,0,0,0,0,0,0,0,0,0,0,0,0,0,0,0,0,0,0,0,0,0,0,0,0,0,0,29,18,47,9,10 มิถุนายน 2561
33,33,76020034,บ้านเขากระปุก,0,0,0,0,11,8,19,1,5,7,12,1,16,15,31,2,3,3,6,1,2,6,8,1,4,7,11,1,4,5,9,1,6,0,6,1,4,2,6,1,23,23,46,6,0,0,0,0,0,0,0,0,0,0,0,0,0,0,0,0,0,0,0,0,0,0,0,0,0,0,0,0,0,0,0,0,0,0,0,0,0,0,0,0,0,0,0,0,39,38,77,8,10 มิถุนายน 2561
34,34,76020035,บ้านโป่งเกตุ,0,0,0,0,14,16,30,1,21,10,31,1,35,26,61,2,9,13,22,1,14,12,26,1,14,9,23,1,13,8,21,1,19,15,34,1,3,16,19,1,72,73,145,6,11,8,19,1,13,9,22,1,7,5,12,1,31,22,53,3,0,0,0,0,0,0,0,0,0,0,0,0,0,0,0,0,0,0,0,0,0,0,0,0,0,0,0,0,138,121,259,11,10 มิถุนายน 2561
35,35,76020036,หนองคอไก่,1,0,1,1,3,1,4,1,2,2,4,1,6,3,9,3,2,2,4,1,3,4,7,1,3,4,7,1,4,3,7,1,3,1,4,1,5,6,11,1,20,20,40,6,0,0,0,0,0,0,0,0,0,0,0,0,0,0,0,0,0,0,0,0,0,0,0,0,0,0,0,0,0,0,0,0,0,0,0,0,0,0,0,0,0,0,0,0,26,23,49,9,10 มิถุนายน 2561
36,36,76020037,บ้านหนองตาฉาว(จตฺตราษฎร์บำรุง),1,1,2,1,1,0,1,1,2,2,4,1,4,3,7,3,4,6,10,1,2,2,4,1,4,5,9,1,6,4,10,1,5,5,10,1,4,2,6,1,25,24,49,6,0,0,0,0,0,0,0,0,0,0,0,0,0,0,0,0,0,0,0,0,0,0,0,0,0,0,0,0,0,0,0,0,0,0,0,0,0,0,0,0,0,0,0,0,29,27,56,9,10 มิถุนายน 2561
37,37,76020038,บ้านเขาอ่างแก้ว,0,0,0,0,6,8,14,1,2,4,6,1,8,12,20,2,9,9,18,1,5,11,16,1,9,5,14,1,8,3,11,1,14,8,22,1,14,6,20,1,59,42,101,6,7,11,18,1,6,5,11,1,5,5,10,1,18,21,39,3,0,0,0,0,0,0,0,0,0,0,0,0,0,0,0,0,0,0,0,0,0,0,0,0,0,0,0,0,85,75,160,11,10 มิถุนายน 2561
38,38,76020039,บ้านหนองโรง,0,0,0,0,16,12,28,1,12,10,22,1,28,22,50,2,9,10,19,1,15,16,31,1,13,4,17,1,5,4,9,1,7,13,20,1,13,10,23,1,62,57,119,6,19,13,32,1,19,11,30,1,22,11,33,1,60,35,95,3,0,0,0,0,0,0,0,0,0,0,0,0,0,0,0,0,0,0,0,0,0,0,0,0,0,0,0,0,150,114,264,11,10 มิถุนายน 2561
39,39,76020040,บ้านสระพระ,12,16,28,1,6,8,14,1,9,8,17,1,27,32,59,3,10,11,21,1,6,6,12,1,9,12,21,1,10,11,21,1,10,9,19,1,9,9,18,1,54,58,112,6,0,0,0,0,0,0,0,0,0,0,0,0,0,0,0,0,0,0,0,0,0,0,0,0,0,0,0,0,0,0,0,0,0,0,0,0,0,0,0,0,0,0,0,0,81,90,171,9,10 มิถุนายน 2561
40,40,76020041,บ้านหนองขานาง,0,0,0,0,15,4,19,1,7,5,12,1,22,9,31,2,9,9,18,1,12,4,16,1,6,4,10,1,7,8,15,1,10,4,14,1,10,7,17,1,54,36,90,6,0,0,0,0,0,0,0,0,0,0,0,0,0,0,0,0,0,0,0,0,0,0,0,0,0,0,0,0,0,0,0,0,0,0,0,0,0,0,0,0,0,0,0,0,76,45,121,8,10 มิถุนายน 2561
41,41,76020042,เขื่อนเพชร (ชลประทานสงเคราะห์),2,1,3,1,6,2,8,1,3,2,5,1,11,5,16,3,5,0,5,1,3,7,10,1,6,0,6,1,6,4,10,1,5,3,8,1,11,1,12,1,36,15,51,6,7,6,13,1,4,4,8,1,3,5,8,1,14,15,29,3,0,0,0,0,0,0,0,0,0,0,0,0,0,0,0,0,0,0,0,0,0,0,0,0,0,0,0,0,61,35,96,12,10 มิถุนายน 2561
42,42,76020043,วัดเขื่อนเพชร (วชิรเวทประชาสรรค์),0,0,0,0,15,3,18,1,6,12,18,1,21,15,36,2,9,5,14,1,11,8,19,1,11,6,17,1,9,12,21,1,12,15,27,1,10,12,22,1,62,58,120,6,0,0,0,0,0,0,0,0,0,0,0,0,0,0,0,0,0,0,0,0,0,0,0,0,0,0,0,0,0,0,0,0,0,0,0,0,0,0,0,0,0,0,0,0,83,73,156,8,10 มิถุนายน 2561
43,43,76020044,วัดท่าขาม (สะเทื้อนราษฎร์อุปถัมภ์),0,0,0,0,13,7,20,1,7,6,13,1,20,13,33,2,4,4,8,1,5,5,10,1,6,6,12,1,9,7,16,1,12,9,21,1,10,4,14,1,46,35,81,6,0,0,0,0,0,0,0,0,0,0,0,0,0,0,0,0,0,0,0,0,0,0,0,0,0,0,0,0,0,0,0,0,0,0,0,0,0,0,0,0,0,0,0,0,66,48,114,8,10 มิถุนายน 2561
44,44,76020045,วัดท่าคอย (สกุณอุปถัมภ์),0,0,0,0,13,13,26,1,6,8,14,1,19,21,40,2,10,2,12,1,6,4,10,1,12,8,20,1,5,10,15,1,11,6,17,1,8,5,13,1,52,35,87,6,0,0,0,0,0,0,0,0,0,0,0,0,0,0,0,0,0,0,0,0,0,0,0,0,0,0,0,0,0,0,0,0,0,0,0,0,0,0,0,0,0,0,0,0,71,56,127,8,10 มิถุนายน 2561
45,45,76020046,บ้านท่าไม้รวก,9,5,14,1,4,4,8,1,5,9,14,1,18,18,36,3,10,5,15,1,5,5,10,1,7,4,11,1,4,4,8,1,9,5,14,1,7,4,11,1,42,27,69,6,0,0,0,0,0,0,0,0,0,0,0,0,0,0,0,0,0,0,0,0,0,0,0,0,0,0,0,0,0,0,0,0,0,0,0,0,0,0,0,0,0,0,0,0,60,45,105,9,10 มิถุนายน 2561
46,46,76020047,บ้านท่าลาว (พัชรศาสน์ราษฎร์นุเคราะห์),0,0,0,0,10,7,17,1,9,8,17,1,19,15,34,2,9,5,14,1,10,5,15,1,8,8,16,1,11,7,18,1,7,7,14,1,8,8,16,1,53,40,93,6,0,0,0,0,0,0,0,0,0,0,0,0,0,0,0,0,0,0,0,0,0,0,0,0,0,0,0,0,0,0,0,0,0,0,0,0,0,0,0,0,0,0,0,0,72,55,127,8,10 มิถุนายน 2561
47,47,76020048,บ้านหนองชุมแสง (พัชรศาสน์ราษฎร์นุเคราะห์),0,0,0,0,23,32,55,3,20,31,51,2,43,63,106,5,35,18,53,2,22,23,45,2,22,25,47,2,26,18,44,2,22,28,50,2,32,24,56,2,159,136,295,12,0,0,0,0,0,0,0,0,0,0,0,0,0,0,0,0,0,0,0,0,0,0,0,0,0,0,0,0,0,0,0,0,0,0,0,0,0,0,0,0,0,0,0,0,202,199,401,17,10 มิถุนายน 2561
48,48,76020049,บ้านหนองเตียน,0,0,0,0,8,4,12,1,3,5,8,1,11,9,20,2,9,3,12,1,1,5,6,1,4,4,8,1,3,4,7,1,4,1,5,1,2,3,5,1,23,20,43,6,0,0,0,0,0,0,0,0,0,0,0,0,0,0,0,0,0,0,0,0,0,0,0,0,0,0,0,0,0,0,0,0,0,0,0,0,0,0,0,0,0,0,0,0,34,29,63,8,10 มิถุนายน 2561
49,49,76020050,วัดพระพุทธบาทเขาลูกช้าง (พิพิธพัฒนานุเคราะห์),0,0,0,0,21,17,38,1,19,17,36,2,40,34,74,3,17,18,35,1,13,9,22,1,17,8,25,1,18,12,30,1,11,15,26,1,23,13,36,1,99,75,174,6,18,19,37,1,20,23,43,1,14,10,24,1,52,52,104,3,0,0,0,0,0,0,0,0,0,0,0,0,0,0,0,0,0,0,0,0,0,0,0,0,0,0,0,0,191,161,352,12,10 มิถุนายน 2561
50,50,76020051,บ้านท่ากระเทียม,0,0,0,0,4,4,8,1,4,2,6,1,8,6,14,2,1,3,4,1,2,1,3,1,1,2,3,1,1,2,3,1,4,3,7,1,3,1,4,1,12,12,24,6,0,0,0,0,0,0,0,0,0,0,0,0,0,0,0,0,0,0,0,0,0,0,0,0,0,0,0,0,0,0,0,0,0,0,0,0,0,0,0,0,0,0,0,0,20,18,38,8,10 มิถุนายน 2561
51,51,76020052,บ้านท่ายาง (ประชาสรรค์),0,0,0,0,88,95,183,6,112,89,201,6,200,184,384,12,99,95,194,5,96,79,175,5,107,81,188,5,99,88,187,5,88,88,176,5,77,81,158,4,566,512,1078,29,0,0,0,0,0,0,0,0,0,0,0,0,0,0,0,0,0,0,0,0,0,0,0,0,0,0,0,0,0,0,0,0,0,0,0,0,0,0,0,0,0,0,0,0,766,696,1462,41,10 มิถุนายน 2561
52,52,76020053,บ้านหนองแขม,0,0,0,0,1,2,3,1,0,1,1,1,1,3,4,2,1,6,7,1,2,1,3,1,3,1,4,1,3,2,5,1,5,1,6,1,2,0,2,1,16,11,27,6,7,0,7,1,2,1,3,1,2,1,3,1,11,2,13,3,0,0,0,0,0,0,0,0,0,0,0,0,0,0,0,0,0,0,0,0,0,0,0,0,0,0,0,0,28,16,44,11,10 มิถุนายน 2561
53,53,76020054,วัดเขากระจิว มิตรภาพที่ 103,0,0,0,0,11,11,22,1,7,2,9,1,18,13,31,2,9,4,13,1,7,5,12,1,7,6,13,1,4,9,13,1,5,4,9,1,3,5,8,1,35,33,68,6,0,0,0,0,0,0,0,0,0,0,0,0,0,0,0,0,0,0,0,0,0,0,0,0,0,0,0,0,0,0,0,0,0,0,0,0,0,0,0,0,0,0,0,0,53,46,99,8,10 มิถุนายน 2561
54,54,76020055,บ้านหนองบ้วย,0,0,0,0,13,15,28,1,13,8,21,1,26,23,49,2,11,9,20,1,12,10,22,1,8,7,15,1,9,11,20,1,8,6,14,1,8,6,14,1,56,49,105,6,0,0,0,0,0,0,0,0,0,0,0,0,0,0,0,0,0,0,0,0,0,0,0,0,0,0,0,0,0,0,0,0,0,0,0,0,0,0,0,0,0,0,0,0,82,72,154,8,10 มิถุนายน 2561
55,55,76020057,สหกรณ์บำรุงวิทย์,4,4,8,1,2,2,4,1,4,4,8,1,10,10,20,3,1,6,7,1,4,1,5,1,2,4,6,1,3,3,6,1,1,2,3,1,1,3,4,1,12,19,31,6,0,0,0,0,0,0,0,0,0,0,0,0,0,0,0,0,0,0,0,0,0,0,0,0,0,0,0,0,0,0,0,0,0,0,0,0,0,0,0,0,0,0,0,0,22,29,51,9,10 มิถุนายน 2561
56,56,76020058,บ้านหนองน้ำถ่าย,3,1,4,1,2,1,3,1,3,2,5,1,8,4,12,3,6,5,11,1,5,5,10,1,4,3,7,1,5,7,12,1,4,3,7,1,4,2,6,1,28,25,53,6,0,0,0,0,0,0,0,0,0,0,0,0,0,0,0,0,0,0,0,0,0,0,0,0,0,0,0,0,0,0,0,0,0,0,0,0,0,0,0,0,0,0,0,0,36,29,65,9,10 มิถุนายน 2561
57,57,76020060,วัดเขาปากช่อง,0,2,2,1,6,4,10,1,3,5,8,1,9,11,20,3,2,4,6,1,2,2,4,1,1,1,2,1,5,4,9,1,4,2,6,1,3,6,9,1,17,19,36,6,0,0,0,0,0,0,0,0,0,0,0,0,0,0,0,0,0,0,0,0,0,0,0,0,0,0,0,0,0,0,0,0,0,0,0,0,0,0,0,0,0,0,0,0,26,30,56,9,10 มิถุนายน 2561
58,58,76020061,วัดท่าเหว,1,3,4,1,5,9,14,1,8,4,12,1,14,16,30,3,7,6,13,1,8,8,16,1,8,9,17,1,6,5,11,1,18,8,26,1,8,10,18,1,55,46,101,6,0,0,0,0,0,0,0,0,0,0,0,0,0,0,0,0,0,0,0,0,0,0,0,0,0,0,0,0,0,0,0,0,0,0,0,0,0,0,0,0,0,0,0,0,69,62,131,9,10 มิถุนายน 2561
59,59,76020062,บ้านในดง,0,0,0,0,14,19,33,1,21,22,43,2,35,41,76,3,9,18,27,1,17,15,32,1,14,10,24,1,12,11,23,1,15,9,24,1,8,5,13,1,75,68,143,6,0,0,0,0,0,0,0,0,0,0,0,0,0,0,0,0,0,0,0,0,0,0,0,0,0,0,0,0,0,0,0,0,0,0,0,0,0,0,0,0,0,0,0,0,110,109,219,9,10 มิถุนายน 2561
60,60,76020063,บ้านดอนเตาอิฐ,0,0,0,0,4,5,9,1,8,5,13,1,12,10,22,2,3,4,7,1,10,3,13,1,8,4,12,1,5,5,10,1,3,9,12,1,6,3,9,1,35,28,63,6,0,0,0,0,0,0,0,0,0,0,0,0,0,0,0,0,0,0,0,0,0,0,0,0,0,0,0,0,0,0,0,0,0,0,0,0,0,0,0,0,0,0,0,0,47,38,85,8,10 มิถุนายน 2561
61,61,76020065,วัดตาลกง (ธรรมศรียาทร),0,0,0,0,14,11,25,1,9,7,16,1,23,18,41,2,7,8,15,1,9,10,19,1,6,12,18,1,13,7,20,1,7,13,20,1,10,4,14,1,52,54,106,6,17,13,30,1,17,13,30,1,11,6,17,1,45,32,77,3,0,0,0,0,0,0,0,0,0,0,0,0,0,0,0,0,0,0,0,0,0,0,0,0,0,0,0,0,120,104,224,11,10 มิถุนายน 2561
62,62,76020066,วัดมาบปลาเค้า (ธรรมโชติผดุง),0,0,0,0,2,6,8,1,6,3,9,1,8,9,17,2,2,3,5,1,2,5,7,1,1,1,2,1,3,7,10,1,8,0,8,1,1,3,4,1,17,19,36,6,0,0,0,0,0,0,0,0,0,0,0,0,0,0,0,0,0,0,0,0,0,0,0,0,0,0,0,0,0,0,0,0,0,0,0,0,0,0,0,0,0,0,0,0,25,28,53,8,10 มิถุนายน 2561
63,63,76020067,บ้านท่าโล้,0,0,0,0,6,4,10,1,11,6,17,1,17,10,27,2,13,7,20,1,6,9,15,1,9,7,16,1,7,12,19,1,6,7,13,1,8,8,16,1,49,50,99,6,9,6,15,1,7,6,13,1,5,7,12,1,21,19,40,3,0,0,0,0,0,0,0,0,0,0,0,0,0,0,0,0,0,0,0,0,0,0,0,0,0,0,0,0,87,79,166,11,10 มิถุนายน 2561
64,64,76020068,วัดวังไคร้,0,0,0,0,8,9,17,1,16,13,29,2,24,22,46,3,10,10,20,1,7,5,12,1,6,12,18,1,13,9,22,1,7,10,17,1,14,13,27,1,57,59,116,6,10,11,21,1,10,4,14,1,7,4,11,1,27,19,46,3,0,0,0,0,0,0,0,0,0,0,0,0,0,0,0,0,0,0,0,0,0,0,0,0,0,0,0,0,108,100,208,12,10 มิถุนายน 2561
65,65,76020069,บ้านท่าหัวลบ,0,0,0,0,3,5,8,1,4,2,6,1,7,7,14,2,5,5,10,1,4,2,6,1,2,3,5,1,7,7,14,1,4,5,9,1,6,6,12,1,28,28,56,6,0,0,0,0,0,0,0,0,0,0,0,0,0,0,0,0,0,0,0,0,0,0,0,0,0,0,0,0,0,0,0,0,0,0,0,0,0,0,0,0,0,0,0,0,35,35,70,8,10 มิถุนายน 2561
66,66,76020070,บ้านแม่ประจันต์,0,0,0,0,4,6,10,1,10,7,17,1,14,13,27,2,8,7,15,1,10,5,15,1,10,4,14,1,5,7,12,1,8,9,17,1,3,4,7,1,44,36,80,6,4,5,9,1,2,3,5,1,3,4,7,1,9,12,21,3,0,0,0,0,0,0,0,0,0,0,0,0,0,0,0,0,0,0,0,0,0,0,0,0,0,0,0,0,67,61,128,11,10 มิถุนายน 2561
67,67,76020071,บ้านหนองเกตุ,4,6,10,1,1,5,6,1,4,6,10,1,9,17,26,3,4,2,6,1,0,2,2,1,4,2,6,1,4,4,8,1,2,5,7,1,2,3,5,1,16,18,34,6,0,0,0,0,0,0,0,0,0,0,0,0,0,0,0,0,0,0,0,0,0,0,0,0,0,0,0,0,0,0,0,0,0,0,0,0,0,0,0,0,0,0,0,0,25,35,60,9,10 มิถุนายน 2561
68,68,76020072,บ้านหันตะเภา,0,0,0,0,2,1,3,1,1,3,4,1,3,4,7,2,3,5,8,1,4,4,8,1,3,4,7,1,4,1,5,1,3,2,5,1,5,0,5,1,22,16,38,6,0,0,0,0,0,0,0,0,0,0,0,0,0,0,0,0,0,0,0,0,0,0,0,0,0,0,0,0,0,0,0,0,0,0,0,0,0,0,0,0,0,0,0,0,25,20,45,8,10 มิถุนายน 2561
69,69,76020073,วัดหนองบัว,4,3,7,1,1,5,6,1,2,4,6,1,7,12,19,3,0,6,6,1,5,3,8,1,5,5,10,1,3,0,3,1,3,4,7,1,4,1,5,1,20,19,39,6,0,0,0,0,0,0,0,0,0,0,0,0,0,0,0,0,0,0,0,0,0,0,0,0,0,0,0,0,0,0,0,0,0,0,0,0,0,0,0,0,0,0,0,0,27,31,58,9,10 มิถุนายน 2561
70,70,76020074,วัดหนองจอก (ศรีสรรค์พานิช),0,0,0,0,10,11,21,1,14,12,26,1,24,23,47,2,9,11,20,1,10,11,21,1,16,8,24,1,19,14,33,1,15,16,31,1,15,20,35,1,84,80,164,6,0,0,0,0,0,0,0,0,0,0,0,0,0,0,0,0,0,0,0,0,0,0,0,0,0,0,0,0,0,0,0,0,0,0,0,0,0,0,0,0,0,0,0,0,108,103,211,8,10 มิถุนายน 2561
71,71,76020075,วัดศาลาเขื่อน (อุภัยเพชร),0,0,0,0,1,9,10,1,7,8,15,1,8,17,25,2,6,5,11,1,11,6,17,1,4,2,6,1,4,6,10,1,8,5,13,1,5,6,11,1,38,30,68,6,0,0,0,0,0,0,0,0,0,0,0,0,0,0,0,0,0,0,0,0,0,0,0,0,0,0,0,0,0,0,0,0,0,0,0,0,0,0,0,0,0,0,0,0,46,47,93,8,10 มิถุนายน 2561
72,72,76020076,วัดอินจำปา (มงคลคุรุราษฎร์),0,0,0,0,2,0,2,1,0,0,0,0,2,0,2,1,3,0,3,1,0,0,0,0,1,1,2,1,0,0,0,0,5,2,7,1,2,1,3,1,11,4,15,4,0,0,0,0,0,0,0,0,0,0,0,0,0,0,0,0,0,0,0,0,0,0,0,0,0,0,0,0,0,0,0,0,0,0,0,0,0,0,0,0,0,0,0,0,13,4,17,5,10 มิถุนายน 2561
73,73,76020078,วัดม่วงงาม,1,1,2,1,1,4,5,1,3,3,6,1,5,8,13,3,4,3,7,1,7,3,10,1,7,10,17,1,3,6,9,1,6,0,6,1,4,6,10,1,31,28,59,6,0,0,0,0,0,0,0,0,0,0,0,0,0,0,0,0,0,0,0,0,0,0,0,0,0,0,0,0,0,0,0,0,0,0,0,0,0,0,0,0,0,0,0,0,36,36,72,9,10 มิถุนายน 2561
74,74,76020079,วัดถ้ำรงค์ (ผ่านผดุง),0,0,0,0,6,6,12,1,12,9,21,1,18,15,33,2,15,2,17,1,10,8,18,1,9,11,20,1,10,8,18,1,11,10,21,1,10,6,16,1,65,45,110,6,12,12,24,1,15,13,28,1,16,11,27,1,43,36,79,3,0,0,0,0,0,0,0,0,0,0,0,0,0,0,0,0,0,0,0,0,0,0,0,0,0,0,0,0,126,96,222,11,10 มิถุนายน 2561
75,75,76020080,วัดโพธิ์กรุ (ผินผดุง),0,0,0,0,6,8,14,1,9,13,22,1,15,21,36,2,13,12,25,1,9,9,18,1,15,7,22,1,14,11,25,1,5,8,13,1,10,3,13,1,66,50,116,6,0,0,0,0,0,0,0,0,0,0,0,0,0,0,0,0,0,0,0,0,0,0,0,0,0,0,0,0,0,0,0,0,0,0,0,0,0,0,0,0,0,0,0,0,81,71,152,8,10 มิถุนายน 2561
76,76,76020081,วัดเขาทะโมน (เรือนวงศ์ทองศรี),0,0,0,0,1,0,1,1,3,1,4,1,4,1,5,2,0,1,1,1,2,0,2,1,1,5,6,1,3,0,3,1,4,0,4,1,1,0,1,1,11,6,17,6,0,0,0,0,0,0,0,0,0,0,0,0,0,0,0,0,0,0,0,0,0,0,0,0,0,0,0,0,0,0,0,0,0,0,0,0,0,0,0,0,0,0,0,0,15,7,22,8,10 มิถุนายน 2561
77,77,76020083,วัดท่าศาลาราม (เรือนบุญนาคาลัย),0,0,0,0,7,7,14,1,5,11,16,1,12,18,30,2,9,8,17,1,7,10,17,1,5,6,11,1,8,7,15,1,8,5,13,1,12,7,19,1,49,43,92,6,0,0,0,0,0,0,0,0,0,0,0,0,0,0,0,0,0,0,0,0,0,0,0,0,0,0,0,0,0,0,0,0,0,0,0,0,0,0,0,0,0,0,0,0,61,61,122,8,10 มิถุนายน 2561
78,78,76020084,วัดจันทาราม (เติมไลราษฎร์อนุเคราะห์),5,1,6,1,9,5,14,1,6,7,13,1,20,13,33,3,7,6,13,1,2,8,10,1,5,6,11,1,6,5,11,1,9,4,13,1,4,8,12,1,33,37,70,6,0,0,0,0,0,0,0,0,0,0,0,0,0,0,0,0,0,0,0,0,0,0,0,0,0,0,0,0,0,0,0,0,0,0,0,0,0,0,0,0,0,0,0,0,53,50,103,9,10 มิถุนายน 2561
79,79,76020085,บ้านดงห้วยหลวง,0,0,0,0,4,1,5,1,7,1,8,1,11,2,13,2,6,4,10,1,3,2,5,1,1,6,7,1,2,2,4,1,1,1,2,1,7,1,8,1,20,16,36,6,0,0,0,0,0,0,0,0,0,0,0,0,0,0,0,0,0,0,0,0,0,0,0,0,0,0,0,0,0,0,0,0,0,0,0,0,0,0,0,0,0,0,0,0,31,18,49,8,10 มิถุนายน 2561
80,80,76020087,วัดลาดศรัทธาราม (สำนักงานสลากกินแบ่งสงเคราะห์ 128),0,0,0,0,10,10,20,1,14,8,22,1,24,18,42,2,13,11,24,1,10,14,24,1,7,11,18,1,9,8,17,1,8,11,19,1,8,10,18,1,55,65,120,6,0,0,0,0,0,0,0,0,0,0,0,0,0,0,0,0,0,0,0,0,0,0,0,0,0,0,0,0,0,0,0,0,0,0,0,0,0,0,0,0,0,0,0,0,79,83,162,8,10 มิถุนายน 2561
81,81,76020088,วัดกุ่ม (เรือนพูนพิทยา),0,0,0,0,2,7,9,1,5,4,9,1,7,11,18,2,4,7,11,1,6,9,15,1,6,8,14,1,5,6,11,1,7,4,11,1,8,6,14,1,36,40,76,6,0,0,0,0,0,0,0,0,0,0,0,0,0,0,0,0,0,0,0,0,0,0,0,0,0,0,0,0,0,0,0,0,0,0,0,0,0,0,0,0,0,0,0,0,43,51,94,8,10 มิถุนายน 2561
82,82,76020089,วัดหนองกาทอง (ม่วงนิรมิตร),0,0,0,0,2,1,3,1,3,3,6,1,5,4,9,2,2,3,5,1,1,2,3,1,3,0,3,1,3,2,5,1,3,2,5,1,2,3,5,1,14,12,26,6,0,0,0,0,0,0,0,0,0,0,0,0,0,0,0,0,0,0,0,0,0,0,0,0,0,0,0,0,0,0,0,0,0,0,0,0,0,0,0,0,0,0,0,0,19,16,35,8,10 มิถุนายน 2561
83,83,76020090,วัดดอนกอก (ล้วนประชาสรรค์),0,0,0,0,4,0,4,1,2,0,2,1,6,0,6,2,1,2,3,1,1,2,3,1,4,2,6,1,6,2,8,1,2,3,5,1,4,3,7,1,18,14,32,6,0,0,0,0,0,0,0,0,0,0,0,0,0,0,0,0,0,0,0,0,0,0,0,0,0,0,0,0,0,0,0,0,0,0,0,0,0,0,0,0,0,0,0,0,24,14,38,8,10 มิถุนายน 2561
84,84,76020091,บ้านแหลมทอง,0,0,0,0,5,8,13,1,12,8,20,1,17,16,33,2,7,6,13,1,7,5,12,1,8,5,13,1,7,5,12,1,5,10,15,1,5,8,13,1,39,39,78,6,5,0,5,1,2,4,6,1,4,1,5,1,11,5,16,3,0,0,0,0,0,0,0,0,0,0,0,0,0,0,0,0,0,0,0,0,0,0,0,0,0,0,0,0,67,60,127,11,10 มิถุนายน 2561
85,85,76020092,บ้านไร่โคก (อินทร์ประชาสรรค์),0,0,0,0,6,2,8,1,7,0,7,1,13,2,15,2,6,2,8,1,2,5,7,1,4,1,5,1,3,4,7,1,4,3,7,1,3,2,5,1,22,17,39,6,0,0,0,0,0,0,0,0,0,0,0,0,0,0,0,0,0,0,0,0,0,0,0,0,0,0,0,0,0,0,0,0,0,0,0,0,0,0,0,0,0,0,0,0,35,19,54,8,10 มิถุนายน 2561
86,86,76020093,บ้านไร่ถิ่นน้อย (อาจอำรุง),0,0,0,0,2,0,2,1,0,2,2,1,2,2,4,2,1,0,1,1,2,0,2,1,0,1,1,1,3,0,3,1,1,0,1,1,1,1,2,1,8,2,10,6,0,0,0,0,0,0,0,0,0,0,0,0,0,0,0,0,0,0,0,0,0,0,0,0,0,0,0,0,0,0,0,0,0,0,0,0,0,0,0,0,0,0,0,0,10,4,14,8,10 มิถุนายน 2561
87,87,76020094,บ้านหนองไก่เถื่อน,0,0,0,0,3,6,9,1,7,6,13,1,10,12,22,2,1,3,4,1,3,4,7,1,5,2,7,1,2,3,5,1,3,5,8,1,2,1,3,1,16,18,34,6,0,0,0,0,0,0,0,0,0,0,0,0,0,0,0,0,0,0,0,0,0,0,0,0,0,0,0,0,0,0,0,0,0,0,0,0,0,0,0,0,0,0,0,0,26,30,56,8,10 มิถุนายน 2561
88,88,76020095,วัดบ่อบุญ (จารุราษฎร์บำรุง),7,5,12,1,7,7,14,1,4,9,13,1,18,21,39,3,5,9,14,1,9,5,14,1,10,6,16,1,8,8,16,1,10,9,19,1,13,8,21,1,55,45,100,6,0,0,0,0,0,0,0,0,0,0,0,0,0,0,0,0,0,0,0,0,0,0,0,0,0,0,0,0,0,0,0,0,0,0,0,0,0,0,0,0,0,0,0,0,73,66,139,9,10 มิถุนายน 2561
89,89,76020096,วัดวังบัว (ศรสายราษฎร์บำรุง),0,0,0,0,0,0,0,0,1,0,1,1,1,0,1,1,1,0,1,1,0,0,0,0,1,0,1,1,0,1,1,1,0,0,0,0,0,0,0,0,2,1,3,3,0,0,0,0,0,0,0,0,0,0,0,0,0,0,0,0,0,0,0,0,0,0,0,0,0,0,0,0,0,0,0,0,0,0,0,0,0,0,0,0,0,0,0,0,3,1,4,4,10 มิถุนายน 2561
90,90,76020097,บ้านลาดโพธิ์ (สุทธิราษฎร์รังสรรค์),0,0,0,0,0,0,0,0,2,0,2,1,2,0,2,1,2,4,6,1,0,0,0,0,0,1,1,1,1,0,1,1,0,0,0,0,0,2,2,1,3,7,10,4,0,0,0,0,0,0,0,0,0,0,0,0,0,0,0,0,0,0,0,0,0,0,0,0,0,0,0,0,0,0,0,0,0,0,0,0,0,0,0,0,0,0,0,0,5,7,12,5,10 มิถุนายน 2561
91,91,76020098,วัดห้วยเสือ (มงคลประชาสรรค์),4,1,5,1,3,7,10,1,3,7,10,1,10,15,25,3,2,7,9,1,3,8,11,1,4,6,10,1,5,5,10,1,5,3,8,1,5,6,11,1,24,35,59,6,0,0,0,0,0,0,0,0,0,0,0,0,0,0,0,0,0,0,0,0,0,0,0,0,0,0,0,0,0,0,0,0,0,0,0,0,0,0,0,0,0,0,0,0,34,50,84,9,10 มิถุนายน 2561
92,92,76020100,วัดหว้า,0,0,0,0,8,3,11,1,3,5,8,1,11,8,19,2,6,8,14,1,5,3,8,1,5,10,15,1,7,3,10,1,3,7,10,1,4,1,5,1,30,32,62,6,0,0,0,0,0,0,0,0,0,0,0,0,0,0,0,0,0,0,0,0,0,0,0,0,0,0,0,0,0,0,0,0,0,0,0,0,0,0,0,0,0,0,0,0,41,40,81,8,10 มิถุนายน 2561
93,93,76020101,วัดช่อม่วง,1,3,4,1,3,2,5,1,3,1,4,1,7,6,13,3,3,6,9,1,1,4,5,1,4,0,4,1,6,1,7,1,2,0,2,1,5,3,8,1,21,14,35,6,0,0,0,0,0,0,0,0,0,0,0,0,0,0,0,0,0,0,0,0,0,0,0,0,0,0,0,0,0,0,0,0,0,0,0,0,0,0,0,0,0,0,0,0,28,20,48,9,10 มิถุนายน 2561
94,94,76020102,บ้านซ่อง (ประชากรบำรุง),0,0,0,0,8,9,17,1,11,9,20,1,19,18,37,2,14,6,20,1,7,11,18,1,9,11,20,1,9,9,18,1,6,8,14,1,14,9,23,1,59,54,113,6,16,6,22,1,9,6,15,1,10,5,15,1,35,17,52,3,0,0,0,0,0,0,0,0,0,0,0,0,0,0,0,0,0,0,0,0,0,0,0,0,0,0,0,0,113,89,202,11,10 มิถุนายน 2561
95,95,76020103,บ้านโป่งสลอด,0,6,6,1,5,7,12,1,4,4,8,1,9,17,26,3,4,6,10,1,2,2,4,1,6,0,6,1,10,10,20,1,7,15,22,1,6,4,10,1,35,37,72,6,0,0,0,0,0,0,0,0,0,0,0,0,0,0,0,0,0,0,0,0,0,0,0,0,0,0,0,0,0,0,0,0,0,0,0,0,0,0,0,0,0,0,0,0,44,54,98,9,10 มิถุนายน 2561
96,96,76020104,วัดโพธิ์ลอย (เรือนวงษ์ผดุง),0,0,0,0,8,6,14,1,9,8,17,1,17,14,31,2,8,5,13,1,7,14,21,1,5,6,11,1,11,8,19,1,6,4,10,1,8,8,16,1,45,45,90,6,8,3,11,1,8,1,9,1,4,1,5,1,20,5,25,3,0,0,0,0,0,0,0,0,0,0,0,0,0,0,0,0,0,0,0,0,0,0,0,0,0,0,0,0,82,64,146,11,10 มิถุนายน 2561
97,97,76020105,บ้านหนองโสน (รัฐราษฎร์บำรุง),0,0,0,0,6,3,9,1,1,5,6,1,7,8,15,2,2,2,4,1,1,3,4,1,2,3,5,1,5,1,6,1,3,3,6,1,4,3,7,1,17,15,32,6,0,0,0,0,0,0,0,0,0,0,0,0,0,0,0,0,0,0,0,0,0,0,0,0,0,0,0,0,0,0,0,0,0,0,0,0,0,0,0,0,0,0,0,0,24,23,47,8,10 มิถุนายน 2561
98,98,76020106,บ้านพุตุม,0,0,0,0,4,2,6,1,3,4,7,1,7,6,13,2,4,2,6,1,5,2,7,1,3,4,7,1,2,6,8,1,7,4,11,1,6,5,11,1,27,23,50,6,0,0,0,0,0,0,0,0,0,0,0,0,0,0,0,0,0,0,0,0,0,0,0,0,0,0,0,0,0,0,0,0,0,0,0,0,0,0,0,0,0,0,0,0,34,29,63,8,10 มิถุนายน 2561
99,99,76020107,บ้านหนองจอก(อุดมธรรมอุปถัมภ์),0,0,0,0,10,7,17,1,9,7,16,1,19,14,33,2,8,10,18,1,5,4,9,1,11,8,19,1,8,11,19,1,12,5,17,1,8,11,19,1,52,49,101,6,0,0,0,0,0,0,0,0,0,0,0,0,0,0,0,0,0,0,0,0,0,0,0,0,0,0,0,0,0,0,0,0,0,0,0,0,0,0,0,0,0,0,0,0,71,63,134,8,10 มิถุนายน 2561
100,100,76020108,วัดหนองแก (กล่อมวิทยาคาร),3,6,9,1,9,8,17,1,9,19,28,1,21,33,54,3,16,14,30,1,11,8,19,1,14,7,21,1,12,12,24,1,13,20,33,1,12,16,28,1,78,77,155,6,30,16,46,2,19,17,36,2,11,10,21,1,60,43,103,5,0,0,0,0,0,0,0,0,0,0,0,0,0,0,0,0,0,0,0,0,0,0,0,0,0,0,0,0,159,153,312,14,10 มิถุนายน 2561
101,101,76020109,ชลประทานแก่งกระจาน,0,0,0,0,8,5,13,1,9,14,23,1,17,19,36,2,5,17,22,1,12,13,25,1,11,4,15,1,14,11,25,1,9,8,17,1,15,13,28,1,66,66,132,6,0,0,0,0,0,0,0,0,0,0,0,0,0,0,0,0,0,0,0,0,0,0,0,0,0,0,0,0,0,0,0,0,0,0,0,0,0,0,0,0,0,0,0,0,83,85,168,8,10 มิถุนายน 2561
102,102,76020110,บ้านวังนางนวล,6,2,8,1,1,3,4,1,2,6,8,1,9,11,20,3,4,2,6,1,1,2,3,1,3,1,4,1,3,3,6,1,5,1,6,1,1,2,3,1,17,11,28,6,0,0,0,0,0,0,0,0,0,0,0,0,0,0,0,0,0,0,0,0,0,0,0,0,0,0,0,0,0,0,0,0,0,0,0,0,0,0,0,0,0,0,0,0,26,22,48,9,10 มิถุนายน 2561
103,103,76020111,บ้านตะเคียนงาม,3,0,3,1,2,1,3,1,4,3,7,1,9,4,13,3,5,2,7,1,5,0,5,1,2,4,6,1,3,1,4,1,2,2,4,1,1,1,2,1,18,10,28,6,0,0,0,0,0,0,0,0,0,0,0,0,0,0,0,0,0,0,0,0,0,0,0,0,0,0,0,0,0,0,0,0,0,0,0,0,0,0,0,0,0,0,0,0,27,14,41,9,10 มิถุนายน 2561
104,104,76020112,บ้านน้ำทรัพย์,0,0,0,0,2,4,6,1,3,2,5,1,5,6,11,2,2,0,2,1,5,5,10,1,1,5,6,1,3,7,10,1,4,2,6,1,9,2,11,1,24,21,45,6,0,0,0,0,0,0,0,0,0,0,0,0,0,0,0,0,0,0,0,0,0,0,0,0,0,0,0,0,0,0,0,0,0,0,0,0,0,0,0,0,0,0,0,0,29,27,56,8,10 มิถุนายน 2561
105,105,76020113,บ้านต้นเกด,1,3,4,1,3,3,6,1,4,3,7,1,8,9,17,3,3,1,4,1,3,2,5,1,1,1,2,1,3,0,3,1,0,3,3,1,2,1,3,1,12,8,20,6,0,0,0,0,0,0,0,0,0,0,0,0,0,0,0,0,0,0,0,0,0,0,0,0,0,0,0,0,0,0,0,0,0,0,0,0,0,0,0,0,0,0,0,0,20,17,37,9,10 มิถุนายน 2561
106,106,76020114,บ้านแม่คะเมย,0,0,0,0,0,1,1,1,2,0,2,1,2,1,3,2,10,5,15,1,6,3,9,1,4,7,11,1,5,4,9,1,7,8,15,1,7,6,13,1,39,33,72,6,11,11,22,1,3,10,13,1,7,6,13,1,21,27,48,3,0,0,0,0,0,0,0,0,0,0,0,0,0,0,0,0,0,0,0,0,0,0,0,0,0,0,0,0,62,61,123,11,10 มิถุนายน 2561
107,107,76020115,บ้านพุเข็ม,4,3,7,1,5,3,8,1,5,2,7,1,14,8,22,3,2,1,3,1,3,3,6,1,4,4,8,1,1,4,5,1,2,4,6,1,3,3,6,1,15,19,34,6,0,0,0,0,0,0,0,0,0,0,0,0,0,0,0,0,0,0,0,0,0,0,0,0,0,0,0,0,0,0,0,0,0,0,0,0,0,0,0,0,0,0,0,0,29,27,56,9,10 มิถุนายน 2561
108,108,76020116,บ้านเขากลิ้ง,2,2,4,1,1,2,3,1,4,0,4,1,7,4,11,3,0,1,1,1,1,0,1,1,5,0,5,1,0,0,0,0,0,2,2,1,1,0,1,1,7,3,10,5,0,0,0,0,0,0,0,0,0,0,0,0,0,0,0,0,0,0,0,0,0,0,0,0,0,0,0,0,0,0,0,0,0,0,0,0,0,0,0,0,0,0,0,0,14,7,21,8,10 มิถุนายน 2561
109,109,76020117,บ้านหนองหงษ์,1,0,1,1,7,10,17,1,8,3,11,1,16,13,29,3,3,5,8,1,11,9,20,1,4,5,9,1,8,4,12,1,4,8,12,1,8,6,14,1,38,37,75,6,0,0,0,0,0,0,0,0,0,0,0,0,0,0,0,0,0,0,0,0,0,0,0,0,0,0,0,0,0,0,0,0,0,0,0,0,0,0,0,0,0,0,0,0,54,50,104,9,10 มิถุนายน 2561
110,110,76020118,บ้านท่าเรือ (ประสาทอนุสรณ์),0,0,0,0,0,3,3,1,2,3,5,1,2,6,8,2,3,1,4,1,2,8,10,1,7,4,11,1,3,2,5,1,6,4,10,1,5,1,6,1,26,20,46,6,0,0,0,0,0,0,0,0,0,0,0,0,0,0,0,0,0,0,0,0,0,0,0,0,0,0,0,0,0,0,0,0,0,0,0,0,0,0,0,0,0,0,0,0,28,26,54,8,10 มิถุนายน 2561
111,111,76020119,บ้านป่าเด็ง,30,37,67,2,38,48,86,4,68,60,128,4,136,145,281,10,49,55,104,4,51,46,97,4,53,40,93,4,46,52,98,3,38,56,94,3,42,31,73,3,279,280,559,21,0,0,0,0,0,0,0,0,0,0,0,0,0,0,0,0,0,0,0,0,0,0,0,0,0,0,0,0,0,0,0,0,0,0,0,0,0,0,0,0,0,0,0,0,415,425,840,31,10 มิถุนายน 2561
112,112,76020120,บ้านมะขามโพรง,0,0,0,0,10,6,16,1,11,12,23,1,21,18,39,2,16,4,20,1,12,7,19,1,8,7,15,1,7,5,12,1,8,6,14,1,6,8,14,1,57,37,94,6,0,0,0,0,0,0,0,0,0,0,0,0,0,0,0,0,0,0,0,0,0,0,0,0,0,0,0,0,0,0,0,0,0,0,0,0,0,0,0,0,0,0,0,0,78,55,133,8,10 มิถุนายน 2561
113,113,76020121,บ้านห้วยกวางจริง,0,0,0,0,6,7,13,1,3,5,8,1,9,12,21,2,3,3,6,1,2,2,4,1,9,6,15,1,7,6,13,1,9,6,15,1,3,7,10,1,33,30,63,6,5,6,11,1,3,2,5,1,6,4,10,1,14,12,26,3,0,0,0,0,0,0,0,0,0,0,0,0,0,0,0,0,0,0,0,0,0,0,0,0,0,0,0,0,56,54,110,11,10 มิถุนายน 2561
114,114,76020123,บ้านหนองมะกอก,0,0,0,0,10,10,20,1,6,6,12,1,16,16,32,2,10,7,17,1,5,6,11,1,5,6,11,1,10,3,13,1,2,5,7,1,6,5,11,1,38,32,70,6,0,0,0,0,0,0,0,0,0,0,0,0,0,0,0,0,0,0,0,0,0,0,0,0,0,0,0,0,0,0,0,0,0,0,0,0,0,0,0,0,0,0,0,0,54,48,102,8,10 มิถุนายน 2561
115,115,76020124,บ้านหนองสะแก,4,6,10,1,4,3,7,1,6,3,9,1,14,12,26,3,4,3,7,1,1,5,6,1,5,2,7,1,3,1,4,1,3,2,5,1,3,2,5,1,19,15,34,6,0,0,0,0,0,0,0,0,0,0,0,0,0,0,0,0,0,0,0,0,0,0,0,0,0,0,0,0,0,0,0,0,0,0,0,0,0,0,0,0,0,0,0,0,33,27,60,9,10 มิถุนายน 2561
116,116,76020125,บ้านซ่อง,0,0,0,0,15,16,31,2,20,13,33,2,35,29,64,4,21,17,38,2,21,12,33,2,17,15,32,2,20,19,39,2,23,30,53,2,25,18,43,2,127,111,238,12,0,0,0,0,0,0,0,0,0,0,0,0,0,0,0,0,0,0,0,0,0,0,0,0,0,0,0,0,0,0,0,0,0,0,0,0,0,0,0,0,0,0,0,0,162,140,302,16,10 มิถุนายน 2561
117,117,76020126,บ้านทุ่งเคล็ด,0,0,0,0,2,4,6,1,7,2,9,1,9,6,15,2,2,3,5,1,3,2,5,1,3,1,4,1,2,1,3,1,2,2,4,1,2,0,2,1,14,9,23,6,0,0,0,0,0,0,0,0,0,0,0,0,0,0,0,0,0,0,0,0,0,0,0,0,0,0,0,0,0,0,0,0,0,0,0,0,0,0,0,0,0,0,0,0,23,15,38,8,10 มิถุนายน 2561
118,118,76020128,บ้านห้วยปลาดุก,5,2,7,1,3,1,4,1,2,1,3,1,10,4,14,3,4,3,7,1,5,3,8,1,2,3,5,1,2,3,5,1,2,4,6,1,2,2,4,1,17,18,35,6,0,0,0,0,0,0,0,0,0,0,0,0,0,0,0,0,0,0,0,0,0,0,0,0,0,0,0,0,0,0,0,0,0,0,0,0,0,0,0,0,0,0,0,0,27,22,49,9,10 มิถุนายน 2561
119,119,76020129,อ.ฮ.ลิงค์ (ในพระอุปถัมภ์สมเด็จพระศรีนครินทราบรมราชชนนี),0,0,0,0,12,9,21,1,11,6,17,1,23,15,38,2,15,9,24,1,10,14,24,1,14,5,19,1,9,8,17,1,8,4,12,1,14,4,18,1,70,44,114,6,10,9,19,1,12,6,18,1,6,8,14,1,28,23,51,3,0,0,0,0,0,0,0,0,0,0,0,0,0,0,0,0,0,0,0,0,0,0,0,0,0,0,0,0,121,82,203,11,10 มิถุนายน 2561
120,120,76020130,บ้านสองพี่น้อง (สายปัญญาสมาคมในพระบรมราชินูปถัมภ์),1,3,4,1,3,2,5,1,4,5,9,1,8,10,18,3,7,5,12,1,7,4,11,1,6,2,8,1,2,3,5,1,5,1,6,1,4,2,6,1,31,17,48,6,0,0,0,0,0,0,0,0,0,0,0,0,0,0,0,0,0,0,0,0,0,0,0,0,0,0,0,0,0,0,0,0,0,0,0,0,0,0,0,0,0,0,0,0,39,27,66,9,10 มิถุนายน 2561
121,121,76020131,บ้านหนองปืนแตก,0,0,0,0,18,9,27,2,12,17,29,2,30,26,56,4,17,11,28,1,8,9,17,1,11,12,23,1,10,16,26,1,8,12,20,1,12,11,23,1,66,71,137,6,4,8,12,1,10,7,17,1,3,4,7,1,17,19,36,3,0,0,0,0,0,0,0,0,0,0,0,0,0,0,0,0,0,0,0,0,0,0,0,0,0,0,0,0,113,116,229,13,10 มิถุนายน 2561
122,122,76020132,บ้านด่านโง,0,0,0,0,6,13,19,1,11,9,20,1,17,22,39,2,13,9,22,1,6,9,15,1,7,6,13,1,5,6,11,1,10,7,17,1,7,4,11,1,48,41,89,6,8,4,12,1,13,11,24,1,0,0,0,0,21,15,36,2,0,0,0,0,0,0,0,0,0,0,0,0,0,0,0,0,0,0,0,0,0,0,0,0,0,0,0,0,86,78,164,10,10 มิถุนายน 2561
123,123,76020133,บ้านห้วยไผ่,0,0,0,0,5,4,9,1,5,5,10,1,10,9,19,2,3,5,8,1,6,4,10,1,9,4,13,1,10,2,12,1,5,5,10,1,3,7,10,1,36,27,63,6,0,0,0,0,0,0,0,0,0,0,0,0,0,0,0,0,0,0,0,0,0,0,0,0,0,0,0,0,0,0,0,0,0,0,0,0,0,0,0,0,0,0,0,0,46,36,82,8,10 มิถุนายน 2561
124,124,76020134,บ้านพุสวรรค์,8,4,12,1,4,3,7,1,6,1,7,1,18,8,26,3,4,5,9,1,3,2,5,1,4,2,6,1,4,3,7,1,2,4,6,1,1,4,5,1,18,20,38,6,0,0,0,0,0,0,0,0,0,0,0,0,0,0,0,0,0,0,0,0,0,0,0,0,0,0,0,0,0,0,0,0,0,0,0,0,0,0,0,0,0,0,0,0,36,28,64,9,10 มิถุนายน 2561
