,0,1,2,3,4,5,6,7,8,9,10,11,12,13,14,15,16,17,18,19,20,21,22,23,24,25,26,27,28,29,30,31,32,33,34,35,36,37,38,39,40,41,42,43,44,45,46,47,48,49,50,51,52,53,54,55,56,57,58,59,60,61,62,63,64,65,66,67,68,69,70,71,72,73,74,75,76,77,78,79,80,81,82,83,84,85,86,87,88,89,90,91,92,93,94,95
0,ลำดับ,รหัส SMIS,โรงเรียน,อ.3 ขวบ ชาย,อ.3 ขวบ หญิง,รวมอ.3 ขวบ,อ.3 ขวบ ห้อง,อ.1 ชาย,อ.1 หญิง,รวมอ.1,อ.1 ห้อง,อ.2 ชาย,อ.2 หญิง,รวมอ.2,อ.2 ห้อง,รวมก่อนประถม ชาย,รวมก่อนประถม หญิง,รวมก่อนประถม,รวมห้องก่อนประถม,ป.1 ชาย,ป.1 หญิง,รวมป.1,ป.1 ห้อง,ป.2 ชาย,ป.2 หญิง,รวมป.2,ป.2 ห้อง,ป.3 ชาย,ป.3 หญิง,รวมป.3,ป.3 ห้อง,ป.4 ชาย,ป.4 หญิง,รวมป.4,ป.4 ห้อง,ป.5 ชาย,ป.5 หญิง,รวมป.5,ป.5 ห้อง,ป.6 ชาย,ป.6 หญิง,รวมป.6,ป.6 ห้อง,รวมประถม ชาย,รวมประถม หญิง,รวมประถม,รวมห้องประถม,ม.1 ชาย,ม.1 หญิง,รวมม.1,ม.1 ห้อง,ม.2 ชาย,ม.2 หญิง,รวมม.2,ม.2 ห้อง,ม.3 ชาย,ม.3 หญิง,รวมม.3,ม.3 ห้อง,รวมม.ต้น ชาย,รวมม.ต้น หญิง,รวมม.ต้น,รวมห้องม.ต้น,ม.4 ชาย,ม.4 หญิง,รวมม.4,ม.4 ห้อง,ม.5 ชาย,ม.5 หญิง,รวมม.5,ม.5 ห้อง,ม.6 ชาย,ม.6 หญิง,รวมม.6,ม.6 ห้อง,ปวช.1 ชาย,ปวช.1 หญิง,รวมปวช.1,ปวช.1 ห้อง,ปวช.2 ชาย,ปวช.2 หญิง,รวมปวช.2,ปวช.2 ห้อง,ปวช.3 ชาย,ปวช.3 หญิง,รวมปวช.3,ปวช.3 ห้อง,รวมม.ปลายและเทียบเท่า ชาย,รวมม.ปลายและเทียบเท่า หญิง,รวมม.ปลายและเทียบเท่า,รวมห้องม.ปลายและเทียบเท่า,รวมทั้งหมด ชาย,รวมทั้งหมด หญิง,รวมทั้งหมด,รวมห้องทั้งหมด,ข้อมูล ณ วันที่
1,1,77020001,บ้านหนองกระทิง,1,1,2,1,2,3,5,1,3,2,5,1,6,6,12,3,3,3,6,1,5,1,6,1,2,2,4,1,1,5,6,1,2,3,5,1,1,1,2,1,14,15,29,6,0,0,0,0,0,0,0,0,0,0,0,0,0,0,0,0,0,0,0,0,0,0,0,0,0,0,0,0,0,0,0,0,0,0,0,0,0,0,0,0,0,0,0,0,20,21,41,9,10 มิถุนายน 2561
2,2,77020002,วัดกุยบุรี,3,4,7,1,11,13,24,1,13,7,20,1,27,24,51,3,17,21,38,1,14,4,18,1,21,11,32,1,13,14,27,1,14,15,29,1,14,12,26,1,93,77,170,6,0,0,0,0,0,0,0,0,0,0,0,0,0,0,0,0,0,0,0,0,0,0,0,0,0,0,0,0,0,0,0,0,0,0,0,0,0,0,0,0,0,0,0,0,120,101,221,9,10 มิถุนายน 2561
3,3,77020003,อนุบาลกุยบุรี(วัดวังยาว),15,22,37,2,21,29,50,3,49,30,79,3,85,81,166,8,40,49,89,3,57,46,103,3,35,47,82,3,51,53,104,3,44,44,88,3,41,55,96,3,268,294,562,18,34,25,59,2,58,27,85,3,38,42,80,3,130,94,224,8,12,15,27,2,18,9,27,2,14,21,35,2,0,0,0,0,0,0,0,0,0,0,0,0,44,45,89,6,527,514,1041,40,10 มิถุนายน 2561
4,4,77020004,บ้านบน,4,3,7,1,4,9,13,1,6,6,12,1,14,18,32,3,5,7,12,1,4,8,12,1,7,8,15,1,8,6,14,1,10,4,14,1,5,6,11,1,39,39,78,6,0,0,0,0,0,0,0,0,0,0,0,0,0,0,0,0,0,0,0,0,0,0,0,0,0,0,0,0,0,0,0,0,0,0,0,0,0,0,0,0,0,0,0,0,53,57,110,9,10 มิถุนายน 2561
5,5,77020007,บ้านหนองหมู,3,0,3,1,3,7,10,1,14,8,22,1,20,15,35,3,6,2,8,1,3,6,9,1,10,2,12,1,5,0,5,1,4,8,12,1,7,2,9,1,35,20,55,6,0,0,0,0,0,0,0,0,0,0,0,0,0,0,0,0,0,0,0,0,0,0,0,0,0,0,0,0,0,0,0,0,0,0,0,0,0,0,0,0,0,0,0,0,55,35,90,9,10 มิถุนายน 2561
6,6,77020008,บ้านหนองเตาปูน,9,5,14,1,1,9,10,1,8,6,14,1,18,20,38,3,8,9,17,1,8,14,22,1,6,16,22,1,12,8,20,1,12,10,22,1,7,14,21,1,53,71,124,6,0,0,0,0,0,0,0,0,0,0,0,0,0,0,0,0,0,0,0,0,0,0,0,0,0,0,0,0,0,0,0,0,0,0,0,0,0,0,0,0,0,0,0,0,71,91,162,9,10 มิถุนายน 2561
7,7,77020009,บ้านหนองบัว,3,3,6,1,4,3,7,1,3,5,8,1,10,11,21,3,1,3,4,1,4,4,8,1,2,0,2,1,4,5,9,1,1,4,5,1,5,1,6,1,17,17,34,6,0,0,0,0,0,0,0,0,0,0,0,0,0,0,0,0,0,0,0,0,0,0,0,0,0,0,0,0,0,0,0,0,0,0,0,0,0,0,0,0,0,0,0,0,27,28,55,9,10 มิถุนายน 2561
8,8,77020010,บ้านปากเหมือง,13,8,21,1,8,6,14,1,10,8,18,1,31,22,53,3,9,9,18,1,3,7,10,1,4,5,9,1,2,3,5,1,8,5,13,1,8,6,14,1,34,35,69,6,0,0,0,0,0,0,0,0,0,0,0,0,0,0,0,0,0,0,0,0,0,0,0,0,0,0,0,0,0,0,0,0,0,0,0,0,0,0,0,0,0,0,0,0,65,57,122,9,10 มิถุนายน 2561
9,9,77020011,บ้านเขาแดง,5,3,8,1,3,5,8,1,9,3,12,1,17,11,28,3,8,6,14,1,9,9,18,1,2,6,8,1,7,6,13,1,3,10,13,1,4,6,10,1,33,43,76,6,0,0,0,0,0,0,0,0,0,0,0,0,0,0,0,0,0,0,0,0,0,0,0,0,0,0,0,0,0,0,0,0,0,0,0,0,0,0,0,0,0,0,0,0,50,54,104,9,10 มิถุนายน 2561
10,10,77020012,วัดทุ่งน้อย,0,0,0,0,8,11,19,1,6,11,17,1,14,22,36,2,9,3,12,1,5,4,9,1,3,7,10,1,5,7,12,1,9,7,16,1,6,10,16,1,37,38,75,6,0,0,0,0,0,0,0,0,0,0,0,0,0,0,0,0,0,0,0,0,0,0,0,0,0,0,0,0,0,0,0,0,0,0,0,0,0,0,0,0,0,0,0,0,51,60,111,8,10 มิถุนายน 2561
11,11,77020013,วัดดอนยายหนู,0,0,0,0,8,9,17,1,6,5,11,1,14,14,28,2,10,6,16,1,9,3,12,1,5,8,13,1,5,8,13,1,11,9,20,1,6,9,15,1,46,43,89,6,5,4,9,1,9,3,12,1,10,10,20,1,24,17,41,3,0,0,0,0,0,0,0,0,0,0,0,0,0,0,0,0,0,0,0,0,0,0,0,0,0,0,0,0,84,74,158,11,10 มิถุนายน 2561
12,12,77020014,บ้านดอนบ่อกุ่ม,0,0,0,0,8,4,12,1,4,2,6,1,12,6,18,2,4,8,12,1,3,3,6,1,6,3,9,1,3,5,8,1,7,3,10,1,3,5,8,1,26,27,53,6,0,0,0,0,0,0,0,0,0,0,0,0,0,0,0,0,0,0,0,0,0,0,0,0,0,0,0,0,0,0,0,0,0,0,0,0,0,0,0,0,0,0,0,0,38,33,71,8,10 มิถุนายน 2561
13,13,77020015,บ้านดอนมะขาม,0,0,0,0,8,6,14,1,11,7,18,1,19,13,32,2,10,8,18,1,9,11,20,1,12,8,20,1,9,10,19,1,13,8,21,1,12,5,17,1,65,50,115,6,0,0,0,0,0,0,0,0,0,0,0,0,0,0,0,0,0,0,0,0,0,0,0,0,0,0,0,0,0,0,0,0,0,0,0,0,0,0,0,0,0,0,0,0,84,63,147,8,10 มิถุนายน 2561
14,14,77020016,สามแยกป่าถล่ม,0,2,2,1,3,5,8,1,4,1,5,1,7,8,15,3,4,5,9,1,6,1,7,1,2,5,7,1,5,3,8,1,3,6,9,1,0,4,4,1,20,24,44,6,0,0,0,0,0,0,0,0,0,0,0,0,0,0,0,0,0,0,0,0,0,0,0,0,0,0,0,0,0,0,0,0,0,0,0,0,0,0,0,0,0,0,0,0,27,32,59,9,10 มิถุนายน 2561
15,15,77020017,บ้านป่าถล่ม,0,0,0,0,0,0,0,0,0,0,0,0,0,0,0,0,38,38,76,2,26,15,41,1,22,17,39,1,23,20,43,1,23,19,42,1,15,23,38,1,147,132,279,7,0,0,0,0,0,0,0,0,0,0,0,0,0,0,0,0,0,0,0,0,0,0,0,0,0,0,0,0,0,0,0,0,0,0,0,0,0,0,0,0,0,0,0,0,147,132,279,7,10 มิถุนายน 2561
16,16,77020018,บ้านสามกระทาย,6,4,10,1,2,4,6,1,2,1,3,1,10,9,19,3,4,7,11,1,5,0,5,1,2,5,7,1,5,3,8,1,3,4,7,1,12,7,19,1,31,26,57,6,0,0,0,0,0,0,0,0,0,0,0,0,0,0,0,0,0,0,0,0,0,0,0,0,0,0,0,0,0,0,0,0,0,0,0,0,0,0,0,0,0,0,0,0,41,35,76,9,10 มิถุนายน 2561
17,17,77020019,บ้านดอนกลาง,2,4,6,1,6,6,12,1,8,7,15,1,16,17,33,3,7,7,14,1,9,7,16,1,13,2,15,1,8,8,16,1,9,12,21,1,6,8,14,1,52,44,96,6,14,8,22,1,11,6,17,1,7,11,18,1,32,25,57,3,0,0,0,0,0,0,0,0,0,0,0,0,0,0,0,0,0,0,0,0,0,0,0,0,0,0,0,0,100,86,186,12,10 มิถุนายน 2561
18,18,77020020,บ้านสำโหรง,7,6,13,1,5,2,7,1,4,3,7,1,16,11,27,3,7,9,16,1,7,9,16,1,7,5,12,1,10,6,16,1,7,7,14,1,5,5,10,1,43,41,84,6,0,0,0,0,0,0,0,0,0,0,0,0,0,0,0,0,0,0,0,0,0,0,0,0,0,0,0,0,0,0,0,0,0,0,0,0,0,0,0,0,0,0,0,0,59,52,111,9,10 มิถุนายน 2561
19,19,77020021,บ้านรวมไทย,0,0,0,0,3,14,17,1,7,13,20,1,10,27,37,2,19,10,29,1,12,7,19,1,8,8,16,1,13,15,28,1,14,7,21,1,12,7,19,1,78,54,132,6,0,0,0,0,0,0,0,0,0,0,0,0,0,0,0,0,0,0,0,0,0,0,0,0,0,0,0,0,0,0,0,0,0,0,0,0,0,0,0,0,0,0,0,0,88,81,169,8,10 มิถุนายน 2561
20,20,77020022,บ้านโป่งกะสัง,0,0,0,0,10,7,17,1,12,7,19,1,22,14,36,2,10,6,16,1,6,15,21,1,9,9,18,1,11,12,23,1,10,6,16,1,14,6,20,1,60,54,114,6,0,0,0,0,0,0,0,0,0,0,0,0,0,0,0,0,0,0,0,0,0,0,0,0,0,0,0,0,0,0,0,0,0,0,0,0,0,0,0,0,0,0,0,0,82,68,150,8,10 มิถุนายน 2561
21,21,77020023,บ้านหนองเกด,6,12,18,1,7,4,11,1,10,9,19,1,23,25,48,3,8,6,14,1,8,11,19,1,3,4,7,1,8,14,22,1,14,8,22,1,5,6,11,1,46,49,95,6,10,13,23,1,16,13,29,1,15,9,24,1,41,35,76,3,0,0,0,0,0,0,0,0,0,0,0,0,0,0,0,0,0,0,0,0,0,0,0,0,0,0,0,0,110,109,219,12,10 มิถุนายน 2561
22,22,77020024,บ้านยางชุม,10,9,19,1,8,9,17,1,8,10,18,1,26,28,54,3,9,8,17,1,10,12,22,1,12,12,24,1,8,9,17,1,12,8,20,1,8,6,14,1,59,55,114,6,0,0,0,0,0,0,0,0,0,0,0,0,0,0,0,0,0,0,0,0,0,0,0,0,0,0,0,0,0,0,0,0,0,0,0,0,0,0,0,0,0,0,0,0,85,83,168,9,10 มิถุนายน 2561
23,23,77020025,ดี.มากาเร็ตฟุลเลอร์,1,3,4,1,6,4,10,1,6,5,11,1,13,12,25,3,6,2,8,1,5,6,11,1,5,5,10,1,2,8,10,1,5,5,10,1,3,7,10,1,26,33,59,6,0,0,0,0,0,0,0,0,0,0,0,0,0,0,0,0,0,0,0,0,0,0,0,0,0,0,0,0,0,0,0,0,0,0,0,0,0,0,0,0,0,0,0,0,39,45,84,9,10 มิถุนายน 2561
24,24,77020026,บ้านไร่บน,1,7,8,1,5,3,8,1,11,4,15,1,17,14,31,3,8,5,13,1,8,9,17,1,6,3,9,1,8,5,13,1,15,5,20,1,12,10,22,1,57,37,94,6,0,0,0,0,0,0,0,0,0,0,0,0,0,0,0,0,0,0,0,0,0,0,0,0,0,0,0,0,0,0,0,0,0,0,0,0,0,0,0,0,0,0,0,0,74,51,125,9,10 มิถุนายน 2561
25,25,77020027,บ้านหาดขาม,7,10,17,1,10,14,24,1,13,13,26,1,30,37,67,3,17,10,27,1,8,12,20,1,15,11,26,1,15,18,33,1,19,14,33,1,13,12,25,1,87,77,164,6,0,0,0,0,0,0,0,0,0,0,0,0,0,0,0,0,0,0,0,0,0,0,0,0,0,0,0,0,0,0,0,0,0,0,0,0,0,0,0,0,0,0,0,0,117,114,231,9,10 มิถุนายน 2561
26,26,77020028,ชลประทานปราณบุรีสาขาบ้านวังปลา,0,0,0,0,0,0,0,0,0,0,0,0,0,0,0,0,5,1,6,1,4,0,4,1,1,0,1,1,0,2,2,1,2,1,3,1,1,0,1,1,13,4,17,6,0,0,0,0,0,0,0,0,0,0,0,0,0,0,0,0,0,0,0,0,0,0,0,0,0,0,0,0,0,0,0,0,0,0,0,0,0,0,0,0,0,0,0,0,13,4,17,6,10 มิถุนายน 2561
27,27,77020031,บ้านตำหรุ(วิงประชาสงเคราะห์),3,9,12,1,7,7,14,1,10,13,23,1,20,29,49,3,25,19,44,1,18,19,37,1,16,13,29,1,19,14,33,1,14,16,30,1,20,18,38,1,112,99,211,6,19,17,36,1,32,21,53,2,15,7,22,1,66,45,111,4,0,0,0,0,0,0,0,0,0,0,0,0,0,0,0,0,0,0,0,0,0,0,0,0,0,0,0,0,198,173,371,13,10 มิถุนายน 2561
28,28,77020033,บ้านหนองกา,6,3,9,1,13,6,19,1,5,6,11,1,24,15,39,3,7,2,9,1,4,2,6,1,5,2,7,1,4,4,8,1,4,8,12,1,6,5,11,1,30,23,53,6,0,0,0,0,0,0,0,0,0,0,0,0,0,0,0,0,0,0,0,0,0,0,0,0,0,0,0,0,0,0,0,0,0,0,0,0,0,0,0,0,0,0,0,0,54,38,92,9,10 มิถุนายน 2561
29,29,77020034,วัดนาห้วย,9,8,17,1,3,7,10,1,7,4,11,1,19,19,38,3,10,8,18,1,11,6,17,1,11,7,18,1,11,9,20,1,11,6,17,1,8,8,16,1,62,44,106,6,0,0,0,0,0,0,0,0,0,0,0,0,0,0,0,0,0,0,0,0,0,0,0,0,0,0,0,0,0,0,0,0,0,0,0,0,0,0,0,0,0,0,0,0,81,63,144,9,10 มิถุนายน 2561
30,30,77020035,อนุบาลปราณบุรี(บ้านเมืองเก่า),33,36,69,2,24,32,56,2,31,30,61,2,88,98,186,6,54,55,109,3,59,44,103,3,50,53,103,3,42,47,89,3,50,64,114,3,46,49,95,3,301,312,613,18,0,0,0,0,0,0,0,0,0,0,0,0,0,0,0,0,0,0,0,0,0,0,0,0,0,0,0,0,0,0,0,0,0,0,0,0,0,0,0,0,0,0,0,0,389,410,799,24,10 มิถุนายน 2561
31,31,77020036,บ้านปากน้ำปราณ,0,0,0,0,28,16,44,2,25,20,45,2,53,36,89,4,33,25,58,2,31,31,62,2,28,24,52,2,33,22,55,2,39,23,62,2,28,22,50,2,192,147,339,12,0,0,0,0,0,0,0,0,0,0,0,0,0,0,0,0,0,0,0,0,0,0,0,0,0,0,0,0,0,0,0,0,0,0,0,0,0,0,0,0,0,0,0,0,245,183,428,16,10 มิถุนายน 2561
32,32,77020038,บ้านปรือน้อย,0,0,0,0,11,8,19,1,7,10,17,1,18,18,36,2,15,17,32,1,11,13,24,1,12,13,25,1,14,13,27,1,9,7,16,1,14,7,21,1,75,70,145,6,0,0,0,0,0,0,0,0,0,0,0,0,0,0,0,0,0,0,0,0,0,0,0,0,0,0,0,0,0,0,0,0,0,0,0,0,0,0,0,0,0,0,0,0,93,88,181,8,10 มิถุนายน 2561
33,33,77020039,บ้านวังก์พง(รัฐราษฏร์บำรุง)มิตรภาพที่158,0,0,0,0,10,8,18,1,11,6,17,1,21,14,35,2,5,5,10,1,8,6,14,1,9,15,24,1,15,11,26,1,13,10,23,1,12,7,19,1,62,54,116,6,0,0,0,0,0,0,0,0,0,0,0,0,0,0,0,0,0,0,0,0,0,0,0,0,0,0,0,0,0,0,0,0,0,0,0,0,0,0,0,0,0,0,0,0,83,68,151,8,10 มิถุนายน 2561
34,34,77020040,บ้านหนองหอย,0,0,0,0,13,22,35,1,22,16,38,1,35,38,73,2,20,19,39,1,9,12,21,1,15,9,24,1,14,12,26,1,21,12,33,1,19,10,29,1,98,74,172,6,26,25,51,2,27,18,45,1,19,18,37,1,72,61,133,4,0,0,0,0,0,0,0,0,0,0,0,0,0,0,0,0,0,0,0,0,0,0,0,0,0,0,0,0,205,173,378,12,10 มิถุนายน 2561
35,35,77020041,บ้านวังยาว,0,0,0,0,3,6,9,1,4,6,10,1,7,12,19,2,3,7,10,1,0,5,5,1,9,6,15,1,4,5,9,1,5,2,7,1,5,5,10,1,26,30,56,6,0,0,0,0,0,0,0,0,0,0,0,0,0,0,0,0,0,0,0,0,0,0,0,0,0,0,0,0,0,0,0,0,0,0,0,0,0,0,0,0,0,0,0,0,33,42,75,8,10 มิถุนายน 2561
36,36,77020044,ชลประทานปราณบุรี,7,1,8,1,6,5,11,1,7,8,15,1,20,14,34,3,2,2,4,1,1,2,3,1,1,3,4,1,5,5,10,1,7,1,8,1,5,7,12,1,21,20,41,6,0,0,0,0,0,0,0,0,0,0,0,0,0,0,0,0,0,0,0,0,0,0,0,0,0,0,0,0,0,0,0,0,0,0,0,0,0,0,0,0,0,0,0,0,41,34,75,9,10 มิถุนายน 2561
37,37,77020045,บ้านห้วยพลับ,6,4,10,1,2,4,6,1,9,7,16,1,17,15,32,3,6,5,11,1,8,10,18,1,6,6,12,1,5,8,13,1,8,6,14,1,5,6,11,1,38,41,79,6,0,0,0,0,0,0,0,0,0,0,0,0,0,0,0,0,0,0,0,0,0,0,0,0,0,0,0,0,0,0,0,0,0,0,0,0,0,0,0,0,0,0,0,0,55,56,111,9,10 มิถุนายน 2561
38,38,77020046,บ้านวังวน(ชูชีพ-สนิทพลอยน้อยอุปถัมภ์),2,5,7,1,6,6,12,1,5,5,10,1,13,16,29,3,5,7,12,1,1,8,9,1,3,2,5,1,2,1,3,1,7,4,11,1,5,1,6,1,23,23,46,6,0,0,0,0,0,0,0,0,0,0,0,0,0,0,0,0,0,0,0,0,0,0,0,0,0,0,0,0,0,0,0,0,0,0,0,0,0,0,0,0,0,0,0,0,36,39,75,9,10 มิถุนายน 2561
39,39,77020047,บ้านหนองยิงหมี,8,3,11,1,9,12,21,1,15,9,24,1,32,24,56,3,19,13,32,1,12,10,22,1,10,26,36,1,15,15,30,1,17,10,27,1,15,11,26,1,88,85,173,6,33,21,54,2,23,22,45,2,23,20,43,2,79,63,142,6,0,0,0,0,0,0,0,0,0,0,0,0,0,0,0,0,0,0,0,0,0,0,0,0,0,0,0,0,199,172,371,15,10 มิถุนายน 2561
40,40,77020048,บ้านหนองตาเย็น,15,8,23,1,4,11,15,1,13,11,24,1,32,30,62,3,16,16,32,1,23,15,38,1,16,16,32,1,12,10,22,1,15,14,29,1,18,12,30,1,100,83,183,6,0,0,0,0,0,0,0,0,0,0,0,0,0,0,0,0,0,0,0,0,0,0,0,0,0,0,0,0,0,0,0,0,0,0,0,0,0,0,0,0,0,0,0,0,132,113,245,9,10 มิถุนายน 2561
41,41,77020049,บ้านห้วยมงคล,0,0,0,0,16,13,29,1,10,13,23,1,26,26,52,2,14,11,25,1,12,16,28,1,20,8,28,1,17,11,28,1,16,18,34,1,24,11,35,1,103,75,178,6,20,17,37,1,16,20,36,1,8,9,17,1,44,46,90,3,0,0,0,0,0,0,0,0,0,0,0,0,0,0,0,0,0,0,0,0,0,0,0,0,0,0,0,0,173,147,320,11,10 มิถุนายน 2561
42,42,77020050,บ้านวังข่อย,0,0,0,0,12,5,17,1,4,3,7,1,16,8,24,2,8,6,14,1,5,5,10,1,9,5,14,1,7,6,13,1,3,4,7,1,5,2,7,1,37,28,65,6,0,0,0,0,0,0,0,0,0,0,0,0,0,0,0,0,0,0,0,0,0,0,0,0,0,0,0,0,0,0,0,0,0,0,0,0,0,0,0,0,0,0,0,0,53,36,89,8,10 มิถุนายน 2561
43,43,77020051,บ้านหนองไผ่,0,0,0,0,7,5,12,1,5,8,13,1,12,13,25,2,7,10,17,1,5,6,11,1,6,3,9,1,7,5,12,1,13,5,18,1,5,6,11,1,43,35,78,6,0,0,0,0,0,0,0,0,0,0,0,0,0,0,0,0,0,0,0,0,0,0,0,0,0,0,0,0,0,0,0,0,0,0,0,0,0,0,0,0,0,0,0,0,55,48,103,8,10 มิถุนายน 2561
44,44,77020052,บ้านหนองพรานพุก,0,0,0,0,13,16,29,1,18,13,31,1,31,29,60,2,22,19,41,1,18,21,39,1,13,15,28,1,21,12,33,1,19,14,33,1,19,12,31,1,112,93,205,6,28,14,42,1,19,18,37,1,19,14,33,1,66,46,112,3,0,0,0,0,0,0,0,0,0,0,0,0,0,0,0,0,0,0,0,0,0,0,0,0,0,0,0,0,209,168,377,11,10 มิถุนายน 2561
45,45,77020053,บ้านทุ่งยาว,3,0,3,1,9,10,19,1,15,4,19,1,27,14,41,3,11,9,20,1,13,7,20,1,5,9,14,1,8,9,17,1,4,11,15,1,9,10,19,1,50,55,105,6,0,0,0,0,0,0,0,0,0,0,0,0,0,0,0,0,0,0,0,0,0,0,0,0,0,0,0,0,0,0,0,0,0,0,0,0,0,0,0,0,0,0,0,0,77,69,146,9,10 มิถุนายน 2561
46,46,77020054,บ้านทับใต้,0,0,0,0,15,26,41,2,22,20,42,2,37,46,83,4,23,27,50,2,13,13,26,1,25,13,38,1,14,19,33,1,27,23,50,2,14,13,27,1,116,108,224,8,17,16,33,1,15,14,29,1,8,14,22,1,40,44,84,3,0,0,0,0,0,0,0,0,0,0,0,0,0,0,0,0,0,0,0,0,0,0,0,0,0,0,0,0,193,198,391,15,10 มิถุนายน 2561
47,47,77020055,บ้านห้วยไคร้,0,0,0,0,9,11,20,1,20,9,29,1,29,20,49,2,14,8,22,1,9,7,16,1,16,11,27,1,20,12,32,1,8,13,21,1,16,7,23,1,83,58,141,6,23,32,55,2,24,15,39,2,19,19,38,2,66,66,132,6,0,0,0,0,0,0,0,0,0,0,0,0,0,0,0,0,0,0,0,0,0,0,0,0,0,0,0,0,178,144,322,14,10 มิถุนายน 2561
48,48,77020057,บ้านเนินพยอมสาขาบึงนคร,0,0,0,0,5,4,9,1,5,4,9,1,10,8,18,2,2,6,8,1,3,3,6,1,0,2,2,1,2,2,4,1,3,4,7,1,1,5,6,1,11,22,33,6,0,0,0,0,0,0,0,0,0,0,0,0,0,0,0,0,0,0,0,0,0,0,0,0,0,0,0,0,0,0,0,0,0,0,0,0,0,0,0,0,0,0,0,0,21,30,51,8,10 มิถุนายน 2561
49,49,77020058,บ้านเนินพยอม,0,0,0,0,5,5,10,1,10,4,14,1,15,9,24,2,7,8,15,1,9,8,17,1,7,5,12,1,6,8,14,1,3,7,10,1,11,10,21,1,43,46,89,6,8,9,17,1,1,5,6,1,7,6,13,1,16,20,36,3,0,0,0,0,0,0,0,0,0,0,0,0,0,0,0,0,0,0,0,0,0,0,0,0,0,0,0,0,74,75,149,11,10 มิถุนายน 2561
50,50,77020059,บ้านหนองพลับ,0,0,0,0,10,5,15,1,12,8,20,1,22,13,35,2,20,13,33,1,12,17,29,1,12,16,28,1,13,14,27,1,13,19,32,1,16,18,34,1,86,97,183,6,0,0,0,0,0,0,0,0,0,0,0,0,0,0,0,0,0,0,0,0,0,0,0,0,0,0,0,0,0,0,0,0,0,0,0,0,0,0,0,0,0,0,0,0,108,110,218,8,10 มิถุนายน 2561
51,51,77020061,บ้านหนองกระทุ่ม,9,8,17,1,6,8,14,1,5,10,15,1,20,26,46,3,12,5,17,1,5,11,16,1,9,3,12,1,6,7,13,1,5,2,7,1,3,7,10,1,40,35,75,6,0,0,0,0,0,0,0,0,0,0,0,0,0,0,0,0,0,0,0,0,0,0,0,0,0,0,0,0,0,0,0,0,0,0,0,0,0,0,0,0,0,0,0,0,60,61,121,9,10 มิถุนายน 2561
52,52,77020062,โรตารี่กรุงเทพ,0,0,0,0,35,25,60,2,29,29,58,2,64,54,118,4,31,31,62,2,30,26,56,2,16,25,41,1,28,38,66,2,34,32,66,2,20,30,50,2,159,182,341,11,29,32,61,2,38,23,61,2,18,21,39,1,85,76,161,5,0,0,0,0,0,0,0,0,0,0,0,0,0,0,0,0,0,0,0,0,0,0,0,0,0,0,0,0,308,312,620,20,10 มิถุนายน 2561
53,53,77020063,บ้านคอกช้างพัฒนา,5,5,10,1,5,7,12,1,5,4,9,1,15,16,31,3,3,6,9,1,8,3,11,1,0,4,4,1,2,3,5,1,2,2,4,1,6,1,7,1,21,19,40,6,0,0,0,0,0,0,0,0,0,0,0,0,0,0,0,0,0,0,0,0,0,0,0,0,0,0,0,0,0,0,0,0,0,0,0,0,0,0,0,0,0,0,0,0,36,35,71,9,10 มิถุนายน 2561
54,54,77020064,บ้านห้วยไทรงาม,9,8,17,1,10,9,19,1,10,18,28,1,29,35,64,3,12,11,23,1,10,10,20,1,5,5,10,1,5,6,11,1,8,6,14,1,6,4,10,1,46,42,88,6,0,0,0,0,0,0,0,0,0,0,0,0,0,0,0,0,0,0,0,0,0,0,0,0,0,0,0,0,0,0,0,0,0,0,0,0,0,0,0,0,0,0,0,0,75,77,152,9,10 มิถุนายน 2561
55,55,77020065,วไลย,0,0,0,0,14,12,26,1,8,7,15,1,22,19,41,2,13,8,21,1,9,7,16,1,13,6,19,1,7,10,17,1,9,7,16,1,19,6,25,1,70,44,114,6,0,0,0,0,0,0,0,0,0,0,0,0,0,0,0,0,0,0,0,0,0,0,0,0,0,0,0,0,0,0,0,0,0,0,0,0,0,0,0,0,0,0,0,0,92,63,155,8,10 มิถุนายน 2561
56,56,77020066,ละเมาะ,7,4,11,1,9,1,10,1,5,3,8,1,21,8,29,3,1,5,6,1,4,4,8,1,3,6,9,1,2,5,7,1,4,6,10,1,4,5,9,1,18,31,49,6,0,0,0,0,0,0,0,0,0,0,0,0,0,0,0,0,0,0,0,0,0,0,0,0,0,0,0,0,0,0,0,0,0,0,0,0,0,0,0,0,0,0,0,0,39,39,78,9,10 มิถุนายน 2561
57,57,77020067,อานันท์,0,0,0,0,19,31,50,2,27,21,48,2,46,52,98,4,28,25,53,2,26,25,51,1,13,16,29,2,29,27,56,1,22,16,38,2,26,19,45,2,144,128,272,10,28,33,61,2,36,21,57,2,14,30,44,1,78,84,162,5,0,0,0,0,0,0,0,0,0,0,0,0,0,0,0,0,0,0,0,0,0,0,0,0,0,0,0,0,268,264,532,19,10 มิถุนายน 2561
58,58,77020068,บ้านหนองซอ,0,0,0,0,9,10,19,1,9,10,19,1,18,20,38,2,9,5,14,1,3,6,9,1,7,7,14,1,11,7,18,1,5,7,12,1,7,5,12,1,42,37,79,6,0,0,0,0,0,0,0,0,0,0,0,0,0,0,0,0,0,0,0,0,0,0,0,0,0,0,0,0,0,0,0,0,0,0,0,0,0,0,0,0,0,0,0,0,60,57,117,8,10 มิถุนายน 2561
59,59,77020069,บ้านหนองคร้า,0,0,0,0,14,5,19,1,5,10,15,1,19,15,34,2,13,5,18,1,4,3,7,1,8,6,14,1,9,8,17,1,6,12,18,1,9,8,17,1,49,42,91,6,0,0,0,0,0,0,0,0,0,0,0,0,0,0,0,0,0,0,0,0,0,0,0,0,0,0,0,0,0,0,0,0,0,0,0,0,0,0,0,0,0,0,0,0,68,57,125,8,10 มิถุนายน 2561
60,60,77020070,อนุบาลหัวหิน(บ้านหนองขอน),0,0,0,0,25,25,50,2,35,23,58,2,60,48,108,4,23,25,48,2,26,27,53,2,30,25,55,2,26,23,49,2,26,19,45,2,19,13,32,1,150,132,282,11,0,0,0,0,0,0,0,0,0,0,0,0,0,0,0,0,0,0,0,0,0,0,0,0,0,0,0,0,0,0,0,0,0,0,0,0,0,0,0,0,0,0,0,0,210,180,390,15,10 มิถุนายน 2561
61,61,77020071,บ้านวังโบสถ์,0,0,0,0,7,8,15,1,8,4,12,1,15,12,27,2,8,5,13,1,10,5,15,1,8,5,13,1,2,7,9,1,4,7,11,1,7,8,15,1,39,37,76,6,0,0,0,0,0,0,0,0,0,0,0,0,0,0,0,0,0,0,0,0,0,0,0,0,0,0,0,0,0,0,0,0,0,0,0,0,0,0,0,0,0,0,0,0,54,49,103,8,10 มิถุนายน 2561
62,62,77020072,บ้านหนองเหียง,0,0,0,0,11,3,14,1,9,12,21,1,20,15,35,2,9,7,16,1,9,5,14,1,10,8,18,1,7,3,10,1,9,8,17,1,11,3,14,1,55,34,89,6,0,0,0,0,0,0,0,0,0,0,0,0,0,0,0,0,0,0,0,0,0,0,0,0,0,0,0,0,0,0,0,0,0,0,0,0,0,0,0,0,0,0,0,0,75,49,124,8,10 มิถุนายน 2561
63,63,77020073,บ้านหนองตะเภา,0,0,0,0,25,21,46,1,10,14,24,1,35,35,70,2,20,12,32,1,15,12,27,1,17,11,28,1,15,14,29,1,23,8,31,1,26,11,37,1,116,68,184,6,27,19,46,1,15,14,29,1,14,13,27,1,56,46,102,3,0,0,0,0,0,0,0,0,0,0,0,0,0,0,0,0,0,0,0,0,0,0,0,0,0,0,0,0,207,149,356,11,10 มิถุนายน 2561
64,64,77020074,บ้านไร่เก่าสามร้อยยอด,2,5,7,1,8,10,18,1,9,10,19,1,19,25,44,3,15,5,20,1,1,7,8,1,5,5,10,1,4,1,5,1,4,5,9,1,5,2,7,1,34,25,59,6,0,0,0,0,0,0,0,0,0,0,0,0,0,0,0,0,0,0,0,0,0,0,0,0,0,0,0,0,0,0,0,0,0,0,0,0,0,0,0,0,0,0,0,0,53,50,103,9,10 มิถุนายน 2561
65,65,77020075,บ้านสามร้อยยอด (บุณยรักษ์อุทิศ),0,0,0,0,24,16,40,2,24,18,42,2,48,34,82,4,16,17,33,1,20,21,41,1,21,24,45,1,34,17,51,2,19,26,45,1,21,25,46,1,131,130,261,7,19,18,37,1,32,20,52,2,16,21,37,1,67,59,126,4,0,0,0,0,0,0,0,0,0,0,0,0,0,0,0,0,0,0,0,0,0,0,0,0,0,0,0,0,246,223,469,15,10 มิถุนายน 2561
66,66,77020077,บ้านหนองน้ำกลัด,0,0,0,0,8,11,19,1,9,6,15,1,17,17,34,2,8,7,15,1,12,10,22,1,9,9,18,1,5,10,15,1,8,10,18,1,14,8,22,1,56,54,110,6,0,0,0,0,0,0,0,0,0,0,0,0,0,0,0,0,0,0,0,0,0,0,0,0,0,0,0,0,0,0,0,0,0,0,0,0,0,0,0,0,0,0,0,0,73,71,144,8,10 มิถุนายน 2561
67,67,77020079,บ้านหนองจิก,2,1,3,1,3,3,6,1,4,3,7,1,9,7,16,3,7,4,11,1,4,4,8,1,3,4,7,1,5,4,9,1,5,5,10,1,6,3,9,1,30,24,54,6,10,8,18,1,5,2,7,1,7,5,12,1,22,15,37,3,0,0,0,0,0,0,0,0,0,0,0,0,0,0,0,0,0,0,0,0,0,0,0,0,0,0,0,0,61,46,107,12,10 มิถุนายน 2561
68,68,77020080,อนุบาลสามร้อยยอด(บ้านหนองแก),0,0,0,0,10,7,17,1,8,9,17,1,18,16,34,2,12,11,23,1,12,10,22,1,6,9,15,1,5,12,17,1,10,11,21,1,4,15,19,1,49,68,117,6,0,0,0,0,0,0,0,0,0,0,0,0,0,0,0,0,0,0,0,0,0,0,0,0,0,0,0,0,0,0,0,0,0,0,0,0,0,0,0,0,0,0,0,0,67,84,151,8,10 มิถุนายน 2561
69,69,77020081,บ้านเกาะไผ่,0,0,0,0,1,3,4,1,8,5,13,1,9,8,17,2,5,4,9,1,5,3,8,1,8,2,10,1,6,5,11,1,3,2,5,1,5,5,10,1,32,21,53,6,0,0,0,0,0,0,0,0,0,0,0,0,0,0,0,0,0,0,0,0,0,0,0,0,0,0,0,0,0,0,0,0,0,0,0,0,0,0,0,0,0,0,0,0,41,29,70,8,10 มิถุนายน 2561
70,70,77020082,บ้านสิบสองหุ้น,1,1,2,1,3,4,7,1,6,0,6,1,10,5,15,3,4,1,5,1,4,3,7,1,4,1,5,1,0,0,0,0,3,1,4,1,5,1,6,1,20,7,27,5,0,0,0,0,0,0,0,0,0,0,0,0,0,0,0,0,0,0,0,0,0,0,0,0,0,0,0,0,0,0,0,0,0,0,0,0,0,0,0,0,0,0,0,0,30,12,42,8,10 มิถุนายน 2561
71,71,77020083,บ้านหนองไทร,1,5,6,1,5,4,9,1,2,2,4,1,8,11,19,3,1,3,4,1,2,3,5,1,1,3,4,1,3,2,5,1,3,2,5,1,5,5,10,1,15,18,33,6,0,0,0,0,0,0,0,0,0,0,0,0,0,0,0,0,0,0,0,0,0,0,0,0,0,0,0,0,0,0,0,0,0,0,0,0,0,0,0,0,0,0,0,0,23,29,52,9,10 มิถุนายน 2561
72,72,77020084,บ้านนาวัลเปรียง,0,0,0,0,6,5,11,1,3,7,10,1,9,12,21,2,9,11,20,1,13,15,28,1,9,7,16,1,12,10,22,1,8,9,17,1,12,19,31,1,63,71,134,6,0,0,0,0,0,0,0,0,0,0,0,0,0,0,0,0,0,0,0,0,0,0,0,0,0,0,0,0,0,0,0,0,0,0,0,0,0,0,0,0,0,0,0,0,72,83,155,8,10 มิถุนายน 2561
73,73,77020085,บ้านศาลาลัย,6,8,14,1,12,1,13,1,8,6,14,1,26,15,41,3,14,8,22,1,9,5,14,1,5,9,14,1,9,6,15,1,12,5,17,1,12,9,21,1,61,42,103,6,29,13,42,1,16,15,31,1,20,12,32,1,65,40,105,3,0,0,0,0,0,0,0,0,0,0,0,0,0,0,0,0,0,0,0,0,0,0,0,0,0,0,0,0,152,97,249,12,10 มิถุนายน 2561
74,74,77020086,บ้านหนองเป่าปี่,0,0,0,0,3,8,11,1,5,2,7,1,8,10,18,2,7,3,10,1,4,8,12,1,2,1,3,1,9,3,12,1,1,4,5,1,8,2,10,1,31,21,52,6,0,0,0,0,0,0,0,0,0,0,0,0,0,0,0,0,0,0,0,0,0,0,0,0,0,0,0,0,0,0,0,0,0,0,0,0,0,0,0,0,0,0,0,0,39,31,70,8,10 มิถุนายน 2561
75,75,77020087,บ้านเนินกรวด,0,0,0,0,6,4,10,1,7,6,13,1,13,10,23,2,4,5,9,1,11,7,18,1,5,5,10,1,5,5,10,1,4,10,14,1,6,9,15,1,35,41,76,6,0,0,0,0,0,0,0,0,0,0,0,0,0,0,0,0,0,0,0,0,0,0,0,0,0,0,0,0,0,0,0,0,0,0,0,0,0,0,0,0,0,0,0,0,48,51,99,8,10 มิถุนายน 2561
76,76,77020088,บ้านหนองขาม (สันติกาญจน์ราษฎร์บำรุง),0,0,0,0,14,14,28,1,16,19,35,1,30,33,63,2,16,17,33,1,24,8,32,1,16,16,32,1,17,14,31,1,17,18,35,1,12,16,28,1,102,89,191,6,27,14,41,1,25,28,53,2,36,15,51,2,88,57,145,5,0,0,0,0,0,0,0,0,0,0,0,0,0,0,0,0,0,0,0,0,0,0,0,0,0,0,0,0,220,179,399,13,10 มิถุนายน 2561
77,77,77020089,บ้านลาดวิถี,7,4,11,1,3,4,7,1,3,6,9,1,13,14,27,3,7,8,15,1,3,8,11,1,3,10,13,1,12,7,19,1,7,9,16,1,13,13,26,1,45,55,100,6,8,6,14,1,5,6,11,1,6,4,10,1,19,16,35,3,0,0,0,0,0,0,0,0,0,0,0,0,0,0,0,0,0,0,0,0,0,0,0,0,0,0,0,0,77,85,162,12,10 มิถุนายน 2561
78,78,77020090,บ้านหนองคาง,0,0,0,0,8,10,18,1,6,11,17,1,14,21,35,2,20,4,24,1,12,8,20,1,5,6,11,1,8,7,15,1,11,15,26,1,11,13,24,1,67,53,120,6,12,11,23,1,19,12,31,1,13,12,25,1,44,35,79,3,0,0,0,0,0,0,0,0,0,0,0,0,0,0,0,0,0,0,0,0,0,0,0,0,0,0,0,0,125,109,234,11,10 มิถุนายน 2561
79,79,77020091,บ้านเกาะนาน้อย,10,4,14,1,6,12,18,1,5,5,10,1,21,21,42,3,6,3,9,1,7,7,14,1,5,6,11,1,3,0,3,1,3,4,7,1,4,1,5,1,28,21,49,6,0,0,0,0,0,0,0,0,0,0,0,0,0,0,0,0,0,0,0,0,0,0,0,0,0,0,0,0,0,0,0,0,0,0,0,0,0,0,0,0,0,0,0,0,49,42,91,9,10 มิถุนายน 2561
80,80,77020092,บ้านหนองหญ้าปล้อง,7,6,13,1,5,4,9,1,7,8,15,1,19,18,37,3,5,4,9,1,5,8,13,1,6,0,6,1,12,3,15,1,13,5,18,1,11,2,13,1,52,22,74,6,10,9,19,1,8,7,15,1,13,6,19,1,31,22,53,3,0,0,0,0,0,0,0,0,0,0,0,0,0,0,0,0,0,0,0,0,0,0,0,0,0,0,0,0,102,62,164,12,10 มิถุนายน 2561
81,81,77020093,บ้านเขาโป่ง,3,6,9,1,7,3,10,1,3,4,7,1,13,13,26,3,6,5,11,1,6,3,9,1,4,7,11,1,10,2,12,1,4,3,7,1,5,3,8,1,35,23,58,6,0,0,0,0,0,0,0,0,0,0,0,0,0,0,0,0,0,0,0,0,0,0,0,0,0,0,0,0,0,0,0,0,0,0,0,0,0,0,0,0,0,0,0,0,48,36,84,9,10 มิถุนายน 2561
82,82,77020094,วัดเกษตรกันทราราม,7,2,9,1,6,6,12,1,4,4,8,1,17,12,29,3,2,13,15,1,8,7,15,1,5,10,15,1,8,9,17,1,2,4,6,1,7,2,9,1,32,45,77,6,0,0,0,0,0,0,0,0,0,0,0,0,0,0,0,0,0,0,0,0,0,0,0,0,0,0,0,0,0,0,0,0,0,0,0,0,0,0,0,0,0,0,0,0,49,57,106,9,10 มิถุนายน 2561
83,83,77020095,บ้านบางปู,8,7,15,1,3,3,6,1,5,2,7,1,16,12,28,3,5,3,8,1,3,5,8,1,4,8,12,1,5,3,8,1,5,2,7,1,1,6,7,1,23,27,50,6,0,0,0,0,0,0,0,0,0,0,0,0,0,0,0,0,0,0,0,0,0,0,0,0,0,0,0,0,0,0,0,0,0,0,0,0,0,0,0,0,0,0,0,0,39,39,78,9,10 มิถุนายน 2561
84,84,77020096,บ้านใหม่,5,1,6,1,1,2,3,1,5,7,12,1,11,10,21,3,4,5,9,1,3,1,4,1,2,0,2,1,2,3,5,1,4,3,7,1,4,0,4,1,19,12,31,6,0,0,0,0,0,0,0,0,0,0,0,0,0,0,0,0,0,0,0,0,0,0,0,0,0,0,0,0,0,0,0,0,0,0,0,0,0,0,0,0,0,0,0,0,30,22,52,9,10 มิถุนายน 2561
85,85,77020097,บ้านพุน้อย,16,9,25,1,9,13,22,1,8,11,19,1,33,33,66,3,9,11,20,1,11,17,28,1,14,13,27,1,12,8,20,1,5,8,13,1,9,7,16,1,60,64,124,6,13,13,26,1,8,13,21,1,12,10,22,1,33,36,69,3,0,0,0,0,0,0,0,0,0,0,0,0,0,0,0,0,0,0,0,0,0,0,0,0,0,0,0,0,126,133,259,12,10 มิถุนายน 2561
86,86,77020098,บ้านพุใหญ่,0,0,0,0,5,2,7,1,6,1,7,1,11,3,14,2,2,7,9,1,7,3,10,1,7,5,12,1,4,5,9,1,4,7,11,1,7,4,11,1,31,31,62,6,0,0,0,0,0,0,0,0,0,0,0,0,0,0,0,0,0,0,0,0,0,0,0,0,0,0,0,0,0,0,0,0,0,0,0,0,0,0,0,0,0,0,0,0,42,34,76,8,10 มิถุนายน 2561
87,87,77020099,บ้านหนองข้าวเหนียว,5,4,9,1,6,3,9,1,4,2,6,1,15,9,24,3,4,8,12,1,7,5,12,1,3,5,8,1,7,4,11,1,4,4,8,1,5,2,7,1,30,28,58,6,0,0,0,0,0,0,0,0,0,0,0,0,0,0,0,0,0,0,0,0,0,0,0,0,0,0,0,0,0,0,0,0,0,0,0,0,0,0,0,0,0,0,0,0,45,37,82,9,10 มิถุนายน 2561
88,88,77020100,บ้านหัวตาลแถว,4,5,9,1,5,1,6,1,6,7,13,1,15,13,28,3,8,8,16,1,8,7,15,1,7,5,12,1,6,8,14,1,9,4,13,1,6,8,14,1,44,40,84,6,0,0,0,0,0,0,0,0,0,0,0,0,0,0,0,0,0,0,0,0,0,0,0,0,0,0,0,0,0,0,0,0,0,0,0,0,0,0,0,0,0,0,0,0,59,53,112,9,10 มิถุนายน 2561
89,89,77023001,นเรศวรห้วยผึ้ง,0,0,0,0,9,10,19,1,11,14,25,1,20,24,44,2,4,7,11,1,5,9,14,1,11,7,18,1,10,5,15,1,10,11,21,1,11,8,19,1,51,47,98,6,0,0,0,0,0,0,0,0,0,0,0,0,0,0,0,0,0,0,0,0,0,0,0,0,0,0,0,0,0,0,0,0,0,0,0,0,0,0,0,0,0,0,0,0,71,71,142,8,10 มิถุนายน 2561
