,0,1,2,3,4,5,6,7,8,9,10,11,12,13,14,15,16,17,18,19,20,21,22,23,24,25,26,27,28,29,30,31,32,33,34,35,36,37,38,39,40,41,42,43,44,45,46,47,48,49,50,51,52,53,54,55,56,57,58,59,60,61,62,63,64,65,66,67,68,69,70,71,72,73,74,75,76,77,78,79,80,81,82,83,84,85,86,87,88,89,90,91,92,93,94,95
0,ลำดับ,รหัส SMIS,โรงเรียน,อ.3 ขวบ ชาย,อ.3 ขวบ หญิง,รวมอ.3 ขวบ,อ.3 ขวบ ห้อง,อ.1 ชาย,อ.1 หญิง,รวมอ.1,อ.1 ห้อง,อ.2 ชาย,อ.2 หญิง,รวมอ.2,อ.2 ห้อง,รวมก่อนประถม ชาย,รวมก่อนประถม หญิง,รวมก่อนประถม,รวมห้องก่อนประถม,ป.1 ชาย,ป.1 หญิง,รวมป.1,ป.1 ห้อง,ป.2 ชาย,ป.2 หญิง,รวมป.2,ป.2 ห้อง,ป.3 ชาย,ป.3 หญิง,รวมป.3,ป.3 ห้อง,ป.4 ชาย,ป.4 หญิง,รวมป.4,ป.4 ห้อง,ป.5 ชาย,ป.5 หญิง,รวมป.5,ป.5 ห้อง,ป.6 ชาย,ป.6 หญิง,รวมป.6,ป.6 ห้อง,รวมประถม ชาย,รวมประถม หญิง,รวมประถม,รวมห้องประถม,ม.1 ชาย,ม.1 หญิง,รวมม.1,ม.1 ห้อง,ม.2 ชาย,ม.2 หญิง,รวมม.2,ม.2 ห้อง,ม.3 ชาย,ม.3 หญิง,รวมม.3,ม.3 ห้อง,รวมม.ต้น ชาย,รวมม.ต้น หญิง,รวมม.ต้น,รวมห้องม.ต้น,ม.4 ชาย,ม.4 หญิง,รวมม.4,ม.4 ห้อง,ม.5 ชาย,ม.5 หญิง,รวมม.5,ม.5 ห้อง,ม.6 ชาย,ม.6 หญิง,รวมม.6,ม.6 ห้อง,ปวช.1 ชาย,ปวช.1 หญิง,รวมปวช.1,ปวช.1 ห้อง,ปวช.2 ชาย,ปวช.2 หญิง,รวมปวช.2,ปวช.2 ห้อง,ปวช.3 ชาย,ปวช.3 หญิง,รวมปวช.3,ปวช.3 ห้อง,รวมม.ปลายและเทียบเท่า ชาย,รวมม.ปลายและเทียบเท่า หญิง,รวมม.ปลายและเทียบเท่า,รวมห้องม.ปลายและเทียบเท่า,รวมทั้งหมด ชาย,รวมทั้งหมด หญิง,รวมทั้งหมด,รวมห้องทั้งหมด,ข้อมูล ณ วันที่
1,1,84010001,นิคมสร้างตนเอง,0,0,0,0,21,21,42,2,24,17,41,2,45,38,83,4,32,18,50,2,27,23,50,2,26,24,50,2,21,30,51,2,22,28,50,2,23,19,42,2,151,142,293,12,33,17,50,2,8,13,21,1,28,23,51,2,69,53,122,5,0,0,0,0,0,0,0,0,0,0,0,0,0,0,0,0,0,0,0,0,0,0,0,0,0,0,0,0,265,233,498,21,10 มิถุนายน 2561
2,2,84010002,บ้านควนยูง,0,0,0,0,0,0,0,0,0,0,0,0,0,0,0,0,27,21,48,2,21,21,42,1,26,13,39,1,23,20,43,1,27,12,39,1,11,10,21,1,135,97,232,7,0,0,0,0,0,0,0,0,0,0,0,0,0,0,0,0,0,0,0,0,0,0,0,0,0,0,0,0,0,0,0,0,0,0,0,0,0,0,0,0,0,0,0,0,135,97,232,7,10 มิถุนายน 2561
3,3,84010003,บ้านซอย 2,5,11,16,1,9,10,19,1,4,4,8,1,18,25,43,3,10,10,20,1,7,6,13,1,12,4,16,1,10,6,16,1,13,5,18,1,6,9,15,1,58,40,98,6,0,0,0,0,0,0,0,0,0,0,0,0,0,0,0,0,0,0,0,0,0,0,0,0,0,0,0,0,0,0,0,0,0,0,0,0,0,0,0,0,0,0,0,0,76,65,141,9,10 มิถุนายน 2561
4,4,84010004,บ้านซอย 10,0,0,0,0,2,1,3,1,1,0,1,1,3,1,4,2,1,2,3,1,2,5,7,1,2,0,2,1,1,3,4,1,6,0,6,1,5,2,7,1,17,12,29,6,0,0,0,0,0,0,0,0,0,0,0,0,0,0,0,0,0,0,0,0,0,0,0,0,0,0,0,0,0,0,0,0,0,0,0,0,0,0,0,0,0,0,0,0,20,13,33,8,10 มิถุนายน 2561
5,5,84010008,วัดนทีคมเขต,2,3,5,1,4,6,10,1,5,4,9,1,11,13,24,3,7,2,9,1,2,2,4,1,1,4,5,1,4,9,13,1,2,3,5,1,6,4,10,1,22,24,46,6,0,0,0,0,0,0,0,0,0,0,0,0,0,0,0,0,0,0,0,0,0,0,0,0,0,0,0,0,0,0,0,0,0,0,0,0,0,0,0,0,0,0,0,0,33,37,70,9,10 มิถุนายน 2561
6,6,84010009,วัดแหลมทอง,2,4,6,1,1,2,3,1,3,0,3,1,6,6,12,3,0,2,2,1,3,5,8,1,3,4,7,1,4,2,6,1,3,1,4,1,7,3,10,1,20,17,37,6,0,0,0,0,0,0,0,0,0,0,0,0,0,0,0,0,0,0,0,0,0,0,0,0,0,0,0,0,0,0,0,0,0,0,0,0,0,0,0,0,0,0,0,0,26,23,49,9,10 มิถุนายน 2561
7,7,84010012,วัดบุญบันเทิง,0,0,0,0,0,0,0,0,0,0,0,0,0,0,0,0,1,3,4,1,1,4,5,1,2,1,3,1,2,2,4,1,1,3,4,1,0,4,4,1,7,17,24,6,0,0,0,0,0,0,0,0,0,0,0,0,0,0,0,0,0,0,0,0,0,0,0,0,0,0,0,0,0,0,0,0,0,0,0,0,0,0,0,0,0,0,0,0,7,17,24,6,10 มิถุนายน 2561
8,8,84010013,บ้านทอนหญ้าปล้อง,0,0,0,0,4,0,4,1,4,1,5,1,8,1,9,2,7,3,10,1,3,7,10,1,7,4,11,1,2,2,4,1,8,2,10,1,7,6,13,1,34,24,58,6,7,5,12,1,7,3,10,1,4,5,9,1,18,13,31,3,0,0,0,0,0,0,0,0,0,0,0,0,0,0,0,0,0,0,0,0,0,0,0,0,0,0,0,0,60,38,98,11,10 มิถุนายน 2561
9,9,84010014,วัดโพธิ์นิมิต,0,0,0,0,24,20,44,2,38,30,68,2,62,50,112,4,38,43,81,2,32,27,59,2,30,21,51,2,34,27,61,2,35,29,64,2,32,23,55,2,201,170,371,12,38,23,61,2,34,28,62,2,11,26,37,1,83,77,160,5,0,0,0,0,0,0,0,0,0,0,0,0,0,0,0,0,0,0,0,0,0,0,0,0,0,0,0,0,346,297,643,21,10 มิถุนายน 2561
10,10,84010015,วัดท่าทอง,0,0,0,0,10,12,22,1,22,11,33,1,32,23,55,2,13,10,23,1,15,12,27,1,18,17,35,1,19,8,27,1,13,20,33,1,9,10,19,1,87,77,164,6,0,0,0,0,0,0,0,0,0,0,0,0,0,0,0,0,0,0,0,0,0,0,0,0,0,0,0,0,0,0,0,0,0,0,0,0,0,0,0,0,0,0,0,0,119,100,219,8,10 มิถุนายน 2561
11,11,84010016,บ้านโพหวาย,0,0,0,0,17,18,35,2,32,19,51,2,49,37,86,4,26,22,48,2,12,29,41,2,23,19,42,2,27,23,50,2,27,37,64,2,23,24,47,2,138,154,292,12,31,29,60,2,38,29,67,2,33,25,58,2,102,83,185,6,0,0,0,0,0,0,0,0,0,0,0,0,0,0,0,0,0,0,0,0,0,0,0,0,0,0,0,0,289,274,563,22,10 มิถุนายน 2561
12,12,84010017,บ้านสันติสุข,2,5,7,1,7,6,13,1,10,12,22,1,19,23,42,3,9,10,19,1,8,9,17,1,11,13,24,1,5,7,12,1,9,10,19,1,12,13,25,1,54,62,116,6,0,0,0,0,0,0,0,0,0,0,0,0,0,0,0,0,0,0,0,0,0,0,0,0,0,0,0,0,0,0,0,0,0,0,0,0,0,0,0,0,0,0,0,0,73,85,158,9,10 มิถุนายน 2561
13,13,84010019,บ้านคลองสุข,5,2,7,1,4,5,9,1,1,4,5,1,10,11,21,3,3,6,9,1,10,4,14,1,4,3,7,1,5,2,7,1,6,1,7,1,5,6,11,1,33,22,55,6,0,0,0,0,0,0,0,0,0,0,0,0,0,0,0,0,0,0,0,0,0,0,0,0,0,0,0,0,0,0,0,0,0,0,0,0,0,0,0,0,0,0,0,0,43,33,76,9,10 มิถุนายน 2561
14,14,84010020,วัดชลธาร,0,0,0,0,0,0,0,0,0,0,0,0,0,0,0,0,1,3,4,1,2,1,3,1,2,0,2,1,1,3,4,1,0,2,2,1,4,2,6,1,10,11,21,6,0,0,0,0,0,0,0,0,0,0,0,0,0,0,0,0,0,0,0,0,0,0,0,0,0,0,0,0,0,0,0,0,0,0,0,0,0,0,0,0,0,0,0,0,10,11,21,6,10 มิถุนายน 2561
15,15,84010022,วัดบางใบไม้,0,0,0,0,4,9,13,1,10,8,18,1,14,17,31,2,23,7,30,1,15,11,26,1,13,17,30,1,12,8,20,1,16,14,30,1,8,12,20,1,87,69,156,6,20,26,46,1,20,11,31,1,9,21,30,1,49,58,107,3,0,0,0,0,0,0,0,0,0,0,0,0,0,0,0,0,0,0,0,0,0,0,0,0,0,0,0,0,150,144,294,11,10 มิถุนายน 2561
16,16,84010025,บ้านสุชน,0,0,0,0,5,7,12,1,10,12,22,1,15,19,34,2,3,3,6,1,8,5,13,1,3,4,7,1,7,5,12,1,9,5,14,1,7,3,10,1,37,25,62,6,0,0,0,0,0,0,0,0,0,0,0,0,0,0,0,0,0,0,0,0,0,0,0,0,0,0,0,0,0,0,0,0,0,0,0,0,0,0,0,0,0,0,0,0,52,44,96,8,10 มิถุนายน 2561
17,17,84010026,วัดกลางใหม่,0,0,0,0,6,16,22,1,12,9,21,1,18,25,43,2,16,20,36,1,11,12,23,1,11,11,22,1,14,13,27,1,17,17,34,1,14,10,24,1,83,83,166,6,23,10,33,1,23,10,33,1,18,18,36,1,64,38,102,3,0,0,0,0,0,0,0,0,0,0,0,0,0,0,0,0,0,0,0,0,0,0,0,0,0,0,0,0,165,146,311,11,10 มิถุนายน 2561
18,18,84010027,บ้านบางใหญ่,0,0,0,0,9,14,23,1,22,13,35,1,31,27,58,2,18,11,29,1,12,21,33,1,22,14,36,1,26,9,35,1,18,10,28,1,23,12,35,1,119,77,196,6,18,19,37,1,11,14,25,1,12,15,27,1,41,48,89,3,0,0,0,0,0,0,0,0,0,0,0,0,0,0,0,0,0,0,0,0,0,0,0,0,0,0,0,0,191,152,343,11,10 มิถุนายน 2561
19,19,84010028,บ้านท่าเพชร,0,0,0,0,7,9,16,1,15,16,31,1,22,25,47,2,12,10,22,1,10,8,18,1,13,13,26,1,12,1,13,1,17,6,23,1,7,3,10,1,71,41,112,6,0,0,0,0,0,0,0,0,0,0,0,0,0,0,0,0,0,0,0,0,0,0,0,0,0,0,0,0,0,0,0,0,0,0,0,0,0,0,0,0,0,0,0,0,93,66,159,8,10 มิถุนายน 2561
20,20,84010029,อนุบาลสุราษฎร์ธานี,16,9,25,1,77,67,144,5,89,78,167,5,182,154,336,11,138,121,259,7,114,121,235,7,117,113,230,7,119,126,245,7,123,117,240,6,98,79,177,5,709,677,1386,39,0,0,0,0,0,0,0,0,0,0,0,0,0,0,0,0,0,0,0,0,0,0,0,0,0,0,0,0,0,0,0,0,0,0,0,0,0,0,0,0,0,0,0,0,891,831,1722,50,10 มิถุนายน 2561
21,21,84010030,ชุมชนวัดสุนทรนิวาส,0,0,0,0,1,2,3,1,7,4,11,1,8,6,14,2,11,5,16,1,10,8,18,1,5,9,14,1,10,8,18,1,10,3,13,1,11,5,16,1,57,38,95,6,0,0,0,0,0,0,0,0,0,0,0,0,0,0,0,0,0,0,0,0,0,0,0,0,0,0,0,0,0,0,0,0,0,0,0,0,0,0,0,0,0,0,0,0,65,44,109,8,10 มิถุนายน 2561
22,22,84010031,วัดสมหวัง,0,0,0,0,30,27,57,2,28,26,54,2,58,53,111,4,26,30,56,2,27,31,58,2,31,34,65,2,19,14,33,2,26,19,45,2,22,21,43,2,151,149,300,12,19,16,35,2,17,21,38,2,22,10,32,1,58,47,105,5,0,0,0,0,0,0,0,0,0,0,0,0,0,0,0,0,0,0,0,0,0,0,0,0,0,0,0,0,267,249,516,21,10 มิถุนายน 2561
23,23,84010033,บ้านบ่อน้ำร้อน,4,6,10,1,9,9,18,1,11,4,15,1,24,19,43,3,4,7,11,1,5,5,10,1,4,2,6,1,3,2,5,1,5,4,9,1,10,4,14,1,31,24,55,6,0,0,0,0,0,0,0,0,0,0,0,0,0,0,0,0,0,0,0,0,0,0,0,0,0,0,0,0,0,0,0,0,0,0,0,0,0,0,0,0,0,0,0,0,55,43,98,9,10 มิถุนายน 2561
24,24,84010034,บ้านแม่โมกข์,0,0,0,0,15,13,28,1,7,16,23,1,22,29,51,2,15,12,27,1,13,19,32,1,17,11,28,1,21,12,33,1,13,13,26,1,19,13,32,1,98,80,178,6,10,7,17,1,13,19,32,1,6,15,21,1,29,41,70,3,0,0,0,0,0,0,0,0,0,0,0,0,0,0,0,0,0,0,0,0,0,0,0,0,0,0,0,0,149,150,299,11,10 มิถุนายน 2561
25,25,84010035,บ้านกำสนราษฎร์อุทิศ,12,7,19,1,14,8,22,1,8,3,11,1,34,18,52,3,11,12,23,1,8,12,20,1,19,15,34,1,10,7,17,1,6,13,19,1,6,14,20,1,60,73,133,6,0,0,0,0,0,0,0,0,0,0,0,0,0,0,0,0,0,0,0,0,0,0,0,0,0,0,0,0,0,0,0,0,0,0,0,0,0,0,0,0,0,0,0,0,94,91,185,9,10 มิถุนายน 2561
26,26,84010036,วัดเขานางเภา,0,0,0,0,5,6,11,1,6,10,16,1,11,16,27,2,6,6,12,1,6,4,10,1,2,9,11,1,9,13,22,1,12,11,23,1,7,9,16,1,42,52,94,6,0,0,0,0,0,0,0,0,0,0,0,0,0,0,0,0,0,0,0,0,0,0,0,0,0,0,0,0,0,0,0,0,0,0,0,0,0,0,0,0,0,0,0,0,53,68,121,8,10 มิถุนายน 2561
27,27,84010037,บ้านไสใน,3,3,6,1,2,4,6,1,7,2,9,1,12,9,21,3,2,2,4,1,4,3,7,1,3,3,6,1,5,2,7,1,9,4,13,1,4,2,6,1,27,16,43,6,0,0,0,0,0,0,0,0,0,0,0,0,0,0,0,0,0,0,0,0,0,0,0,0,0,0,0,0,0,0,0,0,0,0,0,0,0,0,0,0,0,0,0,0,39,25,64,9,10 มิถุนายน 2561
28,28,84010038,วัดกาญจนาราม,14,14,28,1,28,17,45,2,25,24,49,2,67,55,122,5,32,38,70,3,31,37,68,3,30,26,56,2,57,32,89,3,43,36,79,3,37,26,63,2,230,195,425,16,0,0,0,0,0,0,0,0,0,0,0,0,0,0,0,0,0,0,0,0,0,0,0,0,0,0,0,0,0,0,0,0,0,0,0,0,0,0,0,0,0,0,0,0,297,250,547,21,10 มิถุนายน 2561
29,29,84010039,บ้านคลองสระ,6,6,12,1,9,10,19,1,9,9,18,1,24,25,49,3,11,9,20,1,11,9,20,1,31,35,66,2,31,33,64,2,24,27,51,2,35,25,60,2,143,138,281,10,34,27,61,2,38,26,64,2,48,35,83,2,120,88,208,6,0,0,0,0,0,0,0,0,0,0,0,0,0,0,0,0,0,0,0,0,0,0,0,0,0,0,0,0,287,251,538,19,10 มิถุนายน 2561
30,30,84010040,บ้านม่วงลีบ,5,5,10,1,5,4,9,1,9,2,11,1,19,11,30,3,8,10,18,1,6,3,9,1,9,4,13,1,6,7,13,1,7,5,12,1,4,6,10,1,40,35,75,6,0,0,0,0,0,0,0,0,0,0,0,0,0,0,0,0,0,0,0,0,0,0,0,0,0,0,0,0,0,0,0,0,0,0,0,0,0,0,0,0,0,0,0,0,59,46,105,9,10 มิถุนายน 2561
31,31,84010041,วัดคงคาล้อม,2,2,4,1,6,3,9,1,4,3,7,1,12,8,20,3,10,7,17,1,5,2,7,1,5,5,10,1,6,3,9,1,4,4,8,1,6,9,15,1,36,30,66,6,0,0,0,0,0,0,0,0,0,0,0,0,0,0,0,0,0,0,0,0,0,0,0,0,0,0,0,0,0,0,0,0,0,0,0,0,0,0,0,0,0,0,0,0,48,38,86,9,10 มิถุนายน 2561
32,32,84010042,บ้านมะม่วงหวาน,0,0,0,0,2,2,4,1,2,4,6,1,4,6,10,2,3,1,4,1,1,2,3,1,1,3,4,1,2,2,4,1,1,3,4,1,2,5,7,1,10,16,26,6,0,0,0,0,0,0,0,0,0,0,0,0,0,0,0,0,0,0,0,0,0,0,0,0,0,0,0,0,0,0,0,0,0,0,0,0,0,0,0,0,0,0,0,0,14,22,36,8,10 มิถุนายน 2561
33,33,84010043,บ้านไสตอ,0,0,0,0,11,21,32,2,12,16,28,1,23,37,60,3,22,15,37,2,17,12,29,1,10,13,23,1,17,10,27,1,21,29,50,2,16,21,37,1,103,100,203,8,0,0,0,0,0,0,0,0,0,0,0,0,0,0,0,0,0,0,0,0,0,0,0,0,0,0,0,0,0,0,0,0,0,0,0,0,0,0,0,0,0,0,0,0,126,137,263,11,10 มิถุนายน 2561
34,34,84010044,วัดพุฒ,4,3,7,1,7,4,11,1,9,7,16,1,20,14,34,3,9,3,12,1,9,5,14,1,7,5,12,1,10,7,17,1,6,7,13,1,4,4,8,1,45,31,76,6,0,0,0,0,0,0,0,0,0,0,0,0,0,0,0,0,0,0,0,0,0,0,0,0,0,0,0,0,0,0,0,0,0,0,0,0,0,0,0,0,0,0,0,0,65,45,110,9,10 มิถุนายน 2561
35,35,84010046,บ้านหัวหมากล่าง,0,0,0,0,10,7,17,1,4,9,13,1,14,16,30,2,16,12,28,1,10,8,18,1,15,15,30,1,16,11,27,1,12,15,27,1,11,13,24,1,80,74,154,6,0,0,0,0,0,0,0,0,0,0,0,0,0,0,0,0,0,0,0,0,0,0,0,0,0,0,0,0,0,0,0,0,0,0,0,0,0,0,0,0,0,0,0,0,94,90,184,8,10 มิถุนายน 2561
36,36,84010047,บ้านห้วยโศก,4,5,9,1,10,2,12,1,6,3,9,1,20,10,30,3,6,12,18,1,10,10,20,1,12,9,21,1,14,3,17,1,7,7,14,1,7,7,14,1,56,48,104,6,14,2,16,1,2,5,7,1,8,10,18,1,24,17,41,3,0,0,0,0,0,0,0,0,0,0,0,0,0,0,0,0,0,0,0,0,0,0,0,0,0,0,0,0,100,75,175,12,10 มิถุนายน 2561
37,37,84010048,บ้านควนราชา,0,2,2,1,2,3,5,1,0,4,4,1,2,9,11,3,1,5,6,1,1,2,3,1,2,1,3,1,1,1,2,1,4,1,5,1,2,0,2,1,11,10,21,6,0,0,0,0,0,0,0,0,0,0,0,0,0,0,0,0,0,0,0,0,0,0,0,0,0,0,0,0,0,0,0,0,0,0,0,0,0,0,0,0,0,0,0,0,13,19,32,9,10 มิถุนายน 2561
38,38,84010049,บ้านหัวหมากบน,6,3,9,1,8,10,18,1,10,14,24,1,24,27,51,3,9,8,17,1,9,10,19,1,11,11,22,1,6,6,12,1,4,8,12,1,11,5,16,1,50,48,98,6,0,0,0,0,0,0,0,0,0,0,0,0,0,0,0,0,0,0,0,0,0,0,0,0,0,0,0,0,0,0,0,0,0,0,0,0,0,0,0,0,0,0,0,0,74,75,149,9,10 มิถุนายน 2561
39,39,84010050,บ้านห้วยด่าน,8,8,16,1,8,10,18,1,19,11,30,1,35,29,64,3,7,10,17,1,5,20,25,1,11,8,19,1,11,10,21,1,8,10,18,1,9,6,15,1,51,64,115,6,0,0,0,0,0,0,0,0,0,0,0,0,0,0,0,0,0,0,0,0,0,0,0,0,0,0,0,0,0,0,0,0,0,0,0,0,0,0,0,0,0,0,0,0,86,93,179,9,10 มิถุนายน 2561
40,40,84010051,วัดกงตาก,0,0,0,0,25,21,46,2,35,25,60,2,60,46,106,4,30,26,56,2,41,22,63,2,36,25,61,2,19,17,36,1,19,27,46,2,27,28,55,2,172,145,317,11,23,20,43,1,11,21,32,1,16,14,30,1,50,55,105,3,0,0,0,0,0,0,0,0,0,0,0,0,0,0,0,0,0,0,0,0,0,0,0,0,0,0,0,0,282,246,528,18,10 มิถุนายน 2561
41,41,84010052,บ้านไสขาม,10,9,19,1,8,6,14,1,6,6,12,1,24,21,45,3,4,8,12,1,2,2,4,1,4,6,10,1,5,6,11,1,3,6,9,1,3,6,9,1,21,34,55,6,0,0,0,0,0,0,0,0,0,0,0,0,0,0,0,0,0,0,0,0,0,0,0,0,0,0,0,0,0,0,0,0,0,0,0,0,0,0,0,0,0,0,0,0,45,55,100,9,10 มิถุนายน 2561
42,42,84010053,วัดปากคู,0,0,0,0,5,12,17,1,8,12,20,1,13,24,37,2,9,7,16,1,10,9,19,1,7,9,16,1,7,13,20,1,6,4,10,1,9,9,18,1,48,51,99,6,0,0,0,0,0,0,0,0,0,0,0,0,0,0,0,0,0,0,0,0,0,0,0,0,0,0,0,0,0,0,0,0,0,0,0,0,0,0,0,0,0,0,0,0,61,75,136,8,10 มิถุนายน 2561
43,43,84010054,วัดวชิรประดิษฐ์,11,5,16,1,7,8,15,1,6,11,17,1,24,24,48,3,6,15,21,1,14,6,20,1,17,13,30,1,4,10,14,1,14,12,26,1,9,16,25,1,64,72,136,6,0,0,0,0,0,0,0,0,0,0,0,0,0,0,0,0,0,0,0,0,0,0,0,0,0,0,0,0,0,0,0,0,0,0,0,0,0,0,0,0,0,0,0,0,88,96,184,9,10 มิถุนายน 2561
44,44,84010055,วัดแสงประดิษฐ์,0,0,0,0,4,8,12,1,6,6,12,1,10,14,24,2,4,7,11,1,9,10,19,1,6,6,12,1,11,8,19,1,7,13,20,1,7,3,10,1,44,47,91,6,11,4,15,1,5,4,9,1,6,4,10,1,22,12,34,3,0,0,0,0,0,0,0,0,0,0,0,0,0,0,0,0,0,0,0,0,0,0,0,0,0,0,0,0,76,73,149,11,10 มิถุนายน 2561
45,45,84010056,วัดนิกรประสาท,0,0,0,0,9,9,18,1,15,13,28,1,24,22,46,2,16,10,26,1,7,8,15,1,9,10,19,1,9,11,20,1,8,5,13,1,10,9,19,1,59,53,112,6,0,0,0,0,0,0,0,0,0,0,0,0,0,0,0,0,0,0,0,0,0,0,0,0,0,0,0,0,0,0,0,0,0,0,0,0,0,0,0,0,0,0,0,0,83,75,158,8,10 มิถุนายน 2561
46,46,84010057,บ้านดอนสน,3,4,7,1,7,4,11,1,3,1,4,1,13,9,22,3,10,2,12,1,3,5,8,1,6,3,9,1,6,2,8,1,2,3,5,1,8,2,10,1,35,17,52,6,0,0,0,0,0,0,0,0,0,0,0,0,0,0,0,0,0,0,0,0,0,0,0,0,0,0,0,0,0,0,0,0,0,0,0,0,0,0,0,0,0,0,0,0,48,26,74,9,10 มิถุนายน 2561
47,47,84010058,วัดเขาพระนิ่ม,3,6,9,1,7,13,20,1,5,14,19,1,15,33,48,3,10,19,29,1,13,7,20,1,18,8,26,1,13,13,26,1,9,8,17,1,14,11,25,1,77,66,143,6,13,15,28,1,16,9,25,1,7,8,15,1,36,32,68,3,0,0,0,0,0,0,0,0,0,0,0,0,0,0,0,0,0,0,0,0,0,0,0,0,0,0,0,0,128,131,259,12,10 มิถุนายน 2561
48,48,84010059,บ้านท่าโพธิ์,0,0,0,0,0,0,0,0,0,0,0,0,0,0,0,0,7,4,11,1,2,3,5,1,2,5,7,1,3,2,5,1,6,3,9,1,2,2,4,1,22,19,41,6,0,0,0,0,0,0,0,0,0,0,0,0,0,0,0,0,0,0,0,0,0,0,0,0,0,0,0,0,0,0,0,0,0,0,0,0,0,0,0,0,0,0,0,0,22,19,41,6,10 มิถุนายน 2561
49,49,84010060,วัดดอนยาง,0,0,0,0,4,3,7,1,6,3,9,1,10,6,16,2,8,7,15,1,5,8,13,1,9,5,14,1,3,6,9,1,5,1,6,1,6,2,8,1,36,29,65,6,0,0,0,0,0,0,0,0,0,0,0,0,0,0,0,0,0,0,0,0,0,0,0,0,0,0,0,0,0,0,0,0,0,0,0,0,0,0,0,0,0,0,0,0,46,35,81,8,10 มิถุนายน 2561
50,50,84010061,วัดประสพ,0,0,0,0,18,17,35,1,15,13,28,1,33,30,63,2,16,12,28,1,18,9,27,1,17,15,32,1,13,11,24,1,12,19,31,1,11,14,25,1,87,80,167,6,0,0,0,0,0,0,0,0,0,0,0,0,0,0,0,0,0,0,0,0,0,0,0,0,0,0,0,0,0,0,0,0,0,0,0,0,0,0,0,0,0,0,0,0,120,110,230,8,10 มิถุนายน 2561
51,51,84010062,บ้านบางสำโรง,10,10,20,1,54,46,100,3,60,38,98,3,124,94,218,7,53,66,119,3,47,38,85,3,52,44,96,3,55,39,94,3,45,45,90,3,51,36,87,3,303,268,571,18,0,0,0,0,0,0,0,0,0,0,0,0,0,0,0,0,0,0,0,0,0,0,0,0,0,0,0,0,0,0,0,0,0,0,0,0,0,0,0,0,0,0,0,0,427,362,789,25,10 มิถุนายน 2561
52,52,84010063,วัดท่าไทร(ดิตถานุเคราะห์),0,0,0,0,36,45,81,3,46,43,89,3,82,88,170,6,51,41,92,3,41,44,85,3,60,30,90,3,45,36,81,2,58,40,98,3,36,35,71,2,291,226,517,16,62,42,104,3,35,39,74,2,32,34,66,2,129,115,244,7,0,0,0,0,0,0,0,0,0,0,0,0,0,0,0,0,0,0,0,0,0,0,0,0,0,0,0,0,502,429,931,29,10 มิถุนายน 2561
53,53,84010064,บ้านศิลางาม,0,0,0,0,14,12,26,1,11,9,20,1,25,21,46,2,14,12,26,1,11,9,20,1,12,13,25,1,11,14,25,1,7,7,14,1,8,5,13,1,63,60,123,6,6,5,11,1,5,2,7,1,5,8,13,1,16,15,31,3,0,0,0,0,0,0,0,0,0,0,0,0,0,0,0,0,0,0,0,0,0,0,0,0,0,0,0,0,104,96,200,11,10 มิถุนายน 2561
54,54,84010065,วัดบ้านใน,6,8,14,1,7,9,16,1,6,6,12,1,19,23,42,3,6,1,7,1,4,6,10,1,10,13,23,1,8,6,14,1,6,4,10,1,7,4,11,1,41,34,75,6,6,2,8,1,8,5,13,1,4,8,12,1,18,15,33,3,0,0,0,0,0,0,0,0,0,0,0,0,0,0,0,0,0,0,0,0,0,0,0,0,0,0,0,0,78,72,150,12,10 มิถุนายน 2561
55,55,84010066,วัดอุทยาราม,0,0,0,0,6,4,10,1,2,5,7,1,8,9,17,2,3,6,9,1,6,5,11,1,8,4,12,1,5,4,9,1,2,4,6,1,3,6,9,1,27,29,56,6,0,0,0,0,0,0,0,0,0,0,0,0,0,0,0,0,0,0,0,0,0,0,0,0,0,0,0,0,0,0,0,0,0,0,0,0,0,0,0,0,0,0,0,0,35,38,73,8,10 มิถุนายน 2561
56,56,84010067,ไทยรัฐวิทยา 88 (บ้านคลองควน),0,0,0,0,5,2,7,1,3,9,12,1,8,11,19,2,2,6,8,1,7,4,11,1,7,4,11,1,5,4,9,1,3,6,9,1,9,7,16,1,33,31,64,6,0,0,0,0,0,0,0,0,0,0,0,0,0,0,0,0,0,0,0,0,0,0,0,0,0,0,0,0,0,0,0,0,0,0,0,0,0,0,0,0,0,0,0,0,41,42,83,8,10 มิถุนายน 2561
57,57,84010068,บ้านกงหนิง,3,4,7,1,1,2,3,1,4,2,6,1,8,8,16,3,9,7,16,1,2,4,6,1,8,6,14,1,4,6,10,1,6,7,13,1,3,5,8,1,32,35,67,6,0,0,0,0,0,0,0,0,0,0,0,0,0,0,0,0,0,0,0,0,0,0,0,0,0,0,0,0,0,0,0,0,0,0,0,0,0,0,0,0,0,0,0,0,40,43,83,9,10 มิถุนายน 2561
58,58,84010069,บ้านคลองนามิตรภาพที่ 201,15,26,41,1,15,11,26,1,23,23,46,1,53,60,113,3,15,12,27,1,17,15,32,1,18,23,41,1,20,12,32,1,16,24,40,1,25,15,40,1,111,101,212,6,19,19,38,1,20,18,38,1,21,19,40,1,60,56,116,3,0,0,0,0,0,0,0,0,0,0,0,0,0,0,0,0,0,0,0,0,0,0,0,0,0,0,0,0,224,217,441,12,10 มิถุนายน 2561
59,59,84010070,บ้านดอนหลวง,0,0,0,0,5,4,9,1,4,4,8,1,9,8,17,2,8,4,12,1,11,5,16,1,11,2,13,1,4,9,13,1,3,10,13,1,2,5,7,1,39,35,74,6,0,0,0,0,0,0,0,0,0,0,0,0,0,0,0,0,0,0,0,0,0,0,0,0,0,0,0,0,0,0,0,0,0,0,0,0,0,0,0,0,0,0,0,0,48,43,91,8,10 มิถุนายน 2561
60,60,84010071,บ้านวังทองสามัคคี,1,1,2,1,1,1,2,1,5,1,6,1,7,3,10,3,0,3,3,1,2,0,2,1,1,1,2,1,1,2,3,1,1,0,1,1,0,2,2,1,5,8,13,6,0,0,0,0,0,0,0,0,0,0,0,0,0,0,0,0,0,0,0,0,0,0,0,0,0,0,0,0,0,0,0,0,0,0,0,0,0,0,0,0,0,0,0,0,12,11,23,9,10 มิถุนายน 2561
61,61,84010072,บ้านทับท้อน,0,0,0,0,0,0,0,0,0,0,0,0,0,0,0,0,0,3,3,1,4,3,7,1,5,3,8,1,6,6,12,1,6,9,15,1,4,5,9,1,25,29,54,6,0,0,0,0,0,0,0,0,0,0,0,0,0,0,0,0,0,0,0,0,0,0,0,0,0,0,0,0,0,0,0,0,0,0,0,0,0,0,0,0,0,0,0,0,25,29,54,6,10 มิถุนายน 2561
62,62,84010073,บ้านบ่อโฉลก,0,0,0,0,0,0,0,0,0,0,0,0,0,0,0,0,0,0,0,0,0,0,0,0,0,0,0,0,0,0,0,0,0,0,0,0,0,0,0,0,0,0,0,0,0,0,0,0,0,0,0,0,0,0,0,0,0,0,0,0,0,0,0,0,0,0,0,0,0,0,0,0,0,0,0,0,0,0,0,0,0,0,0,0,0,0,0,0,0,0,0,0,10 มิถุนายน 2561
63,63,84010074,วัดเขาแก้ว,0,0,0,0,3,3,6,1,8,8,16,1,11,11,22,2,8,11,19,1,5,12,17,1,8,19,27,1,12,8,20,1,14,5,19,1,11,12,23,1,58,67,125,6,0,0,0,0,0,0,0,0,0,0,0,0,0,0,0,0,0,0,0,0,0,0,0,0,0,0,0,0,0,0,0,0,0,0,0,0,0,0,0,0,0,0,0,0,69,78,147,8,10 มิถุนายน 2561
64,64,84010075,บ้านวังหวาย,1,2,3,1,5,4,9,1,3,3,6,1,9,9,18,3,2,2,4,1,7,1,8,1,5,3,8,1,1,4,5,1,4,1,5,1,3,2,5,1,22,13,35,6,0,0,0,0,0,0,0,0,0,0,0,0,0,0,0,0,0,0,0,0,0,0,0,0,0,0,0,0,0,0,0,0,0,0,0,0,0,0,0,0,0,0,0,0,31,22,53,9,10 มิถุนายน 2561
65,65,84010076,บ้านควนนิมิต,0,0,0,0,5,4,9,1,11,8,19,1,16,12,28,2,5,7,12,1,10,6,16,1,6,8,14,1,9,9,18,1,6,6,12,1,5,9,14,1,41,45,86,6,0,0,0,0,0,0,0,0,0,0,0,0,0,0,0,0,0,0,0,0,0,0,0,0,0,0,0,0,0,0,0,0,0,0,0,0,0,0,0,0,0,0,0,0,57,57,114,8,10 มิถุนายน 2561
66,66,84010077,บ้านคลองกรูด,0,0,0,0,0,0,0,0,0,0,0,0,0,0,0,0,1,3,4,1,0,1,1,1,2,2,4,1,1,3,4,1,1,2,3,1,2,3,5,1,7,14,21,6,0,0,0,0,0,0,0,0,0,0,0,0,0,0,0,0,0,0,0,0,0,0,0,0,0,0,0,0,0,0,0,0,0,0,0,0,0,0,0,0,0,0,0,0,7,14,21,6,10 มิถุนายน 2561
67,67,84010078,วัดวังไทร,5,6,11,1,29,28,57,2,23,22,45,2,57,56,113,5,26,31,57,2,22,29,51,2,22,19,41,2,26,24,50,2,25,27,52,2,20,16,36,1,141,146,287,11,0,0,0,0,0,0,0,0,0,0,0,0,0,0,0,0,0,0,0,0,0,0,0,0,0,0,0,0,0,0,0,0,0,0,0,0,0,0,0,0,0,0,0,0,198,202,400,16,10 มิถุนายน 2561
68,68,84010079,บ้านคีรีรอบ,5,2,7,1,12,13,25,1,5,14,19,1,22,29,51,3,15,9,24,1,9,4,13,1,9,9,18,1,3,5,8,1,16,11,27,1,5,6,11,1,57,44,101,6,0,0,0,0,0,0,0,0,0,0,0,0,0,0,0,0,0,0,0,0,0,0,0,0,0,0,0,0,0,0,0,0,0,0,0,0,0,0,0,0,0,0,0,0,79,73,152,9,10 มิถุนายน 2561
69,69,84010080,บ้านกำสนประชาสรรค์,0,0,0,0,5,1,6,1,3,7,10,1,8,8,16,2,7,5,12,1,5,3,8,1,6,6,12,1,8,4,12,1,6,13,19,1,7,10,17,1,39,41,80,6,0,0,0,0,0,0,0,0,0,0,0,0,0,0,0,0,0,0,0,0,0,0,0,0,0,0,0,0,0,0,0,0,0,0,0,0,0,0,0,0,0,0,0,0,47,49,96,8,10 มิถุนายน 2561
70,70,84010081,บ้านท่าเสาเภา,0,0,0,0,1,2,3,1,2,3,5,1,3,5,8,2,3,3,6,1,2,7,9,1,5,0,5,1,5,5,10,1,4,3,7,1,4,1,5,1,23,19,42,6,0,0,0,0,0,0,0,0,0,0,0,0,0,0,0,0,0,0,0,0,0,0,0,0,0,0,0,0,0,0,0,0,0,0,0,0,0,0,0,0,0,0,0,0,26,24,50,8,10 มิถุนายน 2561
71,71,84010082,บ้านหนองเปล,3,0,3,1,0,1,1,1,2,1,3,1,5,2,7,3,0,2,2,1,1,2,3,1,1,1,2,1,0,0,0,0,3,2,5,1,0,2,2,1,5,9,14,5,0,0,0,0,0,0,0,0,0,0,0,0,0,0,0,0,0,0,0,0,0,0,0,0,0,0,0,0,0,0,0,0,0,0,0,0,0,0,0,0,0,0,0,0,10,11,21,8,10 มิถุนายน 2561
72,72,84010083,บ้านปากกะแดะ,0,0,0,0,14,8,22,1,15,6,21,1,29,14,43,2,13,8,21,1,8,7,15,1,10,5,15,1,14,8,22,1,8,6,14,1,8,6,14,1,61,40,101,6,0,0,0,0,0,0,0,0,0,0,0,0,0,0,0,0,0,0,0,0,0,0,0,0,0,0,0,0,0,0,0,0,0,0,0,0,0,0,0,0,0,0,0,0,90,54,144,8,10 มิถุนายน 2561
73,73,84010084,วัดพ่วง,4,2,6,1,4,1,5,1,2,1,3,1,10,4,14,3,6,3,9,1,0,2,2,1,6,1,7,1,1,6,7,1,3,4,7,1,4,3,7,1,20,19,39,6,0,0,0,0,0,0,0,0,0,0,0,0,0,0,0,0,0,0,0,0,0,0,0,0,0,0,0,0,0,0,0,0,0,0,0,0,0,0,0,0,0,0,0,0,30,23,53,9,10 มิถุนายน 2561
74,74,84010085,วัดชลคราม,0,0,0,0,10,4,14,1,6,8,14,1,16,12,28,2,7,8,15,1,11,5,16,1,3,8,11,1,7,9,16,1,12,6,18,1,6,5,11,1,46,41,87,6,0,0,0,0,0,0,0,0,0,0,0,0,0,0,0,0,0,0,0,0,0,0,0,0,0,0,0,0,0,0,0,0,0,0,0,0,0,0,0,0,0,0,0,0,62,53,115,8,10 มิถุนายน 2561
75,75,84010086,วัดนทีวัฒนาราม,0,0,0,0,0,0,0,0,2,0,2,1,2,0,2,1,1,0,1,1,0,1,1,1,0,1,1,1,1,2,3,1,1,0,1,1,1,0,1,1,4,4,8,6,0,0,0,0,0,0,0,0,0,0,0,0,0,0,0,0,0,0,0,0,0,0,0,0,0,0,0,0,0,0,0,0,0,0,0,0,0,0,0,0,0,0,0,0,6,4,10,7,10 มิถุนายน 2561
76,76,84010087,วัดนอก,3,3,6,1,3,5,8,1,4,8,12,1,10,16,26,3,8,4,12,1,7,7,14,1,4,4,8,1,10,6,16,1,9,11,20,1,7,7,14,1,45,39,84,6,0,0,0,0,0,0,0,0,0,0,0,0,0,0,0,0,0,0,0,0,0,0,0,0,0,0,0,0,0,0,0,0,0,0,0,0,0,0,0,0,0,0,0,0,55,55,110,9,10 มิถุนายน 2561
77,77,84010088,บ้านศรีชัยคราม,0,0,0,0,13,11,24,1,15,5,20,1,28,16,44,2,11,3,14,1,11,5,16,1,7,7,14,1,10,6,16,1,5,8,13,1,9,8,17,1,53,37,90,6,0,0,0,0,0,0,0,0,0,0,0,0,0,0,0,0,0,0,0,0,0,0,0,0,0,0,0,0,0,0,0,0,0,0,0,0,0,0,0,0,0,0,0,0,81,53,134,8,10 มิถุนายน 2561
78,78,84010090,ชุมชนวัดวิสุทธิชลาราม,7,7,14,1,9,9,18,1,13,12,25,1,29,28,57,3,10,7,17,1,13,4,17,1,9,12,21,1,18,10,28,1,16,6,22,1,14,16,30,1,80,55,135,6,0,0,0,0,0,0,0,0,0,0,0,0,0,0,0,0,0,0,0,0,0,0,0,0,0,0,0,0,0,0,0,0,0,0,0,0,0,0,0,0,0,0,0,0,109,83,192,9,10 มิถุนายน 2561
79,79,84010092,บ้านปากดอนสัก,0,0,0,0,13,6,19,1,9,5,14,1,22,11,33,2,10,9,19,1,11,8,19,1,8,6,14,1,6,8,14,1,6,7,13,1,4,9,13,1,45,47,92,6,0,0,0,0,0,0,0,0,0,0,0,0,0,0,0,0,0,0,0,0,0,0,0,0,0,0,0,0,0,0,0,0,0,0,0,0,0,0,0,0,0,0,0,0,67,58,125,8,10 มิถุนายน 2561
80,80,84010093,อนุบาลวัดเขาสุวรรณประดิษฐ์,21,20,41,2,12,17,29,1,18,9,27,1,51,46,97,4,56,49,105,3,42,35,77,3,48,44,92,3,49,43,92,3,43,56,99,3,45,50,95,3,283,277,560,18,0,0,0,0,0,0,0,0,0,0,0,0,0,0,0,0,0,0,0,0,0,0,0,0,0,0,0,0,0,0,0,0,0,0,0,0,0,0,0,0,0,0,0,0,334,323,657,22,10 มิถุนายน 2561
81,81,84010095,บ้านน้ำฉา,0,0,0,0,5,9,14,1,18,17,35,1,23,26,49,2,15,6,21,1,13,11,24,1,17,12,29,1,11,6,17,1,10,15,25,1,18,17,35,1,84,67,151,6,0,0,0,0,0,0,0,0,0,0,0,0,0,0,0,0,0,0,0,0,0,0,0,0,0,0,0,0,0,0,0,0,0,0,0,0,0,0,0,0,0,0,0,0,107,93,200,8,10 มิถุนายน 2561
82,82,84010096,บ้านห้วยเสียด,0,0,0,0,4,2,6,1,3,5,8,1,7,7,14,2,2,3,5,1,5,5,10,1,5,2,7,1,0,1,1,1,2,1,3,1,2,0,2,1,16,12,28,6,0,0,0,0,0,0,0,0,0,0,0,0,0,0,0,0,0,0,0,0,0,0,0,0,0,0,0,0,0,0,0,0,0,0,0,0,0,0,0,0,0,0,0,0,23,19,42,8,10 มิถุนายน 2561
83,83,84010097,วัดสิงขร,0,0,0,0,13,6,19,1,7,6,13,1,20,12,32,2,4,9,13,1,10,8,18,1,5,10,15,1,12,6,18,1,8,4,12,1,7,2,9,1,46,39,85,6,0,0,0,0,0,0,0,0,0,0,0,0,0,0,0,0,0,0,0,0,0,0,0,0,0,0,0,0,0,0,0,0,0,0,0,0,0,0,0,0,0,0,0,0,66,51,117,8,10 มิถุนายน 2561
84,84,84010098,บ้านเกาะนกเภา,0,0,0,0,0,0,0,0,0,0,0,0,0,0,0,0,0,1,1,1,1,0,1,1,0,1,1,1,1,1,2,1,1,1,2,1,0,0,0,0,3,4,7,5,0,0,0,0,0,0,0,0,0,0,0,0,0,0,0,0,0,0,0,0,0,0,0,0,0,0,0,0,0,0,0,0,0,0,0,0,0,0,0,0,0,0,0,0,3,4,7,5,10 มิถุนายน 2561
85,85,84010099,ชุมชนบ้านนางกำ,0,0,0,0,4,6,10,1,8,8,16,1,12,14,26,2,7,9,16,1,6,6,12,1,6,7,13,1,6,11,17,1,6,9,15,1,4,8,12,1,35,50,85,6,11,6,17,1,6,13,19,1,8,9,17,1,25,28,53,3,0,0,0,0,0,0,0,0,0,0,0,0,0,0,0,0,0,0,0,0,0,0,0,0,0,0,0,0,72,92,164,11,10 มิถุนายน 2561
86,86,84010100,บ้านใหม่สามัคคี,2,0,2,1,2,2,4,1,1,1,2,1,5,3,8,3,0,2,2,1,1,1,2,1,3,0,3,1,0,4,4,1,2,0,2,1,1,0,1,1,7,7,14,6,0,0,0,0,0,0,0,0,0,0,0,0,0,0,0,0,0,0,0,0,0,0,0,0,0,0,0,0,0,0,0,0,0,0,0,0,0,0,0,0,0,0,0,0,12,10,22,9,10 มิถุนายน 2561
87,87,84010101,วัดคีรีวง,0,0,0,0,15,9,24,1,8,5,13,1,23,14,37,2,12,15,27,1,14,15,29,1,14,13,27,1,13,4,17,1,19,10,29,1,17,21,38,1,89,78,167,6,9,9,18,1,11,12,23,1,9,5,14,1,29,26,55,3,0,0,0,0,0,0,0,0,0,0,0,0,0,0,0,0,0,0,0,0,0,0,0,0,0,0,0,0,141,118,259,11,10 มิถุนายน 2561
88,88,84010102,บ้านคอกช้าง,0,0,0,0,7,9,16,1,11,9,20,1,18,18,36,2,10,10,20,1,8,8,16,1,14,5,19,1,11,9,20,1,15,5,20,1,12,9,21,1,70,46,116,6,0,0,0,0,0,0,0,0,0,0,0,0,0,0,0,0,0,0,0,0,0,0,0,0,0,0,0,0,0,0,0,0,0,0,0,0,0,0,0,0,0,0,0,0,88,64,152,8,10 มิถุนายน 2561
89,89,84010103,บ้านดอนเสาธง,5,6,11,1,3,3,6,1,5,5,10,1,13,14,27,3,9,0,9,1,3,0,3,1,2,1,3,1,2,2,4,1,4,5,9,1,1,4,5,1,21,12,33,6,0,0,0,0,0,0,0,0,0,0,0,0,0,0,0,0,0,0,0,0,0,0,0,0,0,0,0,0,0,0,0,0,0,0,0,0,0,0,0,0,0,0,0,0,34,26,60,9,10 มิถุนายน 2561
90,90,84010105,บ้านคลองคราม,6,1,7,1,10,10,20,1,7,6,13,1,23,17,40,3,15,12,27,1,8,9,17,1,15,6,21,1,9,10,19,1,14,11,25,1,14,16,30,1,75,64,139,6,12,10,22,1,17,15,32,1,20,12,32,1,49,37,86,3,0,0,0,0,0,0,0,0,0,0,0,0,0,0,0,0,0,0,0,0,0,0,0,0,0,0,0,0,147,118,265,12,10 มิถุนายน 2561
91,91,84010106,องค์การอุตสาหกรรมป่าไม้ 9,2,7,9,1,3,5,8,1,6,2,8,1,11,14,25,3,9,6,15,1,7,7,14,1,9,8,17,1,11,10,21,1,10,5,15,1,6,11,17,1,52,47,99,6,0,0,0,0,0,0,0,0,0,0,0,0,0,0,0,0,0,0,0,0,0,0,0,0,0,0,0,0,0,0,0,0,0,0,0,0,0,0,0,0,0,0,0,0,63,61,124,9,10 มิถุนายน 2561
92,92,84010107,บ้านดินแดงสามัคคี,15,16,31,1,14,7,21,1,15,7,22,1,44,30,74,3,18,17,35,1,14,15,29,1,15,13,28,1,11,6,17,1,12,10,22,1,3,7,10,1,73,68,141,6,0,0,0,0,0,0,0,0,0,0,0,0,0,0,0,0,0,0,0,0,0,0,0,0,0,0,0,0,0,0,0,0,0,0,0,0,0,0,0,0,0,0,0,0,117,98,215,9,10 มิถุนายน 2561
93,93,84010112,วัดคีรีวงการาม,0,0,0,0,8,4,12,1,1,9,10,1,9,13,22,2,5,4,9,1,5,4,9,1,9,3,12,1,7,5,12,1,5,7,12,1,7,1,8,1,38,24,62,6,0,0,0,0,0,0,0,0,0,0,0,0,0,0,0,0,0,0,0,0,0,0,0,0,0,0,0,0,0,0,0,0,0,0,0,0,0,0,0,0,0,0,0,0,47,37,84,8,10 มิถุนายน 2561
94,94,84010113,วัดสันติวราราม,0,0,0,0,0,0,0,0,0,0,0,0,0,0,0,0,2,6,8,1,3,2,5,1,5,3,8,1,6,5,11,1,7,4,11,1,5,5,10,1,28,25,53,6,0,0,0,0,0,0,0,0,0,0,0,0,0,0,0,0,0,0,0,0,0,0,0,0,0,0,0,0,0,0,0,0,0,0,0,0,0,0,0,0,0,0,0,0,28,25,53,6,10 มิถุนายน 2561
95,95,84010114,วัดสว่างอารมณ์,26,14,40,2,17,15,32,2,22,23,45,2,65,52,117,6,70,78,148,5,80,56,136,5,60,67,127,5,88,70,158,5,78,76,154,5,79,59,138,4,455,406,861,29,0,0,0,0,0,0,0,0,0,0,0,0,0,0,0,0,0,0,0,0,0,0,0,0,0,0,0,0,0,0,0,0,0,0,0,0,0,0,0,0,0,0,0,0,520,458,978,35,10 มิถุนายน 2561
96,96,84010115,บ้านหาดงาม,14,9,23,1,14,11,25,1,16,13,29,1,44,33,77,3,28,45,73,2,35,36,71,2,39,33,72,2,43,31,74,2,39,25,64,2,32,34,66,2,216,204,420,12,0,0,0,0,0,0,0,0,0,0,0,0,0,0,0,0,0,0,0,0,0,0,0,0,0,0,0,0,0,0,0,0,0,0,0,0,0,0,0,0,0,0,0,0,260,237,497,15,10 มิถุนายน 2561
97,97,84010116,วัดบุณฑริการาม,12,20,32,1,22,19,41,1,19,16,35,1,53,55,108,3,35,33,68,2,20,19,39,1,20,21,41,1,25,21,46,2,18,17,35,1,19,16,35,1,137,127,264,8,0,0,0,0,0,0,0,0,0,0,0,0,0,0,0,0,0,0,0,0,0,0,0,0,0,0,0,0,0,0,0,0,0,0,0,0,0,0,0,0,0,0,0,0,190,182,372,11,10 มิถุนายน 2561
98,98,84010117,บ้านบ่อผุด,15,20,35,1,26,25,51,2,26,20,46,2,67,65,132,5,47,39,86,2,48,27,75,2,40,29,69,2,40,35,75,2,33,27,60,2,44,27,71,2,252,184,436,12,0,0,0,0,0,0,0,0,0,0,0,0,0,0,0,0,0,0,0,0,0,0,0,0,0,0,0,0,0,0,0,0,0,0,0,0,0,0,0,0,0,0,0,0,319,249,568,17,10 มิถุนายน 2561
99,99,84010118,บ้านบางรักษ์,21,8,29,1,7,16,23,1,17,16,33,1,45,40,85,3,19,22,41,1,20,18,38,1,14,16,30,1,18,11,29,1,22,13,35,1,14,19,33,1,107,99,206,6,0,0,0,0,0,0,0,0,0,0,0,0,0,0,0,0,0,0,0,0,0,0,0,0,0,0,0,0,0,0,0,0,0,0,0,0,0,0,0,0,0,0,0,0,152,139,291,9,10 มิถุนายน 2561
100,100,84010119,บ้านปลายแหลม,16,20,36,1,30,26,56,2,26,34,60,2,72,80,152,5,39,26,65,2,43,33,76,2,34,27,61,2,30,26,56,2,36,28,64,2,28,30,58,2,210,170,380,12,0,0,0,0,0,0,0,0,0,0,0,0,0,0,0,0,0,0,0,0,0,0,0,0,0,0,0,0,0,0,0,0,0,0,0,0,0,0,0,0,0,0,0,0,282,250,532,17,10 มิถุนายน 2561
101,101,84010120,บ้านหน้าค่าย,0,0,0,0,9,14,23,1,10,13,23,1,19,27,46,2,11,11,22,1,12,13,25,1,10,8,18,1,14,10,24,1,9,8,17,1,13,10,23,1,69,60,129,6,18,7,25,1,6,7,13,1,9,5,14,1,33,19,52,3,0,0,0,0,0,0,0,0,0,0,0,0,0,0,0,0,0,0,0,0,0,0,0,0,0,0,0,0,121,106,227,11,10 มิถุนายน 2561
102,102,84010122,วัดภูเขาทอง,0,0,0,0,26,30,56,2,27,22,49,2,53,52,105,4,57,38,95,2,37,50,87,2,57,50,107,3,52,43,95,3,42,55,97,3,54,49,103,3,299,285,584,16,42,18,60,2,24,12,36,1,9,14,23,1,75,44,119,4,0,0,0,0,0,0,0,0,0,0,0,0,0,0,0,0,0,0,0,0,0,0,0,0,0,0,0,0,427,381,808,24,10 มิถุนายน 2561
103,103,84010123,บ้านแหลมหอย,0,0,0,0,0,0,0,0,0,0,0,0,0,0,0,0,34,30,64,2,28,26,54,2,17,23,40,1,21,26,47,1,24,22,46,1,21,19,40,1,145,146,291,8,0,0,0,0,0,0,0,0,0,0,0,0,0,0,0,0,0,0,0,0,0,0,0,0,0,0,0,0,0,0,0,0,0,0,0,0,0,0,0,0,0,0,0,0,145,146,291,8,10 มิถุนายน 2561
104,104,84010124,บ้านดอนธูป,14,14,28,1,9,9,18,1,6,12,18,1,29,35,64,3,11,8,19,1,9,12,21,1,4,11,15,1,9,12,21,1,11,12,23,1,8,5,13,1,52,60,112,6,0,0,0,0,0,0,0,0,0,0,0,0,0,0,0,0,0,0,0,0,0,0,0,0,0,0,0,0,0,0,0,0,0,0,0,0,0,0,0,0,0,0,0,0,81,95,176,9,10 มิถุนายน 2561
105,105,84010125,วัดนาราเจริญสุข,0,0,0,0,15,6,21,1,16,8,24,1,31,14,45,2,5,6,11,1,11,6,17,1,17,11,28,1,4,9,13,1,3,9,12,1,5,7,12,1,45,48,93,6,0,0,0,0,0,0,0,0,0,0,0,0,0,0,0,0,0,0,0,0,0,0,0,0,0,0,0,0,0,0,0,0,0,0,0,0,0,0,0,0,0,0,0,0,76,62,138,8,10 มิถุนายน 2561
106,106,84010127,วัดกลาง,0,0,0,0,11,10,21,1,16,14,30,1,27,24,51,2,43,34,77,2,30,30,60,2,27,31,58,2,37,28,65,2,25,18,43,1,15,20,35,1,177,161,338,10,0,0,0,0,0,0,0,0,0,0,0,0,0,0,0,0,0,0,0,0,0,0,0,0,0,0,0,0,0,0,0,0,0,0,0,0,0,0,0,0,0,0,0,0,204,185,389,12,10 มิถุนายน 2561
107,107,84010128,วัดคุณาราม,12,8,20,1,13,10,23,1,16,12,28,1,41,30,71,3,18,19,37,1,8,8,16,1,13,14,27,1,9,4,13,1,9,10,19,1,9,11,20,1,66,66,132,6,0,0,0,0,0,0,0,0,0,0,0,0,0,0,0,0,0,0,0,0,0,0,0,0,0,0,0,0,0,0,0,0,0,0,0,0,0,0,0,0,0,0,0,0,107,96,203,9,10 มิถุนายน 2561
108,108,84010129,วัดประเดิม,0,0,0,0,7,8,15,1,9,10,19,1,16,18,34,2,17,13,30,1,11,11,22,1,15,10,25,1,14,10,24,1,16,13,29,1,14,14,28,1,87,71,158,6,0,0,0,0,0,0,0,0,0,0,0,0,0,0,0,0,0,0,0,0,0,0,0,0,0,0,0,0,0,0,0,0,0,0,0,0,0,0,0,0,0,0,0,0,103,89,192,8,10 มิถุนายน 2561
109,109,84010130,วัดแจ้ง,0,0,0,0,22,22,44,2,27,25,52,2,49,47,96,4,42,28,70,2,30,19,49,2,26,22,48,2,39,20,59,2,30,27,57,2,22,38,60,2,189,154,343,12,0,0,0,0,0,0,0,0,0,0,0,0,0,0,0,0,0,0,0,0,0,0,0,0,0,0,0,0,0,0,0,0,0,0,0,0,0,0,0,0,0,0,0,0,238,201,439,16,10 มิถุนายน 2561
110,110,84010131,บ้านเกาะพลวย,0,0,0,0,0,1,1,1,3,0,3,1,3,1,4,2,4,1,5,1,2,1,3,1,0,1,1,1,2,1,3,1,6,1,7,1,1,2,3,1,15,7,22,6,3,1,4,1,1,3,4,1,5,1,6,1,9,5,14,3,0,0,0,0,0,0,0,0,0,0,0,0,0,0,0,0,0,0,0,0,0,0,0,0,0,0,0,0,27,13,40,11,10 มิถุนายน 2561
111,111,84010132,บ้านอ่างทอง,0,0,0,0,12,12,24,1,21,13,34,1,33,25,58,2,20,11,31,1,15,17,32,1,20,22,42,2,24,23,47,2,25,26,51,2,29,32,61,2,133,131,264,10,29,10,39,2,38,25,63,2,37,17,54,2,104,52,156,6,0,0,0,0,0,0,0,0,0,0,0,0,0,0,0,0,0,0,0,0,0,0,0,0,0,0,0,0,270,208,478,18,10 มิถุนายน 2561
112,112,84010133,บ้านเกาะเต่า,0,0,0,0,22,23,45,2,28,19,47,2,50,42,92,4,29,17,46,2,20,21,41,1,13,17,30,1,10,12,22,1,15,12,27,1,16,15,31,1,103,94,197,7,9,6,15,1,12,12,24,1,16,7,23,1,37,25,62,3,5,5,10,1,1,0,1,1,0,0,0,0,0,0,0,0,0,0,0,0,0,0,0,0,6,5,11,2,196,166,362,16,10 มิถุนายน 2561
113,113,84010134,บ้านโฉลกหลำ,0,0,0,0,9,5,14,1,8,14,22,1,17,19,36,2,6,9,15,1,9,8,17,1,4,7,11,1,9,10,19,1,8,8,16,1,7,9,16,1,43,51,94,6,7,7,14,1,6,2,8,1,4,4,8,1,17,13,30,3,0,0,0,0,0,0,0,0,0,0,0,0,0,0,0,0,0,0,0,0,0,0,0,0,0,0,0,0,77,83,160,11,10 มิถุนายน 2561
114,114,84010135,บ้านมะเดื่อหวาน,7,3,10,1,9,13,22,1,15,6,21,1,31,22,53,3,8,9,17,1,7,8,15,1,8,6,14,1,8,11,19,1,16,8,24,1,4,9,13,1,51,51,102,6,0,0,0,0,0,0,0,0,0,0,0,0,0,0,0,0,0,0,0,0,0,0,0,0,0,0,0,0,0,0,0,0,0,0,0,0,0,0,0,0,0,0,0,0,82,73,155,9,10 มิถุนายน 2561
115,115,84010136,บ้านศรีธนู,0,0,0,0,3,9,12,1,10,6,16,1,13,15,28,2,10,7,17,1,11,8,19,1,9,5,14,1,10,6,16,1,10,11,21,1,10,8,18,1,60,45,105,6,0,0,0,0,0,0,0,0,0,0,0,0,0,0,0,0,0,0,0,0,0,0,0,0,0,0,0,0,0,0,0,0,0,0,0,0,0,0,0,0,0,0,0,0,73,60,133,8,10 มิถุนายน 2561
116,116,84010137,วัดสมัยคงคา,0,0,0,0,8,6,14,1,4,10,14,1,12,16,28,2,16,9,25,1,6,10,16,1,6,7,13,1,8,9,17,1,6,5,11,1,7,8,15,1,49,48,97,6,0,0,0,0,0,0,0,0,0,0,0,0,0,0,0,0,0,0,0,0,0,0,0,0,0,0,0,0,0,0,0,0,0,0,0,0,0,0,0,0,0,0,0,0,61,64,125,8,10 มิถุนายน 2561
117,117,84010138,วัดราษฎร์เจริญ,10,18,28,1,21,10,31,1,23,21,44,2,54,49,103,4,19,22,41,2,20,38,58,2,19,17,36,1,22,18,40,1,15,16,31,1,23,13,36,1,118,124,242,8,0,0,0,0,0,0,0,0,0,0,0,0,0,0,0,0,0,0,0,0,0,0,0,0,0,0,0,0,0,0,0,0,0,0,0,0,0,0,0,0,0,0,0,0,172,173,345,12,10 มิถุนายน 2561
118,118,84010139,บ้านท้องนายปาน,0,0,0,0,11,1,12,1,7,3,10,1,18,4,22,2,5,4,9,1,4,4,8,1,2,4,6,1,2,8,10,1,3,3,6,1,4,2,6,1,20,25,45,6,0,0,0,0,0,0,0,0,0,0,0,0,0,0,0,0,0,0,0,0,0,0,0,0,0,0,0,0,0,0,0,0,0,0,0,0,0,0,0,0,0,0,0,0,38,29,67,8,10 มิถุนายน 2561
119,119,84010140,บ้านหาดริ้น,0,0,0,0,9,4,13,1,12,3,15,1,21,7,28,2,6,6,12,1,5,6,11,1,11,8,19,1,3,6,9,1,9,7,16,1,5,7,12,1,39,40,79,6,0,0,0,0,0,0,0,0,0,0,0,0,0,0,0,0,0,0,0,0,0,0,0,0,0,0,0,0,0,0,0,0,0,0,0,0,0,0,0,0,0,0,0,0,60,47,107,8,10 มิถุนายน 2561
120,120,84010141,ชุมชนบ้านใต้,0,0,0,0,17,7,24,1,12,10,22,1,29,17,46,2,15,11,26,1,8,3,11,1,16,11,27,1,13,17,30,1,13,9,22,1,12,10,22,1,77,61,138,6,0,0,0,0,0,0,0,0,0,0,0,0,0,0,0,0,0,0,0,0,0,0,0,0,0,0,0,0,0,0,0,0,0,0,0,0,0,0,0,0,0,0,0,0,106,78,184,8,10 มิถุนายน 2561
