,0,1,2,3,4,5,6,7,8,9,10,11,12,13,14,15,16,17,18,19,20,21,22,23,24,25,26,27,28,29,30,31,32,33,34,35,36,37,38,39,40,41,42,43,44,45,46,47,48,49,50,51,52,53,54,55,56,57,58,59,60,61,62,63,64,65,66,67,68,69,70,71,72,73,74,75,76,77,78,79,80,81,82,83,84,85,86,87,88,89,90,91,92,93,94,95
0,ลำดับ,รหัส SMIS,โรงเรียน,อ.3 ขวบ ชาย,อ.3 ขวบ หญิง,รวมอ.3 ขวบ,อ.3 ขวบ ห้อง,อ.1 ชาย,อ.1 หญิง,รวมอ.1,อ.1 ห้อง,อ.2 ชาย,อ.2 หญิง,รวมอ.2,อ.2 ห้อง,รวมก่อนประถม ชาย,รวมก่อนประถม หญิง,รวมก่อนประถม,รวมห้องก่อนประถม,ป.1 ชาย,ป.1 หญิง,รวมป.1,ป.1 ห้อง,ป.2 ชาย,ป.2 หญิง,รวมป.2,ป.2 ห้อง,ป.3 ชาย,ป.3 หญิง,รวมป.3,ป.3 ห้อง,ป.4 ชาย,ป.4 หญิง,รวมป.4,ป.4 ห้อง,ป.5 ชาย,ป.5 หญิง,รวมป.5,ป.5 ห้อง,ป.6 ชาย,ป.6 หญิง,รวมป.6,ป.6 ห้อง,รวมประถม ชาย,รวมประถม หญิง,รวมประถม,รวมห้องประถม,ม.1 ชาย,ม.1 หญิง,รวมม.1,ม.1 ห้อง,ม.2 ชาย,ม.2 หญิง,รวมม.2,ม.2 ห้อง,ม.3 ชาย,ม.3 หญิง,รวมม.3,ม.3 ห้อง,รวมม.ต้น ชาย,รวมม.ต้น หญิง,รวมม.ต้น,รวมห้องม.ต้น,ม.4 ชาย,ม.4 หญิง,รวมม.4,ม.4 ห้อง,ม.5 ชาย,ม.5 หญิง,รวมม.5,ม.5 ห้อง,ม.6 ชาย,ม.6 หญิง,รวมม.6,ม.6 ห้อง,ปวช.1 ชาย,ปวช.1 หญิง,รวมปวช.1,ปวช.1 ห้อง,ปวช.2 ชาย,ปวช.2 หญิง,รวมปวช.2,ปวช.2 ห้อง,ปวช.3 ชาย,ปวช.3 หญิง,รวมปวช.3,ปวช.3 ห้อง,รวมม.ปลายและเทียบเท่า ชาย,รวมม.ปลายและเทียบเท่า หญิง,รวมม.ปลายและเทียบเท่า,รวมห้องม.ปลายและเทียบเท่า,รวมทั้งหมด ชาย,รวมทั้งหมด หญิง,รวมทั้งหมด,รวมห้องทั้งหมด,ข้อมูล ณ วันที่
1,1,90020001,บ้านเขารักเกียรติ,0,0,0,0,3,1,4,1,0,2,2,1,3,3,6,2,9,4,13,1,7,2,9,1,5,4,9,1,9,4,13,1,4,6,10,1,3,4,7,1,37,24,61,6,0,0,0,0,0,0,0,0,0,0,0,0,0,0,0,0,0,0,0,0,0,0,0,0,0,0,0,0,0,0,0,0,0,0,0,0,0,0,0,0,0,0,0,0,40,27,67,8,10 มิถุนายน 2561
2,2,90020002,บ้านห้วยโอน,0,0,0,0,0,0,0,0,8,12,20,1,8,12,20,1,12,14,26,1,13,15,28,1,20,20,40,1,23,8,31,1,16,23,39,1,12,16,28,1,96,96,192,6,0,0,0,0,0,0,0,0,0,0,0,0,0,0,0,0,0,0,0,0,0,0,0,0,0,0,0,0,0,0,0,0,0,0,0,0,0,0,0,0,0,0,0,0,104,108,212,7,10 มิถุนายน 2561
3,3,90020003,บ้านควนนา,0,0,0,0,1,3,4,1,4,3,7,1,5,6,11,2,3,6,9,1,6,2,8,1,6,1,7,1,2,3,5,1,7,0,7,1,3,2,5,1,27,14,41,6,0,0,0,0,0,0,0,0,0,0,0,0,0,0,0,0,0,0,0,0,0,0,0,0,0,0,0,0,0,0,0,0,0,0,0,0,0,0,0,0,0,0,0,0,32,20,52,8,10 มิถุนายน 2561
4,4,90020004,บ้านคลองต่อ,0,0,0,0,4,3,7,1,11,16,27,1,15,19,34,2,9,5,14,1,6,6,12,1,6,14,20,1,16,15,31,1,10,7,17,1,10,8,18,1,57,55,112,6,0,0,0,0,0,0,0,0,0,0,0,0,0,0,0,0,0,0,0,0,0,0,0,0,0,0,0,0,0,0,0,0,0,0,0,0,0,0,0,0,0,0,0,0,72,74,146,8,10 มิถุนายน 2561
5,5,90020005,บ้านห้วยสมบูรณ์,0,0,0,0,0,0,0,0,4,4,8,1,4,4,8,1,10,7,17,1,20,10,30,1,10,9,19,1,6,8,14,1,10,7,17,1,12,4,16,1,68,45,113,6,0,0,0,0,0,0,0,0,0,0,0,0,0,0,0,0,0,0,0,0,0,0,0,0,0,0,0,0,0,0,0,0,0,0,0,0,0,0,0,0,0,0,0,0,72,49,121,7,10 มิถุนายน 2561
6,6,90020006,บ้านม่วง,0,0,0,0,17,7,24,1,5,12,17,1,22,19,41,2,18,11,29,1,10,12,22,1,8,9,17,1,10,18,28,1,13,12,25,1,14,8,22,1,73,70,143,6,0,0,0,0,0,0,0,0,0,0,0,0,0,0,0,0,0,0,0,0,0,0,0,0,0,0,0,0,0,0,0,0,0,0,0,0,0,0,0,0,0,0,0,0,95,89,184,8,10 มิถุนายน 2561
7,7,90020007,วัดทุ่งคา,0,0,0,0,1,1,2,1,0,3,3,1,1,4,5,2,27,28,55,2,13,13,26,1,15,15,30,1,8,15,23,1,20,19,39,1,14,18,32,1,97,108,205,7,17,20,37,1,12,12,24,1,12,12,24,1,41,44,85,3,0,0,0,0,0,0,0,0,0,0,0,0,0,0,0,0,0,0,0,0,0,0,0,0,0,0,0,0,139,156,295,12,10 มิถุนายน 2561
8,8,90020008,บ้านชายคลอง,0,0,0,0,6,2,8,1,12,6,18,1,18,8,26,2,7,4,11,1,7,7,14,1,13,3,16,1,12,8,20,1,6,11,17,1,9,4,13,1,54,37,91,6,0,0,0,0,0,0,0,0,0,0,0,0,0,0,0,0,0,0,0,0,0,0,0,0,0,0,0,0,0,0,0,0,0,0,0,0,0,0,0,0,0,0,0,0,72,45,117,8,10 มิถุนายน 2561
9,9,90020009,บ้านปลายละหาน,0,0,0,0,4,1,5,1,5,5,10,1,9,6,15,2,8,6,14,1,4,5,9,1,12,5,17,1,9,8,17,1,10,4,14,1,4,5,9,1,47,33,80,6,0,0,0,0,0,0,0,0,0,0,0,0,0,0,0,0,0,0,0,0,0,0,0,0,0,0,0,0,0,0,0,0,0,0,0,0,0,0,0,0,0,0,0,0,56,39,95,8,10 มิถุนายน 2561
10,10,90020010,บ้านทุ่งคมบาง,4,1,5,1,5,0,5,1,5,8,13,1,14,9,23,3,1,8,9,1,3,3,6,1,9,4,13,1,4,5,9,1,8,6,14,1,5,7,12,1,30,33,63,6,0,0,0,0,0,0,0,0,0,0,0,0,0,0,0,0,0,0,0,0,0,0,0,0,0,0,0,0,0,0,0,0,0,0,0,0,0,0,0,0,0,0,0,0,44,42,86,9,10 มิถุนายน 2561
11,11,90020011,ชุมชนบ้านนาสีทอง,0,0,0,0,26,19,45,2,18,21,39,1,44,40,84,3,27,20,47,2,26,40,66,2,17,32,49,2,24,24,48,2,29,22,51,2,38,22,60,2,161,160,321,12,0,0,0,0,0,0,0,0,0,0,0,0,0,0,0,0,0,0,0,0,0,0,0,0,0,0,0,0,0,0,0,0,0,0,0,0,0,0,0,0,0,0,0,0,205,200,405,15,10 มิถุนายน 2561
12,12,90020012,บ้านคลองกั่ว,0,0,0,0,7,8,15,1,7,11,18,1,14,19,33,2,12,13,25,1,11,13,24,1,9,10,19,1,10,6,16,1,6,8,14,1,16,10,26,1,64,60,124,6,0,0,0,0,0,0,0,0,0,0,0,0,0,0,0,0,0,0,0,0,0,0,0,0,0,0,0,0,0,0,0,0,0,0,0,0,0,0,0,0,0,0,0,0,78,79,157,8,10 มิถุนายน 2561
13,13,90020013,บ้านเขาพระ,0,0,0,0,28,27,55,2,38,32,70,3,66,59,125,5,42,32,74,2,39,34,73,2,41,25,66,2,47,40,87,3,23,49,72,2,33,24,57,2,225,204,429,13,18,27,45,1,9,16,25,1,10,14,24,1,37,57,94,3,0,0,0,0,0,0,0,0,0,0,0,0,0,0,0,0,0,0,0,0,0,0,0,0,0,0,0,0,328,320,648,21,10 มิถุนายน 2561
14,14,90020014,บ้านคลองเขาล้อน,3,2,5,1,6,5,11,1,7,7,14,1,16,14,30,3,8,6,14,1,5,6,11,1,4,10,14,1,7,11,18,1,10,9,19,1,11,1,12,1,45,43,88,6,0,0,0,0,0,0,0,0,0,0,0,0,0,0,0,0,0,0,0,0,0,0,0,0,0,0,0,0,0,0,0,0,0,0,0,0,0,0,0,0,0,0,0,0,61,57,118,9,10 มิถุนายน 2561
15,15,90020015,บ้านควนดินแดง,0,0,0,0,0,1,1,1,10,7,17,1,10,8,18,2,12,10,22,1,8,7,15,1,3,8,11,1,8,11,19,1,11,11,22,1,9,6,15,1,51,53,104,6,0,0,0,0,0,0,0,0,0,0,0,0,0,0,0,0,0,0,0,0,0,0,0,0,0,0,0,0,0,0,0,0,0,0,0,0,0,0,0,0,0,0,0,0,61,61,122,8,10 มิถุนายน 2561
16,16,90020016,บ้านนาลึก,1,1,2,1,0,2,2,1,1,3,4,1,2,6,8,3,6,1,7,1,2,2,4,1,2,3,5,1,8,1,9,1,6,4,10,1,4,5,9,1,28,16,44,6,0,0,0,0,0,0,0,0,0,0,0,0,0,0,0,0,0,0,0,0,0,0,0,0,0,0,0,0,0,0,0,0,0,0,0,0,0,0,0,0,0,0,0,0,30,22,52,9,10 มิถุนายน 2561
17,17,90020017,วัดไทรใหญ่,0,0,0,0,9,7,16,1,6,3,9,1,15,10,25,2,5,12,17,1,15,3,18,1,8,6,14,1,7,8,15,1,7,10,17,1,10,7,17,1,52,46,98,6,0,0,0,0,0,0,0,0,0,0,0,0,0,0,0,0,0,0,0,0,0,0,0,0,0,0,0,0,0,0,0,0,0,0,0,0,0,0,0,0,0,0,0,0,67,56,123,8,10 มิถุนายน 2561
18,18,90020018,ชุมชนบ้านโคกค่าย,0,0,0,0,14,12,26,1,7,4,11,1,21,16,37,2,8,11,19,1,11,9,20,1,9,5,14,1,11,4,15,1,6,4,10,1,9,11,20,1,54,44,98,6,12,6,18,1,6,8,14,1,4,6,10,1,22,20,42,3,0,0,0,0,0,0,0,0,0,0,0,0,0,0,0,0,0,0,0,0,0,0,0,0,0,0,0,0,97,80,177,11,10 มิถุนายน 2561
19,19,90020019,บ้านไสท้อน,0,0,0,0,2,3,5,1,5,2,7,1,7,5,12,2,4,2,6,1,5,3,8,1,0,1,1,1,2,2,4,1,2,2,4,1,3,2,5,1,16,12,28,6,0,0,0,0,0,0,0,0,0,0,0,0,0,0,0,0,0,0,0,0,0,0,0,0,0,0,0,0,0,0,0,0,0,0,0,0,0,0,0,0,0,0,0,0,23,17,40,8,10 มิถุนายน 2561
20,20,90020020,วัดจังโหลน,6,2,8,1,3,1,4,1,2,4,6,1,11,7,18,3,4,3,7,1,3,2,5,1,1,3,4,1,6,4,10,1,2,2,4,1,4,5,9,1,20,19,39,6,0,0,0,0,0,0,0,0,0,0,0,0,0,0,0,0,0,0,0,0,0,0,0,0,0,0,0,0,0,0,0,0,0,0,0,0,0,0,0,0,0,0,0,0,31,26,57,9,10 มิถุนายน 2561
21,21,90020021,บ้านควนขัน,3,2,5,1,4,3,7,1,3,2,5,1,10,7,17,3,8,3,11,1,2,5,7,1,2,5,7,1,7,5,12,1,4,2,6,1,7,3,10,1,30,23,53,6,0,0,0,0,0,0,0,0,0,0,0,0,0,0,0,0,0,0,0,0,0,0,0,0,0,0,0,0,0,0,0,0,0,0,0,0,0,0,0,0,0,0,0,0,40,30,70,9,10 มิถุนายน 2561
22,22,90020023,สํานักสงฆ์ศรีวิชัย,10,10,20,1,18,18,36,1,26,27,53,2,54,55,109,4,32,33,65,2,26,23,49,1,30,21,51,2,33,29,62,2,30,26,56,2,25,24,49,1,176,156,332,10,0,0,0,0,0,0,0,0,0,0,0,0,0,0,0,0,0,0,0,0,0,0,0,0,0,0,0,0,0,0,0,0,0,0,0,0,0,0,0,0,0,0,0,0,230,211,441,14,10 มิถุนายน 2561
23,23,90020024,วัดเจริญภูผา,0,0,0,0,4,6,10,1,10,11,21,1,14,17,31,2,9,9,18,1,6,4,10,1,4,3,7,1,9,4,13,1,1,11,12,1,4,3,7,1,33,34,67,6,0,0,0,0,0,0,0,0,0,0,0,0,0,0,0,0,0,0,0,0,0,0,0,0,0,0,0,0,0,0,0,0,0,0,0,0,0,0,0,0,0,0,0,0,47,51,98,8,10 มิถุนายน 2561
24,24,90020025,วัดคูหาใน,1,4,5,1,9,4,13,1,6,10,16,1,16,18,34,3,8,7,15,1,10,9,19,1,10,7,17,1,8,5,13,1,7,11,18,1,13,9,22,1,56,48,104,6,0,0,0,0,0,0,0,0,0,0,0,0,0,0,0,0,0,0,0,0,0,0,0,0,0,0,0,0,0,0,0,0,0,0,0,0,0,0,0,0,0,0,0,0,72,66,138,9,10 มิถุนายน 2561
25,25,90020026,บ้านทุ่งมะขาม,0,0,0,0,2,3,5,1,2,0,2,1,4,3,7,2,1,5,6,1,1,3,4,1,2,2,4,1,5,4,9,1,6,4,10,1,5,4,9,1,20,22,42,6,0,0,0,0,0,0,0,0,0,0,0,0,0,0,0,0,0,0,0,0,0,0,0,0,0,0,0,0,0,0,0,0,0,0,0,0,0,0,0,0,0,0,0,0,24,25,49,8,10 มิถุนายน 2561
26,26,90020027,บ้านกําแพงเพชร,0,0,0,0,44,41,85,3,38,30,68,2,82,71,153,5,71,64,135,4,57,54,111,4,65,52,117,3,61,55,116,3,58,55,113,3,42,53,95,3,354,333,687,20,0,0,0,0,0,0,0,0,0,0,0,0,0,0,0,0,0,0,0,0,0,0,0,0,0,0,0,0,0,0,0,0,0,0,0,0,0,0,0,0,0,0,0,0,436,404,840,25,10 มิถุนายน 2561
27,27,90020028,บ้านลานควาย,0,0,0,0,9,11,20,1,21,10,31,1,30,21,51,2,25,13,38,1,15,11,26,1,25,17,42,1,14,16,30,1,21,28,49,2,18,19,37,1,118,104,222,7,0,0,0,0,0,0,0,0,0,0,0,0,0,0,0,0,0,0,0,0,0,0,0,0,0,0,0,0,0,0,0,0,0,0,0,0,0,0,0,0,0,0,0,0,148,125,273,9,10 มิถุนายน 2561
28,28,90020029,บ้านท่ามะปราง,13,12,25,1,14,17,31,1,21,23,44,2,48,52,100,4,21,16,37,2,19,16,35,2,19,9,28,1,23,16,39,1,19,19,38,1,13,27,40,1,114,103,217,8,7,3,10,1,9,5,14,1,4,4,8,1,20,12,32,3,0,0,0,0,0,0,0,0,0,0,0,0,0,0,0,0,0,0,0,0,0,0,0,0,0,0,0,0,182,167,349,15,10 มิถุนายน 2561
29,29,90020030,บ้านเนินนิมิต,0,0,0,0,18,24,42,2,16,19,35,1,34,43,77,3,15,18,33,1,14,12,26,1,14,9,23,1,18,9,27,1,22,12,34,1,22,12,34,1,105,72,177,6,9,2,11,1,11,14,25,1,7,13,20,1,27,29,56,3,0,0,0,0,0,0,0,0,0,0,0,0,0,0,0,0,0,0,0,0,0,0,0,0,0,0,0,0,166,144,310,12,10 มิถุนายน 2561
30,30,90020031,บ้านพรุพ้อ,4,2,6,1,7,13,20,1,4,5,9,1,15,20,35,3,8,10,18,1,10,7,17,1,4,6,10,1,10,12,22,1,3,6,9,1,8,6,14,1,43,47,90,6,0,0,0,0,0,0,0,0,0,0,0,0,0,0,0,0,0,0,0,0,0,0,0,0,0,0,0,0,0,0,0,0,0,0,0,0,0,0,0,0,0,0,0,0,58,67,125,9,10 มิถุนายน 2561
31,31,90020032,บ้านควนสะตอ,2,3,5,1,2,0,2,1,9,4,13,1,13,7,20,3,7,5,12,1,1,2,3,1,3,4,7,1,5,5,10,1,6,4,10,1,6,5,11,1,28,25,53,6,0,0,0,0,0,0,0,0,0,0,0,0,0,0,0,0,0,0,0,0,0,0,0,0,0,0,0,0,0,0,0,0,0,0,0,0,0,0,0,0,0,0,0,0,41,32,73,9,10 มิถุนายน 2561
32,32,90020033,นิคมสร้างตนเองรัตภูมิ,0,0,0,0,22,17,39,2,25,21,46,2,47,38,85,4,22,14,36,2,23,11,34,2,24,28,52,2,23,18,41,2,24,20,44,2,18,9,27,1,134,100,234,11,0,0,0,0,0,0,0,0,0,0,0,0,0,0,0,0,0,0,0,0,0,0,0,0,0,0,0,0,0,0,0,0,0,0,0,0,0,0,0,0,0,0,0,0,181,138,319,15,10 มิถุนายน 2561
33,33,90020034,วัดรัตนวราราม,0,0,0,0,10,9,19,1,8,11,19,1,18,20,38,2,14,11,25,1,16,11,27,1,7,9,16,1,8,12,20,1,14,14,28,1,4,17,21,1,63,74,137,6,0,0,0,0,0,0,0,0,0,0,0,0,0,0,0,0,0,0,0,0,0,0,0,0,0,0,0,0,0,0,0,0,0,0,0,0,0,0,0,0,0,0,0,0,81,94,175,8,10 มิถุนายน 2561
34,34,90020036,บ้านทุ่งนํ้า,0,0,0,0,12,4,16,1,6,3,9,1,18,7,25,2,11,8,19,1,3,6,9,1,9,4,13,1,4,12,16,1,6,9,15,1,5,2,7,1,38,41,79,6,0,0,0,0,0,0,0,0,0,0,0,0,0,0,0,0,0,0,0,0,0,0,0,0,0,0,0,0,0,0,0,0,0,0,0,0,0,0,0,0,0,0,0,0,56,48,104,8,10 มิถุนายน 2561
35,35,90020037,บ้านหนองนายขุ้ย,0,0,0,0,11,6,17,1,7,10,17,1,18,16,34,2,8,5,13,1,2,6,8,1,6,9,15,1,5,4,9,1,7,10,17,1,10,6,16,1,38,40,78,6,0,0,0,0,0,0,0,0,0,0,0,0,0,0,0,0,0,0,0,0,0,0,0,0,0,0,0,0,0,0,0,0,0,0,0,0,0,0,0,0,0,0,0,0,56,56,112,8,10 มิถุนายน 2561
36,36,90020038,บ้านเกาะหมี,0,0,0,0,12,6,18,1,6,4,10,1,18,10,28,2,8,14,22,1,11,8,19,1,11,10,21,1,15,8,23,1,9,6,15,1,11,12,23,1,65,58,123,6,29,14,43,1,14,14,28,1,9,7,16,1,52,35,87,3,0,0,0,0,0,0,0,0,0,0,0,0,0,0,0,0,0,0,0,0,0,0,0,0,0,0,0,0,135,103,238,11,10 มิถุนายน 2561
37,37,90020039,บ้านท่าไทร,0,0,0,0,1,0,1,1,1,0,1,1,2,0,2,2,6,1,7,1,5,4,9,1,4,2,6,1,3,4,7,1,3,3,6,1,5,1,6,1,26,15,41,6,0,0,0,0,0,0,0,0,0,0,0,0,0,0,0,0,0,0,0,0,0,0,0,0,0,0,0,0,0,0,0,0,0,0,0,0,0,0,0,0,0,0,0,0,28,15,43,8,10 มิถุนายน 2561
38,38,90020040,วัดคลองแห,14,14,28,1,13,17,30,1,17,11,28,1,44,42,86,3,21,15,36,1,23,11,34,1,15,20,35,1,20,12,32,1,18,21,39,1,18,21,39,1,115,100,215,6,0,0,0,0,0,0,0,0,0,0,0,0,0,0,0,0,0,0,0,0,0,0,0,0,0,0,0,0,0,0,0,0,0,0,0,0,0,0,0,0,0,0,0,0,159,142,301,9,10 มิถุนายน 2561
39,39,90020041,วัดท่าแซ,0,0,0,0,7,12,19,1,8,8,16,1,15,20,35,2,5,9,14,1,5,11,16,1,14,7,21,1,9,12,21,1,11,13,24,1,13,11,24,1,57,63,120,6,0,0,0,0,0,0,0,0,0,0,0,0,0,0,0,0,0,0,0,0,0,0,0,0,0,0,0,0,0,0,0,0,0,0,0,0,0,0,0,0,0,0,0,0,72,83,155,8,10 มิถุนายน 2561
40,40,90020042,วัดควนลังมิตรภาพที่ 11,0,0,0,0,20,14,34,1,19,16,35,1,39,30,69,2,17,21,38,2,25,17,42,2,24,20,44,2,30,21,51,2,21,23,44,2,21,16,37,2,138,118,256,12,0,0,0,0,0,0,0,0,0,0,0,0,0,0,0,0,0,0,0,0,0,0,0,0,0,0,0,0,0,0,0,0,0,0,0,0,0,0,0,0,0,0,0,0,177,148,325,14,10 มิถุนายน 2561
41,41,90020043,บ้านวังหรัง(ประสิทธิ์อุปถัมภ์),1,1,2,1,8,4,12,1,6,2,8,1,15,7,22,3,10,5,15,1,4,3,7,1,8,5,13,1,5,6,11,1,4,3,7,1,12,2,14,1,43,24,67,6,0,0,0,0,0,0,0,0,0,0,0,0,0,0,0,0,0,0,0,0,0,0,0,0,0,0,0,0,0,0,0,0,0,0,0,0,0,0,0,0,0,0,0,0,58,31,89,9,10 มิถุนายน 2561
42,42,90020044,บ้านบางแฟบ,0,0,0,0,10,12,22,1,20,16,36,2,30,28,58,3,21,19,40,2,36,19,55,2,22,14,36,2,28,14,42,2,27,13,40,2,21,24,45,2,155,103,258,12,0,0,0,0,0,0,0,0,0,0,0,0,0,0,0,0,0,0,0,0,0,0,0,0,0,0,0,0,0,0,0,0,0,0,0,0,0,0,0,0,0,0,0,0,185,131,316,15,10 มิถุนายน 2561
43,43,90020045,บ้านบึงพิชัย,4,5,9,1,4,7,11,1,9,13,22,1,17,25,42,3,9,9,18,1,15,6,21,1,4,4,8,1,6,6,12,1,14,7,21,1,11,8,19,1,59,40,99,6,0,0,0,0,0,0,0,0,0,0,0,0,0,0,0,0,0,0,0,0,0,0,0,0,0,0,0,0,0,0,0,0,0,0,0,0,0,0,0,0,0,0,0,0,76,65,141,9,10 มิถุนายน 2561
44,44,90020046,บ้านหน้าควนลัง,58,56,114,4,40,42,82,3,60,49,109,3,158,147,305,10,57,54,111,3,51,40,91,2,23,40,63,2,39,32,71,2,35,34,69,2,30,38,68,2,235,238,473,13,0,0,0,0,0,0,0,0,0,0,0,0,0,0,0,0,0,0,0,0,0,0,0,0,0,0,0,0,0,0,0,0,0,0,0,0,0,0,0,0,0,0,0,0,393,385,778,23,10 มิถุนายน 2561
45,45,90020047,วัดม่วงค่อม,11,13,24,1,18,7,25,1,13,8,21,1,42,28,70,3,22,17,39,1,15,9,24,1,12,16,28,1,14,9,23,1,14,13,27,1,14,15,29,1,91,79,170,6,0,0,0,0,0,0,0,0,0,0,0,0,0,0,0,0,0,0,0,0,0,0,0,0,0,0,0,0,0,0,0,0,0,0,0,0,0,0,0,0,0,0,0,0,133,107,240,9,10 มิถุนายน 2561
46,46,90020048,เสนาณรงค์วิทยา,6,7,13,1,8,2,10,1,9,12,21,1,23,21,44,3,20,8,28,1,19,9,28,1,8,12,20,1,12,10,22,1,13,11,24,1,12,13,25,1,84,63,147,6,0,0,0,0,0,0,0,0,0,0,0,0,0,0,0,0,0,0,0,0,0,0,0,0,0,0,0,0,0,0,0,0,0,0,0,0,0,0,0,0,0,0,0,0,107,84,191,9,10 มิถุนายน 2561
47,47,90020049,บ้านคลองหวะ (ทวีรัตน์ราษฎร์บํารุง),0,0,0,0,30,24,54,2,28,33,61,2,58,57,115,4,26,30,56,2,28,29,57,2,15,18,33,1,27,22,49,2,28,29,57,2,27,26,53,2,151,154,305,11,0,0,0,0,0,0,0,0,0,0,0,0,0,0,0,0,0,0,0,0,0,0,0,0,0,0,0,0,0,0,0,0,0,0,0,0,0,0,0,0,0,0,0,0,209,211,420,15,10 มิถุนายน 2561
48,48,90020051,บ้านใต้,0,0,0,0,12,13,25,1,21,22,43,2,33,35,68,3,13,10,23,1,14,11,25,1,13,19,32,1,16,14,30,1,22,19,41,1,16,22,38,1,94,95,189,6,0,0,0,0,0,0,0,0,0,0,0,0,0,0,0,0,0,0,0,0,0,0,0,0,0,0,0,0,0,0,0,0,0,0,0,0,0,0,0,0,0,0,0,0,127,130,257,9,10 มิถุนายน 2561
49,49,90020052,วัดชลธารประสิทธิ์,2,1,3,1,6,7,13,1,3,1,4,1,11,9,20,3,2,2,4,1,3,2,5,1,1,6,7,1,5,1,6,1,3,2,5,1,2,4,6,1,16,17,33,6,0,0,0,0,0,0,0,0,0,0,0,0,0,0,0,0,0,0,0,0,0,0,0,0,0,0,0,0,0,0,0,0,0,0,0,0,0,0,0,0,0,0,0,0,27,26,53,9,10 มิถุนายน 2561
50,50,90020053,วัดดอน,1,1,2,1,1,3,4,1,5,6,11,1,7,10,17,3,5,3,8,1,5,4,9,1,3,3,6,1,7,6,13,1,4,8,12,1,6,9,15,1,30,33,63,6,0,0,0,0,0,0,0,0,0,0,0,0,0,0,0,0,0,0,0,0,0,0,0,0,0,0,0,0,0,0,0,0,0,0,0,0,0,0,0,0,0,0,0,0,37,43,80,9,10 มิถุนายน 2561
51,51,90020054,บ้านเกาะนก,0,0,0,0,7,9,16,1,7,7,14,1,14,16,30,2,10,6,16,1,8,5,13,1,13,8,21,1,5,4,9,1,10,3,13,1,7,12,19,1,53,38,91,6,0,0,0,0,0,0,0,0,0,0,0,0,0,0,0,0,0,0,0,0,0,0,0,0,0,0,0,0,0,0,0,0,0,0,0,0,0,0,0,0,0,0,0,0,67,54,121,8,10 มิถุนายน 2561
52,52,90020055,บ้านควน,0,0,0,0,8,6,14,1,10,4,14,1,18,10,28,2,8,7,15,1,10,4,14,1,11,5,16,1,10,3,13,1,11,2,13,1,9,8,17,1,59,29,88,6,0,0,0,0,0,0,0,0,0,0,0,0,0,0,0,0,0,0,0,0,0,0,0,0,0,0,0,0,0,0,0,0,0,0,0,0,0,0,0,0,0,0,0,0,77,39,116,8,10 มิถุนายน 2561
53,53,90020056,วัดบางลึก,0,0,0,0,0,2,2,1,1,2,3,1,1,4,5,2,1,5,6,1,1,4,5,1,2,6,8,1,4,2,6,1,4,2,6,1,1,2,3,1,13,21,34,6,0,0,0,0,0,0,0,0,0,0,0,0,0,0,0,0,0,0,0,0,0,0,0,0,0,0,0,0,0,0,0,0,0,0,0,0,0,0,0,0,0,0,0,0,14,25,39,8,10 มิถุนายน 2561
54,54,90020057,บ้านฉลุง,0,0,0,0,27,15,42,2,24,39,63,2,51,54,105,4,29,31,60,2,24,28,52,2,26,31,57,2,36,24,60,2,27,33,60,2,35,31,66,2,177,178,355,12,0,0,0,0,0,0,0,0,0,0,0,0,0,0,0,0,0,0,0,0,0,0,0,0,0,0,0,0,0,0,0,0,0,0,0,0,0,0,0,0,0,0,0,0,228,232,460,16,10 มิถุนายน 2561
55,55,90020058,วัดเจริญราษฏร์,0,0,0,0,14,12,26,1,11,11,22,1,25,23,48,2,9,14,23,1,7,5,12,1,8,7,15,1,12,10,22,1,2,13,15,1,8,10,18,1,46,59,105,6,0,0,0,0,0,0,0,0,0,0,0,0,0,0,0,0,0,0,0,0,0,0,0,0,0,0,0,0,0,0,0,0,0,0,0,0,0,0,0,0,0,0,0,0,71,82,153,8,10 มิถุนายน 2561
56,56,90020059,วัดเขากลอย,5,2,7,1,6,4,10,1,10,8,18,1,21,14,35,3,11,8,19,1,11,8,19,1,11,7,18,1,10,6,16,1,9,12,21,1,9,7,16,1,61,48,109,6,0,0,0,0,0,0,0,0,0,0,0,0,0,0,0,0,0,0,0,0,0,0,0,0,0,0,0,0,0,0,0,0,0,0,0,0,0,0,0,0,0,0,0,0,82,62,144,9,10 มิถุนายน 2561
57,57,90020060,วัดแม่เตย,7,8,15,1,9,9,18,1,4,4,8,1,20,21,41,3,6,4,10,1,3,3,6,1,5,8,13,1,4,2,6,1,0,1,1,1,5,1,6,1,23,19,42,6,0,0,0,0,0,0,0,0,0,0,0,0,0,0,0,0,0,0,0,0,0,0,0,0,0,0,0,0,0,0,0,0,0,0,0,0,0,0,0,0,0,0,0,0,43,40,83,9,10 มิถุนายน 2561
58,58,90020061,วัดท่าข้าม,2,0,2,1,4,5,9,1,7,2,9,1,13,7,20,3,7,2,9,1,0,3,3,1,1,3,4,1,6,3,9,1,3,5,8,1,4,2,6,1,21,18,39,6,0,0,0,0,0,0,0,0,0,0,0,0,0,0,0,0,0,0,0,0,0,0,0,0,0,0,0,0,0,0,0,0,0,0,0,0,0,0,0,0,0,0,0,0,34,25,59,9,10 มิถุนายน 2561
59,59,90020062,วัดหินเกลี้ยง,7,7,14,1,8,12,20,1,5,8,13,1,20,27,47,3,7,8,15,1,6,6,12,1,7,9,16,1,2,16,18,1,7,3,10,1,9,3,12,1,38,45,83,6,0,0,0,0,0,0,0,0,0,0,0,0,0,0,0,0,0,0,0,0,0,0,0,0,0,0,0,0,0,0,0,0,0,0,0,0,0,0,0,0,0,0,0,0,58,72,130,9,10 มิถุนายน 2561
60,60,90020063,บ้านวังพา,7,10,17,1,11,12,23,1,15,14,29,1,33,36,69,3,13,11,24,1,20,11,31,1,14,6,20,1,9,17,26,1,16,17,33,1,12,6,18,1,84,68,152,6,0,0,0,0,0,0,0,0,0,0,0,0,0,0,0,0,0,0,0,0,0,0,0,0,0,0,0,0,0,0,0,0,0,0,0,0,0,0,0,0,0,0,0,0,117,104,221,9,10 มิถุนายน 2561
61,61,90020064,วัดหูแร่,26,16,42,2,12,18,30,1,16,17,33,1,54,51,105,4,30,23,53,2,23,19,42,2,30,24,54,2,24,20,44,2,24,29,53,2,31,29,60,2,162,144,306,12,23,24,47,2,24,20,44,1,29,20,49,2,76,64,140,5,0,0,0,0,0,0,0,0,0,0,0,0,0,0,0,0,0,0,0,0,0,0,0,0,0,0,0,0,292,259,551,21,10 มิถุนายน 2561
62,62,90020065,บ้านทุ่งตําเสา,2,4,6,1,2,6,8,1,9,8,17,1,13,18,31,3,7,4,11,1,3,8,11,1,8,3,11,1,10,8,18,1,5,7,12,1,6,4,10,1,39,34,73,6,0,0,0,0,0,0,0,0,0,0,0,0,0,0,0,0,0,0,0,0,0,0,0,0,0,0,0,0,0,0,0,0,0,0,0,0,0,0,0,0,0,0,0,0,52,52,104,9,10 มิถุนายน 2561
63,63,90020066,รักเมืองไทย 6 (โตนงาช้าง),0,0,0,0,10,8,18,1,11,13,24,1,21,21,42,2,13,9,22,1,7,11,18,1,14,10,24,1,11,6,17,1,14,14,28,1,9,9,18,1,68,59,127,6,0,0,0,0,0,0,0,0,0,0,0,0,0,0,0,0,0,0,0,0,0,0,0,0,0,0,0,0,0,0,0,0,0,0,0,0,0,0,0,0,0,0,0,0,89,80,169,8,10 มิถุนายน 2561
64,64,90020067,บ้านนาแสน,7,2,9,1,5,8,13,1,4,8,12,1,16,18,34,3,7,1,8,1,7,8,15,1,1,3,4,1,4,3,7,1,6,0,6,1,8,2,10,1,33,17,50,6,0,0,0,0,0,0,0,0,0,0,0,0,0,0,0,0,0,0,0,0,0,0,0,0,0,0,0,0,0,0,0,0,0,0,0,0,0,0,0,0,0,0,0,0,49,35,84,9,10 มิถุนายน 2561
65,65,90020068,บ้านทุ่งเลียบ,0,0,0,0,0,5,5,1,2,3,5,1,2,8,10,2,4,7,11,1,2,2,4,1,6,3,9,1,7,3,10,1,7,3,10,1,4,8,12,1,30,26,56,6,0,0,0,0,0,0,0,0,0,0,0,0,0,0,0,0,0,0,0,0,0,0,0,0,0,0,0,0,0,0,0,0,0,0,0,0,0,0,0,0,0,0,0,0,32,34,66,8,10 มิถุนายน 2561
66,66,90020069,บ้านท่าหมอไชย,6,2,8,1,3,4,7,1,8,2,10,1,17,8,25,3,6,8,14,1,6,6,12,1,3,4,7,1,4,4,8,1,6,4,10,1,6,6,12,1,31,32,63,6,0,0,0,0,0,0,0,0,0,0,0,0,0,0,0,0,0,0,0,0,0,0,0,0,0,0,0,0,0,0,0,0,0,0,0,0,0,0,0,0,0,0,0,0,48,40,88,9,10 มิถุนายน 2561
67,67,90020070,บ้านหินผุด,6,7,13,1,12,11,23,1,11,9,20,1,29,27,56,3,7,7,14,1,7,9,16,1,8,10,18,1,11,10,21,1,5,7,12,1,11,9,20,1,49,52,101,6,0,0,0,0,0,0,0,0,0,0,0,0,0,0,0,0,0,0,0,0,0,0,0,0,0,0,0,0,0,0,0,0,0,0,0,0,0,0,0,0,0,0,0,0,78,79,157,9,10 มิถุนายน 2561
68,68,90020071,วัดพรุเตาะ,3,4,7,1,5,2,7,1,2,3,5,1,10,9,19,3,3,3,6,1,2,3,5,1,5,4,9,1,2,1,3,1,3,3,6,1,3,3,6,1,18,17,35,6,0,0,0,0,0,0,0,0,0,0,0,0,0,0,0,0,0,0,0,0,0,0,0,0,0,0,0,0,0,0,0,0,0,0,0,0,0,0,0,0,0,0,0,0,28,26,54,9,10 มิถุนายน 2561
69,69,90020072,บ้านทุ่งใหญ่,0,3,3,1,3,4,7,1,5,4,9,1,8,11,19,3,6,9,15,1,1,9,10,1,11,8,19,1,6,5,11,1,6,9,15,1,9,5,14,1,39,45,84,6,0,0,0,0,0,0,0,0,0,0,0,0,0,0,0,0,0,0,0,0,0,0,0,0,0,0,0,0,0,0,0,0,0,0,0,0,0,0,0,0,0,0,0,0,47,56,103,9,10 มิถุนายน 2561
70,70,90020073,บ้านทุ่งงาย,6,7,13,1,7,7,14,1,9,6,15,1,22,20,42,3,8,8,16,1,6,4,10,1,4,4,8,1,8,4,12,1,4,5,9,1,4,8,12,1,34,33,67,6,0,0,0,0,0,0,0,0,0,0,0,0,0,0,0,0,0,0,0,0,0,0,0,0,0,0,0,0,0,0,0,0,0,0,0,0,0,0,0,0,0,0,0,0,56,53,109,9,10 มิถุนายน 2561
71,71,90020074,วัดศีรษะคีรี,0,0,0,0,0,0,0,0,0,0,0,0,0,0,0,0,6,3,9,1,2,7,9,1,6,5,11,1,2,5,7,1,3,6,9,1,6,5,11,1,25,31,56,6,0,0,0,0,0,0,0,0,0,0,0,0,0,0,0,0,0,0,0,0,0,0,0,0,0,0,0,0,0,0,0,0,0,0,0,0,0,0,0,0,0,0,0,0,25,31,56,6,10 มิถุนายน 2561
72,72,90020075,ท่าจีนอุดมวิทยา,0,0,0,0,5,5,10,1,19,9,28,1,24,14,38,2,15,17,32,1,6,11,17,1,15,11,26,1,15,17,32,1,13,13,26,1,17,9,26,1,81,78,159,6,20,9,29,1,19,8,27,1,19,4,23,1,58,21,79,3,0,0,0,0,0,0,0,0,0,0,0,0,0,0,0,0,0,0,0,0,0,0,0,0,0,0,0,0,163,113,276,11,10 มิถุนายน 2561
73,73,90020076,วัดท่านางหอม,0,0,0,0,0,0,0,0,0,0,0,0,0,0,0,0,10,4,14,1,3,5,8,1,7,5,12,1,8,6,14,1,8,9,17,1,9,13,22,1,45,42,87,6,0,0,0,0,0,0,0,0,0,0,0,0,0,0,0,0,0,0,0,0,0,0,0,0,0,0,0,0,0,0,0,0,0,0,0,0,0,0,0,0,0,0,0,0,45,42,87,6,10 มิถุนายน 2561
74,74,90020077,ชุมชนบ้านน้ำน้อย,4,3,7,1,5,5,10,1,10,4,14,1,19,12,31,3,13,10,23,1,13,12,25,1,8,15,23,1,17,7,24,1,13,12,25,1,13,11,24,1,77,67,144,6,10,9,19,1,12,11,23,1,10,4,14,1,32,24,56,3,0,0,0,0,0,0,0,0,0,0,0,0,0,0,0,0,0,0,0,0,0,0,0,0,0,0,0,0,128,103,231,12,10 มิถุนายน 2561
75,75,90020078,วัดเทพชุมนุม,0,0,0,0,41,26,67,3,33,29,62,3,74,55,129,6,42,34,76,3,38,32,70,3,41,28,69,3,49,40,89,3,37,31,68,2,20,32,52,2,227,197,424,16,0,0,0,0,0,0,0,0,0,0,0,0,0,0,0,0,0,0,0,0,0,0,0,0,0,0,0,0,0,0,0,0,0,0,0,0,0,0,0,0,0,0,0,0,301,252,553,22,10 มิถุนายน 2561
76,76,90020079,บ้านโปะหมอ,0,0,0,0,26,26,52,2,27,33,60,2,53,59,112,4,37,29,66,3,45,19,64,2,28,28,56,2,36,35,71,2,36,30,66,2,40,34,74,2,222,175,397,13,0,0,0,0,0,0,0,0,0,0,0,0,0,0,0,0,0,0,0,0,0,0,0,0,0,0,0,0,0,0,0,0,0,0,0,0,0,0,0,0,0,0,0,0,275,234,509,17,10 มิถุนายน 2561
77,77,90020080,บ้านไร่,0,0,0,0,8,18,26,1,10,16,26,1,18,34,52,2,11,11,22,1,14,5,19,1,14,11,25,1,13,11,24,1,13,8,21,1,14,10,24,1,79,56,135,6,6,8,14,1,13,3,16,1,8,6,14,1,27,17,44,3,0,0,0,0,0,0,0,0,0,0,0,0,0,0,0,0,0,0,0,0,0,0,0,0,0,0,0,0,124,107,231,11,10 มิถุนายน 2561
78,78,90020081,บ้านคลองปอม,0,0,0,0,8,8,16,1,13,12,25,1,21,20,41,2,7,9,16,1,9,9,18,1,6,6,12,1,9,7,16,1,4,6,10,1,5,10,15,1,40,47,87,6,0,0,0,0,0,0,0,0,0,0,0,0,0,0,0,0,0,0,0,0,0,0,0,0,0,0,0,0,0,0,0,0,0,0,0,0,0,0,0,0,0,0,0,0,61,67,128,8,10 มิถุนายน 2561
79,79,90020082,ทุ่งปรือพิทยาคม,3,6,9,1,9,15,24,1,16,13,29,1,28,34,62,3,9,16,25,1,10,14,24,1,13,10,23,1,8,12,20,1,14,11,25,1,17,5,22,1,71,68,139,6,8,6,14,1,8,12,20,1,7,5,12,1,23,23,46,3,0,0,0,0,0,0,0,0,0,0,0,0,0,0,0,0,0,0,0,0,0,0,0,0,0,0,0,0,122,125,247,12,10 มิถุนายน 2561
80,80,90020083,วัดทุ่งลุงมิตรภาพที่ 198,6,4,10,1,7,6,13,1,7,3,10,1,20,13,33,3,8,7,15,1,8,10,18,1,10,4,14,1,4,6,10,1,9,11,20,1,4,9,13,1,43,47,90,6,0,0,0,0,0,0,0,0,0,0,0,0,0,0,0,0,0,0,0,0,0,0,0,0,0,0,0,0,0,0,0,0,0,0,0,0,0,0,0,0,0,0,0,0,63,60,123,9,10 มิถุนายน 2561
81,81,90020085,วัดควนเนียง,10,10,20,1,12,8,20,1,10,6,16,1,32,24,56,3,15,6,21,1,4,9,13,1,9,4,13,1,9,4,13,1,6,2,8,1,5,2,7,1,48,27,75,6,0,0,0,0,0,0,0,0,0,0,0,0,0,0,0,0,0,0,0,0,0,0,0,0,0,0,0,0,0,0,0,0,0,0,0,0,0,0,0,0,0,0,0,0,80,51,131,9,10 มิถุนายน 2561
82,82,90020086,วัดโคกสมานคุณ,23,23,46,1,29,29,58,2,37,16,53,2,89,68,157,5,42,28,70,2,29,21,50,2,12,16,28,1,18,14,32,1,22,14,36,1,22,11,33,2,145,104,249,9,0,0,0,0,0,0,0,0,0,0,0,0,0,0,0,0,0,0,0,0,0,0,0,0,0,0,0,0,0,0,0,0,0,0,0,0,0,0,0,0,0,0,0,0,234,172,406,14,10 มิถุนายน 2561
83,83,90020087,วัดโพธิธรรมาราม,0,1,1,1,4,2,6,1,7,1,8,1,11,4,15,3,5,1,6,1,6,1,7,1,6,1,7,1,5,4,9,1,5,4,9,1,2,3,5,1,29,14,43,6,0,0,0,0,0,0,0,0,0,0,0,0,0,0,0,0,0,0,0,0,0,0,0,0,0,0,0,0,0,0,0,0,0,0,0,0,0,0,0,0,0,0,0,0,40,18,58,9,10 มิถุนายน 2561
84,84,90020088,บ้านควนโส,1,0,1,1,8,8,16,1,8,4,12,1,17,12,29,3,14,4,18,1,11,16,27,1,7,11,18,1,9,9,18,1,13,8,21,1,11,6,17,1,65,54,119,6,0,0,0,0,0,0,0,0,0,0,0,0,0,0,0,0,0,0,0,0,0,0,0,0,0,0,0,0,0,0,0,0,0,0,0,0,0,0,0,0,0,0,0,0,82,66,148,9,10 มิถุนายน 2561
85,85,90020089,บ้านบ่อหว้า,0,0,0,0,1,6,7,1,4,1,5,1,5,7,12,2,5,3,8,1,2,3,5,1,5,2,7,1,3,3,6,1,1,2,3,1,6,6,12,1,22,19,41,6,0,0,0,0,0,0,0,0,0,0,0,0,0,0,0,0,0,0,0,0,0,0,0,0,0,0,0,0,0,0,0,0,0,0,0,0,0,0,0,0,0,0,0,0,27,26,53,8,10 มิถุนายน 2561
86,86,90020090,บ้านกรอบ,5,8,13,1,6,10,16,1,10,5,15,1,21,23,44,3,18,14,32,1,15,15,30,1,20,12,32,1,12,13,25,1,18,13,31,1,7,2,9,1,90,69,159,6,0,0,0,0,0,0,0,0,0,0,0,0,0,0,0,0,0,0,0,0,0,0,0,0,0,0,0,0,0,0,0,0,0,0,0,0,0,0,0,0,0,0,0,0,111,92,203,9,10 มิถุนายน 2561
87,87,90020091,วัดปากจ่า,0,0,0,0,2,2,4,1,3,3,6,1,5,5,10,2,1,2,3,1,2,2,4,1,2,3,5,1,0,6,6,1,3,2,5,1,3,4,7,1,11,19,30,6,0,0,0,0,0,0,0,0,0,0,0,0,0,0,0,0,0,0,0,0,0,0,0,0,0,0,0,0,0,0,0,0,0,0,0,0,0,0,0,0,0,0,0,0,16,24,40,8,10 มิถุนายน 2561
88,88,90020092,วัดบางทีง,0,0,0,0,12,10,22,1,15,12,27,1,27,22,49,2,8,11,19,1,8,13,21,1,15,7,22,1,11,10,21,1,14,12,26,1,7,7,14,1,63,60,123,6,0,0,0,0,0,0,0,0,0,0,0,0,0,0,0,0,0,0,0,0,0,0,0,0,0,0,0,0,0,0,0,0,0,0,0,0,0,0,0,0,0,0,0,0,90,82,172,8,10 มิถุนายน 2561
89,89,90020093,บ้านบางเหรียง,6,5,11,1,6,5,11,1,3,2,5,1,15,12,27,3,12,10,22,1,7,7,14,1,5,9,14,1,12,13,25,1,14,10,24,1,11,9,20,1,61,58,119,6,11,4,15,1,8,4,12,1,11,2,13,1,30,10,40,3,0,0,0,0,0,0,0,0,0,0,0,0,0,0,0,0,0,0,0,0,0,0,0,0,0,0,0,0,106,80,186,12,10 มิถุนายน 2561
90,90,90020094,บ้านคลองคล้า,0,0,0,0,1,2,3,1,2,4,6,1,3,6,9,2,7,7,14,1,5,2,7,1,7,9,16,1,6,4,10,1,4,6,10,1,7,5,12,1,36,33,69,6,0,0,0,0,0,0,0,0,0,0,0,0,0,0,0,0,0,0,0,0,0,0,0,0,0,0,0,0,0,0,0,0,0,0,0,0,0,0,0,0,0,0,0,0,39,39,78,8,10 มิถุนายน 2561
91,91,90020095,บ้านโคกเมือง(ธรรมโมลีคณานุสรณ์),2,3,5,1,1,1,2,1,5,2,7,1,8,6,14,3,0,4,4,1,2,3,5,1,1,5,6,1,4,2,6,1,5,1,6,1,3,3,6,1,15,18,33,6,0,0,0,0,0,0,0,0,0,0,0,0,0,0,0,0,0,0,0,0,0,0,0,0,0,0,0,0,0,0,0,0,0,0,0,0,0,0,0,0,0,0,0,0,23,24,47,9,10 มิถุนายน 2561
92,92,90020096,บ้านเกาะใหญ่,1,2,3,1,0,0,0,0,1,3,4,1,2,5,7,2,5,2,7,1,8,5,13,1,8,4,12,1,7,4,11,1,9,5,14,1,4,13,17,1,41,33,74,6,0,0,0,0,0,0,0,0,0,0,0,0,0,0,0,0,0,0,0,0,0,0,0,0,0,0,0,0,0,0,0,0,0,0,0,0,0,0,0,0,0,0,0,0,43,38,81,8,10 มิถุนายน 2561
93,93,90020097,บ้านคลองช้าง,4,2,6,1,4,3,7,1,4,0,4,1,12,5,17,3,8,1,9,1,2,1,3,1,1,7,8,1,8,9,17,1,5,4,9,1,5,4,9,1,29,26,55,6,0,0,0,0,0,0,0,0,0,0,0,0,0,0,0,0,0,0,0,0,0,0,0,0,0,0,0,0,0,0,0,0,0,0,0,0,0,0,0,0,0,0,0,0,41,31,72,9,10 มิถุนายน 2561
94,94,90020099,บ้านหน้าควน,2,0,2,1,3,5,8,1,6,5,11,1,11,10,21,3,6,5,11,1,7,1,8,1,5,9,14,1,7,0,7,1,5,7,12,1,0,6,6,1,30,28,58,6,0,0,0,0,0,0,0,0,0,0,0,0,0,0,0,0,0,0,0,0,0,0,0,0,0,0,0,0,0,0,0,0,0,0,0,0,0,0,0,0,0,0,0,0,41,38,79,9,10 มิถุนายน 2561
95,95,90020100,วัดคงคาวดี(ศรีสุวรรณโณศึกษา),0,0,0,0,8,12,20,1,13,12,25,1,21,24,45,2,7,12,19,1,15,11,26,1,19,9,28,1,13,19,32,1,21,9,30,1,13,15,28,1,88,75,163,6,0,0,0,0,0,0,0,0,0,0,0,0,0,0,0,0,0,0,0,0,0,0,0,0,0,0,0,0,0,0,0,0,0,0,0,0,0,0,0,0,0,0,0,0,109,99,208,8,10 มิถุนายน 2561
96,96,90020101,บ้านควนเนียง,0,0,0,0,27,30,57,2,35,25,60,2,62,55,117,4,86,76,162,5,80,81,161,5,89,74,163,5,81,77,158,5,86,66,152,5,80,85,165,5,502,459,961,30,0,0,0,0,0,0,0,0,0,0,0,0,0,0,0,0,0,0,0,0,0,0,0,0,0,0,0,0,0,0,0,0,0,0,0,0,0,0,0,0,0,0,0,0,564,514,1078,34,10 มิถุนายน 2561
97,97,90020103,บ้านยางงาม,2,4,6,1,5,3,8,1,1,3,4,1,8,10,18,3,6,5,11,1,6,0,6,1,2,0,2,1,3,2,5,1,2,4,6,1,3,3,6,1,22,14,36,6,0,0,0,0,0,0,0,0,0,0,0,0,0,0,0,0,0,0,0,0,0,0,0,0,0,0,0,0,0,0,0,0,0,0,0,0,0,0,0,0,0,0,0,0,30,24,54,9,10 มิถุนายน 2561
98,98,90020104,บ้านควนเนียงใน,0,0,0,0,2,3,5,1,1,2,3,1,3,5,8,2,3,1,4,1,3,7,10,1,7,2,9,1,5,4,9,1,2,5,7,1,3,3,6,1,23,22,45,6,0,0,0,0,0,0,0,0,0,0,0,0,0,0,0,0,0,0,0,0,0,0,0,0,0,0,0,0,0,0,0,0,0,0,0,0,0,0,0,0,0,0,0,0,26,27,53,8,10 มิถุนายน 2561
99,99,90020105,บ้านหนองปลิง,0,0,0,0,14,3,17,1,6,6,12,1,20,9,29,2,8,2,10,1,14,6,20,1,12,8,20,1,5,14,19,1,11,5,16,1,4,12,16,1,54,47,101,6,0,0,0,0,0,0,0,0,0,0,0,0,0,0,0,0,0,0,0,0,0,0,0,0,0,0,0,0,0,0,0,0,0,0,0,0,0,0,0,0,0,0,0,0,74,56,130,8,10 มิถุนายน 2561
100,100,90020106,บ้านหัวไทร,0,0,0,0,3,4,7,1,3,2,5,1,6,6,12,2,6,3,9,1,0,5,5,1,5,2,7,1,4,2,6,1,6,7,13,1,8,10,18,1,29,29,58,6,0,0,0,0,0,0,0,0,0,0,0,0,0,0,0,0,0,0,0,0,0,0,0,0,0,0,0,0,0,0,0,0,0,0,0,0,0,0,0,0,0,0,0,0,35,35,70,8,10 มิถุนายน 2561
101,101,90020107,วัดท่าหยี,4,5,9,1,7,2,9,1,0,7,7,1,11,14,25,3,4,3,7,1,7,3,10,1,2,5,7,1,6,6,12,1,5,4,9,1,6,2,8,1,30,23,53,6,0,0,0,0,0,0,0,0,0,0,0,0,0,0,0,0,0,0,0,0,0,0,0,0,0,0,0,0,0,0,0,0,0,0,0,0,0,0,0,0,0,0,0,0,41,37,78,9,10 มิถุนายน 2561
102,102,90020108,บ้านหัวปาบ,0,0,0,0,14,13,27,1,10,11,21,1,24,24,48,2,9,10,19,1,18,12,30,1,12,14,26,1,16,12,28,1,7,14,21,1,20,10,30,1,82,72,154,6,3,7,10,1,5,4,9,1,0,8,8,1,8,19,27,3,0,0,0,0,0,0,0,0,0,0,0,0,0,0,0,0,0,0,0,0,0,0,0,0,0,0,0,0,114,115,229,11,10 มิถุนายน 2561
103,103,90020109,บ้านห้วยลึก,5,2,7,1,6,0,6,1,3,5,8,1,14,7,21,3,6,7,13,1,6,3,9,1,1,3,4,1,2,4,6,1,8,6,14,1,8,6,14,1,31,29,60,6,0,0,0,0,0,0,0,0,0,0,0,0,0,0,0,0,0,0,0,0,0,0,0,0,0,0,0,0,0,0,0,0,0,0,0,0,0,0,0,0,0,0,0,0,45,36,81,9,10 มิถุนายน 2561
104,104,90020110,บ้านโคกเมา,20,16,36,1,13,19,32,2,32,17,49,2,65,52,117,5,40,41,81,2,38,23,61,2,34,30,64,2,30,29,59,2,35,21,56,2,29,28,57,2,206,172,378,12,13,13,26,1,22,15,37,1,15,13,28,1,50,41,91,3,0,0,0,0,0,0,0,0,0,0,0,0,0,0,0,0,0,0,0,0,0,0,0,0,0,0,0,0,321,265,586,20,10 มิถุนายน 2561
105,105,90020111,บ้านคลองนกกระทุง,0,0,0,0,13,11,24,1,14,13,27,1,27,24,51,2,21,9,30,1,13,14,27,1,20,11,31,1,9,15,24,1,13,14,27,1,12,15,27,1,88,78,166,6,16,17,33,1,14,18,32,1,11,10,21,1,41,45,86,3,0,0,0,0,0,0,0,0,0,0,0,0,0,0,0,0,0,0,0,0,0,0,0,0,0,0,0,0,156,147,303,11,10 มิถุนายน 2561
106,106,90020112,วัดเนินพิชัย,0,0,0,0,4,6,10,1,6,8,14,1,10,14,24,2,22,26,48,2,20,13,33,1,11,17,28,1,14,16,30,1,18,9,27,1,14,17,31,1,99,98,197,7,32,23,55,2,15,18,33,1,11,14,25,1,58,55,113,4,0,0,0,0,0,0,0,0,0,0,0,0,0,0,0,0,0,0,0,0,0,0,0,0,0,0,0,0,167,167,334,13,10 มิถุนายน 2561
107,107,90020113,บ้านดินลาน,3,7,10,1,5,4,9,1,7,6,13,1,15,17,32,3,10,6,16,1,3,10,13,1,11,7,18,1,5,7,12,1,13,7,20,1,11,8,19,1,53,45,98,6,0,0,0,0,0,0,0,0,0,0,0,0,0,0,0,0,0,0,0,0,0,0,0,0,0,0,0,0,0,0,0,0,0,0,0,0,0,0,0,0,0,0,0,0,68,62,130,9,10 มิถุนายน 2561
108,108,90020114,บ้านป่ายาง,0,0,0,0,8,3,11,1,7,7,14,1,15,10,25,2,14,7,21,1,8,0,8,1,7,8,15,1,18,7,25,1,7,6,13,1,11,15,26,1,65,43,108,6,0,0,0,0,0,0,0,0,0,0,0,0,0,0,0,0,0,0,0,0,0,0,0,0,0,0,0,0,0,0,0,0,0,0,0,0,0,0,0,0,0,0,0,0,80,53,133,8,10 มิถุนายน 2561
109,109,90020115,บ้านยางงาม,0,0,0,0,9,4,13,1,9,10,19,1,18,14,32,2,9,10,19,1,9,8,17,1,10,8,18,1,9,6,15,1,11,5,16,1,5,6,11,1,53,43,96,6,0,0,0,0,0,0,0,0,0,0,0,0,0,0,0,0,0,0,0,0,0,0,0,0,0,0,0,0,0,0,0,0,0,0,0,0,0,0,0,0,0,0,0,0,71,57,128,8,10 มิถุนายน 2561
110,110,90020116,วัดท่าช้าง,0,0,0,0,1,4,5,1,2,7,9,1,3,11,14,2,3,5,8,1,5,7,12,1,4,2,6,1,5,3,8,1,5,2,7,1,4,4,8,1,26,23,49,6,0,0,0,0,0,0,0,0,0,0,0,0,0,0,0,0,0,0,0,0,0,0,0,0,0,0,0,0,0,0,0,0,0,0,0,0,0,0,0,0,0,0,0,0,29,34,63,8,10 มิถุนายน 2561
111,111,90020117,บ้านบางกลํ่า,6,4,10,1,5,5,10,1,14,12,26,1,25,21,46,3,4,5,9,1,10,4,14,1,5,3,8,1,7,3,10,1,8,11,19,1,5,7,12,1,39,33,72,6,0,0,0,0,0,0,0,0,0,0,0,0,0,0,0,0,0,0,0,0,0,0,0,0,0,0,0,0,0,0,0,0,0,0,0,0,0,0,0,0,0,0,0,0,64,54,118,9,10 มิถุนายน 2561
112,112,90020120,บ้านยวนยาง,3,0,3,1,4,6,10,1,6,5,11,1,13,11,24,3,2,1,3,1,12,2,14,1,4,2,6,1,4,3,7,1,3,2,5,1,8,2,10,1,33,12,45,6,0,0,0,0,0,0,0,0,0,0,0,0,0,0,0,0,0,0,0,0,0,0,0,0,0,0,0,0,0,0,0,0,0,0,0,0,0,0,0,0,0,0,0,0,46,23,69,9,10 มิถุนายน 2561
113,113,90020121,บ้านหาร,7,11,18,1,12,10,22,1,10,9,19,1,29,30,59,3,9,12,21,1,10,9,19,1,12,7,19,1,10,14,24,1,11,13,24,1,12,16,28,1,64,71,135,6,6,6,12,1,8,7,15,1,10,9,19,1,24,22,46,3,0,0,0,0,0,0,0,0,0,0,0,0,0,0,0,0,0,0,0,0,0,0,0,0,0,0,0,0,117,123,240,12,10 มิถุนายน 2561
114,114,90020122,บ้านหนองม่วง,4,3,7,1,7,10,17,1,7,9,16,1,18,22,40,3,14,8,22,1,6,9,15,1,14,10,24,1,11,8,19,1,10,5,15,1,12,14,26,1,67,54,121,6,0,0,0,0,0,0,0,0,0,0,0,0,0,0,0,0,0,0,0,0,0,0,0,0,0,0,0,0,0,0,0,0,0,0,0,0,0,0,0,0,0,0,0,0,85,76,161,9,10 มิถุนายน 2561
115,115,90020123,วัดนารังนก,2,0,2,1,6,1,7,1,4,1,5,1,12,2,14,3,4,5,9,1,2,4,6,1,3,5,8,1,2,3,5,1,5,3,8,1,9,5,14,1,25,25,50,6,5,4,9,1,11,3,14,1,6,6,12,1,22,13,35,3,0,0,0,0,0,0,0,0,0,0,0,0,0,0,0,0,0,0,0,0,0,0,0,0,0,0,0,0,59,40,99,12,10 มิถุนายน 2561
116,116,90020125,วัดเลียบ,0,0,0,0,5,5,10,1,2,3,5,1,7,8,15,2,3,4,7,1,5,9,14,1,6,5,11,1,10,6,16,1,9,6,15,1,11,7,18,1,44,37,81,6,0,0,0,0,0,0,0,0,0,0,0,0,0,0,0,0,0,0,0,0,0,0,0,0,0,0,0,0,0,0,0,0,0,0,0,0,0,0,0,0,0,0,0,0,51,45,96,8,10 มิถุนายน 2561
117,117,90020126,บ้านต้นส้าน,2,1,3,1,8,3,11,1,13,7,20,1,23,11,34,3,12,8,20,1,7,13,20,1,9,10,19,1,9,13,22,1,11,7,18,1,8,11,19,1,56,62,118,6,0,0,0,0,0,0,0,0,0,0,0,0,0,0,0,0,0,0,0,0,0,0,0,0,0,0,0,0,0,0,0,0,0,0,0,0,0,0,0,0,0,0,0,0,79,73,152,9,10 มิถุนายน 2561
118,118,90020127,บ้านควนกบ,2,3,5,1,1,5,6,1,7,4,11,1,10,12,22,3,6,9,15,1,5,5,10,1,5,5,10,1,8,3,11,1,4,3,7,1,4,6,10,1,32,31,63,6,0,0,0,0,0,0,0,0,0,0,0,0,0,0,0,0,0,0,0,0,0,0,0,0,0,0,0,0,0,0,0,0,0,0,0,0,0,0,0,0,0,0,0,0,42,43,85,9,10 มิถุนายน 2561
119,119,90020128,บ้านคลองหอยโข่ง,0,0,0,0,9,8,17,1,9,6,15,1,18,14,32,2,8,12,20,1,9,4,13,1,7,15,22,1,4,7,11,1,20,4,24,1,12,15,27,1,60,57,117,6,0,0,0,0,0,0,0,0,0,0,0,0,0,0,0,0,0,0,0,0,0,0,0,0,0,0,0,0,0,0,0,0,0,0,0,0,0,0,0,0,0,0,0,0,78,71,149,8,10 มิถุนายน 2561
120,120,90020129,บ้านหน้าวัดโพธิ์,8,10,18,1,14,22,36,2,19,16,35,2,41,48,89,5,19,11,30,2,20,19,39,2,22,25,47,2,26,17,43,2,12,17,29,2,19,20,39,2,118,109,227,12,23,15,38,1,18,16,34,1,14,8,22,1,55,39,94,3,0,0,0,0,0,0,0,0,0,0,0,0,0,0,0,0,0,0,0,0,0,0,0,0,0,0,0,0,214,196,410,20,10 มิถุนายน 2561
121,121,90020130,บ้านเก่าร้าง,0,0,0,0,1,2,3,1,4,10,14,1,5,12,17,2,3,3,6,1,6,6,12,1,5,8,13,1,7,1,8,1,6,5,11,1,6,1,7,1,33,24,57,6,0,0,0,0,0,0,0,0,0,0,0,0,0,0,0,0,0,0,0,0,0,0,0,0,0,0,0,0,0,0,0,0,0,0,0,0,0,0,0,0,0,0,0,0,38,36,74,8,10 มิถุนายน 2561
122,122,90020131,วัดโคกม่วง,8,7,15,1,12,10,22,1,12,11,23,1,32,28,60,3,11,7,18,1,21,11,32,1,11,5,16,1,15,13,28,1,3,7,10,1,8,6,14,1,69,49,118,6,0,0,0,0,0,0,0,0,0,0,0,0,0,0,0,0,0,0,0,0,0,0,0,0,0,0,0,0,0,0,0,0,0,0,0,0,0,0,0,0,0,0,0,0,101,77,178,9,10 มิถุนายน 2561
123,123,90020132,บ้านปลักคล้า,0,0,0,0,11,7,18,1,8,4,12,1,19,11,30,2,6,6,12,1,5,6,11,1,3,5,8,1,4,4,8,1,3,6,9,1,7,3,10,1,28,30,58,6,0,0,0,0,0,0,0,0,0,0,0,0,0,0,0,0,0,0,0,0,0,0,0,0,0,0,0,0,0,0,0,0,0,0,0,0,0,0,0,0,0,0,0,0,47,41,88,8,10 มิถุนายน 2561
124,124,90020133,วัดโคกเหรียง,10,4,14,1,8,3,11,1,7,11,18,1,25,18,43,3,9,4,13,1,6,6,12,1,2,10,12,1,3,3,6,1,6,4,10,1,8,5,13,1,34,32,66,6,0,0,0,0,0,0,0,0,0,0,0,0,0,0,0,0,0,0,0,0,0,0,0,0,0,0,0,0,0,0,0,0,0,0,0,0,0,0,0,0,0,0,0,0,59,50,109,9,10 มิถุนายน 2561
125,125,90020134,บ้านโคกพยอม,0,0,0,0,6,8,14,1,4,2,6,1,10,10,20,2,6,9,15,1,7,6,13,1,8,4,12,1,10,3,13,1,6,5,11,1,7,3,10,1,44,30,74,6,0,0,0,0,0,0,0,0,0,0,0,0,0,0,0,0,0,0,0,0,0,0,0,0,0,0,0,0,0,0,0,0,0,0,0,0,0,0,0,0,0,0,0,0,54,40,94,8,10 มิถุนายน 2561
126,126,90020135,วัดบางศาลา,7,4,11,1,8,6,14,1,5,4,9,1,20,14,34,3,12,5,17,1,5,6,11,1,8,7,15,1,12,4,16,1,11,1,12,1,3,6,9,1,51,29,80,6,0,0,0,0,0,0,0,0,0,0,0,0,0,0,0,0,0,0,0,0,0,0,0,0,0,0,0,0,0,0,0,0,0,0,0,0,0,0,0,0,0,0,0,0,71,43,114,9,10 มิถุนายน 2561
127,127,90020136,วัดปรางแก้ว,0,0,0,0,11,7,18,1,10,10,20,1,21,17,38,2,10,8,18,1,6,10,16,1,11,12,23,1,10,9,19,1,1,4,5,1,8,9,17,1,46,52,98,6,0,0,0,0,0,0,0,0,0,0,0,0,0,0,0,0,0,0,0,0,0,0,0,0,0,0,0,0,0,0,0,0,0,0,0,0,0,0,0,0,0,0,0,0,67,69,136,8,10 มิถุนายน 2561
