,0,1,2,3,4,5,6,7,8,9,10,11,12,13,14,15,16,17,18,19,20,21,22,23,24,25,26,27,28,29,30,31,32,33,34,35,36,37,38,39,40,41,42,43,44,45,46,47,48,49,50,51,52,53,54,55,56,57,58,59,60,61,62,63,64,65,66,67,68,69,70,71,72,73,74,75,76,77,78,79,80,81,82,83,84,85,86,87,88,89,90,91,92,93,94,95
0,ลำดับ,รหัส SMIS,โรงเรียน,อ.3 ขวบ ชาย,อ.3 ขวบ หญิง,รวมอ.3 ขวบ,อ.3 ขวบ ห้อง,อ.1 ชาย,อ.1 หญิง,รวมอ.1,อ.1 ห้อง,อ.2 ชาย,อ.2 หญิง,รวมอ.2,อ.2 ห้อง,รวมก่อนประถม ชาย,รวมก่อนประถม หญิง,รวมก่อนประถม,รวมห้องก่อนประถม,ป.1 ชาย,ป.1 หญิง,รวมป.1,ป.1 ห้อง,ป.2 ชาย,ป.2 หญิง,รวมป.2,ป.2 ห้อง,ป.3 ชาย,ป.3 หญิง,รวมป.3,ป.3 ห้อง,ป.4 ชาย,ป.4 หญิง,รวมป.4,ป.4 ห้อง,ป.5 ชาย,ป.5 หญิง,รวมป.5,ป.5 ห้อง,ป.6 ชาย,ป.6 หญิง,รวมป.6,ป.6 ห้อง,รวมประถม ชาย,รวมประถม หญิง,รวมประถม,รวมห้องประถม,ม.1 ชาย,ม.1 หญิง,รวมม.1,ม.1 ห้อง,ม.2 ชาย,ม.2 หญิง,รวมม.2,ม.2 ห้อง,ม.3 ชาย,ม.3 หญิง,รวมม.3,ม.3 ห้อง,รวมม.ต้น ชาย,รวมม.ต้น หญิง,รวมม.ต้น,รวมห้องม.ต้น,ม.4 ชาย,ม.4 หญิง,รวมม.4,ม.4 ห้อง,ม.5 ชาย,ม.5 หญิง,รวมม.5,ม.5 ห้อง,ม.6 ชาย,ม.6 หญิง,รวมม.6,ม.6 ห้อง,ปวช.1 ชาย,ปวช.1 หญิง,รวมปวช.1,ปวช.1 ห้อง,ปวช.2 ชาย,ปวช.2 หญิง,รวมปวช.2,ปวช.2 ห้อง,ปวช.3 ชาย,ปวช.3 หญิง,รวมปวช.3,ปวช.3 ห้อง,รวมม.ปลายและเทียบเท่า ชาย,รวมม.ปลายและเทียบเท่า หญิง,รวมม.ปลายและเทียบเท่า,รวมห้องม.ปลายและเทียบเท่า,รวมทั้งหมด ชาย,รวมทั้งหมด หญิง,รวมทั้งหมด,รวมห้องทั้งหมด,ข้อมูล ณ วันที่
1,1,92010001,บ้านควนปริง,10,8,18,1,15,7,22,1,7,9,16,1,32,24,56,3,6,13,19,1,16,7,23,1,10,11,21,1,15,8,23,1,7,15,22,1,11,10,21,1,65,64,129,6,24,6,30,1,18,16,34,1,6,10,16,1,48,32,80,3,0,0,0,0,0,0,0,0,0,0,0,0,0,0,0,0,0,0,0,0,0,0,0,0,0,0,0,0,145,120,265,12,10 มิถุนายน 2561
2,2,92010002,บ้านนาป้อ,0,0,0,0,9,4,13,1,12,5,17,1,21,9,30,2,12,9,21,1,7,5,12,1,9,7,16,1,10,8,18,1,11,13,24,1,9,7,16,1,58,49,107,6,0,0,0,0,0,0,0,0,0,0,0,0,0,0,0,0,0,0,0,0,0,0,0,0,0,0,0,0,0,0,0,0,0,0,0,0,0,0,0,0,0,0,0,0,79,58,137,8,10 มิถุนายน 2561
3,3,92010004,วัดนิคมประทีป,17,11,28,1,17,16,33,1,8,9,17,1,42,36,78,3,9,8,17,1,13,8,21,1,7,9,16,1,4,4,8,1,2,7,9,1,5,4,9,1,40,40,80,6,0,0,0,0,0,0,0,0,0,0,0,0,0,0,0,0,0,0,0,0,0,0,0,0,0,0,0,0,0,0,0,0,0,0,0,0,0,0,0,0,0,0,0,0,82,76,158,9,10 มิถุนายน 2561
4,4,92010005,วัดสาริการาม,0,0,0,0,3,0,3,1,1,1,2,1,4,1,5,2,3,10,13,1,3,4,7,1,11,2,13,1,3,5,8,1,8,4,12,1,8,3,11,1,36,28,64,6,0,0,0,0,0,0,0,0,0,0,0,0,0,0,0,0,0,0,0,0,0,0,0,0,0,0,0,0,0,0,0,0,0,0,0,0,0,0,0,0,0,0,0,0,40,29,69,8,10 มิถุนายน 2561
5,5,92010006,มิตรภาพที่ 31,6,4,10,1,11,9,20,1,10,10,20,1,27,23,50,3,3,3,6,1,5,6,11,1,15,7,22,1,7,8,15,1,10,9,19,1,5,9,14,1,45,42,87,6,0,0,0,0,0,0,0,0,0,0,0,0,0,0,0,0,0,0,0,0,0,0,0,0,0,0,0,0,0,0,0,0,0,0,0,0,0,0,0,0,0,0,0,0,72,65,137,9,10 มิถุนายน 2561
6,6,92010007,วัดควนวิเศษ,28,22,50,2,52,52,104,4,90,79,169,6,170,153,323,12,118,95,213,6,107,112,219,6,118,119,237,6,111,110,221,6,130,135,265,6,117,117,234,6,701,688,1389,36,0,0,0,0,0,0,0,0,0,0,0,0,0,0,0,0,0,0,0,0,0,0,0,0,0,0,0,0,0,0,0,0,0,0,0,0,0,0,0,0,0,0,0,0,871,841,1712,48,10 มิถุนายน 2561
7,7,92010008,อนุบาลตรัง,35,25,60,2,76,74,150,5,116,119,235,7,227,218,445,14,126,120,246,6,121,132,253,6,143,110,253,6,137,118,255,6,115,122,237,6,137,112,249,6,779,714,1493,36,0,0,0,0,0,0,0,0,0,0,0,0,0,0,0,0,0,0,0,0,0,0,0,0,0,0,0,0,0,0,0,0,0,0,0,0,0,0,0,0,0,0,0,0,1006,932,1938,50,10 มิถุนายน 2561
8,8,92010009,วัดไทรงาม,7,7,14,1,15,11,26,1,21,15,36,1,43,33,76,3,19,19,38,1,15,11,26,1,25,26,51,2,21,11,32,1,19,24,43,1,19,17,36,1,118,108,226,7,0,0,0,0,0,0,0,0,0,0,0,0,0,0,0,0,0,0,0,0,0,0,0,0,0,0,0,0,0,0,0,0,0,0,0,0,0,0,0,0,0,0,0,0,161,141,302,10,10 มิถุนายน 2561
9,9,92010010,วัดไพรสนฑ์,4,5,9,1,3,7,10,1,8,5,13,1,15,17,32,3,6,7,13,1,7,9,16,1,8,8,16,1,6,5,11,1,3,3,6,1,6,6,12,1,36,38,74,6,0,0,0,0,0,0,0,0,0,0,0,0,0,0,0,0,0,0,0,0,0,0,0,0,0,0,0,0,0,0,0,0,0,0,0,0,0,0,0,0,0,0,0,0,51,55,106,9,10 มิถุนายน 2561
10,10,92010011,ไทยรัฐวิทยา ๓๙,0,0,0,0,4,6,10,1,5,10,15,1,9,16,25,2,13,15,28,1,12,14,26,1,6,16,22,1,10,9,19,1,11,10,21,1,13,9,22,1,65,73,138,6,11,0,11,1,15,6,21,1,10,5,15,1,36,11,47,3,0,0,0,0,0,0,0,0,0,0,0,0,0,0,0,0,0,0,0,0,0,0,0,0,0,0,0,0,110,100,210,11,10 มิถุนายน 2561
11,11,92010015,บ้านควนสระแก้ว,3,5,8,1,1,1,2,1,1,3,4,1,5,9,14,3,3,3,6,1,1,1,2,1,3,3,6,1,7,3,10,1,2,4,6,1,2,0,2,1,18,14,32,6,0,0,0,0,0,0,0,0,0,0,0,0,0,0,0,0,0,0,0,0,0,0,0,0,0,0,0,0,0,0,0,0,0,0,0,0,0,0,0,0,0,0,0,0,23,23,46,9,10 มิถุนายน 2561
12,12,92010016,วัดศรีสุวรรณาราม,0,0,0,0,6,9,15,1,8,10,18,1,14,19,33,2,7,8,15,1,7,5,12,1,8,7,15,1,11,9,20,1,9,7,16,1,13,3,16,1,55,39,94,6,0,0,0,0,0,0,0,0,0,0,0,0,0,0,0,0,0,0,0,0,0,0,0,0,0,0,0,0,0,0,0,0,0,0,0,0,0,0,0,0,0,0,0,0,69,58,127,8,10 มิถุนายน 2561
13,13,92010017,วัดนานอน,8,7,15,1,5,16,21,1,11,10,21,1,24,33,57,3,17,9,26,1,17,11,28,1,18,14,32,1,12,9,21,1,10,16,26,1,16,10,26,1,90,69,159,6,22,16,38,1,23,11,34,1,15,11,26,1,60,38,98,3,0,0,0,0,0,0,0,0,0,0,0,0,0,0,0,0,0,0,0,0,0,0,0,0,0,0,0,0,174,140,314,12,10 มิถุนายน 2561
14,14,92010023,บ้านบางยาง,10,4,14,1,4,8,12,1,11,9,20,1,25,21,46,3,10,10,20,1,14,13,27,1,13,9,22,1,8,5,13,1,6,9,15,1,9,15,24,1,60,61,121,6,0,0,0,0,0,0,0,0,0,0,0,0,0,0,0,0,0,0,0,0,0,0,0,0,0,0,0,0,0,0,0,0,0,0,0,0,0,0,0,0,0,0,0,0,85,82,167,9,10 มิถุนายน 2561
15,15,92010025,บ้านคลองเต็ง,5,5,10,1,16,7,23,1,14,12,26,1,35,24,59,3,10,19,29,1,9,13,22,1,18,11,29,1,17,18,35,1,15,17,32,1,15,21,36,1,84,99,183,6,17,11,28,1,13,11,24,1,9,10,19,1,39,32,71,3,0,0,0,0,0,0,0,0,0,0,0,0,0,0,0,0,0,0,0,0,0,0,0,0,0,0,0,0,158,155,313,12,10 มิถุนายน 2561
16,16,92010028,วัดทุ่งหินผุด,9,8,17,1,6,4,10,1,6,7,13,1,21,19,40,3,11,8,19,1,5,1,6,1,5,7,12,1,8,5,13,1,10,6,16,1,4,6,10,1,43,33,76,6,0,0,0,0,0,0,0,0,0,0,0,0,0,0,0,0,0,0,0,0,0,0,0,0,0,0,0,0,0,0,0,0,0,0,0,0,0,0,0,0,0,0,0,0,64,52,116,9,10 มิถุนายน 2561
17,17,92010029,บ้านโคกชะแง้,2,1,3,1,5,11,16,1,6,7,13,1,13,19,32,3,10,7,17,1,8,9,17,1,7,8,15,1,7,5,12,1,7,7,14,1,11,6,17,1,50,42,92,6,0,0,0,0,0,0,0,0,0,0,0,0,0,0,0,0,0,0,0,0,0,0,0,0,0,0,0,0,0,0,0,0,0,0,0,0,0,0,0,0,0,0,0,0,63,61,124,9,10 มิถุนายน 2561
18,18,92010031,บ้านหนองเรี้ย,1,3,4,1,7,4,11,1,3,4,7,1,11,11,22,3,6,5,11,1,6,4,10,1,2,7,9,1,7,5,12,1,6,6,12,1,7,7,14,1,34,34,68,6,0,0,0,0,0,0,0,0,0,0,0,0,0,0,0,0,0,0,0,0,0,0,0,0,0,0,0,0,0,0,0,0,0,0,0,0,0,0,0,0,0,0,0,0,45,45,90,9,10 มิถุนายน 2561
19,19,92010032,ต้นบากราษฎร์บำรุง,1,6,7,1,2,2,4,1,2,6,8,1,5,14,19,3,5,3,8,1,12,6,18,1,7,5,12,1,3,4,7,1,3,4,7,1,7,13,20,1,37,35,72,6,0,0,0,0,0,0,0,0,0,0,0,0,0,0,0,0,0,0,0,0,0,0,0,0,0,0,0,0,0,0,0,0,0,0,0,0,0,0,0,0,0,0,0,0,42,49,91,9,10 มิถุนายน 2561
20,20,92010033,วัดขุนสิทธิ์,13,9,22,1,14,9,23,1,14,8,22,1,41,26,67,3,13,7,20,1,10,11,21,1,11,11,22,1,9,5,14,1,7,10,17,1,3,14,17,1,53,58,111,6,10,7,17,1,16,5,21,1,7,7,14,1,33,19,52,3,0,0,0,0,0,0,0,0,0,0,0,0,0,0,0,0,0,0,0,0,0,0,0,0,0,0,0,0,127,103,230,12,10 มิถุนายน 2561
21,21,92010034,เพาะปัญญา ในพระอุปถัมภ์ฯ,7,10,17,1,17,12,29,1,21,13,34,2,45,35,80,4,15,13,28,1,13,19,32,2,16,15,31,2,13,15,28,1,17,18,35,2,17,20,37,2,91,100,191,10,0,0,0,0,0,0,0,0,0,0,0,0,0,0,0,0,0,0,0,0,0,0,0,0,0,0,0,0,0,0,0,0,0,0,0,0,0,0,0,0,0,0,0,0,136,135,271,14,10 มิถุนายน 2561
22,22,92010037,วัดน้ำผุด,8,13,21,1,5,6,11,1,11,11,22,1,24,30,54,3,6,13,19,1,5,8,13,1,8,2,10,1,6,9,15,1,14,11,25,1,8,7,15,1,47,50,97,6,0,0,0,0,0,0,0,0,0,0,0,0,0,0,0,0,0,0,0,0,0,0,0,0,0,0,0,0,0,0,0,0,0,0,0,0,0,0,0,0,0,0,0,0,71,80,151,9,10 มิถุนายน 2561
23,23,92010038,บ้านห้วยเร็จ,4,2,6,1,8,5,13,1,7,7,14,1,19,14,33,3,6,5,11,1,4,5,9,1,10,1,11,1,5,3,8,1,4,4,8,1,9,8,17,1,38,26,64,6,0,0,0,0,0,0,0,0,0,0,0,0,0,0,0,0,0,0,0,0,0,0,0,0,0,0,0,0,0,0,0,0,0,0,0,0,0,0,0,0,0,0,0,0,57,40,97,9,10 มิถุนายน 2561
24,24,92010039,บ้านปากห้วย,0,0,0,0,4,2,6,1,7,2,9,1,11,4,15,2,4,5,9,1,7,3,10,1,7,4,11,1,7,5,12,1,5,2,7,1,3,4,7,1,33,23,56,6,0,0,0,0,0,0,0,0,0,0,0,0,0,0,0,0,0,0,0,0,0,0,0,0,0,0,0,0,0,0,0,0,0,0,0,0,0,0,0,0,0,0,0,0,44,27,71,8,10 มิถุนายน 2561
25,25,92010040,บ้านไร่พรุ,0,0,0,0,20,14,34,1,21,15,36,1,41,29,70,2,21,22,43,2,31,16,47,2,20,11,31,1,20,22,42,2,20,11,31,1,12,14,26,1,124,96,220,9,0,0,0,0,0,0,0,0,0,0,0,0,0,0,0,0,0,0,0,0,0,0,0,0,0,0,0,0,0,0,0,0,0,0,0,0,0,0,0,0,0,0,0,0,165,125,290,11,10 มิถุนายน 2561
26,26,92010041,บ้านทุ่งนา,18,5,23,1,10,10,20,1,10,10,20,1,38,25,63,3,7,7,14,1,12,8,20,1,5,7,12,1,13,9,22,1,10,9,19,1,11,5,16,1,58,45,103,6,0,0,0,0,0,0,0,0,0,0,0,0,0,0,0,0,0,0,0,0,0,0,0,0,0,0,0,0,0,0,0,0,0,0,0,0,0,0,0,0,0,0,0,0,96,70,166,9,10 มิถุนายน 2561
27,27,92010042,บ้านเขาหลัก,1,1,2,1,1,2,3,1,4,2,6,1,6,5,11,3,4,4,8,1,4,1,5,1,4,4,8,1,6,1,7,1,2,6,8,1,1,0,1,1,21,16,37,6,0,0,0,0,0,0,0,0,0,0,0,0,0,0,0,0,0,0,0,0,0,0,0,0,0,0,0,0,0,0,0,0,0,0,0,0,0,0,0,0,0,0,0,0,27,21,48,9,10 มิถุนายน 2561
28,28,92010043,บ้านด่าน,3,1,4,1,1,3,4,1,0,0,0,0,4,4,8,2,3,2,5,1,5,6,11,1,3,4,7,1,3,5,8,1,8,3,11,1,6,3,9,1,28,23,51,6,0,0,0,0,0,0,0,0,0,0,0,0,0,0,0,0,0,0,0,0,0,0,0,0,0,0,0,0,0,0,0,0,0,0,0,0,0,0,0,0,0,0,0,0,32,27,59,8,10 มิถุนายน 2561
29,29,92010044,วัดแจ้ง,0,0,0,0,7,6,13,1,4,3,7,1,11,9,20,2,10,7,17,1,8,5,13,1,6,7,13,1,6,3,9,1,4,4,8,1,5,2,7,1,39,28,67,6,0,0,0,0,0,0,0,0,0,0,0,0,0,0,0,0,0,0,0,0,0,0,0,0,0,0,0,0,0,0,0,0,0,0,0,0,0,0,0,0,0,0,0,0,50,37,87,8,10 มิถุนายน 2561
30,30,92010045,วัดเกาะมะม่วง,9,10,19,1,8,7,15,1,6,6,12,1,23,23,46,3,9,3,12,1,11,6,17,1,6,6,12,1,5,6,11,1,10,5,15,1,5,13,18,1,46,39,85,6,0,0,0,0,0,0,0,0,0,0,0,0,0,0,0,0,0,0,0,0,0,0,0,0,0,0,0,0,0,0,0,0,0,0,0,0,0,0,0,0,0,0,0,0,69,62,131,9,10 มิถุนายน 2561
31,31,92010047,บ้านห้วยไทร,6,10,16,1,5,6,11,1,3,8,11,1,14,24,38,3,4,2,6,1,7,5,12,1,6,9,15,1,8,5,13,1,3,6,9,1,7,5,12,1,35,32,67,6,0,0,0,0,0,0,0,0,0,0,0,0,0,0,0,0,0,0,0,0,0,0,0,0,0,0,0,0,0,0,0,0,0,0,0,0,0,0,0,0,0,0,0,0,49,56,105,9,10 มิถุนายน 2561
32,32,92010048,วัดโพธาราม,6,6,12,1,5,6,11,1,5,4,9,1,16,16,32,3,15,7,22,1,6,5,11,1,5,7,12,1,7,9,16,1,2,5,7,1,4,7,11,1,39,40,79,6,0,0,0,0,0,0,0,0,0,0,0,0,0,0,0,0,0,0,0,0,0,0,0,0,0,0,0,0,0,0,0,0,0,0,0,0,0,0,0,0,0,0,0,0,55,56,111,9,10 มิถุนายน 2561
33,33,92010050,วัดเชี่ยวชาญกิจ,1,3,4,1,2,6,8,1,15,6,21,1,18,15,33,3,7,8,15,1,4,9,13,1,10,3,13,1,3,10,13,1,9,5,14,1,3,9,12,1,36,44,80,6,6,4,10,1,2,4,6,1,5,7,12,1,13,15,28,3,0,0,0,0,0,0,0,0,0,0,0,0,0,0,0,0,0,0,0,0,0,0,0,0,0,0,0,0,67,74,141,12,10 มิถุนายน 2561
34,34,92010051,บ้านปากไพ,1,0,1,1,2,1,3,1,1,2,3,1,4,3,7,3,6,0,6,1,1,1,2,1,1,2,3,1,1,1,2,1,5,2,7,1,2,2,4,1,16,8,24,6,0,0,0,0,0,0,0,0,0,0,0,0,0,0,0,0,0,0,0,0,0,0,0,0,0,0,0,0,0,0,0,0,0,0,0,0,0,0,0,0,0,0,0,0,20,11,31,9,10 มิถุนายน 2561
35,35,92010052,บ้านกลางนา,2,3,5,1,2,3,5,1,5,4,9,1,9,10,19,3,2,2,4,1,6,2,8,1,1,5,6,1,3,3,6,1,4,3,7,1,6,1,7,1,22,16,38,6,0,0,0,0,0,0,0,0,0,0,0,0,0,0,0,0,0,0,0,0,0,0,0,0,0,0,0,0,0,0,0,0,0,0,0,0,0,0,0,0,0,0,0,0,31,26,57,9,10 มิถุนายน 2561
36,36,92010053,บ้านโพรงจระเข้,5,3,8,1,7,4,11,1,9,10,19,1,21,17,38,3,8,10,18,1,2,4,6,1,5,7,12,1,8,9,17,1,7,8,15,1,8,4,12,1,38,42,80,6,0,0,0,0,0,0,0,0,0,0,0,0,0,0,0,0,0,0,0,0,0,0,0,0,0,0,0,0,0,0,0,0,0,0,0,0,0,0,0,0,0,0,0,0,59,59,118,9,10 มิถุนายน 2561
37,37,92010054,วัดโหละคล้า,0,3,3,1,5,6,11,1,4,1,5,1,9,10,19,3,3,0,3,1,6,6,12,1,6,2,8,1,3,6,9,1,8,4,12,1,6,3,9,1,32,21,53,6,0,0,0,0,0,0,0,0,0,0,0,0,0,0,0,0,0,0,0,0,0,0,0,0,0,0,0,0,0,0,0,0,0,0,0,0,0,0,0,0,0,0,0,0,41,31,72,9,10 มิถุนายน 2561
38,38,92010056,วัดอัมพวัน,5,1,6,1,1,1,2,1,3,8,11,1,9,10,19,3,6,7,13,1,8,8,16,1,5,3,8,1,3,3,6,1,12,7,19,1,9,4,13,1,43,32,75,6,0,0,0,0,0,0,0,0,0,0,0,0,0,0,0,0,0,0,0,0,0,0,0,0,0,0,0,0,0,0,0,0,0,0,0,0,0,0,0,0,0,0,0,0,52,42,94,9,10 มิถุนายน 2561
39,39,92010057,บ้านคลองทรายขาว,4,1,5,1,6,0,6,1,5,4,9,1,15,5,20,3,8,4,12,1,1,1,2,1,1,4,5,1,3,5,8,1,6,2,8,1,7,3,10,1,26,19,45,6,0,0,0,0,0,0,0,0,0,0,0,0,0,0,0,0,0,0,0,0,0,0,0,0,0,0,0,0,0,0,0,0,0,0,0,0,0,0,0,0,0,0,0,0,41,24,65,9,10 มิถุนายน 2561
40,40,92010058,บ้านทุ่งนา,1,0,1,1,2,0,2,1,2,0,2,1,5,0,5,3,3,2,5,1,2,0,2,1,4,1,5,1,3,0,3,1,8,1,9,1,1,3,4,1,21,7,28,6,0,0,0,0,0,0,0,0,0,0,0,0,0,0,0,0,0,0,0,0,0,0,0,0,0,0,0,0,0,0,0,0,0,0,0,0,0,0,0,0,0,0,0,0,26,7,33,9,10 มิถุนายน 2561
41,41,92010059,บ้านหนองชวด,3,1,4,1,3,1,4,1,3,3,6,1,9,5,14,3,3,1,4,1,5,2,7,1,1,3,4,1,5,0,5,1,4,3,7,1,2,4,6,1,20,13,33,6,0,0,0,0,0,0,0,0,0,0,0,0,0,0,0,0,0,0,0,0,0,0,0,0,0,0,0,0,0,0,0,0,0,0,0,0,0,0,0,0,0,0,0,0,29,18,47,9,10 มิถุนายน 2561
42,42,92010061,บ้านนาโตง,4,2,6,1,5,4,9,1,16,8,24,1,25,14,39,3,6,3,9,1,5,10,15,1,5,4,9,1,7,4,11,1,11,7,18,1,7,6,13,1,41,34,75,6,0,0,0,0,0,0,0,0,0,0,0,0,0,0,0,0,0,0,0,0,0,0,0,0,0,0,0,0,0,0,0,0,0,0,0,0,0,0,0,0,0,0,0,0,66,48,114,9,10 มิถุนายน 2561
43,43,92010062,บ้านนานิน,0,0,0,0,9,3,12,1,8,5,13,1,17,8,25,2,16,9,25,1,4,6,10,1,7,4,11,1,7,3,10,1,6,7,13,1,10,2,12,1,50,31,81,6,0,0,0,0,0,0,0,0,0,0,0,0,0,0,0,0,0,0,0,0,0,0,0,0,0,0,0,0,0,0,0,0,0,0,0,0,0,0,0,0,0,0,0,0,67,39,106,8,10 มิถุนายน 2561
44,44,92010063,บ้านคลองปะเหลียน,0,0,0,0,7,3,10,1,4,5,9,1,11,8,19,2,2,12,14,1,6,2,8,1,8,8,16,1,5,5,10,1,5,2,7,1,6,5,11,1,32,34,66,6,0,0,0,0,0,0,0,0,0,0,0,0,0,0,0,0,0,0,0,0,0,0,0,0,0,0,0,0,0,0,0,0,0,0,0,0,0,0,0,0,0,0,0,0,43,42,85,8,10 มิถุนายน 2561
45,45,92010064,บ้านท่าบันได,0,0,0,0,9,7,16,1,3,8,11,1,12,15,27,2,11,1,12,1,8,6,14,1,3,9,12,1,7,9,16,1,4,7,11,1,12,6,18,1,45,38,83,6,0,0,0,0,0,0,0,0,0,0,0,0,0,0,0,0,0,0,0,0,0,0,0,0,0,0,0,0,0,0,0,0,0,0,0,0,0,0,0,0,0,0,0,0,57,53,110,8,10 มิถุนายน 2561
46,46,92010065,บ้านควนอินทนินงาม,0,0,0,0,8,6,14,1,8,9,17,1,16,15,31,2,9,5,14,1,6,9,15,1,7,5,12,1,9,3,12,1,17,4,21,1,11,7,18,1,59,33,92,6,0,0,0,0,0,0,0,0,0,0,0,0,0,0,0,0,0,0,0,0,0,0,0,0,0,0,0,0,0,0,0,0,0,0,0,0,0,0,0,0,0,0,0,0,75,48,123,8,10 มิถุนายน 2561
47,47,92010066,บ้านควนเคี่ยม,0,0,0,0,3,3,6,1,4,3,7,1,7,6,13,2,4,5,9,1,7,4,11,1,2,5,7,1,3,4,7,1,4,3,7,1,5,4,9,1,25,25,50,6,0,0,0,0,0,0,0,0,0,0,0,0,0,0,0,0,0,0,0,0,0,0,0,0,0,0,0,0,0,0,0,0,0,0,0,0,0,0,0,0,0,0,0,0,32,31,63,8,10 มิถุนายน 2561
48,48,92010067,บ้านควนยาง,11,6,17,1,13,8,21,1,11,12,23,1,35,26,61,3,15,5,20,1,12,1,13,1,12,7,19,1,9,8,17,1,8,6,14,1,10,11,21,1,66,38,104,6,0,0,0,0,0,0,0,0,0,0,0,0,0,0,0,0,0,0,0,0,0,0,0,0,0,0,0,0,0,0,0,0,0,0,0,0,0,0,0,0,0,0,0,0,101,64,165,9,10 มิถุนายน 2561
49,49,92010068,บ้านควนยวน,6,4,10,1,10,4,14,1,2,0,2,1,18,8,26,3,8,6,14,1,5,7,12,1,5,6,11,1,6,7,13,1,3,4,7,1,4,4,8,1,31,34,65,6,0,0,0,0,0,0,0,0,0,0,0,0,0,0,0,0,0,0,0,0,0,0,0,0,0,0,0,0,0,0,0,0,0,0,0,0,0,0,0,0,0,0,0,0,49,42,91,9,10 มิถุนายน 2561
50,50,92010070,บ้านทุ่งค่าย,7,8,15,1,15,13,28,1,13,19,32,1,35,40,75,3,20,20,40,1,15,15,30,1,11,15,26,1,13,10,23,1,14,11,25,1,17,14,31,1,90,85,175,6,0,0,0,0,0,0,0,0,0,0,0,0,0,0,0,0,0,0,0,0,0,0,0,0,0,0,0,0,0,0,0,0,0,0,0,0,0,0,0,0,0,0,0,0,125,125,250,9,10 มิถุนายน 2561
51,51,92010071,บ้านเขาไม้แก้ว,2,2,4,1,2,1,3,1,7,6,13,1,11,9,20,3,8,5,13,1,6,7,13,1,4,3,7,1,2,4,6,1,9,4,13,1,4,11,15,1,33,34,67,6,0,0,0,0,0,0,0,0,0,0,0,0,0,0,0,0,0,0,0,0,0,0,0,0,0,0,0,0,0,0,0,0,0,0,0,0,0,0,0,0,0,0,0,0,44,43,87,9,10 มิถุนายน 2561
52,52,92010072,บ้านยูงงาม,3,0,3,1,2,3,5,1,4,2,6,1,9,5,14,3,3,1,4,1,3,4,7,1,5,3,8,1,5,3,8,1,3,0,3,1,4,4,8,1,23,15,38,6,0,0,0,0,0,0,0,0,0,0,0,0,0,0,0,0,0,0,0,0,0,0,0,0,0,0,0,0,0,0,0,0,0,0,0,0,0,0,0,0,0,0,0,0,32,20,52,9,10 มิถุนายน 2561
53,53,92010073,วัดหนองเป็ด,7,2,9,1,9,4,13,1,8,5,13,1,24,11,35,3,3,6,9,1,8,2,10,1,4,7,11,1,4,4,8,1,6,3,9,1,8,3,11,1,33,25,58,6,6,5,11,1,8,1,9,1,6,3,9,1,20,9,29,3,0,0,0,0,0,0,0,0,0,0,0,0,0,0,0,0,0,0,0,0,0,0,0,0,0,0,0,0,77,45,122,12,10 มิถุนายน 2561
54,54,92010074,บ้านหนองชุมแสง,2,2,4,1,1,1,2,1,6,3,9,1,9,6,15,3,4,4,8,1,4,3,7,1,3,0,3,1,2,7,9,1,2,1,3,1,3,6,9,1,18,21,39,6,0,0,0,0,0,0,0,0,0,0,0,0,0,0,0,0,0,0,0,0,0,0,0,0,0,0,0,0,0,0,0,0,0,0,0,0,0,0,0,0,0,0,0,0,27,27,54,9,10 มิถุนายน 2561
55,55,92010075,วัดควนนิมิตศิลา,3,5,8,1,8,8,16,1,5,7,12,1,16,20,36,3,4,8,12,1,10,2,12,1,5,7,12,1,8,6,14,1,5,7,12,1,7,13,20,1,39,43,82,6,0,0,0,0,0,0,0,0,0,0,0,0,0,0,0,0,0,0,0,0,0,0,0,0,0,0,0,0,0,0,0,0,0,0,0,0,0,0,0,0,0,0,0,0,55,63,118,9,10 มิถุนายน 2561
56,56,92010076,บ้านไทรงาม,5,3,8,1,13,4,17,1,15,12,27,1,33,19,52,3,10,4,14,1,6,2,8,1,8,6,14,1,8,6,14,1,8,7,15,1,6,1,7,1,46,26,72,6,10,6,16,1,3,4,7,1,7,7,14,1,20,17,37,3,0,0,0,0,0,0,0,0,0,0,0,0,0,0,0,0,0,0,0,0,0,0,0,0,0,0,0,0,99,62,161,12,10 มิถุนายน 2561
57,57,92010077,บ้านลำพิกุล,10,14,24,1,16,12,28,1,9,16,25,1,35,42,77,3,13,12,25,1,9,11,20,1,15,12,27,1,23,12,35,1,12,19,31,1,13,13,26,1,85,79,164,6,0,0,0,0,0,0,0,0,0,0,0,0,0,0,0,0,0,0,0,0,0,0,0,0,0,0,0,0,0,0,0,0,0,0,0,0,0,0,0,0,0,0,0,0,120,121,241,9,10 มิถุนายน 2561
58,58,92010078,บ้านทอนพลา,2,2,4,1,3,3,6,1,1,2,3,1,6,7,13,3,3,2,5,1,2,3,5,1,2,5,7,1,1,2,3,1,3,2,5,1,5,0,5,1,16,14,30,6,0,0,0,0,0,0,0,0,0,0,0,0,0,0,0,0,0,0,0,0,0,0,0,0,0,0,0,0,0,0,0,0,0,0,0,0,0,0,0,0,0,0,0,0,22,21,43,9,10 มิถุนายน 2561
59,59,92010079,บ้านทุ่งศาลา,0,0,0,0,1,4,5,1,1,7,8,1,2,11,13,2,1,3,4,1,6,6,12,1,8,1,9,1,5,4,9,1,4,4,8,1,5,4,9,1,29,22,51,6,0,0,0,0,0,0,0,0,0,0,0,0,0,0,0,0,0,0,0,0,0,0,0,0,0,0,0,0,0,0,0,0,0,0,0,0,0,0,0,0,0,0,0,0,31,33,64,8,10 มิถุนายน 2561
60,60,92010080,บ้านห้วยด้วน,0,0,0,0,2,4,6,1,7,4,11,1,9,8,17,2,1,2,3,1,3,5,8,1,3,2,5,1,4,2,6,1,3,2,5,1,8,1,9,1,22,14,36,6,0,0,0,0,0,0,0,0,0,0,0,0,0,0,0,0,0,0,0,0,0,0,0,0,0,0,0,0,0,0,0,0,0,0,0,0,0,0,0,0,0,0,0,0,31,22,53,8,10 มิถุนายน 2561
61,61,92010081,บ้านในควน,0,0,0,0,4,7,11,1,22,4,26,1,26,11,37,2,9,11,20,1,8,7,15,1,8,5,13,1,5,5,10,1,9,8,17,1,9,7,16,1,48,43,91,6,0,0,0,0,0,0,0,0,0,0,0,0,0,0,0,0,0,0,0,0,0,0,0,0,0,0,0,0,0,0,0,0,0,0,0,0,0,0,0,0,0,0,0,0,74,54,128,8,10 มิถุนายน 2561
62,62,92010082,บ้านทุ่งหนองแห้ง,0,0,0,0,14,16,30,1,17,6,23,1,31,22,53,2,14,18,32,1,17,7,24,1,7,16,23,1,13,9,22,1,13,13,26,1,18,16,34,1,82,79,161,6,0,0,0,0,0,0,0,0,0,0,0,0,0,0,0,0,0,0,0,0,0,0,0,0,0,0,0,0,0,0,0,0,0,0,0,0,0,0,0,0,0,0,0,0,113,101,214,8,10 มิถุนายน 2561
63,63,92010086,บ้านโคกทราย,0,0,0,0,11,14,25,1,14,10,24,1,25,24,49,2,20,12,32,1,10,17,27,1,14,13,27,1,18,17,35,1,12,10,22,1,20,10,30,1,94,79,173,6,0,0,0,0,0,0,0,0,0,0,0,0,0,0,0,0,0,0,0,0,0,0,0,0,0,0,0,0,0,0,0,0,0,0,0,0,0,0,0,0,0,0,0,0,119,103,222,8,10 มิถุนายน 2561
64,64,92010087,บ้านย่านตาขาว,15,19,34,1,30,23,53,2,26,32,58,2,71,74,145,5,80,70,150,4,49,50,99,4,79,60,139,4,71,69,140,4,66,84,150,4,73,86,159,4,418,419,837,24,0,0,0,0,0,0,0,0,0,0,0,0,0,0,0,0,0,0,0,0,0,0,0,0,0,0,0,0,0,0,0,0,0,0,0,0,0,0,0,0,0,0,0,0,489,493,982,29,10 มิถุนายน 2561
65,65,92010088,บ้านนายายหม่อม,5,6,11,1,8,5,13,1,4,4,8,1,17,15,32,3,8,4,12,1,5,5,10,1,5,6,11,1,6,5,11,1,6,7,13,1,7,5,12,1,37,32,69,6,0,0,0,0,0,0,0,0,0,0,0,0,0,0,0,0,0,0,0,0,0,0,0,0,0,0,0,0,0,0,0,0,0,0,0,0,0,0,0,0,0,0,0,0,54,47,101,9,10 มิถุนายน 2561
66,66,92010089,บ้านควนโพธิ์,10,9,19,1,13,17,30,1,14,7,21,1,37,33,70,3,13,7,20,1,12,13,25,1,9,11,20,1,12,15,27,1,10,10,20,1,10,15,25,1,66,71,137,6,0,0,0,0,0,0,0,0,0,0,0,0,0,0,0,0,0,0,0,0,0,0,0,0,0,0,0,0,0,0,0,0,0,0,0,0,0,0,0,0,0,0,0,0,103,104,207,9,10 มิถุนายน 2561
67,67,92010091,วัดชลวาปีวิหาร,4,3,7,1,8,6,14,1,3,2,5,1,15,11,26,3,4,2,6,1,4,2,6,1,2,1,3,1,3,5,8,1,3,3,6,1,3,4,7,1,19,17,36,6,0,0,0,0,0,0,0,0,0,0,0,0,0,0,0,0,0,0,0,0,0,0,0,0,0,0,0,0,0,0,0,0,0,0,0,0,0,0,0,0,0,0,0,0,34,28,62,9,10 มิถุนายน 2561
68,68,92010094,บ้านทุ่งเกาะญวน,2,3,5,1,4,1,5,1,1,0,1,1,7,4,11,3,3,3,6,1,3,4,7,1,0,2,2,1,4,1,5,1,3,4,7,1,4,3,7,1,17,17,34,6,5,3,8,1,3,1,4,1,2,5,7,1,10,9,19,3,0,0,0,0,0,0,0,0,0,0,0,0,0,0,0,0,0,0,0,0,0,0,0,0,0,0,0,0,34,30,64,12,10 มิถุนายน 2561
69,69,92010095,หาดทรายทอง,0,0,0,0,0,0,0,0,11,5,16,1,11,5,16,1,7,11,18,1,13,10,23,1,8,5,13,1,7,8,15,1,10,6,16,1,14,7,21,1,59,47,106,6,14,12,26,1,7,10,17,1,10,3,13,1,31,25,56,3,0,0,0,0,0,0,0,0,0,0,0,0,0,0,0,0,0,0,0,0,0,0,0,0,0,0,0,0,101,77,178,10,10 มิถุนายน 2561
70,70,92010096,บ้านแหลม,0,0,0,0,0,0,0,0,7,5,12,1,7,5,12,1,7,7,14,1,7,6,13,1,2,8,10,1,5,1,6,1,5,4,9,1,5,5,10,1,31,31,62,6,0,0,0,0,0,0,0,0,0,0,0,0,0,0,0,0,0,0,0,0,0,0,0,0,0,0,0,0,0,0,0,0,0,0,0,0,0,0,0,0,0,0,0,0,38,36,74,7,10 มิถุนายน 2561
71,71,92010098,บ้านสามแยก,10,8,18,1,4,4,8,1,7,11,18,1,21,23,44,3,9,5,14,1,4,10,14,1,6,9,15,1,10,5,15,1,9,10,19,1,10,10,20,1,48,49,97,6,0,0,0,0,0,0,0,0,0,0,0,0,0,0,0,0,0,0,0,0,0,0,0,0,0,0,0,0,0,0,0,0,0,0,0,0,0,0,0,0,0,0,0,0,69,72,141,9,10 มิถุนายน 2561
72,72,92010099,บ้านทอนหาน,0,0,0,0,1,10,11,1,3,5,8,1,4,15,19,2,4,3,7,1,10,7,17,1,6,2,8,1,9,4,13,1,4,8,12,1,9,5,14,1,42,29,71,6,0,0,0,0,0,0,0,0,0,0,0,0,0,0,0,0,0,0,0,0,0,0,0,0,0,0,0,0,0,0,0,0,0,0,0,0,0,0,0,0,0,0,0,0,46,44,90,8,10 มิถุนายน 2561
73,73,92010100,บ้านท่าข้าม,2,1,3,1,2,2,4,1,2,4,6,1,6,7,13,3,4,8,12,1,6,6,12,1,8,3,11,1,7,3,10,1,8,6,14,1,1,4,5,1,34,30,64,6,0,0,0,0,0,0,0,0,0,0,0,0,0,0,0,0,0,0,0,0,0,0,0,0,0,0,0,0,0,0,0,0,0,0,0,0,0,0,0,0,0,0,0,0,40,37,77,9,10 มิถุนายน 2561
74,74,92010101,บ้านหยงสตาร์,3,2,5,1,8,11,19,1,4,3,7,1,15,16,31,3,7,3,10,1,6,8,14,1,9,4,13,1,3,6,9,1,7,3,10,1,7,7,14,1,39,31,70,6,0,0,0,0,0,0,0,0,0,0,0,0,0,0,0,0,0,0,0,0,0,0,0,0,0,0,0,0,0,0,0,0,0,0,0,0,0,0,0,0,0,0,0,0,54,47,101,9,10 มิถุนายน 2561
75,75,92010102,ทุ่งรวงทอง,0,0,0,0,3,1,4,1,7,4,11,1,10,5,15,2,7,8,15,1,3,3,6,1,6,3,9,1,4,4,8,1,2,4,6,1,5,6,11,1,27,28,55,6,0,0,0,0,0,0,0,0,0,0,0,0,0,0,0,0,0,0,0,0,0,0,0,0,0,0,0,0,0,0,0,0,0,0,0,0,0,0,0,0,0,0,0,0,37,33,70,8,10 มิถุนายน 2561
76,76,92010103,วัดท่าพญา,0,0,0,0,0,0,0,0,1,3,4,1,1,3,4,1,5,5,10,1,2,4,6,1,1,0,1,1,4,3,7,1,8,3,11,1,3,3,6,1,23,18,41,6,0,0,0,0,0,0,0,0,0,0,0,0,0,0,0,0,0,0,0,0,0,0,0,0,0,0,0,0,0,0,0,0,0,0,0,0,0,0,0,0,0,0,0,0,24,21,45,7,10 มิถุนายน 2561
77,77,92010104,บ้านทุ่งยาว,14,9,23,1,7,14,21,1,9,14,23,1,30,37,67,3,27,37,64,2,31,28,59,2,24,42,66,2,19,28,47,2,30,29,59,2,21,27,48,2,152,191,343,12,0,0,0,0,0,0,0,0,0,0,0,0,0,0,0,0,0,0,0,0,0,0,0,0,0,0,0,0,0,0,0,0,0,0,0,0,0,0,0,0,0,0,0,0,182,228,410,15,10 มิถุนายน 2561
78,78,92010105,บ้านหนองหว้า,0,0,0,0,13,9,22,1,11,6,17,1,24,15,39,2,4,8,12,1,11,8,19,1,7,12,19,1,7,8,15,1,7,10,17,1,10,5,15,1,46,51,97,6,0,0,0,0,0,0,0,0,0,0,0,0,0,0,0,0,0,0,0,0,0,0,0,0,0,0,0,0,0,0,0,0,0,0,0,0,0,0,0,0,0,0,0,0,70,66,136,8,10 มิถุนายน 2561
79,79,92010107,บ้านทุ่งมะขามป้อม,0,0,0,0,9,9,18,1,10,9,19,1,19,18,37,2,10,10,20,1,6,4,10,1,15,6,21,1,3,3,6,1,6,5,11,1,9,10,19,1,49,38,87,6,0,0,0,0,0,0,0,0,0,0,0,0,0,0,0,0,0,0,0,0,0,0,0,0,0,0,0,0,0,0,0,0,0,0,0,0,0,0,0,0,0,0,0,0,68,56,124,8,10 มิถุนายน 2561
80,80,92010108,บ้านยวนโปะ,0,0,0,0,0,0,0,0,5,4,9,1,5,4,9,1,5,7,12,1,7,6,13,1,7,7,14,1,13,6,19,1,5,11,16,1,9,7,16,1,46,44,90,6,0,0,0,0,0,0,0,0,0,0,0,0,0,0,0,0,0,0,0,0,0,0,0,0,0,0,0,0,0,0,0,0,0,0,0,0,0,0,0,0,0,0,0,0,51,48,99,7,10 มิถุนายน 2561
81,81,92010109,บ้านป่าแก่,0,0,0,0,0,0,0,0,5,6,11,1,5,6,11,1,3,7,10,1,6,7,13,1,4,5,9,1,2,8,10,1,3,9,12,1,7,3,10,1,25,39,64,6,0,0,0,0,0,0,0,0,0,0,0,0,0,0,0,0,0,0,0,0,0,0,0,0,0,0,0,0,0,0,0,0,0,0,0,0,0,0,0,0,0,0,0,0,30,45,75,7,10 มิถุนายน 2561
82,82,92010110,บ้านบางด้วน,0,0,0,0,0,0,0,0,13,4,17,1,13,4,17,1,9,11,20,1,14,13,27,1,16,8,24,1,12,11,23,1,10,4,14,1,11,8,19,1,72,55,127,6,0,0,0,0,0,0,0,0,0,0,0,0,0,0,0,0,0,0,0,0,0,0,0,0,0,0,0,0,0,0,0,0,0,0,0,0,0,0,0,0,0,0,0,0,85,59,144,7,10 มิถุนายน 2561
83,83,92010111,วัดควนวิไล,0,0,0,0,0,0,0,0,3,4,7,1,3,4,7,1,8,6,14,1,3,2,5,1,0,2,2,1,5,1,6,1,8,3,11,1,4,2,6,1,28,16,44,6,0,0,0,0,0,0,0,0,0,0,0,0,0,0,0,0,0,0,0,0,0,0,0,0,0,0,0,0,0,0,0,0,0,0,0,0,0,0,0,0,0,0,0,0,31,20,51,7,10 มิถุนายน 2561
84,84,92010113,บ้านหนองยายแม็ม,3,6,9,1,9,12,21,1,12,6,18,1,24,24,48,3,4,7,11,1,7,11,18,1,8,13,21,1,14,6,20,1,10,13,23,1,6,9,15,1,49,59,108,6,0,0,0,0,0,0,0,0,0,0,0,0,0,0,0,0,0,0,0,0,0,0,0,0,0,0,0,0,0,0,0,0,0,0,0,0,0,0,0,0,0,0,0,0,73,83,156,9,10 มิถุนายน 2561
85,85,92010114,บ้านหนองโต๊ะ,0,1,1,1,2,3,5,1,2,6,8,1,4,10,14,3,3,3,6,1,2,3,5,1,3,2,5,1,0,5,5,1,6,7,13,1,4,2,6,1,18,22,40,6,0,0,0,0,0,0,0,0,0,0,0,0,0,0,0,0,0,0,0,0,0,0,0,0,0,0,0,0,0,0,0,0,0,0,0,0,0,0,0,0,0,0,0,0,22,32,54,9,10 มิถุนายน 2561
86,86,92010115,บ้านห้วยม่วง,5,8,13,1,7,9,16,1,13,8,21,1,25,25,50,3,14,6,20,1,8,10,18,1,10,9,19,1,8,7,15,1,4,17,21,1,8,13,21,1,52,62,114,6,0,0,0,0,0,0,0,0,0,0,0,0,0,0,0,0,0,0,0,0,0,0,0,0,0,0,0,0,0,0,0,0,0,0,0,0,0,0,0,0,0,0,0,0,77,87,164,9,10 มิถุนายน 2561
87,87,92010116,บ้านหินคอกควาย,0,0,0,0,6,5,11,1,7,7,14,1,13,12,25,2,6,7,13,1,4,7,11,1,7,8,15,1,7,3,10,1,6,3,9,1,7,5,12,1,37,33,70,6,6,0,6,1,3,7,10,1,4,7,11,1,13,14,27,3,0,0,0,0,0,0,0,0,0,0,0,0,0,0,0,0,0,0,0,0,0,0,0,0,0,0,0,0,63,59,122,11,10 มิถุนายน 2561
88,88,92010117,บ้านหัวควน,0,0,0,0,2,3,5,1,0,2,2,1,2,5,7,2,4,5,9,1,2,2,4,1,1,5,6,1,0,1,1,1,1,4,5,1,4,5,9,1,12,22,34,6,0,0,0,0,0,0,0,0,0,0,0,0,0,0,0,0,0,0,0,0,0,0,0,0,0,0,0,0,0,0,0,0,0,0,0,0,0,0,0,0,0,0,0,0,14,27,41,8,10 มิถุนายน 2561
89,89,92010118,บ้านวังศิลา,5,2,7,1,9,6,15,1,7,4,11,1,21,12,33,3,7,4,11,1,9,6,15,1,8,8,16,1,11,5,16,1,3,4,7,1,9,4,13,1,47,31,78,6,0,0,0,0,0,0,0,0,0,0,0,0,0,0,0,0,0,0,0,0,0,0,0,0,0,0,0,0,0,0,0,0,0,0,0,0,0,0,0,0,0,0,0,0,68,43,111,9,10 มิถุนายน 2561
90,90,92010119,บ้านควนไม้ดำ,3,7,10,1,7,3,10,1,4,3,7,1,14,13,27,3,8,6,14,1,5,8,13,1,4,5,9,1,10,3,13,1,7,7,14,1,7,7,14,1,41,36,77,6,0,0,0,0,0,0,0,0,0,0,0,0,0,0,0,0,0,0,0,0,0,0,0,0,0,0,0,0,0,0,0,0,0,0,0,0,0,0,0,0,0,0,0,0,55,49,104,9,10 มิถุนายน 2561
91,91,92010121,บ้านลำปลอกเหนือ,0,3,3,1,2,0,2,1,3,0,3,1,5,3,8,3,6,11,17,1,11,8,19,1,9,6,15,1,5,5,10,1,7,11,18,1,9,8,17,1,47,49,96,6,0,0,0,0,0,0,0,0,0,0,0,0,0,0,0,0,0,0,0,0,0,0,0,0,0,0,0,0,0,0,0,0,0,0,0,0,0,0,0,0,0,0,0,0,52,52,104,9,10 มิถุนายน 2561
92,92,92010122,บ้านหาดเลา,3,2,5,1,3,2,5,1,3,5,8,1,9,9,18,3,8,9,17,1,5,5,10,1,11,7,18,1,10,3,13,1,14,10,24,1,13,10,23,1,61,44,105,6,0,0,0,0,0,0,0,0,0,0,0,0,0,0,0,0,0,0,0,0,0,0,0,0,0,0,0,0,0,0,0,0,0,0,0,0,0,0,0,0,0,0,0,0,70,53,123,9,10 มิถุนายน 2561
93,93,92010123,บ้านปะเหลียน,7,9,16,1,6,7,13,1,8,9,17,1,21,25,46,3,35,30,65,2,27,24,51,2,29,23,52,2,26,28,54,2,24,24,48,2,32,24,56,2,173,153,326,12,8,5,13,1,7,8,15,1,6,8,14,1,21,21,42,3,0,0,0,0,0,0,0,0,0,0,0,0,0,0,0,0,0,0,0,0,0,0,0,0,0,0,0,0,215,199,414,18,10 มิถุนายน 2561
94,94,92010124,บ้านลำแคลง,6,9,15,1,5,9,14,1,4,5,9,1,15,23,38,3,12,7,19,1,6,7,13,1,8,5,13,1,7,4,11,1,6,11,17,1,10,9,19,1,49,43,92,6,12,6,18,1,7,12,19,1,3,5,8,1,22,23,45,3,0,0,0,0,0,0,0,0,0,0,0,0,0,0,0,0,0,0,0,0,0,0,0,0,0,0,0,0,86,89,175,12,10 มิถุนายน 2561
95,95,92010125,บ้านเขาติง,0,0,0,0,4,9,13,1,10,10,20,1,14,19,33,2,6,7,13,1,7,6,13,1,11,1,12,1,6,5,11,1,3,7,10,1,11,12,23,1,44,38,82,6,0,0,0,0,0,0,0,0,0,0,0,0,0,0,0,0,0,0,0,0,0,0,0,0,0,0,0,0,0,0,0,0,0,0,0,0,0,0,0,0,0,0,0,0,58,57,115,8,10 มิถุนายน 2561
96,96,92010126,บ้านลิพัง,0,0,0,0,6,11,17,1,8,8,16,1,14,19,33,2,14,11,25,1,10,11,21,1,11,12,23,1,5,14,19,1,12,8,20,1,9,14,23,1,61,70,131,6,13,8,21,1,5,3,8,1,1,1,2,1,19,12,31,3,0,0,0,0,0,0,0,0,0,0,0,0,0,0,0,0,0,0,0,0,0,0,0,0,0,0,0,0,94,101,195,11,10 มิถุนายน 2561
97,97,92010127,บ้านทุ่งปาหนัน,0,0,0,0,8,4,12,1,3,8,11,1,11,12,23,2,4,4,8,1,4,3,7,1,6,7,13,1,5,3,8,1,9,6,15,1,4,2,6,1,32,25,57,6,0,0,0,0,0,0,0,0,0,0,0,0,0,0,0,0,0,0,0,0,0,0,0,0,0,0,0,0,0,0,0,0,0,0,0,0,0,0,0,0,0,0,0,0,43,37,80,8,10 มิถุนายน 2561
98,98,92010128,บ้านสุโสะ,1,3,4,1,1,0,1,1,2,1,3,1,4,4,8,3,1,0,1,1,1,1,2,1,4,2,6,1,2,2,4,1,5,1,6,1,1,1,2,1,14,7,21,6,0,0,0,0,0,0,0,0,0,0,0,0,0,0,0,0,0,0,0,0,0,0,0,0,0,0,0,0,0,0,0,0,0,0,0,0,0,0,0,0,0,0,0,0,18,11,29,9,10 มิถุนายน 2561
99,99,92010129,บ้านท่าคลอง,2,1,3,1,3,2,5,1,1,1,2,1,6,4,10,3,0,1,1,1,0,2,2,1,1,2,3,1,1,3,4,1,1,2,3,1,5,3,8,1,8,13,21,6,0,0,0,0,0,0,0,0,0,0,0,0,0,0,0,0,0,0,0,0,0,0,0,0,0,0,0,0,0,0,0,0,0,0,0,0,0,0,0,0,0,0,0,0,14,17,31,9,10 มิถุนายน 2561
100,100,92010130,ทุ่งไทรทอง,2,2,4,1,1,1,2,1,1,1,2,1,4,4,8,3,3,2,5,1,1,2,3,1,2,2,4,1,0,0,0,0,0,4,4,1,1,0,1,1,7,10,17,5,0,0,0,0,0,0,0,0,0,0,0,0,0,0,0,0,0,0,0,0,0,0,0,0,0,0,0,0,0,0,0,0,0,0,0,0,0,0,0,0,0,0,0,0,11,14,25,8,10 มิถุนายน 2561
101,101,92010131,บ้านท่าเทศ,2,0,2,1,3,2,5,1,4,0,4,1,9,2,11,3,2,4,6,1,6,0,6,1,2,3,5,1,5,6,11,1,5,5,10,1,2,5,7,1,22,23,45,6,0,0,0,0,0,0,0,0,0,0,0,0,0,0,0,0,0,0,0,0,0,0,0,0,0,0,0,0,0,0,0,0,0,0,0,0,0,0,0,0,0,0,0,0,31,25,56,9,10 มิถุนายน 2561
102,102,92010132,หนองผักฉีด,5,4,9,1,3,1,4,1,4,0,4,1,12,5,17,3,2,5,7,1,5,3,8,1,5,1,6,1,4,3,7,1,4,3,7,1,6,3,9,1,26,18,44,6,0,0,0,0,0,0,0,0,0,0,0,0,0,0,0,0,0,0,0,0,0,0,0,0,0,0,0,0,0,0,0,0,0,0,0,0,0,0,0,0,0,0,0,0,38,23,61,9,10 มิถุนายน 2561
103,103,92010133,บ้านหนองเจ็ดบาท,0,0,0,0,6,3,9,1,11,8,19,1,17,11,28,2,7,9,16,1,3,7,10,1,9,12,21,1,3,7,10,1,11,9,20,1,12,9,21,1,45,53,98,6,0,0,0,0,0,0,0,0,0,0,0,0,0,0,0,0,0,0,0,0,0,0,0,0,0,0,0,0,0,0,0,0,0,0,0,0,0,0,0,0,0,0,0,0,62,64,126,8,10 มิถุนายน 2561
104,104,92010134,บ้านแหลมสอม,0,0,0,0,3,5,8,1,11,9,20,1,14,14,28,2,7,10,17,1,13,12,25,1,10,15,25,1,11,11,22,1,17,13,30,1,14,10,24,1,72,71,143,6,0,0,0,0,0,0,0,0,0,0,0,0,0,0,0,0,0,0,0,0,0,0,0,0,0,0,0,0,0,0,0,0,0,0,0,0,0,0,0,0,0,0,0,0,86,85,171,8,10 มิถุนายน 2561
105,105,92010135,บ้านนาทุ่ง,0,0,0,0,10,7,17,1,8,11,19,1,18,18,36,2,18,12,30,1,15,13,28,1,10,7,17,1,14,9,23,1,11,13,24,1,11,12,23,1,79,66,145,6,0,0,0,0,0,0,0,0,0,0,0,0,0,0,0,0,0,0,0,0,0,0,0,0,0,0,0,0,0,0,0,0,0,0,0,0,0,0,0,0,0,0,0,0,97,84,181,8,10 มิถุนายน 2561
106,106,92010136,วัดไทรทอง,8,9,17,1,17,22,39,2,26,22,48,2,51,53,104,5,25,18,43,2,27,13,40,2,23,17,40,2,25,16,41,1,12,23,35,1,19,16,35,1,131,103,234,9,0,0,0,0,0,0,0,0,0,0,0,0,0,0,0,0,0,0,0,0,0,0,0,0,0,0,0,0,0,0,0,0,0,0,0,0,0,0,0,0,0,0,0,0,182,156,338,14,10 มิถุนายน 2561
107,107,92010137,วัดนางประหลาด,6,4,10,1,12,6,18,1,8,11,19,1,26,21,47,3,11,6,17,1,8,5,13,1,18,6,24,1,10,3,13,1,13,5,18,1,8,4,12,1,68,29,97,6,0,0,0,0,0,0,0,0,0,0,0,0,0,0,0,0,0,0,0,0,0,0,0,0,0,0,0,0,0,0,0,0,0,0,0,0,0,0,0,0,0,0,0,0,94,50,144,9,10 มิถุนายน 2561
108,108,92010138,บ้านไร่หลวง,3,7,10,1,7,8,15,1,9,10,19,1,19,25,44,3,5,10,15,1,8,7,15,1,10,4,14,1,9,6,15,1,6,10,16,1,5,4,9,1,43,41,84,6,0,0,0,0,0,0,0,0,0,0,0,0,0,0,0,0,0,0,0,0,0,0,0,0,0,0,0,0,0,0,0,0,0,0,0,0,0,0,0,0,0,0,0,0,62,66,128,9,10 มิถุนายน 2561
109,109,92010139,บ้านช่อง,0,0,0,0,6,10,16,1,5,9,14,1,11,19,30,2,3,3,6,1,2,7,9,1,5,3,8,1,7,3,10,1,5,6,11,1,6,8,14,1,28,30,58,6,0,0,0,0,0,0,0,0,0,0,0,0,0,0,0,0,0,0,0,0,0,0,0,0,0,0,0,0,0,0,0,0,0,0,0,0,0,0,0,0,0,0,0,0,39,49,88,8,10 มิถุนายน 2561
110,110,92010140,วัดช่องเปี่ยมราษฎร์,0,0,0,0,10,5,15,1,11,8,19,1,21,13,34,2,6,10,16,1,5,7,12,1,8,10,18,1,10,5,15,1,10,11,21,1,6,10,16,1,45,53,98,6,16,15,31,1,9,5,14,1,7,7,14,1,32,27,59,3,0,0,0,0,0,0,0,0,0,0,0,0,0,0,0,0,0,0,0,0,0,0,0,0,0,0,0,0,98,93,191,11,10 มิถุนายน 2561
111,111,92010141,บ้านห้วยลึก,0,0,0,0,5,8,13,1,7,7,14,1,12,15,27,2,16,10,26,1,8,7,15,1,7,10,17,1,10,12,22,1,15,10,25,1,11,7,18,1,67,56,123,6,0,0,0,0,0,0,0,0,0,0,0,0,0,0,0,0,0,0,0,0,0,0,0,0,0,0,0,0,0,0,0,0,0,0,0,0,0,0,0,0,0,0,0,0,79,71,150,8,10 มิถุนายน 2561
112,112,92010142,วัดธรรมาราม,7,3,10,1,3,9,12,1,1,8,9,1,11,20,31,3,9,2,11,1,15,3,18,1,13,8,21,1,9,9,18,1,17,11,28,1,15,10,25,1,78,43,121,6,17,10,27,1,12,8,20,1,10,9,19,1,39,27,66,3,0,0,0,0,0,0,0,0,0,0,0,0,0,0,0,0,0,0,0,0,0,0,0,0,0,0,0,0,128,90,218,12,10 มิถุนายน 2561
113,113,92010143,บ้านเกาะปุด,9,10,19,1,6,5,11,1,12,8,20,1,27,23,50,3,9,10,19,1,9,9,18,1,8,9,17,1,12,9,21,1,6,7,13,1,8,15,23,1,52,59,111,6,0,0,0,0,0,0,0,0,0,0,0,0,0,0,0,0,0,0,0,0,0,0,0,0,0,0,0,0,0,0,0,0,0,0,0,0,0,0,0,0,0,0,0,0,79,82,161,9,10 มิถุนายน 2561
114,114,92010144,วัดควนสีนวล,14,15,29,1,18,20,38,2,31,23,54,2,63,58,121,5,21,12,33,2,22,21,43,2,18,13,31,1,24,18,42,2,22,14,36,1,17,18,35,1,124,96,220,9,24,22,46,2,12,15,27,1,22,13,35,1,58,50,108,4,0,0,0,0,0,0,0,0,0,0,0,0,0,0,0,0,0,0,0,0,0,0,0,0,0,0,0,0,245,204,449,18,10 มิถุนายน 2561
115,115,92010147,บ้านหนองไทร,8,5,13,1,28,27,55,2,25,32,57,2,61,64,125,5,24,27,51,2,21,24,45,2,27,22,49,2,30,23,53,2,25,21,46,1,25,27,52,2,152,144,296,11,0,0,0,0,0,0,0,0,0,0,0,0,0,0,0,0,0,0,0,0,0,0,0,0,0,0,0,0,0,0,0,0,0,0,0,0,0,0,0,0,0,0,0,0,213,208,421,16,10 มิถุนายน 2561
116,116,92010148,วัดจอมไตร,5,6,11,1,11,7,18,1,16,7,23,1,32,20,52,3,9,7,16,1,10,5,15,1,7,8,15,1,10,10,20,1,14,7,21,1,7,11,18,1,57,48,105,6,0,0,0,0,0,0,0,0,0,0,0,0,0,0,0,0,0,0,0,0,0,0,0,0,0,0,0,0,0,0,0,0,0,0,0,0,0,0,0,0,0,0,0,0,89,68,157,9,10 มิถุนายน 2561
117,117,92010149,ไทรงาม,3,6,9,1,1,4,5,1,10,3,13,1,14,13,27,3,6,6,12,1,3,5,8,1,5,6,11,1,4,6,10,1,10,1,11,1,7,4,11,1,35,28,63,6,0,0,0,0,0,0,0,0,0,0,0,0,0,0,0,0,0,0,0,0,0,0,0,0,0,0,0,0,0,0,0,0,0,0,0,0,0,0,0,0,0,0,0,0,49,41,90,9,10 มิถุนายน 2561
118,118,92010150,บ้านควนสวรรค์,4,3,7,1,13,10,23,1,10,11,21,1,27,24,51,3,10,12,22,1,8,12,20,1,18,17,35,1,8,10,18,1,19,17,36,2,17,21,38,2,80,89,169,8,14,10,24,1,19,10,29,1,12,6,18,1,45,26,71,3,0,0,0,0,0,0,0,0,0,0,0,0,0,0,0,0,0,0,0,0,0,0,0,0,0,0,0,0,152,139,291,14,10 มิถุนายน 2561
119,119,92010151,บ้านคลองลำปริง,3,3,6,1,5,5,10,1,4,6,10,1,12,14,26,3,6,3,9,1,10,9,19,1,14,4,18,1,4,8,12,1,5,9,14,1,12,11,23,1,51,44,95,6,0,0,0,0,0,0,0,0,0,0,0,0,0,0,0,0,0,0,0,0,0,0,0,0,0,0,0,0,0,0,0,0,0,0,0,0,0,0,0,0,0,0,0,0,63,58,121,9,10 มิถุนายน 2561
120,120,92010152,บ้านหนองยวน,3,3,6,1,7,3,10,1,3,9,12,1,13,15,28,3,5,11,16,1,6,5,11,1,9,4,13,1,14,8,22,1,7,4,11,1,9,11,20,1,50,43,93,6,0,0,0,0,0,0,0,0,0,0,0,0,0,0,0,0,0,0,0,0,0,0,0,0,0,0,0,0,0,0,0,0,0,0,0,0,0,0,0,0,0,0,0,0,63,58,121,9,10 มิถุนายน 2561
121,121,92010153,บ้านทุ่งส้มป่อย,4,5,9,1,8,4,12,1,1,4,5,1,13,13,26,3,4,3,7,1,4,3,7,1,3,2,5,1,7,2,9,1,7,7,14,1,5,4,9,1,30,21,51,6,0,0,0,0,0,0,0,0,0,0,0,0,0,0,0,0,0,0,0,0,0,0,0,0,0,0,0,0,0,0,0,0,0,0,0,0,0,0,0,0,0,0,0,0,43,34,77,9,10 มิถุนายน 2561
122,122,92010154,วัดมงคลสถาน,4,3,7,1,6,9,15,1,11,5,16,1,21,17,38,3,6,14,20,1,9,7,16,1,18,10,28,1,11,13,24,1,14,10,24,1,14,13,27,1,72,67,139,6,0,0,0,0,0,0,0,0,0,0,0,0,0,0,0,0,0,0,0,0,0,0,0,0,0,0,0,0,0,0,0,0,0,0,0,0,0,0,0,0,0,0,0,0,93,84,177,9,10 มิถุนายน 2561
123,123,92010155,บ้านตะเสะ,7,6,13,1,10,9,19,1,12,7,19,1,29,22,51,3,9,4,13,1,7,6,13,1,9,7,16,1,4,3,7,1,8,4,12,1,10,3,13,1,47,27,74,6,0,0,0,0,0,0,0,0,0,0,0,0,0,0,0,0,0,0,0,0,0,0,0,0,0,0,0,0,0,0,0,0,0,0,0,0,0,0,0,0,0,0,0,0,76,49,125,9,10 มิถุนายน 2561
124,124,92010156,บ้านนาทะเล,8,10,18,1,12,14,26,1,12,17,29,1,32,41,73,3,21,13,34,2,12,12,24,1,23,21,44,2,22,18,40,2,14,13,27,1,17,18,35,1,109,95,204,9,11,10,21,1,9,9,18,1,9,6,15,1,29,25,54,3,0,0,0,0,0,0,0,0,0,0,0,0,0,0,0,0,0,0,0,0,0,0,0,0,0,0,0,0,170,161,331,15,10 มิถุนายน 2561
125,125,92010157,บ้านโคกรัก,6,5,11,1,5,3,8,1,7,10,17,1,18,18,36,3,9,10,19,1,6,7,13,1,10,7,17,1,6,7,13,1,10,6,16,1,4,6,10,1,45,43,88,6,0,0,0,0,0,0,0,0,0,0,0,0,0,0,0,0,0,0,0,0,0,0,0,0,0,0,0,0,0,0,0,0,0,0,0,0,0,0,0,0,0,0,0,0,63,61,124,9,10 มิถุนายน 2561
126,126,92010158,บ้านทุ่งกอ,0,0,0,0,6,13,19,1,9,9,18,1,15,22,37,2,3,9,12,1,4,6,10,1,13,5,18,1,6,8,14,1,8,9,17,1,10,6,16,1,44,43,87,6,0,0,0,0,0,0,0,0,0,0,0,0,0,0,0,0,0,0,0,0,0,0,0,0,0,0,0,0,0,0,0,0,0,0,0,0,0,0,0,0,0,0,0,0,59,65,124,8,10 มิถุนายน 2561
127,127,92010159,บ้านบ้าหวี,6,2,8,1,10,7,17,1,13,2,15,1,29,11,40,3,7,7,14,1,6,5,11,1,6,4,10,1,9,5,14,1,13,2,15,1,5,5,10,1,46,28,74,6,0,0,0,0,0,0,0,0,0,0,0,0,0,0,0,0,0,0,0,0,0,0,0,0,0,0,0,0,0,0,0,0,0,0,0,0,0,0,0,0,0,0,0,0,75,39,114,9,10 มิถุนายน 2561
128,128,92010160,บ้านบกหัก,4,2,6,1,3,7,10,1,4,5,9,1,11,14,25,3,10,3,13,1,7,5,12,1,8,2,10,1,7,4,11,1,7,6,13,1,4,5,9,1,43,25,68,6,0,0,0,0,0,0,0,0,0,0,0,0,0,0,0,0,0,0,0,0,0,0,0,0,0,0,0,0,0,0,0,0,0,0,0,0,0,0,0,0,0,0,0,0,54,39,93,9,10 มิถุนายน 2561
129,129,92010161,หาดสำราญ,6,3,9,1,3,5,8,1,11,8,19,1,20,16,36,3,10,7,17,1,4,6,10,1,3,4,7,1,3,6,9,1,2,3,5,1,10,5,15,1,32,31,63,6,0,0,0,0,0,0,0,0,0,0,0,0,0,0,0,0,0,0,0,0,0,0,0,0,0,0,0,0,0,0,0,0,0,0,0,0,0,0,0,0,0,0,0,0,52,47,99,9,10 มิถุนายน 2561
130,130,92010162,วัดหนองสมาน,1,2,3,1,15,9,24,1,16,14,30,1,32,25,57,3,18,18,36,2,14,11,25,1,15,7,22,1,15,16,31,1,12,12,24,1,9,10,19,1,83,74,157,7,0,0,0,0,0,0,0,0,0,0,0,0,0,0,0,0,0,0,0,0,0,0,0,0,0,0,0,0,0,0,0,0,0,0,0,0,0,0,0,0,0,0,0,0,115,99,214,10,10 มิถุนายน 2561
131,131,92010163,บ้านปากปรน,1,4,5,1,10,5,15,1,11,11,22,1,22,20,42,3,9,11,20,1,6,4,10,1,9,9,18,1,11,7,18,1,5,7,12,1,9,7,16,1,49,45,94,6,0,0,0,0,0,0,0,0,0,0,0,0,0,0,0,0,0,0,0,0,0,0,0,0,0,0,0,0,0,0,0,0,0,0,0,0,0,0,0,0,0,0,0,0,71,65,136,9,10 มิถุนายน 2561
132,132,92010164,วัดปากปรน,6,5,11,1,2,2,4,1,8,15,23,1,16,22,38,3,8,7,15,1,11,4,15,1,13,10,23,1,9,13,22,1,10,10,20,1,5,8,13,1,56,52,108,6,0,0,0,0,0,0,0,0,0,0,0,0,0,0,0,0,0,0,0,0,0,0,0,0,0,0,0,0,0,0,0,0,0,0,0,0,0,0,0,0,0,0,0,0,72,74,146,9,10 มิถุนายน 2561
